The following modules were not unloaded:
  (Use "module --force purge" to unload all):

  1) modenv/classic
Module gcc/7.1.0, cmake/3.10.1, cpufrequtils/gcc5.3.0, papi/5.5.1, intelmpi/2017.2.174, intel/2017.2.174 unloaded.
Module intel/2017.2.174 loaded.
Module intelmpi/2017.2.174 loaded.
Module papi/5.5.1 loaded.
Module cpufrequtils/gcc5.3.0 loaded.

     Program PWSCF v.6.1 (svn rev. 13369) starts on  3Sep2018 at 12:58:50 

     This program is part of the open-source Quantum ESPRESSO suite
     for quantum simulation of materials; please cite
         "P. Giannozzi et al., J. Phys.:Condens. Matter 21 395502 (2009);
          URL http://www.quantum-espresso.org", 
     in publications or presentations arising from this work. More details at
     http://www.quantum-espresso.org/quote

     Parallel version (MPI), running on     2 processors
     R & G space division:  proc/nbgrp/npool/nimage =       2
     Reading input from pw.in
     Message from routine read_cards :
     DEPRECATED: no units specified in CELL_PARAMETERS card

     Current dimensions of program PWSCF are:
     Max number of different atomic species (ntypx) = 10
     Max number of k-points (npk) =  40000
     Max angular momentum in pseudopotentials (lmaxx) =  3

===================================================================================
=   BAD TERMINATION OF ONE OF YOUR APPLICATION PROCESSES
=   PID 22696 RUNNING AT taurusi5546
=   EXIT CODE: 11
=   CLEANING UP REMAINING PROCESSES
=   YOU CAN IGNORE THE BELOW CLEANUP MESSAGES
===================================================================================

===================================================================================
=   BAD TERMINATION OF ONE OF YOUR APPLICATION PROCESSES
=   PID 22696 RUNNING AT taurusi5546
=   EXIT CODE: 11
=   CLEANING UP REMAINING PROCESSES
=   YOU CAN IGNORE THE BELOW CLEANUP MESSAGES
===================================================================================
   Intel(R) MPI Library troubleshooting guide:
      https://software.intel.com/node/561764
===================================================================================
