# CALLTREE;init_0;Main-PWSCF_0;run-PWSCF_0;run-PWSCF-electrons_function_1;electrons-electrons_scf_function_0;c_bands_function_0
# Job info - HDEEM
JOB ID,17281823.0
Nodelist,taurusi5610
AVG Runtime of function [s],0.0104155
MAX Runtime of function [s],0.0104155
MIN Runtime of function [s],0.0104155
# COUNTERS - HDEEM: 
AVG Energy consumption [J] (Stats structure),4.033
MAX Energy consumption [J] (Stats structure),4.033
MIN Energy consumption [J] (Stats structure),4.033
SUM Energy consumption [J] (Stats structure),4.033
# CALLTREE;init_0;Main-PWSCF_0;run-PWSCF_0;run-PWSCF-electrons_function_1;electrons-electrons_scf_function_0;c_bands_function_0
# Job info - HDEEM
JOB ID,17281823.0
Nodelist,taurusi5610
AVG Runtime of function [s],0.00988422
MAX Runtime of function [s],0.00988422
MIN Runtime of function [s],0.00988422
# COUNTERS - HDEEM: 
AVG Energy consumption [J] (Stats structure),4.418
MAX Energy consumption [J] (Stats structure),4.418
MIN Energy consumption [J] (Stats structure),4.418
SUM Energy consumption [J] (Stats structure),4.418
# CALLTREE;init_0;Main-PWSCF_0;run-PWSCF_0;run-PWSCF-electrons_function_1;electrons-electrons_scf_function_0;c_bands_function_0
# Job info - HDEEM
JOB ID,17281823.0
Nodelist,taurusi5610
AVG Runtime of function [s],0.0105022
MAX Runtime of function [s],0.0105022
MIN Runtime of function [s],0.0105022
# COUNTERS - HDEEM: 
AVG Energy consumption [J] (Stats structure),4.479
MAX Energy consumption [J] (Stats structure),4.479
MIN Energy consumption [J] (Stats structure),4.479
SUM Energy consumption [J] (Stats structure),4.479
# CALLTREE;init_0;Main-PWSCF_0;run-PWSCF_0;run-PWSCF-electrons_function_1;electrons-electrons_scf_function_0;c_bands_function_0
# Job info - HDEEM
JOB ID,17281823.0
Nodelist,taurusi5610
AVG Runtime of function [s],0.0104801
MAX Runtime of function [s],0.0104801
MIN Runtime of function [s],0.0104801
# COUNTERS - HDEEM: 
AVG Energy consumption [J] (Stats structure),4.449
MAX Energy consumption [J] (Stats structure),4.449
MIN Energy consumption [J] (Stats structure),4.449
SUM Energy consumption [J] (Stats structure),4.449
# CALLTREE;init_0;Main-PWSCF_0;run-PWSCF_0;run-PWSCF-electrons_function_1;electrons-electrons_scf_function_0;c_bands_function_1
# Job info - HDEEM
JOB ID,17281823.0
Nodelist,taurusi5610
AVG Runtime of function [s],0.0104616
MAX Runtime of function [s],0.0104616
MIN Runtime of function [s],0.0104616
# COUNTERS - HDEEM: 
AVG Energy consumption [J] (Stats structure),4.308
MAX Energy consumption [J] (Stats structure),4.308
MIN Energy consumption [J] (Stats structure),4.308
SUM Energy consumption [J] (Stats structure),4.308
# CALLTREE;init_0;Main-PWSCF_0;run-PWSCF_0;run-PWSCF-electrons_function_1;electrons-electrons_scf_function_0;c_bands_function_1
# Job info - HDEEM
JOB ID,17281823.0
Nodelist,taurusi5610
AVG Runtime of function [s],0.0104147
MAX Runtime of function [s],0.0104147
MIN Runtime of function [s],0.0104147
# COUNTERS - HDEEM: 
AVG Energy consumption [J] (Stats structure),4.148
MAX Energy consumption [J] (Stats structure),4.148
MIN Energy consumption [J] (Stats structure),4.148
SUM Energy consumption [J] (Stats structure),4.148
# CALLTREE;init_0;Main-PWSCF_0;run-PWSCF_0;run-PWSCF-electrons_function_1;electrons-electrons_scf_function_0;c_bands_function_1
# Job info - HDEEM
JOB ID,17281823.0
Nodelist,taurusi5610
AVG Runtime of function [s],0.00941065
MAX Runtime of function [s],0.00941065
MIN Runtime of function [s],0.00941065
# COUNTERS - HDEEM: 
AVG Energy consumption [J] (Stats structure),4.142
MAX Energy consumption [J] (Stats structure),4.142
MIN Energy consumption [J] (Stats structure),4.142
SUM Energy consumption [J] (Stats structure),4.142
# CALLTREE;init_0;Main-PWSCF_0;run-PWSCF_0;run-PWSCF-electrons_function_1;electrons-electrons_scf_function_0;c_bands_function_1
# Job info - HDEEM
JOB ID,17281823.0
Nodelist,taurusi5610
AVG Runtime of function [s],0.0104398
MAX Runtime of function [s],0.0104398
MIN Runtime of function [s],0.0104398
# COUNTERS - HDEEM: 
AVG Energy consumption [J] (Stats structure),4.48
MAX Energy consumption [J] (Stats structure),4.48
MIN Energy consumption [J] (Stats structure),4.48
SUM Energy consumption [J] (Stats structure),4.48
# CALLTREE;init_0;Main-PWSCF_0;run-PWSCF_0;run-PWSCF-electrons_function_1;electrons-electrons_scf_function_0;c_bands_function_2
# Job info - HDEEM
JOB ID,17281823.0
Nodelist,taurusi5610
AVG Runtime of function [s],0.010412
MAX Runtime of function [s],0.010412
MIN Runtime of function [s],0.010412
# COUNTERS - HDEEM: 
AVG Energy consumption [J] (Stats structure),4.391
MAX Energy consumption [J] (Stats structure),4.391
MIN Energy consumption [J] (Stats structure),4.391
SUM Energy consumption [J] (Stats structure),4.391
# CALLTREE;init_0;Main-PWSCF_0;run-PWSCF_0;run-PWSCF-electrons_function_1;electrons-electrons_scf_function_0;c_bands_function_2
# Job info - HDEEM
JOB ID,17281823.0
Nodelist,taurusi5610
AVG Runtime of function [s],0.0103711
MAX Runtime of function [s],0.0103711
MIN Runtime of function [s],0.0103711
# COUNTERS - HDEEM: 
AVG Energy consumption [J] (Stats structure),4.431
MAX Energy consumption [J] (Stats structure),4.431
MIN Energy consumption [J] (Stats structure),4.431
SUM Energy consumption [J] (Stats structure),4.431
# CALLTREE;init_0;Main-PWSCF_0;run-PWSCF_0;run-PWSCF-electrons_function_1;electrons-electrons_scf_function_0;c_bands_function_2
# Job info - HDEEM
JOB ID,17281823.0
Nodelist,taurusi5610
AVG Runtime of function [s],0.0104569
MAX Runtime of function [s],0.0104569
MIN Runtime of function [s],0.0104569
# COUNTERS - HDEEM: 
AVG Energy consumption [J] (Stats structure),4.433
MAX Energy consumption [J] (Stats structure),4.433
MIN Energy consumption [J] (Stats structure),4.433
SUM Energy consumption [J] (Stats structure),4.433
# CALLTREE;init_0;Main-PWSCF_0;run-PWSCF_0;run-PWSCF-electrons_function_1;electrons-electrons_scf_function_0;c_bands_function_2
# Job info - HDEEM
JOB ID,17281823.0
Nodelist,taurusi5610
AVG Runtime of function [s],0.00750996
MAX Runtime of function [s],0.00750996
MIN Runtime of function [s],0.00750996
# COUNTERS - HDEEM: 
AVG Energy consumption [J] (Stats structure),4.388
MAX Energy consumption [J] (Stats structure),4.388
MIN Energy consumption [J] (Stats structure),4.388
SUM Energy consumption [J] (Stats structure),4.388
# CALLTREE;init_0;Main-PWSCF_0;run-PWSCF_0;run-PWSCF-electrons_function_1;electrons-electrons_scf_function_0;c_bands_function_3
# Job info - HDEEM
JOB ID,17281823.0
Nodelist,taurusi5610
AVG Runtime of function [s],0.0103022
MAX Runtime of function [s],0.0103022
MIN Runtime of function [s],0.0103022
# COUNTERS - HDEEM: 
AVG Energy consumption [J] (Stats structure),4.384
MAX Energy consumption [J] (Stats structure),4.384
MIN Energy consumption [J] (Stats structure),4.384
SUM Energy consumption [J] (Stats structure),4.384
# CALLTREE;init_0;Main-PWSCF_0;run-PWSCF_0;run-PWSCF-electrons_function_1;electrons-electrons_scf_function_0;c_bands_function_3
# Job info - HDEEM
JOB ID,17281823.0
Nodelist,taurusi5610
AVG Runtime of function [s],0.0104255
MAX Runtime of function [s],0.0104255
MIN Runtime of function [s],0.0104255
# COUNTERS - HDEEM: 
AVG Energy consumption [J] (Stats structure),4.46
MAX Energy consumption [J] (Stats structure),4.46
MIN Energy consumption [J] (Stats structure),4.46
SUM Energy consumption [J] (Stats structure),4.46
# CALLTREE;init_0;Main-PWSCF_0;run-PWSCF_0;run-PWSCF-electrons_function_1;electrons-electrons_scf_function_0;c_bands_function_3
# Job info - HDEEM
JOB ID,17281823.0
Nodelist,taurusi5610
AVG Runtime of function [s],0.01044
MAX Runtime of function [s],0.01044
MIN Runtime of function [s],0.01044
# COUNTERS - HDEEM: 
AVG Energy consumption [J] (Stats structure),4.043
MAX Energy consumption [J] (Stats structure),4.043
MIN Energy consumption [J] (Stats structure),4.043
SUM Energy consumption [J] (Stats structure),4.043
# CALLTREE;init_0;Main-PWSCF_0;run-PWSCF_0;run-PWSCF-electrons_function_1;electrons-electrons_scf_function_0;c_bands_function_3
# Job info - HDEEM
JOB ID,17281823.0
Nodelist,taurusi5610
AVG Runtime of function [s],0.0104845
MAX Runtime of function [s],0.0104845
MIN Runtime of function [s],0.0104845
# COUNTERS - HDEEM: 
AVG Energy consumption [J] (Stats structure),4.186
MAX Energy consumption [J] (Stats structure),4.186
MIN Energy consumption [J] (Stats structure),4.186
SUM Energy consumption [J] (Stats structure),4.186
# CALLTREE;init_0;Main-PWSCF_0;run-PWSCF_0;run-PWSCF-electrons_function_1;electrons-electrons_scf_function_0;c_bands_function_4
# Job info - HDEEM
JOB ID,17281823.0
Nodelist,taurusi5610
AVG Runtime of function [s],0.0103623
MAX Runtime of function [s],0.0103623
MIN Runtime of function [s],0.0103623
# COUNTERS - HDEEM: 
AVG Energy consumption [J] (Stats structure),4.409
MAX Energy consumption [J] (Stats structure),4.409
MIN Energy consumption [J] (Stats structure),4.409
SUM Energy consumption [J] (Stats structure),4.409
# CALLTREE;init_0;Main-PWSCF_0;run-PWSCF_0;run-PWSCF-electrons_function_1;electrons-electrons_scf_function_0;c_bands_function_4
# Job info - HDEEM
JOB ID,17281823.0
Nodelist,taurusi5610
AVG Runtime of function [s],0.0103017
MAX Runtime of function [s],0.0103017
MIN Runtime of function [s],0.0103017
# COUNTERS - HDEEM: 
AVG Energy consumption [J] (Stats structure),4.439
MAX Energy consumption [J] (Stats structure),4.439
MIN Energy consumption [J] (Stats structure),4.439
SUM Energy consumption [J] (Stats structure),4.439
# CALLTREE;init_0;Main-PWSCF_0;run-PWSCF_0;run-PWSCF-electrons_function_1;electrons-electrons_scf_function_0;c_bands_function_4
# Job info - HDEEM
JOB ID,17281823.0
Nodelist,taurusi5610
AVG Runtime of function [s],0.0104673
MAX Runtime of function [s],0.0104673
MIN Runtime of function [s],0.0104673
# COUNTERS - HDEEM: 
AVG Energy consumption [J] (Stats structure),4.506
MAX Energy consumption [J] (Stats structure),4.506
MIN Energy consumption [J] (Stats structure),4.506
SUM Energy consumption [J] (Stats structure),4.506
# CALLTREE;init_0;Main-PWSCF_0;run-PWSCF_0;run-PWSCF-electrons_function_1;electrons-electrons_scf_function_0;c_bands_function_4
# Job info - HDEEM
JOB ID,17281823.0
Nodelist,taurusi5610
AVG Runtime of function [s],0.0105172
MAX Runtime of function [s],0.0105172
MIN Runtime of function [s],0.0105172
# COUNTERS - HDEEM: 
AVG Energy consumption [J] (Stats structure),4.312
MAX Energy consumption [J] (Stats structure),4.312
MIN Energy consumption [J] (Stats structure),4.312
SUM Energy consumption [J] (Stats structure),4.312
# CALLTREE;init_0;Main-PWSCF_0;run-PWSCF_0;run-PWSCF-electrons_function_1;electrons-electrons_scf_function_0;c_bands_function_5
# Job info - HDEEM
JOB ID,17281823.0
Nodelist,taurusi5610
AVG Runtime of function [s],0.0102695
MAX Runtime of function [s],0.0102695
MIN Runtime of function [s],0.0102695
# COUNTERS - HDEEM: 
AVG Energy consumption [J] (Stats structure),4.408
MAX Energy consumption [J] (Stats structure),4.408
MIN Energy consumption [J] (Stats structure),4.408
SUM Energy consumption [J] (Stats structure),4.408
# CALLTREE;init_0;Main-PWSCF_0;run-PWSCF_0;run-PWSCF-electrons_function_1;electrons-electrons_scf_function_0;c_bands_function_5
# Job info - HDEEM
JOB ID,17281823.0
Nodelist,taurusi5610
AVG Runtime of function [s],0.0103685
MAX Runtime of function [s],0.0103685
MIN Runtime of function [s],0.0103685
# COUNTERS - HDEEM: 
AVG Energy consumption [J] (Stats structure),4.481
MAX Energy consumption [J] (Stats structure),4.481
MIN Energy consumption [J] (Stats structure),4.481
SUM Energy consumption [J] (Stats structure),4.481
# CALLTREE;init_0;Main-PWSCF_0;run-PWSCF_0;run-PWSCF-electrons_function_1;electrons-electrons_scf_function_0;c_bands_function_5
# Job info - HDEEM
JOB ID,17281823.0
Nodelist,taurusi5610
AVG Runtime of function [s],0.010423
MAX Runtime of function [s],0.010423
MIN Runtime of function [s],0.010423
# COUNTERS - HDEEM: 
AVG Energy consumption [J] (Stats structure),4.492
MAX Energy consumption [J] (Stats structure),4.492
MIN Energy consumption [J] (Stats structure),4.492
SUM Energy consumption [J] (Stats structure),4.492
# CALLTREE;init_0;Main-PWSCF_0;run-PWSCF_0;run-PWSCF-electrons_function_1;electrons-electrons_scf_function_0;c_bands_function_5
# Job info - HDEEM
JOB ID,17281823.0
Nodelist,taurusi5610
AVG Runtime of function [s],0.0103976
MAX Runtime of function [s],0.0103976
MIN Runtime of function [s],0.0103976
# COUNTERS - HDEEM: 
AVG Energy consumption [J] (Stats structure),4.48
MAX Energy consumption [J] (Stats structure),4.48
MIN Energy consumption [J] (Stats structure),4.48
SUM Energy consumption [J] (Stats structure),4.48
# CALLTREE;init_0;Main-PWSCF_0;run-PWSCF_0;run-PWSCF-electrons_function_1;electrons-electrons_scf_function_0;c_bands_function_6
# Job info - HDEEM
JOB ID,17281823.0
Nodelist,taurusi5610
AVG Runtime of function [s],0.0104386
MAX Runtime of function [s],0.0104386
MIN Runtime of function [s],0.0104386
# COUNTERS - HDEEM: 
AVG Energy consumption [J] (Stats structure),4.42
MAX Energy consumption [J] (Stats structure),4.42
MIN Energy consumption [J] (Stats structure),4.42
SUM Energy consumption [J] (Stats structure),4.42
# CALLTREE;init_0;Main-PWSCF_0;run-PWSCF_0;run-PWSCF-electrons_function_1;electrons-electrons_scf_function_0;c_bands_function_6
# Job info - HDEEM
JOB ID,17281823.0
Nodelist,taurusi5610
AVG Runtime of function [s],0.00885357
MAX Runtime of function [s],0.00885357
MIN Runtime of function [s],0.00885357
# COUNTERS - HDEEM: 
AVG Energy consumption [J] (Stats structure),4.771
MAX Energy consumption [J] (Stats structure),4.771
MIN Energy consumption [J] (Stats structure),4.771
SUM Energy consumption [J] (Stats structure),4.771
# CALLTREE;init_0;Main-PWSCF_0;run-PWSCF_0;run-PWSCF-electrons_function_1;electrons-electrons_scf_function_0;c_bands_function_6
# Job info - HDEEM
JOB ID,17281823.0
Nodelist,taurusi5610
AVG Runtime of function [s],0.0104247
MAX Runtime of function [s],0.0104247
MIN Runtime of function [s],0.0104247
# COUNTERS - HDEEM: 
AVG Energy consumption [J] (Stats structure),4.471
MAX Energy consumption [J] (Stats structure),4.471
MIN Energy consumption [J] (Stats structure),4.471
SUM Energy consumption [J] (Stats structure),4.471
# CALLTREE;init_0;Main-PWSCF_0;run-PWSCF_0;run-PWSCF-electrons_function_1;electrons-electrons_scf_function_0;c_bands_function_6
# Job info - HDEEM
JOB ID,17281823.0
Nodelist,taurusi5610
AVG Runtime of function [s],0.0103624
MAX Runtime of function [s],0.0103624
MIN Runtime of function [s],0.0103624
# COUNTERS - HDEEM: 
AVG Energy consumption [J] (Stats structure),4.201
MAX Energy consumption [J] (Stats structure),4.201
MIN Energy consumption [J] (Stats structure),4.201
SUM Energy consumption [J] (Stats structure),4.201
# CALLTREE;init_0;Main-PWSCF_0;run-PWSCF_0;run-PWSCF-electrons_function_1;electrons-electrons_scf_function_0;c_bands_function_7
# Job info - HDEEM
JOB ID,17281823.0
Nodelist,taurusi5610
AVG Runtime of function [s],0.00898045
MAX Runtime of function [s],0.00898045
MIN Runtime of function [s],0.00898045
# COUNTERS - HDEEM: 
AVG Energy consumption [J] (Stats structure),3.874
MAX Energy consumption [J] (Stats structure),3.874
MIN Energy consumption [J] (Stats structure),3.874
SUM Energy consumption [J] (Stats structure),3.874
# CALLTREE;init_0;Main-PWSCF_0;run-PWSCF_0;run-PWSCF-electrons_function_1;electrons-electrons_scf_function_0;c_bands_function_7
# Job info - HDEEM
JOB ID,17281823.0
Nodelist,taurusi5610
AVG Runtime of function [s],0.0121391
MAX Runtime of function [s],0.0121391
MIN Runtime of function [s],0.0121391
# COUNTERS - HDEEM: 
AVG Energy consumption [J] (Stats structure),4.829
MAX Energy consumption [J] (Stats structure),4.829
MIN Energy consumption [J] (Stats structure),4.829
SUM Energy consumption [J] (Stats structure),4.829
# CALLTREE;init_0;Main-PWSCF_0;run-PWSCF_0;run-PWSCF-electrons_function_1;electrons-electrons_scf_function_0;c_bands_function_7
# Job info - HDEEM
JOB ID,17281823.0
Nodelist,taurusi5610
AVG Runtime of function [s],0.0104284
MAX Runtime of function [s],0.0104284
MIN Runtime of function [s],0.0104284
# COUNTERS - HDEEM: 
AVG Energy consumption [J] (Stats structure),4.411
MAX Energy consumption [J] (Stats structure),4.411
MIN Energy consumption [J] (Stats structure),4.411
SUM Energy consumption [J] (Stats structure),4.411
# CALLTREE;init_0;Main-PWSCF_0;run-PWSCF_0;run-PWSCF-electrons_function_1;electrons-electrons_scf_function_0;c_bands_function_7
# Job info - HDEEM
JOB ID,17281823.0
Nodelist,taurusi5610
AVG Runtime of function [s],0.0104796
MAX Runtime of function [s],0.0104796
MIN Runtime of function [s],0.0104796
# COUNTERS - HDEEM: 
AVG Energy consumption [J] (Stats structure),4.503
MAX Energy consumption [J] (Stats structure),4.503
MIN Energy consumption [J] (Stats structure),4.503
SUM Energy consumption [J] (Stats structure),4.503
# CALLTREE;init_0;Main-PWSCF_0;run-PWSCF_0;run-PWSCF-electrons_function_1;electrons-electrons_scf_function_0;c_bands_function_8
# Job info - HDEEM
JOB ID,17281823.0
Nodelist,taurusi5610
AVG Runtime of function [s],0.0153224
MAX Runtime of function [s],0.0153224
MIN Runtime of function [s],0.0153224
# COUNTERS - HDEEM: 
AVG Energy consumption [J] (Stats structure),5.669
MAX Energy consumption [J] (Stats structure),5.669
MIN Energy consumption [J] (Stats structure),5.669
SUM Energy consumption [J] (Stats structure),5.669
# CALLTREE;init_0;Main-PWSCF_0;run-PWSCF_0;run-PWSCF-electrons_function_1;electrons-electrons_scf_function_0;c_bands_function_8
# Job info - HDEEM
JOB ID,17281823.0
Nodelist,taurusi5610
AVG Runtime of function [s],0.010428
MAX Runtime of function [s],0.010428
MIN Runtime of function [s],0.010428
# COUNTERS - HDEEM: 
AVG Energy consumption [J] (Stats structure),4.193
MAX Energy consumption [J] (Stats structure),4.193
MIN Energy consumption [J] (Stats structure),4.193
SUM Energy consumption [J] (Stats structure),4.193
# CALLTREE;init_0;Main-PWSCF_0;run-PWSCF_0;run-PWSCF-electrons_function_1;electrons-electrons_scf_function_0;c_bands_function_8
# Job info - HDEEM
JOB ID,17281823.0
Nodelist,taurusi5610
AVG Runtime of function [s],0.0104744
MAX Runtime of function [s],0.0104744
MIN Runtime of function [s],0.0104744
# COUNTERS - HDEEM: 
AVG Energy consumption [J] (Stats structure),4.515
MAX Energy consumption [J] (Stats structure),4.515
MIN Energy consumption [J] (Stats structure),4.515
SUM Energy consumption [J] (Stats structure),4.515
# CALLTREE;init_0;Main-PWSCF_0;run-PWSCF_0;run-PWSCF-electrons_function_1;electrons-electrons_scf_function_0;c_bands_function_8
# Job info - HDEEM
JOB ID,17281823.0
Nodelist,taurusi5610
AVG Runtime of function [s],0.0103223
MAX Runtime of function [s],0.0103223
MIN Runtime of function [s],0.0103223
# COUNTERS - HDEEM: 
AVG Energy consumption [J] (Stats structure),4.488
MAX Energy consumption [J] (Stats structure),4.488
MIN Energy consumption [J] (Stats structure),4.488
SUM Energy consumption [J] (Stats structure),4.488
# CALLTREE;init_0;Main-PWSCF_0;run-PWSCF_0;run-PWSCF-electrons_function_1;electrons-electrons_scf_function_0;c_bands_function_9
# Job info - HDEEM
JOB ID,17281823.0
Nodelist,taurusi5610
AVG Runtime of function [s],0.0117456
MAX Runtime of function [s],0.0117456
MIN Runtime of function [s],0.0117456
# COUNTERS - HDEEM: 
AVG Energy consumption [J] (Stats structure),4.707
MAX Energy consumption [J] (Stats structure),4.707
MIN Energy consumption [J] (Stats structure),4.707
SUM Energy consumption [J] (Stats structure),4.707
# CALLTREE;init_0;Main-PWSCF_0;run-PWSCF_0;run-PWSCF-electrons_function_1;electrons-electrons_scf_function_0;c_bands_function_9
# Job info - HDEEM
JOB ID,17281823.0
Nodelist,taurusi5610
AVG Runtime of function [s],0.0103701
MAX Runtime of function [s],0.0103701
MIN Runtime of function [s],0.0103701
# COUNTERS - HDEEM: 
AVG Energy consumption [J] (Stats structure),4.453
MAX Energy consumption [J] (Stats structure),4.453
MIN Energy consumption [J] (Stats structure),4.453
SUM Energy consumption [J] (Stats structure),4.453
# CALLTREE;init_0;Main-PWSCF_0;run-PWSCF_0;run-PWSCF-electrons_function_1;electrons-electrons_scf_function_0;c_bands_function_9
# Job info - HDEEM
JOB ID,17281823.0
Nodelist,taurusi5610
AVG Runtime of function [s],0.0103094
MAX Runtime of function [s],0.0103094
MIN Runtime of function [s],0.0103094
# COUNTERS - HDEEM: 
AVG Energy consumption [J] (Stats structure),4.512
MAX Energy consumption [J] (Stats structure),4.512
MIN Energy consumption [J] (Stats structure),4.512
SUM Energy consumption [J] (Stats structure),4.512
# CALLTREE;init_0;Main-PWSCF_0;run-PWSCF_0;run-PWSCF-electrons_function_1;electrons-electrons_scf_function_0;c_bands_function_9
# Job info - HDEEM
JOB ID,17281823.0
Nodelist,taurusi5610
AVG Runtime of function [s],0.0103027
MAX Runtime of function [s],0.0103027
MIN Runtime of function [s],0.0103027
# COUNTERS - HDEEM: 
AVG Energy consumption [J] (Stats structure),4.054
MAX Energy consumption [J] (Stats structure),4.054
MIN Energy consumption [J] (Stats structure),4.054
SUM Energy consumption [J] (Stats structure),4.054
# CALLTREE;init_0;Main-PWSCF_0;run-PWSCF_0;run-PWSCF-electrons_function_1;electrons-electrons_scf_function_0;c_bands_function_10
# Job info - HDEEM
JOB ID,17281823.0
Nodelist,taurusi5610
AVG Runtime of function [s],0.0104795
MAX Runtime of function [s],0.0104795
MIN Runtime of function [s],0.0104795
# COUNTERS - HDEEM: 
AVG Energy consumption [J] (Stats structure),4.399
MAX Energy consumption [J] (Stats structure),4.399
MIN Energy consumption [J] (Stats structure),4.399
SUM Energy consumption [J] (Stats structure),4.399
# CALLTREE;init_0;Main-PWSCF_0;run-PWSCF_0;run-PWSCF-electrons_function_1;electrons-electrons_scf_function_0;c_bands_function_10
# Job info - HDEEM
JOB ID,17281823.0
Nodelist,taurusi5610
AVG Runtime of function [s],0.0104207
MAX Runtime of function [s],0.0104207
MIN Runtime of function [s],0.0104207
# COUNTERS - HDEEM: 
AVG Energy consumption [J] (Stats structure),4.341
MAX Energy consumption [J] (Stats structure),4.341
MIN Energy consumption [J] (Stats structure),4.341
SUM Energy consumption [J] (Stats structure),4.341
# CALLTREE;init_0;Main-PWSCF_0;run-PWSCF_0;run-PWSCF-electrons_function_1;electrons-electrons_scf_function_0;c_bands_function_10
# Job info - HDEEM
JOB ID,17281823.0
Nodelist,taurusi5610
AVG Runtime of function [s],0.0104318
MAX Runtime of function [s],0.0104318
MIN Runtime of function [s],0.0104318
# COUNTERS - HDEEM: 
AVG Energy consumption [J] (Stats structure),4.492
MAX Energy consumption [J] (Stats structure),4.492
MIN Energy consumption [J] (Stats structure),4.492
SUM Energy consumption [J] (Stats structure),4.492
# CALLTREE;init_0;Main-PWSCF_0;run-PWSCF_0;run-PWSCF-electrons_function_1;electrons-electrons_scf_function_0;c_bands_function_10
# Job info - HDEEM
JOB ID,17281823.0
Nodelist,taurusi5610
AVG Runtime of function [s],0.0105022
MAX Runtime of function [s],0.0105022
MIN Runtime of function [s],0.0105022
# COUNTERS - HDEEM: 
AVG Energy consumption [J] (Stats structure),4.457
MAX Energy consumption [J] (Stats structure),4.457
MIN Energy consumption [J] (Stats structure),4.457
SUM Energy consumption [J] (Stats structure),4.457
# CALLTREE;init_0;Main-PWSCF_0;run-PWSCF_0;run-PWSCF-electrons_function_1;electrons-electrons_scf_function_0;c_bands_function_11
# Job info - HDEEM
JOB ID,17281823.0
Nodelist,taurusi5610
AVG Runtime of function [s],0.0107947
MAX Runtime of function [s],0.0107947
MIN Runtime of function [s],0.0107947
# COUNTERS - HDEEM: 
AVG Energy consumption [J] (Stats structure),4.715
MAX Energy consumption [J] (Stats structure),4.715
MIN Energy consumption [J] (Stats structure),4.715
SUM Energy consumption [J] (Stats structure),4.715
# CALLTREE;init_0;Main-PWSCF_0;run-PWSCF_0;run-PWSCF-electrons_function_1;electrons-electrons_scf_function_0;c_bands_function_11
# Job info - HDEEM
JOB ID,17281823.0
Nodelist,taurusi5610
AVG Runtime of function [s],0.0103484
MAX Runtime of function [s],0.0103484
MIN Runtime of function [s],0.0103484
# COUNTERS - HDEEM: 
AVG Energy consumption [J] (Stats structure),4.514
MAX Energy consumption [J] (Stats structure),4.514
MIN Energy consumption [J] (Stats structure),4.514
SUM Energy consumption [J] (Stats structure),4.514
# CALLTREE;init_0;Main-PWSCF_0;run-PWSCF_0;run-PWSCF-electrons_function_1;electrons-electrons_scf_function_0;c_bands_function_11
# Job info - HDEEM
JOB ID,17281823.0
Nodelist,taurusi5610
AVG Runtime of function [s],0.0102789
MAX Runtime of function [s],0.0102789
MIN Runtime of function [s],0.0102789
# COUNTERS - HDEEM: 
AVG Energy consumption [J] (Stats structure),4.522
MAX Energy consumption [J] (Stats structure),4.522
MIN Energy consumption [J] (Stats structure),4.522
SUM Energy consumption [J] (Stats structure),4.522
# CALLTREE;init_0;Main-PWSCF_0;run-PWSCF_0;run-PWSCF-electrons_function_1;electrons-electrons_scf_function_0;c_bands_function_11
# Job info - HDEEM
JOB ID,17281823.0
Nodelist,taurusi5610
AVG Runtime of function [s],0.0104786
MAX Runtime of function [s],0.0104786
MIN Runtime of function [s],0.0104786
# COUNTERS - HDEEM: 
AVG Energy consumption [J] (Stats structure),4.505
MAX Energy consumption [J] (Stats structure),4.505
MIN Energy consumption [J] (Stats structure),4.505
SUM Energy consumption [J] (Stats structure),4.505
# CALLTREE;init_0;Main-PWSCF_0;run-PWSCF_0;run-PWSCF-electrons_function_1;electrons-electrons_scf_function_0;c_bands_function_12
# Job info - HDEEM
JOB ID,17281823.0
Nodelist,taurusi5610
AVG Runtime of function [s],0.0101784
MAX Runtime of function [s],0.0101784
MIN Runtime of function [s],0.0101784
# COUNTERS - HDEEM: 
AVG Energy consumption [J] (Stats structure),4.428
MAX Energy consumption [J] (Stats structure),4.428
MIN Energy consumption [J] (Stats structure),4.428
SUM Energy consumption [J] (Stats structure),4.428
# CALLTREE;init_0;Main-PWSCF_0;run-PWSCF_0;run-PWSCF-electrons_function_1;electrons-electrons_scf_function_0;c_bands_function_12
# Job info - HDEEM
JOB ID,17281823.0
Nodelist,taurusi5610
AVG Runtime of function [s],0.0103959
MAX Runtime of function [s],0.0103959
MIN Runtime of function [s],0.0103959
# COUNTERS - HDEEM: 
AVG Energy consumption [J] (Stats structure),4.499
MAX Energy consumption [J] (Stats structure),4.499
MIN Energy consumption [J] (Stats structure),4.499
SUM Energy consumption [J] (Stats structure),4.499
# CALLTREE;init_0;Main-PWSCF_0;run-PWSCF_0;run-PWSCF-electrons_function_1;electrons-electrons_scf_function_0;c_bands_function_12
# Job info - HDEEM
JOB ID,17281823.0
Nodelist,taurusi5610
AVG Runtime of function [s],0.0103959
MAX Runtime of function [s],0.0103959
MIN Runtime of function [s],0.0103959
# COUNTERS - HDEEM: 
AVG Energy consumption [J] (Stats structure),4.475
MAX Energy consumption [J] (Stats structure),4.475
MIN Energy consumption [J] (Stats structure),4.475
SUM Energy consumption [J] (Stats structure),4.475
# CALLTREE;init_0;Main-PWSCF_0;run-PWSCF_0;run-PWSCF-electrons_function_1;electrons-electrons_scf_function_0;c_bands_function_12
# Job info - HDEEM
JOB ID,17281823.0
Nodelist,taurusi5610
AVG Runtime of function [s],0.0104172
MAX Runtime of function [s],0.0104172
MIN Runtime of function [s],0.0104172
# COUNTERS - HDEEM: 
AVG Energy consumption [J] (Stats structure),4.485
MAX Energy consumption [J] (Stats structure),4.485
MIN Energy consumption [J] (Stats structure),4.485
SUM Energy consumption [J] (Stats structure),4.485
# CALLTREE;init_0;Main-PWSCF_0;run-PWSCF_0;run-PWSCF-electrons_function_1;electrons-electrons_scf_function_0;c_bands_function_13
# Job info - HDEEM
JOB ID,17281823.0
Nodelist,taurusi5610
AVG Runtime of function [s],0.0104243
MAX Runtime of function [s],0.0104243
MIN Runtime of function [s],0.0104243
# COUNTERS - HDEEM: 
AVG Energy consumption [J] (Stats structure),4.435
MAX Energy consumption [J] (Stats structure),4.435
MIN Energy consumption [J] (Stats structure),4.435
SUM Energy consumption [J] (Stats structure),4.435
# CALLTREE;init_0;Main-PWSCF_0;run-PWSCF_0;run-PWSCF-electrons_function_1;electrons-electrons_scf_function_0;c_bands_function_13
# Job info - HDEEM
JOB ID,17281823.0
Nodelist,taurusi5610
AVG Runtime of function [s],0.0104179
MAX Runtime of function [s],0.0104179
MIN Runtime of function [s],0.0104179
# COUNTERS - HDEEM: 
AVG Energy consumption [J] (Stats structure),4.379
MAX Energy consumption [J] (Stats structure),4.379
MIN Energy consumption [J] (Stats structure),4.379
SUM Energy consumption [J] (Stats structure),4.379
# CALLTREE;init_0;Main-PWSCF_0;run-PWSCF_0;run-PWSCF-electrons_function_1;electrons-electrons_scf_function_0;c_bands_function_13
# Job info - HDEEM
JOB ID,17281823.0
Nodelist,taurusi5610
AVG Runtime of function [s],0.0104412
MAX Runtime of function [s],0.0104412
MIN Runtime of function [s],0.0104412
# COUNTERS - HDEEM: 
AVG Energy consumption [J] (Stats structure),4.505
MAX Energy consumption [J] (Stats structure),4.505
MIN Energy consumption [J] (Stats structure),4.505
SUM Energy consumption [J] (Stats structure),4.505
# CALLTREE;init_0;Main-PWSCF_0;run-PWSCF_0;run-PWSCF-electrons_function_1;electrons-electrons_scf_function_0;c_bands_function_13
# Job info - HDEEM
JOB ID,17281823.0
Nodelist,taurusi5610
AVG Runtime of function [s],0.010444
MAX Runtime of function [s],0.010444
MIN Runtime of function [s],0.010444
# COUNTERS - HDEEM: 
AVG Energy consumption [J] (Stats structure),4.47
MAX Energy consumption [J] (Stats structure),4.47
MIN Energy consumption [J] (Stats structure),4.47
SUM Energy consumption [J] (Stats structure),4.47
# CALLTREE;init_0;Main-PWSCF_0;run-PWSCF_0;run-PWSCF-electrons_function_1;electrons-electrons_scf_function_0;c_bands_function_14
# Job info - HDEEM
JOB ID,17281823.0
Nodelist,taurusi5610
AVG Runtime of function [s],0.0104263
MAX Runtime of function [s],0.0104263
MIN Runtime of function [s],0.0104263
# COUNTERS - HDEEM: 
AVG Energy consumption [J] (Stats structure),4.412
MAX Energy consumption [J] (Stats structure),4.412
MIN Energy consumption [J] (Stats structure),4.412
SUM Energy consumption [J] (Stats structure),4.412
# CALLTREE;init_0;Main-PWSCF_0;run-PWSCF_0;run-PWSCF-electrons_function_1;electrons-electrons_scf_function_0;c_bands_function_14
# Job info - HDEEM
JOB ID,17281823.0
Nodelist,taurusi5610
AVG Runtime of function [s],0.0104109
MAX Runtime of function [s],0.0104109
MIN Runtime of function [s],0.0104109
# COUNTERS - HDEEM: 
AVG Energy consumption [J] (Stats structure),4.516
MAX Energy consumption [J] (Stats structure),4.516
MIN Energy consumption [J] (Stats structure),4.516
SUM Energy consumption [J] (Stats structure),4.516
# CALLTREE;init_0;Main-PWSCF_0;run-PWSCF_0;run-PWSCF-electrons_function_1;electrons-electrons_scf_function_0;c_bands_function_14
# Job info - HDEEM
JOB ID,17281823.0
Nodelist,taurusi5610
AVG Runtime of function [s],0.0104603
MAX Runtime of function [s],0.0104603
MIN Runtime of function [s],0.0104603
# COUNTERS - HDEEM: 
AVG Energy consumption [J] (Stats structure),4.472
MAX Energy consumption [J] (Stats structure),4.472
MIN Energy consumption [J] (Stats structure),4.472
SUM Energy consumption [J] (Stats structure),4.472
# CALLTREE;init_0;Main-PWSCF_0;run-PWSCF_0;run-PWSCF-electrons_function_1;electrons-electrons_scf_function_0;c_bands_function_14
# Job info - HDEEM
JOB ID,17281823.0
Nodelist,taurusi5610
AVG Runtime of function [s],0.0104682
MAX Runtime of function [s],0.0104682
MIN Runtime of function [s],0.0104682
# COUNTERS - HDEEM: 
AVG Energy consumption [J] (Stats structure),4.468
MAX Energy consumption [J] (Stats structure),4.468
MIN Energy consumption [J] (Stats structure),4.468
SUM Energy consumption [J] (Stats structure),4.468
# CALLTREE;init_0;Main-PWSCF_0;run-PWSCF_0;run-PWSCF-electrons_function_1;electrons-electrons_scf_function_0;c_bands_function_15
# Job info - HDEEM
JOB ID,17281823.0
Nodelist,taurusi5610
AVG Runtime of function [s],0.01047
MAX Runtime of function [s],0.01047
MIN Runtime of function [s],0.01047
# COUNTERS - HDEEM: 
AVG Energy consumption [J] (Stats structure),4.426
MAX Energy consumption [J] (Stats structure),4.426
MIN Energy consumption [J] (Stats structure),4.426
SUM Energy consumption [J] (Stats structure),4.426
# CALLTREE;init_0;Main-PWSCF_0;run-PWSCF_0;run-PWSCF-electrons_function_1;electrons-electrons_scf_function_0;c_bands_function_15
# Job info - HDEEM
JOB ID,17281823.0
Nodelist,taurusi5610
AVG Runtime of function [s],0.0111383
MAX Runtime of function [s],0.0111383
MIN Runtime of function [s],0.0111383
# COUNTERS - HDEEM: 
AVG Energy consumption [J] (Stats structure),4.683
MAX Energy consumption [J] (Stats structure),4.683
MIN Energy consumption [J] (Stats structure),4.683
SUM Energy consumption [J] (Stats structure),4.683
# CALLTREE;init_0;Main-PWSCF_0;run-PWSCF_0;run-PWSCF-electrons_function_1;electrons-electrons_scf_function_0;c_bands_function_15
# Job info - HDEEM
JOB ID,17281823.0
Nodelist,taurusi5610
AVG Runtime of function [s],0.010428
MAX Runtime of function [s],0.010428
MIN Runtime of function [s],0.010428
# COUNTERS - HDEEM: 
AVG Energy consumption [J] (Stats structure),4.452
MAX Energy consumption [J] (Stats structure),4.452
MIN Energy consumption [J] (Stats structure),4.452
SUM Energy consumption [J] (Stats structure),4.452
# CALLTREE;init_0;Main-PWSCF_0;run-PWSCF_0;run-PWSCF-electrons_function_1;electrons-electrons_scf_function_0;c_bands_function_15
# Job info - HDEEM
JOB ID,17281823.0
Nodelist,taurusi5610
AVG Runtime of function [s],0.0104786
MAX Runtime of function [s],0.0104786
MIN Runtime of function [s],0.0104786
# COUNTERS - HDEEM: 
AVG Energy consumption [J] (Stats structure),4.461
MAX Energy consumption [J] (Stats structure),4.461
MIN Energy consumption [J] (Stats structure),4.461
SUM Energy consumption [J] (Stats structure),4.461
# CALLTREE;init_1;Main-PWSCF_0;run-PWSCF_0;run-PWSCF-electrons_function_1;electrons-electrons_scf_function_0;c_bands_function_0
# Job info - HDEEM
JOB ID,17281896.0
Nodelist,taurusi5610
AVG Runtime of function [s],0.0103464
MAX Runtime of function [s],0.0103464
MIN Runtime of function [s],0.0103464
# COUNTERS - HDEEM: 
AVG Energy consumption [J] (Stats structure),4.333
MAX Energy consumption [J] (Stats structure),4.333
MIN Energy consumption [J] (Stats structure),4.333
SUM Energy consumption [J] (Stats structure),4.333
# CALLTREE;init_1;Main-PWSCF_0;run-PWSCF_0;run-PWSCF-electrons_function_1;electrons-electrons_scf_function_0;c_bands_function_0
# Job info - HDEEM
JOB ID,17281896.0
Nodelist,taurusi5610
AVG Runtime of function [s],0.0103781
MAX Runtime of function [s],0.0103781
MIN Runtime of function [s],0.0103781
# COUNTERS - HDEEM: 
AVG Energy consumption [J] (Stats structure),4.493
MAX Energy consumption [J] (Stats structure),4.493
MIN Energy consumption [J] (Stats structure),4.493
SUM Energy consumption [J] (Stats structure),4.493
# CALLTREE;init_1;Main-PWSCF_0;run-PWSCF_0;run-PWSCF-electrons_function_1;electrons-electrons_scf_function_0;c_bands_function_0
# Job info - HDEEM
JOB ID,17281896.0
Nodelist,taurusi5610
AVG Runtime of function [s],0.010398
MAX Runtime of function [s],0.010398
MIN Runtime of function [s],0.010398
# COUNTERS - HDEEM: 
AVG Energy consumption [J] (Stats structure),4.464
MAX Energy consumption [J] (Stats structure),4.464
MIN Energy consumption [J] (Stats structure),4.464
SUM Energy consumption [J] (Stats structure),4.464
# CALLTREE;init_1;Main-PWSCF_0;run-PWSCF_0;run-PWSCF-electrons_function_1;electrons-electrons_scf_function_0;c_bands_function_0
# Job info - HDEEM
JOB ID,17281896.0
Nodelist,taurusi5610
AVG Runtime of function [s],0.0104274
MAX Runtime of function [s],0.0104274
MIN Runtime of function [s],0.0104274
# COUNTERS - HDEEM: 
AVG Energy consumption [J] (Stats structure),4.435
MAX Energy consumption [J] (Stats structure),4.435
MIN Energy consumption [J] (Stats structure),4.435
SUM Energy consumption [J] (Stats structure),4.435
# CALLTREE;init_1;Main-PWSCF_0;run-PWSCF_0;run-PWSCF-electrons_function_1;electrons-electrons_scf_function_0;c_bands_function_1
# Job info - HDEEM
JOB ID,17281896.0
Nodelist,taurusi5610
AVG Runtime of function [s],0.010454
MAX Runtime of function [s],0.010454
MIN Runtime of function [s],0.010454
# COUNTERS - HDEEM: 
AVG Energy consumption [J] (Stats structure),4.311
MAX Energy consumption [J] (Stats structure),4.311
MIN Energy consumption [J] (Stats structure),4.311
SUM Energy consumption [J] (Stats structure),4.311
# CALLTREE;init_1;Main-PWSCF_0;run-PWSCF_0;run-PWSCF-electrons_function_1;electrons-electrons_scf_function_0;c_bands_function_1
# Job info - HDEEM
JOB ID,17281896.0
Nodelist,taurusi5610
AVG Runtime of function [s],0.0104337
MAX Runtime of function [s],0.0104337
MIN Runtime of function [s],0.0104337
# COUNTERS - HDEEM: 
AVG Energy consumption [J] (Stats structure),4.482
MAX Energy consumption [J] (Stats structure),4.482
MIN Energy consumption [J] (Stats structure),4.482
SUM Energy consumption [J] (Stats structure),4.482
# CALLTREE;init_1;Main-PWSCF_0;run-PWSCF_0;run-PWSCF-electrons_function_1;electrons-electrons_scf_function_0;c_bands_function_1
# Job info - HDEEM
JOB ID,17281896.0
Nodelist,taurusi5610
AVG Runtime of function [s],0.0104986
MAX Runtime of function [s],0.0104986
MIN Runtime of function [s],0.0104986
# COUNTERS - HDEEM: 
AVG Energy consumption [J] (Stats structure),4.476
MAX Energy consumption [J] (Stats structure),4.476
MIN Energy consumption [J] (Stats structure),4.476
SUM Energy consumption [J] (Stats structure),4.476
# CALLTREE;init_1;Main-PWSCF_0;run-PWSCF_0;run-PWSCF-electrons_function_1;electrons-electrons_scf_function_0;c_bands_function_1
# Job info - HDEEM
JOB ID,17281896.0
Nodelist,taurusi5610
AVG Runtime of function [s],0.0104556
MAX Runtime of function [s],0.0104556
MIN Runtime of function [s],0.0104556
# COUNTERS - HDEEM: 
AVG Energy consumption [J] (Stats structure),4.495
MAX Energy consumption [J] (Stats structure),4.495
MIN Energy consumption [J] (Stats structure),4.495
SUM Energy consumption [J] (Stats structure),4.495
# CALLTREE;init_1;Main-PWSCF_0;run-PWSCF_0;run-PWSCF-electrons_function_1;electrons-electrons_scf_function_0;c_bands_function_2
# Job info - HDEEM
JOB ID,17281896.0
Nodelist,taurusi5610
AVG Runtime of function [s],0.0102924
MAX Runtime of function [s],0.0102924
MIN Runtime of function [s],0.0102924
# COUNTERS - HDEEM: 
AVG Energy consumption [J] (Stats structure),4.421
MAX Energy consumption [J] (Stats structure),4.421
MIN Energy consumption [J] (Stats structure),4.421
SUM Energy consumption [J] (Stats structure),4.421
# CALLTREE;init_1;Main-PWSCF_0;run-PWSCF_0;run-PWSCF-electrons_function_1;electrons-electrons_scf_function_0;c_bands_function_2
# Job info - HDEEM
JOB ID,17281896.0
Nodelist,taurusi5610
AVG Runtime of function [s],0.0103767
MAX Runtime of function [s],0.0103767
MIN Runtime of function [s],0.0103767
# COUNTERS - HDEEM: 
AVG Energy consumption [J] (Stats structure),4.497
MAX Energy consumption [J] (Stats structure),4.497
MIN Energy consumption [J] (Stats structure),4.497
SUM Energy consumption [J] (Stats structure),4.497
# CALLTREE;init_1;Main-PWSCF_0;run-PWSCF_0;run-PWSCF-electrons_function_1;electrons-electrons_scf_function_0;c_bands_function_2
# Job info - HDEEM
JOB ID,17281896.0
Nodelist,taurusi5610
AVG Runtime of function [s],0.010391
MAX Runtime of function [s],0.010391
MIN Runtime of function [s],0.010391
# COUNTERS - HDEEM: 
AVG Energy consumption [J] (Stats structure),4.496
MAX Energy consumption [J] (Stats structure),4.496
MIN Energy consumption [J] (Stats structure),4.496
SUM Energy consumption [J] (Stats structure),4.496
# CALLTREE;init_1;Main-PWSCF_0;run-PWSCF_0;run-PWSCF-electrons_function_1;electrons-electrons_scf_function_0;c_bands_function_2
# Job info - HDEEM
JOB ID,17281896.0
Nodelist,taurusi5610
AVG Runtime of function [s],0.0104089
MAX Runtime of function [s],0.0104089
MIN Runtime of function [s],0.0104089
# COUNTERS - HDEEM: 
AVG Energy consumption [J] (Stats structure),4.427
MAX Energy consumption [J] (Stats structure),4.427
MIN Energy consumption [J] (Stats structure),4.427
SUM Energy consumption [J] (Stats structure),4.427
# CALLTREE;init_1;Main-PWSCF_0;run-PWSCF_0;run-PWSCF-electrons_function_1;electrons-electrons_scf_function_0;c_bands_function_3
# Job info - HDEEM
JOB ID,17281896.0
Nodelist,taurusi5610
AVG Runtime of function [s],0.010491
MAX Runtime of function [s],0.010491
MIN Runtime of function [s],0.010491
# COUNTERS - HDEEM: 
AVG Energy consumption [J] (Stats structure),4.399
MAX Energy consumption [J] (Stats structure),4.399
MIN Energy consumption [J] (Stats structure),4.399
SUM Energy consumption [J] (Stats structure),4.399
# CALLTREE;init_1;Main-PWSCF_0;run-PWSCF_0;run-PWSCF-electrons_function_1;electrons-electrons_scf_function_0;c_bands_function_3
# Job info - HDEEM
JOB ID,17281896.0
Nodelist,taurusi5610
AVG Runtime of function [s],0.010454
MAX Runtime of function [s],0.010454
MIN Runtime of function [s],0.010454
# COUNTERS - HDEEM: 
AVG Energy consumption [J] (Stats structure),4.448
MAX Energy consumption [J] (Stats structure),4.448
MIN Energy consumption [J] (Stats structure),4.448
SUM Energy consumption [J] (Stats structure),4.448
# CALLTREE;init_1;Main-PWSCF_0;run-PWSCF_0;run-PWSCF-electrons_function_1;electrons-electrons_scf_function_0;c_bands_function_3
# Job info - HDEEM
JOB ID,17281896.0
Nodelist,taurusi5610
AVG Runtime of function [s],0.0104241
MAX Runtime of function [s],0.0104241
MIN Runtime of function [s],0.0104241
# COUNTERS - HDEEM: 
AVG Energy consumption [J] (Stats structure),4.454
MAX Energy consumption [J] (Stats structure),4.454
MIN Energy consumption [J] (Stats structure),4.454
SUM Energy consumption [J] (Stats structure),4.454
# CALLTREE;init_1;Main-PWSCF_0;run-PWSCF_0;run-PWSCF-electrons_function_1;electrons-electrons_scf_function_0;c_bands_function_3
# Job info - HDEEM
JOB ID,17281896.0
Nodelist,taurusi5610
AVG Runtime of function [s],0.0104532
MAX Runtime of function [s],0.0104532
MIN Runtime of function [s],0.0104532
# COUNTERS - HDEEM: 
AVG Energy consumption [J] (Stats structure),4.451
MAX Energy consumption [J] (Stats structure),4.451
MIN Energy consumption [J] (Stats structure),4.451
SUM Energy consumption [J] (Stats structure),4.451
# CALLTREE;init_1;Main-PWSCF_0;run-PWSCF_0;run-PWSCF-electrons_function_1;electrons-electrons_scf_function_0;c_bands_function_4
# Job info - HDEEM
JOB ID,17281896.0
Nodelist,taurusi5610
AVG Runtime of function [s],0.0104946
MAX Runtime of function [s],0.0104946
MIN Runtime of function [s],0.0104946
# COUNTERS - HDEEM: 
AVG Energy consumption [J] (Stats structure),4.393
MAX Energy consumption [J] (Stats structure),4.393
MIN Energy consumption [J] (Stats structure),4.393
SUM Energy consumption [J] (Stats structure),4.393
# CALLTREE;init_1;Main-PWSCF_0;run-PWSCF_0;run-PWSCF-electrons_function_1;electrons-electrons_scf_function_0;c_bands_function_4
# Job info - HDEEM
JOB ID,17281896.0
Nodelist,taurusi5610
AVG Runtime of function [s],0.00701544
MAX Runtime of function [s],0.00701544
MIN Runtime of function [s],0.00701544
# COUNTERS - HDEEM: 
AVG Energy consumption [J] (Stats structure),4.615
MAX Energy consumption [J] (Stats structure),4.615
MIN Energy consumption [J] (Stats structure),4.615
SUM Energy consumption [J] (Stats structure),4.615
# CALLTREE;init_1;Main-PWSCF_0;run-PWSCF_0;run-PWSCF-electrons_function_1;electrons-electrons_scf_function_0;c_bands_function_4
# Job info - HDEEM
JOB ID,17281896.0
Nodelist,taurusi5610
AVG Runtime of function [s],0.010371
MAX Runtime of function [s],0.010371
MIN Runtime of function [s],0.010371
# COUNTERS - HDEEM: 
AVG Energy consumption [J] (Stats structure),4.187
MAX Energy consumption [J] (Stats structure),4.187
MIN Energy consumption [J] (Stats structure),4.187
SUM Energy consumption [J] (Stats structure),4.187
# CALLTREE;init_1;Main-PWSCF_0;run-PWSCF_0;run-PWSCF-electrons_function_1;electrons-electrons_scf_function_0;c_bands_function_4
# Job info - HDEEM
JOB ID,17281896.0
Nodelist,taurusi5610
AVG Runtime of function [s],0.0104273
MAX Runtime of function [s],0.0104273
MIN Runtime of function [s],0.0104273
# COUNTERS - HDEEM: 
AVG Energy consumption [J] (Stats structure),4.439
MAX Energy consumption [J] (Stats structure),4.439
MIN Energy consumption [J] (Stats structure),4.439
SUM Energy consumption [J] (Stats structure),4.439
# CALLTREE;init_1;Main-PWSCF_0;run-PWSCF_0;run-PWSCF-electrons_function_1;electrons-electrons_scf_function_0;c_bands_function_5
# Job info - HDEEM
JOB ID,17281896.0
Nodelist,taurusi5610
AVG Runtime of function [s],0.00474613
MAX Runtime of function [s],0.00474613
MIN Runtime of function [s],0.00474613
# COUNTERS - HDEEM: 
AVG Energy consumption [J] (Stats structure),4.922
MAX Energy consumption [J] (Stats structure),4.922
MIN Energy consumption [J] (Stats structure),4.922
SUM Energy consumption [J] (Stats structure),4.922
# CALLTREE;init_1;Main-PWSCF_0;run-PWSCF_0;run-PWSCF-electrons_function_1;electrons-electrons_scf_function_0;c_bands_function_5
# Job info - HDEEM
JOB ID,17281896.0
Nodelist,taurusi5610
AVG Runtime of function [s],0.0104255
MAX Runtime of function [s],0.0104255
MIN Runtime of function [s],0.0104255
# COUNTERS - HDEEM: 
AVG Energy consumption [J] (Stats structure),4.488
MAX Energy consumption [J] (Stats structure),4.488
MIN Energy consumption [J] (Stats structure),4.488
SUM Energy consumption [J] (Stats structure),4.488
# CALLTREE;init_1;Main-PWSCF_0;run-PWSCF_0;run-PWSCF-electrons_function_1;electrons-electrons_scf_function_0;c_bands_function_5
# Job info - HDEEM
JOB ID,17281896.0
Nodelist,taurusi5610
AVG Runtime of function [s],0.0104809
MAX Runtime of function [s],0.0104809
MIN Runtime of function [s],0.0104809
# COUNTERS - HDEEM: 
AVG Energy consumption [J] (Stats structure),4.478
MAX Energy consumption [J] (Stats structure),4.478
MIN Energy consumption [J] (Stats structure),4.478
SUM Energy consumption [J] (Stats structure),4.478
# CALLTREE;init_1;Main-PWSCF_0;run-PWSCF_0;run-PWSCF-electrons_function_1;electrons-electrons_scf_function_0;c_bands_function_5
# Job info - HDEEM
JOB ID,17281896.0
Nodelist,taurusi5610
AVG Runtime of function [s],0.0104637
MAX Runtime of function [s],0.0104637
MIN Runtime of function [s],0.0104637
# COUNTERS - HDEEM: 
AVG Energy consumption [J] (Stats structure),4.49
MAX Energy consumption [J] (Stats structure),4.49
MIN Energy consumption [J] (Stats structure),4.49
SUM Energy consumption [J] (Stats structure),4.49
# CALLTREE;init_1;Main-PWSCF_0;run-PWSCF_0;run-PWSCF-electrons_function_1;electrons-electrons_scf_function_0;c_bands_function_6
# Job info - HDEEM
JOB ID,17281896.0
Nodelist,taurusi5610
AVG Runtime of function [s],0.0104386
MAX Runtime of function [s],0.0104386
MIN Runtime of function [s],0.0104386
# COUNTERS - HDEEM: 
AVG Energy consumption [J] (Stats structure),4.432
MAX Energy consumption [J] (Stats structure),4.432
MIN Energy consumption [J] (Stats structure),4.432
SUM Energy consumption [J] (Stats structure),4.432
# CALLTREE;init_1;Main-PWSCF_0;run-PWSCF_0;run-PWSCF-electrons_function_1;electrons-electrons_scf_function_0;c_bands_function_6
# Job info - HDEEM
JOB ID,17281896.0
Nodelist,taurusi5610
AVG Runtime of function [s],0.0103708
MAX Runtime of function [s],0.0103708
MIN Runtime of function [s],0.0103708
# COUNTERS - HDEEM: 
AVG Energy consumption [J] (Stats structure),4.494
MAX Energy consumption [J] (Stats structure),4.494
MIN Energy consumption [J] (Stats structure),4.494
SUM Energy consumption [J] (Stats structure),4.494
# CALLTREE;init_1;Main-PWSCF_0;run-PWSCF_0;run-PWSCF-electrons_function_1;electrons-electrons_scf_function_0;c_bands_function_6
# Job info - HDEEM
JOB ID,17281896.0
Nodelist,taurusi5610
AVG Runtime of function [s],0.0102908
MAX Runtime of function [s],0.0102908
MIN Runtime of function [s],0.0102908
# COUNTERS - HDEEM: 
AVG Energy consumption [J] (Stats structure),4.459
MAX Energy consumption [J] (Stats structure),4.459
MIN Energy consumption [J] (Stats structure),4.459
SUM Energy consumption [J] (Stats structure),4.459
# CALLTREE;init_1;Main-PWSCF_0;run-PWSCF_0;run-PWSCF-electrons_function_1;electrons-electrons_scf_function_0;c_bands_function_6
# Job info - HDEEM
JOB ID,17281896.0
Nodelist,taurusi5610
AVG Runtime of function [s],0.0103255
MAX Runtime of function [s],0.0103255
MIN Runtime of function [s],0.0103255
# COUNTERS - HDEEM: 
AVG Energy consumption [J] (Stats structure),4.517
MAX Energy consumption [J] (Stats structure),4.517
MIN Energy consumption [J] (Stats structure),4.517
SUM Energy consumption [J] (Stats structure),4.517
# CALLTREE;init_1;Main-PWSCF_0;run-PWSCF_0;run-PWSCF-electrons_function_1;electrons-electrons_scf_function_0;c_bands_function_7
# Job info - HDEEM
JOB ID,17281896.0
Nodelist,taurusi5610
AVG Runtime of function [s],0.0104515
MAX Runtime of function [s],0.0104515
MIN Runtime of function [s],0.0104515
# COUNTERS - HDEEM: 
AVG Energy consumption [J] (Stats structure),4.111
MAX Energy consumption [J] (Stats structure),4.111
MIN Energy consumption [J] (Stats structure),4.111
SUM Energy consumption [J] (Stats structure),4.111
# CALLTREE;init_1;Main-PWSCF_0;run-PWSCF_0;run-PWSCF-electrons_function_1;electrons-electrons_scf_function_0;c_bands_function_7
# Job info - HDEEM
JOB ID,17281896.0
Nodelist,taurusi5610
AVG Runtime of function [s],0.0120504
MAX Runtime of function [s],0.0120504
MIN Runtime of function [s],0.0120504
# COUNTERS - HDEEM: 
AVG Energy consumption [J] (Stats structure),5.152
MAX Energy consumption [J] (Stats structure),5.152
MIN Energy consumption [J] (Stats structure),5.152
SUM Energy consumption [J] (Stats structure),5.152
# CALLTREE;init_1;Main-PWSCF_0;run-PWSCF_0;run-PWSCF-electrons_function_1;electrons-electrons_scf_function_0;c_bands_function_7
# Job info - HDEEM
JOB ID,17281896.0
Nodelist,taurusi5610
AVG Runtime of function [s],0.0103565
MAX Runtime of function [s],0.0103565
MIN Runtime of function [s],0.0103565
# COUNTERS - HDEEM: 
AVG Energy consumption [J] (Stats structure),4.473
MAX Energy consumption [J] (Stats structure),4.473
MIN Energy consumption [J] (Stats structure),4.473
SUM Energy consumption [J] (Stats structure),4.473
# CALLTREE;init_1;Main-PWSCF_0;run-PWSCF_0;run-PWSCF-electrons_function_1;electrons-electrons_scf_function_0;c_bands_function_7
# Job info - HDEEM
JOB ID,17281896.0
Nodelist,taurusi5610
AVG Runtime of function [s],0.0104486
MAX Runtime of function [s],0.0104486
MIN Runtime of function [s],0.0104486
# COUNTERS - HDEEM: 
AVG Energy consumption [J] (Stats structure),4.51
MAX Energy consumption [J] (Stats structure),4.51
MIN Energy consumption [J] (Stats structure),4.51
SUM Energy consumption [J] (Stats structure),4.51
# CALLTREE;init_1;Main-PWSCF_0;run-PWSCF_0;run-PWSCF-electrons_function_1;electrons-electrons_scf_function_0;c_bands_function_8
# Job info - HDEEM
JOB ID,17281896.0
Nodelist,taurusi5610
AVG Runtime of function [s],0.0151975
MAX Runtime of function [s],0.0151975
MIN Runtime of function [s],0.0151975
# COUNTERS - HDEEM: 
AVG Energy consumption [J] (Stats structure),5.383
MAX Energy consumption [J] (Stats structure),5.383
MIN Energy consumption [J] (Stats structure),5.383
SUM Energy consumption [J] (Stats structure),5.383
# CALLTREE;init_1;Main-PWSCF_0;run-PWSCF_0;run-PWSCF-electrons_function_1;electrons-electrons_scf_function_0;c_bands_function_8
# Job info - HDEEM
JOB ID,17281896.0
Nodelist,taurusi5610
AVG Runtime of function [s],0.0102703
MAX Runtime of function [s],0.0102703
MIN Runtime of function [s],0.0102703
# COUNTERS - HDEEM: 
AVG Energy consumption [J] (Stats structure),4.49
MAX Energy consumption [J] (Stats structure),4.49
MIN Energy consumption [J] (Stats structure),4.49
SUM Energy consumption [J] (Stats structure),4.49
# CALLTREE;init_1;Main-PWSCF_0;run-PWSCF_0;run-PWSCF-electrons_function_1;electrons-electrons_scf_function_0;c_bands_function_8
# Job info - HDEEM
JOB ID,17281896.0
Nodelist,taurusi5610
AVG Runtime of function [s],0.0104725
MAX Runtime of function [s],0.0104725
MIN Runtime of function [s],0.0104725
# COUNTERS - HDEEM: 
AVG Energy consumption [J] (Stats structure),4.504
MAX Energy consumption [J] (Stats structure),4.504
MIN Energy consumption [J] (Stats structure),4.504
SUM Energy consumption [J] (Stats structure),4.504
# CALLTREE;init_1;Main-PWSCF_0;run-PWSCF_0;run-PWSCF-electrons_function_1;electrons-electrons_scf_function_0;c_bands_function_8
# Job info - HDEEM
JOB ID,17281896.0
Nodelist,taurusi5610
AVG Runtime of function [s],0.0104606
MAX Runtime of function [s],0.0104606
MIN Runtime of function [s],0.0104606
# COUNTERS - HDEEM: 
AVG Energy consumption [J] (Stats structure),4.46
MAX Energy consumption [J] (Stats structure),4.46
MIN Energy consumption [J] (Stats structure),4.46
SUM Energy consumption [J] (Stats structure),4.46
# CALLTREE;init_1;Main-PWSCF_0;run-PWSCF_0;run-PWSCF-electrons_function_1;electrons-electrons_scf_function_0;c_bands_function_9
# Job info - HDEEM
JOB ID,17281896.0
Nodelist,taurusi5610
AVG Runtime of function [s],0.0117399
MAX Runtime of function [s],0.0117399
MIN Runtime of function [s],0.0117399
# COUNTERS - HDEEM: 
AVG Energy consumption [J] (Stats structure),4.725
MAX Energy consumption [J] (Stats structure),4.725
MIN Energy consumption [J] (Stats structure),4.725
SUM Energy consumption [J] (Stats structure),4.725
# CALLTREE;init_1;Main-PWSCF_0;run-PWSCF_0;run-PWSCF-electrons_function_1;electrons-electrons_scf_function_0;c_bands_function_9
# Job info - HDEEM
JOB ID,17281896.0
Nodelist,taurusi5610
AVG Runtime of function [s],0.0104905
MAX Runtime of function [s],0.0104905
MIN Runtime of function [s],0.0104905
# COUNTERS - HDEEM: 
AVG Energy consumption [J] (Stats structure),4.505
MAX Energy consumption [J] (Stats structure),4.505
MIN Energy consumption [J] (Stats structure),4.505
SUM Energy consumption [J] (Stats structure),4.505
# CALLTREE;init_1;Main-PWSCF_0;run-PWSCF_0;run-PWSCF-electrons_function_1;electrons-electrons_scf_function_0;c_bands_function_9
# Job info - HDEEM
JOB ID,17281896.0
Nodelist,taurusi5610
AVG Runtime of function [s],0.0104574
MAX Runtime of function [s],0.0104574
MIN Runtime of function [s],0.0104574
# COUNTERS - HDEEM: 
AVG Energy consumption [J] (Stats structure),4.499
MAX Energy consumption [J] (Stats structure),4.499
MIN Energy consumption [J] (Stats structure),4.499
SUM Energy consumption [J] (Stats structure),4.499
# CALLTREE;init_1;Main-PWSCF_0;run-PWSCF_0;run-PWSCF-electrons_function_1;electrons-electrons_scf_function_0;c_bands_function_9
# Job info - HDEEM
JOB ID,17281896.0
Nodelist,taurusi5610
AVG Runtime of function [s],0.0104921
MAX Runtime of function [s],0.0104921
MIN Runtime of function [s],0.0104921
# COUNTERS - HDEEM: 
AVG Energy consumption [J] (Stats structure),4.501
MAX Energy consumption [J] (Stats structure),4.501
MIN Energy consumption [J] (Stats structure),4.501
SUM Energy consumption [J] (Stats structure),4.501
# CALLTREE;init_1;Main-PWSCF_0;run-PWSCF_0;run-PWSCF-electrons_function_1;electrons-electrons_scf_function_0;c_bands_function_10
# Job info - HDEEM
JOB ID,17281896.0
Nodelist,taurusi5610
AVG Runtime of function [s],0.010403
MAX Runtime of function [s],0.010403
MIN Runtime of function [s],0.010403
# COUNTERS - HDEEM: 
AVG Energy consumption [J] (Stats structure),4.414
MAX Energy consumption [J] (Stats structure),4.414
MIN Energy consumption [J] (Stats structure),4.414
SUM Energy consumption [J] (Stats structure),4.414
# CALLTREE;init_1;Main-PWSCF_0;run-PWSCF_0;run-PWSCF-electrons_function_1;electrons-electrons_scf_function_0;c_bands_function_10
# Job info - HDEEM
JOB ID,17281896.0
Nodelist,taurusi5610
AVG Runtime of function [s],0.0103759
MAX Runtime of function [s],0.0103759
MIN Runtime of function [s],0.0103759
# COUNTERS - HDEEM: 
AVG Energy consumption [J] (Stats structure),4.518
MAX Energy consumption [J] (Stats structure),4.518
MIN Energy consumption [J] (Stats structure),4.518
SUM Energy consumption [J] (Stats structure),4.518
# CALLTREE;init_1;Main-PWSCF_0;run-PWSCF_0;run-PWSCF-electrons_function_1;electrons-electrons_scf_function_0;c_bands_function_10
# Job info - HDEEM
JOB ID,17281896.0
Nodelist,taurusi5610
AVG Runtime of function [s],0.0104327
MAX Runtime of function [s],0.0104327
MIN Runtime of function [s],0.0104327
# COUNTERS - HDEEM: 
AVG Energy consumption [J] (Stats structure),4.51
MAX Energy consumption [J] (Stats structure),4.51
MIN Energy consumption [J] (Stats structure),4.51
SUM Energy consumption [J] (Stats structure),4.51
# CALLTREE;init_1;Main-PWSCF_0;run-PWSCF_0;run-PWSCF-electrons_function_1;electrons-electrons_scf_function_0;c_bands_function_10
# Job info - HDEEM
JOB ID,17281896.0
Nodelist,taurusi5610
AVG Runtime of function [s],0.0102502
MAX Runtime of function [s],0.0102502
MIN Runtime of function [s],0.0102502
# COUNTERS - HDEEM: 
AVG Energy consumption [J] (Stats structure),4.508
MAX Energy consumption [J] (Stats structure),4.508
MIN Energy consumption [J] (Stats structure),4.508
SUM Energy consumption [J] (Stats structure),4.508
# CALLTREE;init_1;Main-PWSCF_0;run-PWSCF_0;run-PWSCF-electrons_function_1;electrons-electrons_scf_function_0;c_bands_function_11
# Job info - HDEEM
JOB ID,17281896.0
Nodelist,taurusi5610
AVG Runtime of function [s],0.0105032
MAX Runtime of function [s],0.0105032
MIN Runtime of function [s],0.0105032
# COUNTERS - HDEEM: 
AVG Energy consumption [J] (Stats structure),4.431
MAX Energy consumption [J] (Stats structure),4.431
MIN Energy consumption [J] (Stats structure),4.431
SUM Energy consumption [J] (Stats structure),4.431
# CALLTREE;init_1;Main-PWSCF_0;run-PWSCF_0;run-PWSCF-electrons_function_1;electrons-electrons_scf_function_0;c_bands_function_11
# Job info - HDEEM
JOB ID,17281896.0
Nodelist,taurusi5610
AVG Runtime of function [s],0.0104613
MAX Runtime of function [s],0.0104613
MIN Runtime of function [s],0.0104613
# COUNTERS - HDEEM: 
AVG Energy consumption [J] (Stats structure),4.516
MAX Energy consumption [J] (Stats structure),4.516
MIN Energy consumption [J] (Stats structure),4.516
SUM Energy consumption [J] (Stats structure),4.516
# CALLTREE;init_1;Main-PWSCF_0;run-PWSCF_0;run-PWSCF-electrons_function_1;electrons-electrons_scf_function_0;c_bands_function_11
# Job info - HDEEM
JOB ID,17281896.0
Nodelist,taurusi5610
AVG Runtime of function [s],0.0104249
MAX Runtime of function [s],0.0104249
MIN Runtime of function [s],0.0104249
# COUNTERS - HDEEM: 
AVG Energy consumption [J] (Stats structure),4.219
MAX Energy consumption [J] (Stats structure),4.219
MIN Energy consumption [J] (Stats structure),4.219
SUM Energy consumption [J] (Stats structure),4.219
# CALLTREE;init_1;Main-PWSCF_0;run-PWSCF_0;run-PWSCF-electrons_function_1;electrons-electrons_scf_function_0;c_bands_function_11
# Job info - HDEEM
JOB ID,17281896.0
Nodelist,taurusi5610
AVG Runtime of function [s],0.0104629
MAX Runtime of function [s],0.0104629
MIN Runtime of function [s],0.0104629
# COUNTERS - HDEEM: 
AVG Energy consumption [J] (Stats structure),4.495
MAX Energy consumption [J] (Stats structure),4.495
MIN Energy consumption [J] (Stats structure),4.495
SUM Energy consumption [J] (Stats structure),4.495
# CALLTREE;init_1;Main-PWSCF_0;run-PWSCF_0;run-PWSCF-electrons_function_1;electrons-electrons_scf_function_0;c_bands_function_12
# Job info - HDEEM
JOB ID,17281896.0
Nodelist,taurusi5610
AVG Runtime of function [s],0.0103159
MAX Runtime of function [s],0.0103159
MIN Runtime of function [s],0.0103159
# COUNTERS - HDEEM: 
AVG Energy consumption [J] (Stats structure),4.446
MAX Energy consumption [J] (Stats structure),4.446
MIN Energy consumption [J] (Stats structure),4.446
SUM Energy consumption [J] (Stats structure),4.446
# CALLTREE;init_1;Main-PWSCF_0;run-PWSCF_0;run-PWSCF-electrons_function_1;electrons-electrons_scf_function_0;c_bands_function_12
# Job info - HDEEM
JOB ID,17281896.0
Nodelist,taurusi5610
AVG Runtime of function [s],0.0104154
MAX Runtime of function [s],0.0104154
MIN Runtime of function [s],0.0104154
# COUNTERS - HDEEM: 
AVG Energy consumption [J] (Stats structure),4.52
MAX Energy consumption [J] (Stats structure),4.52
MIN Energy consumption [J] (Stats structure),4.52
SUM Energy consumption [J] (Stats structure),4.52
# CALLTREE;init_1;Main-PWSCF_0;run-PWSCF_0;run-PWSCF-electrons_function_1;electrons-electrons_scf_function_0;c_bands_function_12
# Job info - HDEEM
JOB ID,17281896.0
Nodelist,taurusi5610
AVG Runtime of function [s],0.0104132
MAX Runtime of function [s],0.0104132
MIN Runtime of function [s],0.0104132
# COUNTERS - HDEEM: 
AVG Energy consumption [J] (Stats structure),4.522
MAX Energy consumption [J] (Stats structure),4.522
MIN Energy consumption [J] (Stats structure),4.522
SUM Energy consumption [J] (Stats structure),4.522
# CALLTREE;init_1;Main-PWSCF_0;run-PWSCF_0;run-PWSCF-electrons_function_1;electrons-electrons_scf_function_0;c_bands_function_12
# Job info - HDEEM
JOB ID,17281896.0
Nodelist,taurusi5610
AVG Runtime of function [s],0.0103914
MAX Runtime of function [s],0.0103914
MIN Runtime of function [s],0.0103914
# COUNTERS - HDEEM: 
AVG Energy consumption [J] (Stats structure),4.545
MAX Energy consumption [J] (Stats structure),4.545
MIN Energy consumption [J] (Stats structure),4.545
SUM Energy consumption [J] (Stats structure),4.545
# CALLTREE;init_1;Main-PWSCF_0;run-PWSCF_0;run-PWSCF-electrons_function_1;electrons-electrons_scf_function_0;c_bands_function_13
# Job info - HDEEM
JOB ID,17281896.0
Nodelist,taurusi5610
AVG Runtime of function [s],0.0104979
MAX Runtime of function [s],0.0104979
MIN Runtime of function [s],0.0104979
# COUNTERS - HDEEM: 
AVG Energy consumption [J] (Stats structure),4.42
MAX Energy consumption [J] (Stats structure),4.42
MIN Energy consumption [J] (Stats structure),4.42
SUM Energy consumption [J] (Stats structure),4.42
# CALLTREE;init_1;Main-PWSCF_0;run-PWSCF_0;run-PWSCF-electrons_function_1;electrons-electrons_scf_function_0;c_bands_function_13
# Job info - HDEEM
JOB ID,17281896.0
Nodelist,taurusi5610
AVG Runtime of function [s],0.0103829
MAX Runtime of function [s],0.0103829
MIN Runtime of function [s],0.0103829
# COUNTERS - HDEEM: 
AVG Energy consumption [J] (Stats structure),4.523
MAX Energy consumption [J] (Stats structure),4.523
MIN Energy consumption [J] (Stats structure),4.523
SUM Energy consumption [J] (Stats structure),4.523
# CALLTREE;init_1;Main-PWSCF_0;run-PWSCF_0;run-PWSCF-electrons_function_1;electrons-electrons_scf_function_0;c_bands_function_13
# Job info - HDEEM
JOB ID,17281896.0
Nodelist,taurusi5610
AVG Runtime of function [s],0.010458
MAX Runtime of function [s],0.010458
MIN Runtime of function [s],0.010458
# COUNTERS - HDEEM: 
AVG Energy consumption [J] (Stats structure),4.492
MAX Energy consumption [J] (Stats structure),4.492
MIN Energy consumption [J] (Stats structure),4.492
SUM Energy consumption [J] (Stats structure),4.492
# CALLTREE;init_1;Main-PWSCF_0;run-PWSCF_0;run-PWSCF-electrons_function_1;electrons-electrons_scf_function_0;c_bands_function_13
# Job info - HDEEM
JOB ID,17281896.0
Nodelist,taurusi5610
AVG Runtime of function [s],0.0104439
MAX Runtime of function [s],0.0104439
MIN Runtime of function [s],0.0104439
# COUNTERS - HDEEM: 
AVG Energy consumption [J] (Stats structure),4.486
MAX Energy consumption [J] (Stats structure),4.486
MIN Energy consumption [J] (Stats structure),4.486
SUM Energy consumption [J] (Stats structure),4.486
# CALLTREE;init_1;Main-PWSCF_0;run-PWSCF_0;run-PWSCF-electrons_function_1;electrons-electrons_scf_function_0;c_bands_function_14
# Job info - HDEEM
JOB ID,17281896.0
Nodelist,taurusi5610
AVG Runtime of function [s],0.0104417
MAX Runtime of function [s],0.0104417
MIN Runtime of function [s],0.0104417
# COUNTERS - HDEEM: 
AVG Energy consumption [J] (Stats structure),4.41
MAX Energy consumption [J] (Stats structure),4.41
MIN Energy consumption [J] (Stats structure),4.41
SUM Energy consumption [J] (Stats structure),4.41
# CALLTREE;init_1;Main-PWSCF_0;run-PWSCF_0;run-PWSCF-electrons_function_1;electrons-electrons_scf_function_0;c_bands_function_14
# Job info - HDEEM
JOB ID,17281896.0
Nodelist,taurusi5610
AVG Runtime of function [s],0.0103574
MAX Runtime of function [s],0.0103574
MIN Runtime of function [s],0.0103574
# COUNTERS - HDEEM: 
AVG Energy consumption [J] (Stats structure),4.512
MAX Energy consumption [J] (Stats structure),4.512
MIN Energy consumption [J] (Stats structure),4.512
SUM Energy consumption [J] (Stats structure),4.512
# CALLTREE;init_1;Main-PWSCF_0;run-PWSCF_0;run-PWSCF-electrons_function_1;electrons-electrons_scf_function_0;c_bands_function_14
# Job info - HDEEM
JOB ID,17281896.0
Nodelist,taurusi5610
AVG Runtime of function [s],0.0104473
MAX Runtime of function [s],0.0104473
MIN Runtime of function [s],0.0104473
# COUNTERS - HDEEM: 
AVG Energy consumption [J] (Stats structure),4.222
MAX Energy consumption [J] (Stats structure),4.222
MIN Energy consumption [J] (Stats structure),4.222
SUM Energy consumption [J] (Stats structure),4.222
# CALLTREE;init_1;Main-PWSCF_0;run-PWSCF_0;run-PWSCF-electrons_function_1;electrons-electrons_scf_function_0;c_bands_function_14
# Job info - HDEEM
JOB ID,17281896.0
Nodelist,taurusi5610
AVG Runtime of function [s],0.0103976
MAX Runtime of function [s],0.0103976
MIN Runtime of function [s],0.0103976
# COUNTERS - HDEEM: 
AVG Energy consumption [J] (Stats structure),4.482
MAX Energy consumption [J] (Stats structure),4.482
MIN Energy consumption [J] (Stats structure),4.482
SUM Energy consumption [J] (Stats structure),4.482
# CALLTREE;init_1;Main-PWSCF_0;run-PWSCF_0;run-PWSCF-electrons_function_1;electrons-electrons_scf_function_0;c_bands_function_15
# Job info - HDEEM
JOB ID,17281896.0
Nodelist,taurusi5610
AVG Runtime of function [s],0.0104972
MAX Runtime of function [s],0.0104972
MIN Runtime of function [s],0.0104972
# COUNTERS - HDEEM: 
AVG Energy consumption [J] (Stats structure),4.415
MAX Energy consumption [J] (Stats structure),4.415
MIN Energy consumption [J] (Stats structure),4.415
SUM Energy consumption [J] (Stats structure),4.415
# CALLTREE;init_1;Main-PWSCF_0;run-PWSCF_0;run-PWSCF-electrons_function_1;electrons-electrons_scf_function_0;c_bands_function_15
# Job info - HDEEM
JOB ID,17281896.0
Nodelist,taurusi5610
AVG Runtime of function [s],0.0111714
MAX Runtime of function [s],0.0111714
MIN Runtime of function [s],0.0111714
# COUNTERS - HDEEM: 
AVG Energy consumption [J] (Stats structure),4.542
MAX Energy consumption [J] (Stats structure),4.542
MIN Energy consumption [J] (Stats structure),4.542
SUM Energy consumption [J] (Stats structure),4.542
# CALLTREE;init_1;Main-PWSCF_0;run-PWSCF_0;run-PWSCF-electrons_function_1;electrons-electrons_scf_function_0;c_bands_function_15
# Job info - HDEEM
JOB ID,17281896.0
Nodelist,taurusi5610
AVG Runtime of function [s],0.0104502
MAX Runtime of function [s],0.0104502
MIN Runtime of function [s],0.0104502
# COUNTERS - HDEEM: 
AVG Energy consumption [J] (Stats structure),4.397
MAX Energy consumption [J] (Stats structure),4.397
MIN Energy consumption [J] (Stats structure),4.397
SUM Energy consumption [J] (Stats structure),4.397
# CALLTREE;init_1;Main-PWSCF_0;run-PWSCF_0;run-PWSCF-electrons_function_1;electrons-electrons_scf_function_0;c_bands_function_15
# Job info - HDEEM
JOB ID,17281896.0
Nodelist,taurusi5610
AVG Runtime of function [s],0.010475
MAX Runtime of function [s],0.010475
MIN Runtime of function [s],0.010475
# COUNTERS - HDEEM: 
AVG Energy consumption [J] (Stats structure),4.517
MAX Energy consumption [J] (Stats structure),4.517
MIN Energy consumption [J] (Stats structure),4.517
SUM Energy consumption [J] (Stats structure),4.517
