# CALLTREE;init_0;Main-PWSCF_0;run-PWSCF_0;run-PWSCF-electrons_function_1;electrons-electrons_scf_function_0;c_bands_function_0
# Job info - HDEEM
JOB ID,17281896.12
Nodelist,taurusi5610
AVG Runtime of function [s],0.0113533
MAX Runtime of function [s],0.0113533
MIN Runtime of function [s],0.0113533
# COUNTERS - HDEEM: 
AVG Energy consumption [J] (Stats structure),3.333
MAX Energy consumption [J] (Stats structure),3.333
MIN Energy consumption [J] (Stats structure),3.333
SUM Energy consumption [J] (Stats structure),3.333
# CALLTREE;init_0;Main-PWSCF_0;run-PWSCF_0;run-PWSCF-electrons_function_1;electrons-electrons_scf_function_0;c_bands_function_0
# Job info - HDEEM
JOB ID,17281896.12
Nodelist,taurusi5610
AVG Runtime of function [s],0.0113405
MAX Runtime of function [s],0.0113405
MIN Runtime of function [s],0.0113405
# COUNTERS - HDEEM: 
AVG Energy consumption [J] (Stats structure),3.449
MAX Energy consumption [J] (Stats structure),3.449
MIN Energy consumption [J] (Stats structure),3.449
SUM Energy consumption [J] (Stats structure),3.449
# CALLTREE;init_0;Main-PWSCF_0;run-PWSCF_0;run-PWSCF-electrons_function_1;electrons-electrons_scf_function_0;c_bands_function_0
# Job info - HDEEM
JOB ID,17281896.12
Nodelist,taurusi5610
AVG Runtime of function [s],0.0114158
MAX Runtime of function [s],0.0114158
MIN Runtime of function [s],0.0114158
# COUNTERS - HDEEM: 
AVG Energy consumption [J] (Stats structure),3.468
MAX Energy consumption [J] (Stats structure),3.468
MIN Energy consumption [J] (Stats structure),3.468
SUM Energy consumption [J] (Stats structure),3.468
# CALLTREE;init_0;Main-PWSCF_0;run-PWSCF_0;run-PWSCF-electrons_function_1;electrons-electrons_scf_function_0;c_bands_function_0
# Job info - HDEEM
JOB ID,17281896.12
Nodelist,taurusi5610
AVG Runtime of function [s],0.0114684
MAX Runtime of function [s],0.0114684
MIN Runtime of function [s],0.0114684
# COUNTERS - HDEEM: 
AVG Energy consumption [J] (Stats structure),3.466
MAX Energy consumption [J] (Stats structure),3.466
MIN Energy consumption [J] (Stats structure),3.466
SUM Energy consumption [J] (Stats structure),3.466
# CALLTREE;init_0;Main-PWSCF_0;run-PWSCF_0;run-PWSCF-electrons_function_1;electrons-electrons_scf_function_0;c_bands_function_1
# Job info - HDEEM
JOB ID,17281896.12
Nodelist,taurusi5610
AVG Runtime of function [s],0.0108186
MAX Runtime of function [s],0.0108186
MIN Runtime of function [s],0.0108186
# COUNTERS - HDEEM: 
AVG Energy consumption [J] (Stats structure),3.336
MAX Energy consumption [J] (Stats structure),3.336
MIN Energy consumption [J] (Stats structure),3.336
SUM Energy consumption [J] (Stats structure),3.336
# CALLTREE;init_0;Main-PWSCF_0;run-PWSCF_0;run-PWSCF-electrons_function_1;electrons-electrons_scf_function_0;c_bands_function_1
# Job info - HDEEM
JOB ID,17281896.12
Nodelist,taurusi5610
AVG Runtime of function [s],0.0112483
MAX Runtime of function [s],0.0112483
MIN Runtime of function [s],0.0112483
# COUNTERS - HDEEM: 
AVG Energy consumption [J] (Stats structure),3.454
MAX Energy consumption [J] (Stats structure),3.454
MIN Energy consumption [J] (Stats structure),3.454
SUM Energy consumption [J] (Stats structure),3.454
# CALLTREE;init_0;Main-PWSCF_0;run-PWSCF_0;run-PWSCF-electrons_function_1;electrons-electrons_scf_function_0;c_bands_function_1
# Job info - HDEEM
JOB ID,17281896.12
Nodelist,taurusi5610
AVG Runtime of function [s],0.0113964
MAX Runtime of function [s],0.0113964
MIN Runtime of function [s],0.0113964
# COUNTERS - HDEEM: 
AVG Energy consumption [J] (Stats structure),3.235
MAX Energy consumption [J] (Stats structure),3.235
MIN Energy consumption [J] (Stats structure),3.235
SUM Energy consumption [J] (Stats structure),3.235
# CALLTREE;init_0;Main-PWSCF_0;run-PWSCF_0;run-PWSCF-electrons_function_1;electrons-electrons_scf_function_0;c_bands_function_1
# Job info - HDEEM
JOB ID,17281896.12
Nodelist,taurusi5610
AVG Runtime of function [s],0.0113791
MAX Runtime of function [s],0.0113791
MIN Runtime of function [s],0.0113791
# COUNTERS - HDEEM: 
AVG Energy consumption [J] (Stats structure),3.432
MAX Energy consumption [J] (Stats structure),3.432
MIN Energy consumption [J] (Stats structure),3.432
SUM Energy consumption [J] (Stats structure),3.432
# CALLTREE;init_0;Main-PWSCF_0;run-PWSCF_0;run-PWSCF-electrons_function_1;electrons-electrons_scf_function_0;c_bands_function_2
# Job info - HDEEM
JOB ID,17281896.12
Nodelist,taurusi5610
AVG Runtime of function [s],0.0113546
MAX Runtime of function [s],0.0113546
MIN Runtime of function [s],0.0113546
# COUNTERS - HDEEM: 
AVG Energy consumption [J] (Stats structure),3.381
MAX Energy consumption [J] (Stats structure),3.381
MIN Energy consumption [J] (Stats structure),3.381
SUM Energy consumption [J] (Stats structure),3.381
# CALLTREE;init_0;Main-PWSCF_0;run-PWSCF_0;run-PWSCF-electrons_function_1;electrons-electrons_scf_function_0;c_bands_function_2
# Job info - HDEEM
JOB ID,17281896.12
Nodelist,taurusi5610
AVG Runtime of function [s],0.0114149
MAX Runtime of function [s],0.0114149
MIN Runtime of function [s],0.0114149
# COUNTERS - HDEEM: 
AVG Energy consumption [J] (Stats structure),3.443
MAX Energy consumption [J] (Stats structure),3.443
MIN Energy consumption [J] (Stats structure),3.443
SUM Energy consumption [J] (Stats structure),3.443
# CALLTREE;init_0;Main-PWSCF_0;run-PWSCF_0;run-PWSCF-electrons_function_1;electrons-electrons_scf_function_0;c_bands_function_2
# Job info - HDEEM
JOB ID,17281896.12
Nodelist,taurusi5610
AVG Runtime of function [s],0.0113276
MAX Runtime of function [s],0.0113276
MIN Runtime of function [s],0.0113276
# COUNTERS - HDEEM: 
AVG Energy consumption [J] (Stats structure),3.414
MAX Energy consumption [J] (Stats structure),3.414
MIN Energy consumption [J] (Stats structure),3.414
SUM Energy consumption [J] (Stats structure),3.414
# CALLTREE;init_0;Main-PWSCF_0;run-PWSCF_0;run-PWSCF-electrons_function_1;electrons-electrons_scf_function_0;c_bands_function_2
# Job info - HDEEM
JOB ID,17281896.12
Nodelist,taurusi5610
AVG Runtime of function [s],0.0113438
MAX Runtime of function [s],0.0113438
MIN Runtime of function [s],0.0113438
# COUNTERS - HDEEM: 
AVG Energy consumption [J] (Stats structure),3.434
MAX Energy consumption [J] (Stats structure),3.434
MIN Energy consumption [J] (Stats structure),3.434
SUM Energy consumption [J] (Stats structure),3.434
# CALLTREE;init_0;Main-PWSCF_0;run-PWSCF_0;run-PWSCF-electrons_function_1;electrons-electrons_scf_function_0;c_bands_function_3
# Job info - HDEEM
JOB ID,17281896.12
Nodelist,taurusi5610
AVG Runtime of function [s],0.0113549
MAX Runtime of function [s],0.0113549
MIN Runtime of function [s],0.0113549
# COUNTERS - HDEEM: 
AVG Energy consumption [J] (Stats structure),3.363
MAX Energy consumption [J] (Stats structure),3.363
MIN Energy consumption [J] (Stats structure),3.363
SUM Energy consumption [J] (Stats structure),3.363
# CALLTREE;init_0;Main-PWSCF_0;run-PWSCF_0;run-PWSCF-electrons_function_1;electrons-electrons_scf_function_0;c_bands_function_3
# Job info - HDEEM
JOB ID,17281896.12
Nodelist,taurusi5610
AVG Runtime of function [s],0.0113466
MAX Runtime of function [s],0.0113466
MIN Runtime of function [s],0.0113466
# COUNTERS - HDEEM: 
AVG Energy consumption [J] (Stats structure),3.465
MAX Energy consumption [J] (Stats structure),3.465
MIN Energy consumption [J] (Stats structure),3.465
SUM Energy consumption [J] (Stats structure),3.465
# CALLTREE;init_0;Main-PWSCF_0;run-PWSCF_0;run-PWSCF-electrons_function_1;electrons-electrons_scf_function_0;c_bands_function_3
# Job info - HDEEM
JOB ID,17281896.12
Nodelist,taurusi5610
AVG Runtime of function [s],0.0113362
MAX Runtime of function [s],0.0113362
MIN Runtime of function [s],0.0113362
# COUNTERS - HDEEM: 
AVG Energy consumption [J] (Stats structure),3.362
MAX Energy consumption [J] (Stats structure),3.362
MIN Energy consumption [J] (Stats structure),3.362
SUM Energy consumption [J] (Stats structure),3.362
# CALLTREE;init_0;Main-PWSCF_0;run-PWSCF_0;run-PWSCF-electrons_function_1;electrons-electrons_scf_function_0;c_bands_function_3
# Job info - HDEEM
JOB ID,17281896.12
Nodelist,taurusi5610
AVG Runtime of function [s],0.0113925
MAX Runtime of function [s],0.0113925
MIN Runtime of function [s],0.0113925
# COUNTERS - HDEEM: 
AVG Energy consumption [J] (Stats structure),3.461
MAX Energy consumption [J] (Stats structure),3.461
MIN Energy consumption [J] (Stats structure),3.461
SUM Energy consumption [J] (Stats structure),3.461
# CALLTREE;init_0;Main-PWSCF_0;run-PWSCF_0;run-PWSCF-electrons_function_1;electrons-electrons_scf_function_0;c_bands_function_4
# Job info - HDEEM
JOB ID,17281896.12
Nodelist,taurusi5610
AVG Runtime of function [s],0.00970291
MAX Runtime of function [s],0.00970291
MIN Runtime of function [s],0.00970291
# COUNTERS - HDEEM: 
AVG Energy consumption [J] (Stats structure),3.028
MAX Energy consumption [J] (Stats structure),3.028
MIN Energy consumption [J] (Stats structure),3.028
SUM Energy consumption [J] (Stats structure),3.028
# CALLTREE;init_0;Main-PWSCF_0;run-PWSCF_0;run-PWSCF-electrons_function_1;electrons-electrons_scf_function_0;c_bands_function_4
# Job info - HDEEM
JOB ID,17281896.12
Nodelist,taurusi5610
AVG Runtime of function [s],0.0113101
MAX Runtime of function [s],0.0113101
MIN Runtime of function [s],0.0113101
# COUNTERS - HDEEM: 
AVG Energy consumption [J] (Stats structure),3.433
MAX Energy consumption [J] (Stats structure),3.433
MIN Energy consumption [J] (Stats structure),3.433
SUM Energy consumption [J] (Stats structure),3.433
# CALLTREE;init_0;Main-PWSCF_0;run-PWSCF_0;run-PWSCF-electrons_function_1;electrons-electrons_scf_function_0;c_bands_function_4
# Job info - HDEEM
JOB ID,17281896.12
Nodelist,taurusi5610
AVG Runtime of function [s],0.0113627
MAX Runtime of function [s],0.0113627
MIN Runtime of function [s],0.0113627
# COUNTERS - HDEEM: 
AVG Energy consumption [J] (Stats structure),3.435
MAX Energy consumption [J] (Stats structure),3.435
MIN Energy consumption [J] (Stats structure),3.435
SUM Energy consumption [J] (Stats structure),3.435
# CALLTREE;init_0;Main-PWSCF_0;run-PWSCF_0;run-PWSCF-electrons_function_1;electrons-electrons_scf_function_0;c_bands_function_4
# Job info - HDEEM
JOB ID,17281896.12
Nodelist,taurusi5610
AVG Runtime of function [s],0.0113639
MAX Runtime of function [s],0.0113639
MIN Runtime of function [s],0.0113639
# COUNTERS - HDEEM: 
AVG Energy consumption [J] (Stats structure),3.461
MAX Energy consumption [J] (Stats structure),3.461
MIN Energy consumption [J] (Stats structure),3.461
SUM Energy consumption [J] (Stats structure),3.461
# CALLTREE;init_0;Main-PWSCF_0;run-PWSCF_0;run-PWSCF-electrons_function_1;electrons-electrons_scf_function_0;c_bands_function_5
# Job info - HDEEM
JOB ID,17281896.12
Nodelist,taurusi5610
AVG Runtime of function [s],0.0113585
MAX Runtime of function [s],0.0113585
MIN Runtime of function [s],0.0113585
# COUNTERS - HDEEM: 
AVG Energy consumption [J] (Stats structure),3.369
MAX Energy consumption [J] (Stats structure),3.369
MIN Energy consumption [J] (Stats structure),3.369
SUM Energy consumption [J] (Stats structure),3.369
# CALLTREE;init_0;Main-PWSCF_0;run-PWSCF_0;run-PWSCF-electrons_function_1;electrons-electrons_scf_function_0;c_bands_function_5
# Job info - HDEEM
JOB ID,17281896.12
Nodelist,taurusi5610
AVG Runtime of function [s],0.011344
MAX Runtime of function [s],0.011344
MIN Runtime of function [s],0.011344
# COUNTERS - HDEEM: 
AVG Energy consumption [J] (Stats structure),3.444
MAX Energy consumption [J] (Stats structure),3.444
MIN Energy consumption [J] (Stats structure),3.444
SUM Energy consumption [J] (Stats structure),3.444
# CALLTREE;init_0;Main-PWSCF_0;run-PWSCF_0;run-PWSCF-electrons_function_1;electrons-electrons_scf_function_0;c_bands_function_5
# Job info - HDEEM
JOB ID,17281896.12
Nodelist,taurusi5610
AVG Runtime of function [s],0.0112868
MAX Runtime of function [s],0.0112868
MIN Runtime of function [s],0.0112868
# COUNTERS - HDEEM: 
AVG Energy consumption [J] (Stats structure),3.426
MAX Energy consumption [J] (Stats structure),3.426
MIN Energy consumption [J] (Stats structure),3.426
SUM Energy consumption [J] (Stats structure),3.426
# CALLTREE;init_0;Main-PWSCF_0;run-PWSCF_0;run-PWSCF-electrons_function_1;electrons-electrons_scf_function_0;c_bands_function_5
# Job info - HDEEM
JOB ID,17281896.12
Nodelist,taurusi5610
AVG Runtime of function [s],0.0105426
MAX Runtime of function [s],0.0105426
MIN Runtime of function [s],0.0105426
# COUNTERS - HDEEM: 
AVG Energy consumption [J] (Stats structure),3.37
MAX Energy consumption [J] (Stats structure),3.37
MIN Energy consumption [J] (Stats structure),3.37
SUM Energy consumption [J] (Stats structure),3.37
# CALLTREE;init_0;Main-PWSCF_0;run-PWSCF_0;run-PWSCF-electrons_function_1;electrons-electrons_scf_function_0;c_bands_function_6
# Job info - HDEEM
JOB ID,17281896.12
Nodelist,taurusi5610
AVG Runtime of function [s],0.0113451
MAX Runtime of function [s],0.0113451
MIN Runtime of function [s],0.0113451
# COUNTERS - HDEEM: 
AVG Energy consumption [J] (Stats structure),3.373
MAX Energy consumption [J] (Stats structure),3.373
MIN Energy consumption [J] (Stats structure),3.373
SUM Energy consumption [J] (Stats structure),3.373
# CALLTREE;init_0;Main-PWSCF_0;run-PWSCF_0;run-PWSCF-electrons_function_1;electrons-electrons_scf_function_0;c_bands_function_6
# Job info - HDEEM
JOB ID,17281896.12
Nodelist,taurusi5610
AVG Runtime of function [s],0.0114078
MAX Runtime of function [s],0.0114078
MIN Runtime of function [s],0.0114078
# COUNTERS - HDEEM: 
AVG Energy consumption [J] (Stats structure),3.668
MAX Energy consumption [J] (Stats structure),3.668
MIN Energy consumption [J] (Stats structure),3.668
SUM Energy consumption [J] (Stats structure),3.668
# CALLTREE;init_0;Main-PWSCF_0;run-PWSCF_0;run-PWSCF-electrons_function_1;electrons-electrons_scf_function_0;c_bands_function_6
# Job info - HDEEM
JOB ID,17281896.12
Nodelist,taurusi5610
AVG Runtime of function [s],0.0113556
MAX Runtime of function [s],0.0113556
MIN Runtime of function [s],0.0113556
# COUNTERS - HDEEM: 
AVG Energy consumption [J] (Stats structure),3.375
MAX Energy consumption [J] (Stats structure),3.375
MIN Energy consumption [J] (Stats structure),3.375
SUM Energy consumption [J] (Stats structure),3.375
# CALLTREE;init_0;Main-PWSCF_0;run-PWSCF_0;run-PWSCF-electrons_function_1;electrons-electrons_scf_function_0;c_bands_function_6
# Job info - HDEEM
JOB ID,17281896.12
Nodelist,taurusi5610
AVG Runtime of function [s],0.0113315
MAX Runtime of function [s],0.0113315
MIN Runtime of function [s],0.0113315
# COUNTERS - HDEEM: 
AVG Energy consumption [J] (Stats structure),3.459
MAX Energy consumption [J] (Stats structure),3.459
MIN Energy consumption [J] (Stats structure),3.459
SUM Energy consumption [J] (Stats structure),3.459
# CALLTREE;init_0;Main-PWSCF_0;run-PWSCF_0;run-PWSCF-electrons_function_1;electrons-electrons_scf_function_0;c_bands_function_7
# Job info - HDEEM
JOB ID,17281896.12
Nodelist,taurusi5610
AVG Runtime of function [s],0.0113403
MAX Runtime of function [s],0.0113403
MIN Runtime of function [s],0.0113403
# COUNTERS - HDEEM: 
AVG Energy consumption [J] (Stats structure),3.365
MAX Energy consumption [J] (Stats structure),3.365
MIN Energy consumption [J] (Stats structure),3.365
SUM Energy consumption [J] (Stats structure),3.365
# CALLTREE;init_0;Main-PWSCF_0;run-PWSCF_0;run-PWSCF-electrons_function_1;electrons-electrons_scf_function_0;c_bands_function_7
# Job info - HDEEM
JOB ID,17281896.12
Nodelist,taurusi5610
AVG Runtime of function [s],0.013785
MAX Runtime of function [s],0.013785
MIN Runtime of function [s],0.013785
# COUNTERS - HDEEM: 
AVG Energy consumption [J] (Stats structure),3.939
MAX Energy consumption [J] (Stats structure),3.939
MIN Energy consumption [J] (Stats structure),3.939
SUM Energy consumption [J] (Stats structure),3.939
# CALLTREE;init_0;Main-PWSCF_0;run-PWSCF_0;run-PWSCF-electrons_function_1;electrons-electrons_scf_function_0;c_bands_function_7
# Job info - HDEEM
JOB ID,17281896.12
Nodelist,taurusi5610
AVG Runtime of function [s],0.0113113
MAX Runtime of function [s],0.0113113
MIN Runtime of function [s],0.0113113
# COUNTERS - HDEEM: 
AVG Energy consumption [J] (Stats structure),3.448
MAX Energy consumption [J] (Stats structure),3.448
MIN Energy consumption [J] (Stats structure),3.448
SUM Energy consumption [J] (Stats structure),3.448
# CALLTREE;init_0;Main-PWSCF_0;run-PWSCF_0;run-PWSCF-electrons_function_1;electrons-electrons_scf_function_0;c_bands_function_7
# Job info - HDEEM
JOB ID,17281896.12
Nodelist,taurusi5610
AVG Runtime of function [s],0.0112651
MAX Runtime of function [s],0.0112651
MIN Runtime of function [s],0.0112651
# COUNTERS - HDEEM: 
AVG Energy consumption [J] (Stats structure),3.478
MAX Energy consumption [J] (Stats structure),3.478
MIN Energy consumption [J] (Stats structure),3.478
SUM Energy consumption [J] (Stats structure),3.478
# CALLTREE;init_0;Main-PWSCF_0;run-PWSCF_0;run-PWSCF-electrons_function_1;electrons-electrons_scf_function_0;c_bands_function_8
# Job info - HDEEM
JOB ID,17281896.12
Nodelist,taurusi5610
AVG Runtime of function [s],0.021176
MAX Runtime of function [s],0.021176
MIN Runtime of function [s],0.021176
# COUNTERS - HDEEM: 
AVG Energy consumption [J] (Stats structure),5.109
MAX Energy consumption [J] (Stats structure),5.109
MIN Energy consumption [J] (Stats structure),5.109
SUM Energy consumption [J] (Stats structure),5.109
# CALLTREE;init_0;Main-PWSCF_0;run-PWSCF_0;run-PWSCF-electrons_function_1;electrons-electrons_scf_function_0;c_bands_function_8
# Job info - HDEEM
JOB ID,17281896.12
Nodelist,taurusi5610
AVG Runtime of function [s],0.0113869
MAX Runtime of function [s],0.0113869
MIN Runtime of function [s],0.0113869
# COUNTERS - HDEEM: 
AVG Energy consumption [J] (Stats structure),3.463
MAX Energy consumption [J] (Stats structure),3.463
MIN Energy consumption [J] (Stats structure),3.463
SUM Energy consumption [J] (Stats structure),3.463
# CALLTREE;init_0;Main-PWSCF_0;run-PWSCF_0;run-PWSCF-electrons_function_1;electrons-electrons_scf_function_0;c_bands_function_8
# Job info - HDEEM
JOB ID,17281896.12
Nodelist,taurusi5610
AVG Runtime of function [s],0.0114278
MAX Runtime of function [s],0.0114278
MIN Runtime of function [s],0.0114278
# COUNTERS - HDEEM: 
AVG Energy consumption [J] (Stats structure),3.444
MAX Energy consumption [J] (Stats structure),3.444
MIN Energy consumption [J] (Stats structure),3.444
SUM Energy consumption [J] (Stats structure),3.444
# CALLTREE;init_0;Main-PWSCF_0;run-PWSCF_0;run-PWSCF-electrons_function_1;electrons-electrons_scf_function_0;c_bands_function_8
# Job info - HDEEM
JOB ID,17281896.12
Nodelist,taurusi5610
AVG Runtime of function [s],0.0113333
MAX Runtime of function [s],0.0113333
MIN Runtime of function [s],0.0113333
# COUNTERS - HDEEM: 
AVG Energy consumption [J] (Stats structure),3.459
MAX Energy consumption [J] (Stats structure),3.459
MIN Energy consumption [J] (Stats structure),3.459
SUM Energy consumption [J] (Stats structure),3.459
# CALLTREE;init_0;Main-PWSCF_0;run-PWSCF_0;run-PWSCF-electrons_function_1;electrons-electrons_scf_function_0;c_bands_function_9
# Job info - HDEEM
JOB ID,17281896.12
Nodelist,taurusi5610
AVG Runtime of function [s],0.0142172
MAX Runtime of function [s],0.0142172
MIN Runtime of function [s],0.0142172
# COUNTERS - HDEEM: 
AVG Energy consumption [J] (Stats structure),3.783
MAX Energy consumption [J] (Stats structure),3.783
MIN Energy consumption [J] (Stats structure),3.783
SUM Energy consumption [J] (Stats structure),3.783
# CALLTREE;init_0;Main-PWSCF_0;run-PWSCF_0;run-PWSCF-electrons_function_1;electrons-electrons_scf_function_0;c_bands_function_9
# Job info - HDEEM
JOB ID,17281896.12
Nodelist,taurusi5610
AVG Runtime of function [s],0.0113999
MAX Runtime of function [s],0.0113999
MIN Runtime of function [s],0.0113999
# COUNTERS - HDEEM: 
AVG Energy consumption [J] (Stats structure),3.448
MAX Energy consumption [J] (Stats structure),3.448
MIN Energy consumption [J] (Stats structure),3.448
SUM Energy consumption [J] (Stats structure),3.448
# CALLTREE;init_0;Main-PWSCF_0;run-PWSCF_0;run-PWSCF-electrons_function_1;electrons-electrons_scf_function_0;c_bands_function_9
# Job info - HDEEM
JOB ID,17281896.12
Nodelist,taurusi5610
AVG Runtime of function [s],0.0113318
MAX Runtime of function [s],0.0113318
MIN Runtime of function [s],0.0113318
# COUNTERS - HDEEM: 
AVG Energy consumption [J] (Stats structure),3.433
MAX Energy consumption [J] (Stats structure),3.433
MIN Energy consumption [J] (Stats structure),3.433
SUM Energy consumption [J] (Stats structure),3.433
# CALLTREE;init_0;Main-PWSCF_0;run-PWSCF_0;run-PWSCF-electrons_function_1;electrons-electrons_scf_function_0;c_bands_function_9
# Job info - HDEEM
JOB ID,17281896.12
Nodelist,taurusi5610
AVG Runtime of function [s],0.0112562
MAX Runtime of function [s],0.0112562
MIN Runtime of function [s],0.0112562
# COUNTERS - HDEEM: 
AVG Energy consumption [J] (Stats structure),3.478
MAX Energy consumption [J] (Stats structure),3.478
MIN Energy consumption [J] (Stats structure),3.478
SUM Energy consumption [J] (Stats structure),3.478
# CALLTREE;init_0;Main-PWSCF_0;run-PWSCF_0;run-PWSCF-electrons_function_1;electrons-electrons_scf_function_0;c_bands_function_10
# Job info - HDEEM
JOB ID,17281896.12
Nodelist,taurusi5610
AVG Runtime of function [s],0.0113708
MAX Runtime of function [s],0.0113708
MIN Runtime of function [s],0.0113708
# COUNTERS - HDEEM: 
AVG Energy consumption [J] (Stats structure),3.362
MAX Energy consumption [J] (Stats structure),3.362
MIN Energy consumption [J] (Stats structure),3.362
SUM Energy consumption [J] (Stats structure),3.362
# CALLTREE;init_0;Main-PWSCF_0;run-PWSCF_0;run-PWSCF-electrons_function_1;electrons-electrons_scf_function_0;c_bands_function_10
# Job info - HDEEM
JOB ID,17281896.12
Nodelist,taurusi5610
AVG Runtime of function [s],0.0113642
MAX Runtime of function [s],0.0113642
MIN Runtime of function [s],0.0113642
# COUNTERS - HDEEM: 
AVG Energy consumption [J] (Stats structure),3.473
MAX Energy consumption [J] (Stats structure),3.473
MIN Energy consumption [J] (Stats structure),3.473
SUM Energy consumption [J] (Stats structure),3.473
# CALLTREE;init_0;Main-PWSCF_0;run-PWSCF_0;run-PWSCF-electrons_function_1;electrons-electrons_scf_function_0;c_bands_function_10
# Job info - HDEEM
JOB ID,17281896.12
Nodelist,taurusi5610
AVG Runtime of function [s],0.011354
MAX Runtime of function [s],0.011354
MIN Runtime of function [s],0.011354
# COUNTERS - HDEEM: 
AVG Energy consumption [J] (Stats structure),3.457
MAX Energy consumption [J] (Stats structure),3.457
MIN Energy consumption [J] (Stats structure),3.457
SUM Energy consumption [J] (Stats structure),3.457
# CALLTREE;init_0;Main-PWSCF_0;run-PWSCF_0;run-PWSCF-electrons_function_1;electrons-electrons_scf_function_0;c_bands_function_10
# Job info - HDEEM
JOB ID,17281896.12
Nodelist,taurusi5610
AVG Runtime of function [s],0.0113718
MAX Runtime of function [s],0.0113718
MIN Runtime of function [s],0.0113718
# COUNTERS - HDEEM: 
AVG Energy consumption [J] (Stats structure),3.396
MAX Energy consumption [J] (Stats structure),3.396
MIN Energy consumption [J] (Stats structure),3.396
SUM Energy consumption [J] (Stats structure),3.396
# CALLTREE;init_0;Main-PWSCF_0;run-PWSCF_0;run-PWSCF-electrons_function_1;electrons-electrons_scf_function_0;c_bands_function_11
# Job info - HDEEM
JOB ID,17281896.12
Nodelist,taurusi5610
AVG Runtime of function [s],0.0113858
MAX Runtime of function [s],0.0113858
MIN Runtime of function [s],0.0113858
# COUNTERS - HDEEM: 
AVG Energy consumption [J] (Stats structure),3.362
MAX Energy consumption [J] (Stats structure),3.362
MIN Energy consumption [J] (Stats structure),3.362
SUM Energy consumption [J] (Stats structure),3.362
# CALLTREE;init_0;Main-PWSCF_0;run-PWSCF_0;run-PWSCF-electrons_function_1;electrons-electrons_scf_function_0;c_bands_function_11
# Job info - HDEEM
JOB ID,17281896.12
Nodelist,taurusi5610
AVG Runtime of function [s],0.0114338
MAX Runtime of function [s],0.0114338
MIN Runtime of function [s],0.0114338
# COUNTERS - HDEEM: 
AVG Energy consumption [J] (Stats structure),3.467
MAX Energy consumption [J] (Stats structure),3.467
MIN Energy consumption [J] (Stats structure),3.467
SUM Energy consumption [J] (Stats structure),3.467
# CALLTREE;init_0;Main-PWSCF_0;run-PWSCF_0;run-PWSCF-electrons_function_1;electrons-electrons_scf_function_0;c_bands_function_11
# Job info - HDEEM
JOB ID,17281896.12
Nodelist,taurusi5610
AVG Runtime of function [s],0.0113038
MAX Runtime of function [s],0.0113038
MIN Runtime of function [s],0.0113038
# COUNTERS - HDEEM: 
AVG Energy consumption [J] (Stats structure),3.459
MAX Energy consumption [J] (Stats structure),3.459
MIN Energy consumption [J] (Stats structure),3.459
SUM Energy consumption [J] (Stats structure),3.459
# CALLTREE;init_0;Main-PWSCF_0;run-PWSCF_0;run-PWSCF-electrons_function_1;electrons-electrons_scf_function_0;c_bands_function_11
# Job info - HDEEM
JOB ID,17281896.12
Nodelist,taurusi5610
AVG Runtime of function [s],0.0113131
MAX Runtime of function [s],0.0113131
MIN Runtime of function [s],0.0113131
# COUNTERS - HDEEM: 
AVG Energy consumption [J] (Stats structure),3.474
MAX Energy consumption [J] (Stats structure),3.474
MIN Energy consumption [J] (Stats structure),3.474
SUM Energy consumption [J] (Stats structure),3.474
# CALLTREE;init_0;Main-PWSCF_0;run-PWSCF_0;run-PWSCF-electrons_function_1;electrons-electrons_scf_function_0;c_bands_function_12
# Job info - HDEEM
JOB ID,17281896.12
Nodelist,taurusi5610
AVG Runtime of function [s],0.0111122
MAX Runtime of function [s],0.0111122
MIN Runtime of function [s],0.0111122
# COUNTERS - HDEEM: 
AVG Energy consumption [J] (Stats structure),3.332
MAX Energy consumption [J] (Stats structure),3.332
MIN Energy consumption [J] (Stats structure),3.332
SUM Energy consumption [J] (Stats structure),3.332
# CALLTREE;init_0;Main-PWSCF_0;run-PWSCF_0;run-PWSCF-electrons_function_1;electrons-electrons_scf_function_0;c_bands_function_12
# Job info - HDEEM
JOB ID,17281896.12
Nodelist,taurusi5610
AVG Runtime of function [s],0.0113839
MAX Runtime of function [s],0.0113839
MIN Runtime of function [s],0.0113839
# COUNTERS - HDEEM: 
AVG Energy consumption [J] (Stats structure),3.458
MAX Energy consumption [J] (Stats structure),3.458
MIN Energy consumption [J] (Stats structure),3.458
SUM Energy consumption [J] (Stats structure),3.458
# CALLTREE;init_0;Main-PWSCF_0;run-PWSCF_0;run-PWSCF-electrons_function_1;electrons-electrons_scf_function_0;c_bands_function_12
# Job info - HDEEM
JOB ID,17281896.12
Nodelist,taurusi5610
AVG Runtime of function [s],0.011238
MAX Runtime of function [s],0.011238
MIN Runtime of function [s],0.011238
# COUNTERS - HDEEM: 
AVG Energy consumption [J] (Stats structure),3.478
MAX Energy consumption [J] (Stats structure),3.478
MIN Energy consumption [J] (Stats structure),3.478
SUM Energy consumption [J] (Stats structure),3.478
# CALLTREE;init_0;Main-PWSCF_0;run-PWSCF_0;run-PWSCF-electrons_function_1;electrons-electrons_scf_function_0;c_bands_function_12
# Job info - HDEEM
JOB ID,17281896.12
Nodelist,taurusi5610
AVG Runtime of function [s],0.0112503
MAX Runtime of function [s],0.0112503
MIN Runtime of function [s],0.0112503
# COUNTERS - HDEEM: 
AVG Energy consumption [J] (Stats structure),3.472
MAX Energy consumption [J] (Stats structure),3.472
MIN Energy consumption [J] (Stats structure),3.472
SUM Energy consumption [J] (Stats structure),3.472
# CALLTREE;init_0;Main-PWSCF_0;run-PWSCF_0;run-PWSCF-electrons_function_1;electrons-electrons_scf_function_0;c_bands_function_13
# Job info - HDEEM
JOB ID,17281896.12
Nodelist,taurusi5610
AVG Runtime of function [s],0.0113653
MAX Runtime of function [s],0.0113653
MIN Runtime of function [s],0.0113653
# COUNTERS - HDEEM: 
AVG Energy consumption [J] (Stats structure),3.375
MAX Energy consumption [J] (Stats structure),3.375
MIN Energy consumption [J] (Stats structure),3.375
SUM Energy consumption [J] (Stats structure),3.375
# CALLTREE;init_0;Main-PWSCF_0;run-PWSCF_0;run-PWSCF-electrons_function_1;electrons-electrons_scf_function_0;c_bands_function_13
# Job info - HDEEM
JOB ID,17281896.12
Nodelist,taurusi5610
AVG Runtime of function [s],0.0109837
MAX Runtime of function [s],0.0109837
MIN Runtime of function [s],0.0109837
# COUNTERS - HDEEM: 
AVG Energy consumption [J] (Stats structure),3.46
MAX Energy consumption [J] (Stats structure),3.46
MIN Energy consumption [J] (Stats structure),3.46
SUM Energy consumption [J] (Stats structure),3.46
# CALLTREE;init_0;Main-PWSCF_0;run-PWSCF_0;run-PWSCF-electrons_function_1;electrons-electrons_scf_function_0;c_bands_function_13
# Job info - HDEEM
JOB ID,17281896.12
Nodelist,taurusi5610
AVG Runtime of function [s],0.0113428
MAX Runtime of function [s],0.0113428
MIN Runtime of function [s],0.0113428
# COUNTERS - HDEEM: 
AVG Energy consumption [J] (Stats structure),3.432
MAX Energy consumption [J] (Stats structure),3.432
MIN Energy consumption [J] (Stats structure),3.432
SUM Energy consumption [J] (Stats structure),3.432
# CALLTREE;init_0;Main-PWSCF_0;run-PWSCF_0;run-PWSCF-electrons_function_1;electrons-electrons_scf_function_0;c_bands_function_13
# Job info - HDEEM
JOB ID,17281896.12
Nodelist,taurusi5610
AVG Runtime of function [s],0.0113375
MAX Runtime of function [s],0.0113375
MIN Runtime of function [s],0.0113375
# COUNTERS - HDEEM: 
AVG Energy consumption [J] (Stats structure),3.36
MAX Energy consumption [J] (Stats structure),3.36
MIN Energy consumption [J] (Stats structure),3.36
SUM Energy consumption [J] (Stats structure),3.36
# CALLTREE;init_0;Main-PWSCF_0;run-PWSCF_0;run-PWSCF-electrons_function_1;electrons-electrons_scf_function_0;c_bands_function_14
# Job info - HDEEM
JOB ID,17281896.12
Nodelist,taurusi5610
AVG Runtime of function [s],0.0113769
MAX Runtime of function [s],0.0113769
MIN Runtime of function [s],0.0113769
# COUNTERS - HDEEM: 
AVG Energy consumption [J] (Stats structure),3.37
MAX Energy consumption [J] (Stats structure),3.37
MIN Energy consumption [J] (Stats structure),3.37
SUM Energy consumption [J] (Stats structure),3.37
# CALLTREE;init_0;Main-PWSCF_0;run-PWSCF_0;run-PWSCF-electrons_function_1;electrons-electrons_scf_function_0;c_bands_function_14
# Job info - HDEEM
JOB ID,17281896.12
Nodelist,taurusi5610
AVG Runtime of function [s],0.0114015
MAX Runtime of function [s],0.0114015
MIN Runtime of function [s],0.0114015
# COUNTERS - HDEEM: 
AVG Energy consumption [J] (Stats structure),3.453
MAX Energy consumption [J] (Stats structure),3.453
MIN Energy consumption [J] (Stats structure),3.453
SUM Energy consumption [J] (Stats structure),3.453
# CALLTREE;init_0;Main-PWSCF_0;run-PWSCF_0;run-PWSCF-electrons_function_1;electrons-electrons_scf_function_0;c_bands_function_14
# Job info - HDEEM
JOB ID,17281896.12
Nodelist,taurusi5610
AVG Runtime of function [s],0.0113345
MAX Runtime of function [s],0.0113345
MIN Runtime of function [s],0.0113345
# COUNTERS - HDEEM: 
AVG Energy consumption [J] (Stats structure),3.472
MAX Energy consumption [J] (Stats structure),3.472
MIN Energy consumption [J] (Stats structure),3.472
SUM Energy consumption [J] (Stats structure),3.472
# CALLTREE;init_0;Main-PWSCF_0;run-PWSCF_0;run-PWSCF-electrons_function_1;electrons-electrons_scf_function_0;c_bands_function_14
# Job info - HDEEM
JOB ID,17281896.12
Nodelist,taurusi5610
AVG Runtime of function [s],0.0113167
MAX Runtime of function [s],0.0113167
MIN Runtime of function [s],0.0113167
# COUNTERS - HDEEM: 
AVG Energy consumption [J] (Stats structure),3.471
MAX Energy consumption [J] (Stats structure),3.471
MIN Energy consumption [J] (Stats structure),3.471
SUM Energy consumption [J] (Stats structure),3.471
# CALLTREE;init_0;Main-PWSCF_0;run-PWSCF_0;run-PWSCF-electrons_function_1;electrons-electrons_scf_function_0;c_bands_function_15
# Job info - HDEEM
JOB ID,17281896.12
Nodelist,taurusi5610
AVG Runtime of function [s],0.0113983
MAX Runtime of function [s],0.0113983
MIN Runtime of function [s],0.0113983
# COUNTERS - HDEEM: 
AVG Energy consumption [J] (Stats structure),3.359
MAX Energy consumption [J] (Stats structure),3.359
MIN Energy consumption [J] (Stats structure),3.359
SUM Energy consumption [J] (Stats structure),3.359
# CALLTREE;init_0;Main-PWSCF_0;run-PWSCF_0;run-PWSCF-electrons_function_1;electrons-electrons_scf_function_0;c_bands_function_15
# Job info - HDEEM
JOB ID,17281896.12
Nodelist,taurusi5610
AVG Runtime of function [s],0.0126574
MAX Runtime of function [s],0.0126574
MIN Runtime of function [s],0.0126574
# COUNTERS - HDEEM: 
AVG Energy consumption [J] (Stats structure),3.7
MAX Energy consumption [J] (Stats structure),3.7
MIN Energy consumption [J] (Stats structure),3.7
SUM Energy consumption [J] (Stats structure),3.7
# CALLTREE;init_0;Main-PWSCF_0;run-PWSCF_0;run-PWSCF-electrons_function_1;electrons-electrons_scf_function_0;c_bands_function_15
# Job info - HDEEM
JOB ID,17281896.12
Nodelist,taurusi5610
AVG Runtime of function [s],0.0113437
MAX Runtime of function [s],0.0113437
MIN Runtime of function [s],0.0113437
# COUNTERS - HDEEM: 
AVG Energy consumption [J] (Stats structure),3.468
MAX Energy consumption [J] (Stats structure),3.468
MIN Energy consumption [J] (Stats structure),3.468
SUM Energy consumption [J] (Stats structure),3.468
# CALLTREE;init_0;Main-PWSCF_0;run-PWSCF_0;run-PWSCF-electrons_function_1;electrons-electrons_scf_function_0;c_bands_function_15
# Job info - HDEEM
JOB ID,17281896.12
Nodelist,taurusi5610
AVG Runtime of function [s],0.0113563
MAX Runtime of function [s],0.0113563
MIN Runtime of function [s],0.0113563
# COUNTERS - HDEEM: 
AVG Energy consumption [J] (Stats structure),3.456
MAX Energy consumption [J] (Stats structure),3.456
MIN Energy consumption [J] (Stats structure),3.456
SUM Energy consumption [J] (Stats structure),3.456
