# CALLTREE;init_0;Main-PWSCF_0;run-PWSCF_0;run-PWSCF-electrons_function_1;electrons-electrons_scf_function_0
# Job info - HDEEM
JOB ID,17280380.4
Nodelist,taurusi5526
AVG Runtime of function [s],11.1699
MAX Runtime of function [s],11.1699
MIN Runtime of function [s],11.1699
# COUNTERS - HDEEM: 
AVG Energy consumption [J] (Stats structure),1106.87
MAX Energy consumption [J] (Stats structure),1106.87
MIN Energy consumption [J] (Stats structure),1106.87
SUM Energy consumption [J] (Stats structure),1106.87
# CALLTREE;init_0;Main-PWSCF_0;run-PWSCF_0;run-PWSCF-electrons_function_1;electrons-electrons_scf_function_0
# Job info - HDEEM
JOB ID,17280380.4
Nodelist,taurusi5526
AVG Runtime of function [s],11.1332
MAX Runtime of function [s],11.1332
MIN Runtime of function [s],11.1332
# COUNTERS - HDEEM: 
AVG Energy consumption [J] (Stats structure),1103.84
MAX Energy consumption [J] (Stats structure),1103.84
MIN Energy consumption [J] (Stats structure),1103.84
SUM Energy consumption [J] (Stats structure),1103.84
# CALLTREE;init_0;Main-PWSCF_0;run-PWSCF_0;run-PWSCF-electrons_function_1;electrons-electrons_scf_function_0
# Job info - HDEEM
JOB ID,17280380.4
Nodelist,taurusi5526
AVG Runtime of function [s],11.1581
MAX Runtime of function [s],11.1581
MIN Runtime of function [s],11.1581
# COUNTERS - HDEEM: 
AVG Energy consumption [J] (Stats structure),1096.62
MAX Energy consumption [J] (Stats structure),1096.62
MIN Energy consumption [J] (Stats structure),1096.62
SUM Energy consumption [J] (Stats structure),1096.62
# CALLTREE;init_0;Main-PWSCF_0;run-PWSCF_0;run-PWSCF-electrons_function_1;electrons-electrons_scf_function_0
# Job info - HDEEM
JOB ID,17280380.4
Nodelist,taurusi5526
AVG Runtime of function [s],11.1352
MAX Runtime of function [s],11.1352
MIN Runtime of function [s],11.1352
# COUNTERS - HDEEM: 
AVG Energy consumption [J] (Stats structure),1103.53
MAX Energy consumption [J] (Stats structure),1103.53
MIN Energy consumption [J] (Stats structure),1103.53
SUM Energy consumption [J] (Stats structure),1103.53
# CALLTREE;init_0;Main-PWSCF_0;run-PWSCF_0;run-PWSCF-electrons_function_1;electrons-electrons_scf_function_0
# Job info - HDEEM
JOB ID,17280380.4
Nodelist,taurusi5526
AVG Runtime of function [s],11.1529
MAX Runtime of function [s],11.1529
MIN Runtime of function [s],11.1529
# COUNTERS - HDEEM: 
AVG Energy consumption [J] (Stats structure),1103.61
MAX Energy consumption [J] (Stats structure),1103.61
MIN Energy consumption [J] (Stats structure),1103.61
SUM Energy consumption [J] (Stats structure),1103.61
# CALLTREE;init_0;Main-PWSCF_0;run-PWSCF_0;run-PWSCF-electrons_function_1;electrons-electrons_scf_function_0
# Job info - HDEEM
JOB ID,17280380.4
Nodelist,taurusi5526
AVG Runtime of function [s],11.1258
MAX Runtime of function [s],11.1258
MIN Runtime of function [s],11.1258
# COUNTERS - HDEEM: 
AVG Energy consumption [J] (Stats structure),1100.89
MAX Energy consumption [J] (Stats structure),1100.89
MIN Energy consumption [J] (Stats structure),1100.89
SUM Energy consumption [J] (Stats structure),1100.89
# CALLTREE;init_0;Main-PWSCF_0;run-PWSCF_0;run-PWSCF-electrons_function_1;electrons-electrons_scf_function_0
# Job info - HDEEM
JOB ID,17280380.4
Nodelist,taurusi5526
AVG Runtime of function [s],11.1372
MAX Runtime of function [s],11.1372
MIN Runtime of function [s],11.1372
# COUNTERS - HDEEM: 
AVG Energy consumption [J] (Stats structure),1094.56
MAX Energy consumption [J] (Stats structure),1094.56
MIN Energy consumption [J] (Stats structure),1094.56
SUM Energy consumption [J] (Stats structure),1094.56
# CALLTREE;init_0;Main-PWSCF_0;run-PWSCF_0;run-PWSCF-electrons_function_1;electrons-electrons_scf_function_0
# Job info - HDEEM
JOB ID,17280380.4
Nodelist,taurusi5526
AVG Runtime of function [s],11.1401
MAX Runtime of function [s],11.1401
MIN Runtime of function [s],11.1401
# COUNTERS - HDEEM: 
AVG Energy consumption [J] (Stats structure),1094.9
MAX Energy consumption [J] (Stats structure),1094.9
MIN Energy consumption [J] (Stats structure),1094.9
SUM Energy consumption [J] (Stats structure),1094.9
