# CALLTREE;init_0;Main-PWSCF_0;run-PWSCF_0;run-PWSCF-electrons_function_1;electrons-electrons_scf_function_0
# Job info - HDEEM
JOB ID,17280380.12
Nodelist,taurusi5526
AVG Runtime of function [s],12.0545
MAX Runtime of function [s],12.0545
MIN Runtime of function [s],12.0545
# COUNTERS - HDEEM: 
AVG Energy consumption [J] (Stats structure),1305.59
MAX Energy consumption [J] (Stats structure),1305.59
MIN Energy consumption [J] (Stats structure),1305.59
SUM Energy consumption [J] (Stats structure),1305.59
# CALLTREE;init_0;Main-PWSCF_0;run-PWSCF_0;run-PWSCF-electrons_function_1;electrons-electrons_scf_function_0
# Job info - HDEEM
JOB ID,17280380.12
Nodelist,taurusi5526
AVG Runtime of function [s],11.9889
MAX Runtime of function [s],11.9889
MIN Runtime of function [s],11.9889
# COUNTERS - HDEEM: 
AVG Energy consumption [J] (Stats structure),1308.15
MAX Energy consumption [J] (Stats structure),1308.15
MIN Energy consumption [J] (Stats structure),1308.15
SUM Energy consumption [J] (Stats structure),1308.15
# CALLTREE;init_0;Main-PWSCF_0;run-PWSCF_0;run-PWSCF-electrons_function_1;electrons-electrons_scf_function_0
# Job info - HDEEM
JOB ID,17280380.12
Nodelist,taurusi5526
AVG Runtime of function [s],12.0246
MAX Runtime of function [s],12.0246
MIN Runtime of function [s],12.0246
# COUNTERS - HDEEM: 
AVG Energy consumption [J] (Stats structure),1302.42
MAX Energy consumption [J] (Stats structure),1302.42
MIN Energy consumption [J] (Stats structure),1302.42
SUM Energy consumption [J] (Stats structure),1302.42
# CALLTREE;init_0;Main-PWSCF_0;run-PWSCF_0;run-PWSCF-electrons_function_1;electrons-electrons_scf_function_0
# Job info - HDEEM
JOB ID,17280380.12
Nodelist,taurusi5526
AVG Runtime of function [s],11.9584
MAX Runtime of function [s],11.9584
MIN Runtime of function [s],11.9584
# COUNTERS - HDEEM: 
AVG Energy consumption [J] (Stats structure),1293.98
MAX Energy consumption [J] (Stats structure),1293.98
MIN Energy consumption [J] (Stats structure),1293.98
SUM Energy consumption [J] (Stats structure),1293.98
# CALLTREE;init_0;Main-PWSCF_0;run-PWSCF_0;run-PWSCF-electrons_function_1;electrons-electrons_scf_function_0
# Job info - HDEEM
JOB ID,17280380.12
Nodelist,taurusi5526
AVG Runtime of function [s],11.9925
MAX Runtime of function [s],11.9925
MIN Runtime of function [s],11.9925
# COUNTERS - HDEEM: 
AVG Energy consumption [J] (Stats structure),1298.24
MAX Energy consumption [J] (Stats structure),1298.24
MIN Energy consumption [J] (Stats structure),1298.24
SUM Energy consumption [J] (Stats structure),1298.24
# CALLTREE;init_0;Main-PWSCF_0;run-PWSCF_0;run-PWSCF-electrons_function_1;electrons-electrons_scf_function_0
# Job info - HDEEM
JOB ID,17280380.12
Nodelist,taurusi5526
AVG Runtime of function [s],11.9788
MAX Runtime of function [s],11.9788
MIN Runtime of function [s],11.9788
# COUNTERS - HDEEM: 
AVG Energy consumption [J] (Stats structure),1297.15
MAX Energy consumption [J] (Stats structure),1297.15
MIN Energy consumption [J] (Stats structure),1297.15
SUM Energy consumption [J] (Stats structure),1297.15
# CALLTREE;init_0;Main-PWSCF_0;run-PWSCF_0;run-PWSCF-electrons_function_1;electrons-electrons_scf_function_0
# Job info - HDEEM
JOB ID,17280380.12
Nodelist,taurusi5526
AVG Runtime of function [s],11.9884
MAX Runtime of function [s],11.9884
MIN Runtime of function [s],11.9884
# COUNTERS - HDEEM: 
AVG Energy consumption [J] (Stats structure),1297.55
MAX Energy consumption [J] (Stats structure),1297.55
MIN Energy consumption [J] (Stats structure),1297.55
SUM Energy consumption [J] (Stats structure),1297.55
# CALLTREE;init_0;Main-PWSCF_0;run-PWSCF_0;run-PWSCF-electrons_function_1;electrons-electrons_scf_function_0
# Job info - HDEEM
JOB ID,17280380.12
Nodelist,taurusi5526
AVG Runtime of function [s],11.9698
MAX Runtime of function [s],11.9698
MIN Runtime of function [s],11.9698
# COUNTERS - HDEEM: 
AVG Energy consumption [J] (Stats structure),1298.28
MAX Energy consumption [J] (Stats structure),1298.28
MIN Energy consumption [J] (Stats structure),1298.28
SUM Energy consumption [J] (Stats structure),1298.28
