# CALLTREE;init_0;Main-PWSCF_0;run-PWSCF_0;run-PWSCF-electrons_function_1;electrons-electrons_scf_function_0
# Job info - HDEEM
JOB ID,17280380.1
Nodelist,taurusi5526
AVG Runtime of function [s],10.5202
MAX Runtime of function [s],10.5202
MIN Runtime of function [s],10.5202
# COUNTERS - HDEEM: 
AVG Energy consumption [J] (Stats structure),1251.61
MAX Energy consumption [J] (Stats structure),1251.61
MIN Energy consumption [J] (Stats structure),1251.61
SUM Energy consumption [J] (Stats structure),1251.61
# CALLTREE;init_0;Main-PWSCF_0;run-PWSCF_0;run-PWSCF-electrons_function_1;electrons-electrons_scf_function_0
# Job info - HDEEM
JOB ID,17280380.1
Nodelist,taurusi5526
AVG Runtime of function [s],10.5138
MAX Runtime of function [s],10.5138
MIN Runtime of function [s],10.5138
# COUNTERS - HDEEM: 
AVG Energy consumption [J] (Stats structure),1246.18
MAX Energy consumption [J] (Stats structure),1246.18
MIN Energy consumption [J] (Stats structure),1246.18
SUM Energy consumption [J] (Stats structure),1246.18
# CALLTREE;init_0;Main-PWSCF_0;run-PWSCF_0;run-PWSCF-electrons_function_1;electrons-electrons_scf_function_0
# Job info - HDEEM
JOB ID,17280380.1
Nodelist,taurusi5526
AVG Runtime of function [s],10.5048
MAX Runtime of function [s],10.5048
MIN Runtime of function [s],10.5048
# COUNTERS - HDEEM: 
AVG Energy consumption [J] (Stats structure),1235.63
MAX Energy consumption [J] (Stats structure),1235.63
MIN Energy consumption [J] (Stats structure),1235.63
SUM Energy consumption [J] (Stats structure),1235.63
# CALLTREE;init_0;Main-PWSCF_0;run-PWSCF_0;run-PWSCF-electrons_function_1;electrons-electrons_scf_function_0
# Job info - HDEEM
JOB ID,17280380.1
Nodelist,taurusi5526
AVG Runtime of function [s],10.4812
MAX Runtime of function [s],10.4812
MIN Runtime of function [s],10.4812
# COUNTERS - HDEEM: 
AVG Energy consumption [J] (Stats structure),1232.32
MAX Energy consumption [J] (Stats structure),1232.32
MIN Energy consumption [J] (Stats structure),1232.32
SUM Energy consumption [J] (Stats structure),1232.32
# CALLTREE;init_0;Main-PWSCF_0;run-PWSCF_0;run-PWSCF-electrons_function_1;electrons-electrons_scf_function_0
# Job info - HDEEM
JOB ID,17280380.1
Nodelist,taurusi5526
AVG Runtime of function [s],10.4929
MAX Runtime of function [s],10.4929
MIN Runtime of function [s],10.4929
# COUNTERS - HDEEM: 
AVG Energy consumption [J] (Stats structure),1233.67
MAX Energy consumption [J] (Stats structure),1233.67
MIN Energy consumption [J] (Stats structure),1233.67
SUM Energy consumption [J] (Stats structure),1233.67
# CALLTREE;init_0;Main-PWSCF_0;run-PWSCF_0;run-PWSCF-electrons_function_1;electrons-electrons_scf_function_0
# Job info - HDEEM
JOB ID,17280380.1
Nodelist,taurusi5526
AVG Runtime of function [s],10.4485
MAX Runtime of function [s],10.4485
MIN Runtime of function [s],10.4485
# COUNTERS - HDEEM: 
AVG Energy consumption [J] (Stats structure),1245.69
MAX Energy consumption [J] (Stats structure),1245.69
MIN Energy consumption [J] (Stats structure),1245.69
SUM Energy consumption [J] (Stats structure),1245.69
# CALLTREE;init_0;Main-PWSCF_0;run-PWSCF_0;run-PWSCF-electrons_function_1;electrons-electrons_scf_function_0
# Job info - HDEEM
JOB ID,17280380.1
Nodelist,taurusi5526
AVG Runtime of function [s],10.4984
MAX Runtime of function [s],10.4984
MIN Runtime of function [s],10.4984
# COUNTERS - HDEEM: 
AVG Energy consumption [J] (Stats structure),1234.29
MAX Energy consumption [J] (Stats structure),1234.29
MIN Energy consumption [J] (Stats structure),1234.29
SUM Energy consumption [J] (Stats structure),1234.29
# CALLTREE;init_0;Main-PWSCF_0;run-PWSCF_0;run-PWSCF-electrons_function_1;electrons-electrons_scf_function_0
# Job info - HDEEM
JOB ID,17280380.1
Nodelist,taurusi5526
AVG Runtime of function [s],10.4707
MAX Runtime of function [s],10.4707
MIN Runtime of function [s],10.4707
# COUNTERS - HDEEM: 
AVG Energy consumption [J] (Stats structure),1242.32
MAX Energy consumption [J] (Stats structure),1242.32
MIN Energy consumption [J] (Stats structure),1242.32
SUM Energy consumption [J] (Stats structure),1242.32
