# CALLTREE;init_0;Main-PWSCF_0;run-PWSCF_0;run-PWSCF-electrons_function_1;electrons-electrons_scf_function_0
# Job info - HDEEM
JOB ID,17280380.19
Nodelist,taurusi5526
AVG Runtime of function [s],13.6275
MAX Runtime of function [s],13.6275
MIN Runtime of function [s],13.6275
# COUNTERS - HDEEM: 
AVG Energy consumption [J] (Stats structure),1312.89
MAX Energy consumption [J] (Stats structure),1312.89
MIN Energy consumption [J] (Stats structure),1312.89
SUM Energy consumption [J] (Stats structure),1312.89
# CALLTREE;init_0;Main-PWSCF_0;run-PWSCF_0;run-PWSCF-electrons_function_1;electrons-electrons_scf_function_0
# Job info - HDEEM
JOB ID,17280380.19
Nodelist,taurusi5526
AVG Runtime of function [s],13.5416
MAX Runtime of function [s],13.5416
MIN Runtime of function [s],13.5416
# COUNTERS - HDEEM: 
AVG Energy consumption [J] (Stats structure),1310.49
MAX Energy consumption [J] (Stats structure),1310.49
MIN Energy consumption [J] (Stats structure),1310.49
SUM Energy consumption [J] (Stats structure),1310.49
# CALLTREE;init_0;Main-PWSCF_0;run-PWSCF_0;run-PWSCF-electrons_function_1;electrons-electrons_scf_function_0
# Job info - HDEEM
JOB ID,17280380.19
Nodelist,taurusi5526
AVG Runtime of function [s],13.5902
MAX Runtime of function [s],13.5902
MIN Runtime of function [s],13.5902
# COUNTERS - HDEEM: 
AVG Energy consumption [J] (Stats structure),1314.17
MAX Energy consumption [J] (Stats structure),1314.17
MIN Energy consumption [J] (Stats structure),1314.17
SUM Energy consumption [J] (Stats structure),1314.17
# CALLTREE;init_0;Main-PWSCF_0;run-PWSCF_0;run-PWSCF-electrons_function_1;electrons-electrons_scf_function_0
# Job info - HDEEM
JOB ID,17280380.19
Nodelist,taurusi5526
AVG Runtime of function [s],13.5259
MAX Runtime of function [s],13.5259
MIN Runtime of function [s],13.5259
# COUNTERS - HDEEM: 
AVG Energy consumption [J] (Stats structure),1310.85
MAX Energy consumption [J] (Stats structure),1310.85
MIN Energy consumption [J] (Stats structure),1310.85
SUM Energy consumption [J] (Stats structure),1310.85
# CALLTREE;init_0;Main-PWSCF_0;run-PWSCF_0;run-PWSCF-electrons_function_1;electrons-electrons_scf_function_0
# Job info - HDEEM
JOB ID,17280380.19
Nodelist,taurusi5526
AVG Runtime of function [s],13.5336
MAX Runtime of function [s],13.5336
MIN Runtime of function [s],13.5336
# COUNTERS - HDEEM: 
AVG Energy consumption [J] (Stats structure),1303.9
MAX Energy consumption [J] (Stats structure),1303.9
MIN Energy consumption [J] (Stats structure),1303.9
SUM Energy consumption [J] (Stats structure),1303.9
# CALLTREE;init_0;Main-PWSCF_0;run-PWSCF_0;run-PWSCF-electrons_function_1;electrons-electrons_scf_function_0
# Job info - HDEEM
JOB ID,17280380.19
Nodelist,taurusi5526
AVG Runtime of function [s],13.656
MAX Runtime of function [s],13.656
MIN Runtime of function [s],13.656
# COUNTERS - HDEEM: 
AVG Energy consumption [J] (Stats structure),1322.82
MAX Energy consumption [J] (Stats structure),1322.82
MIN Energy consumption [J] (Stats structure),1322.82
SUM Energy consumption [J] (Stats structure),1322.82
# CALLTREE;init_0;Main-PWSCF_0;run-PWSCF_0;run-PWSCF-electrons_function_1;electrons-electrons_scf_function_0
# Job info - HDEEM
JOB ID,17280380.19
Nodelist,taurusi5526
AVG Runtime of function [s],13.5675
MAX Runtime of function [s],13.5675
MIN Runtime of function [s],13.5675
# COUNTERS - HDEEM: 
AVG Energy consumption [J] (Stats structure),1306.71
MAX Energy consumption [J] (Stats structure),1306.71
MIN Energy consumption [J] (Stats structure),1306.71
SUM Energy consumption [J] (Stats structure),1306.71
# CALLTREE;init_0;Main-PWSCF_0;run-PWSCF_0;run-PWSCF-electrons_function_1;electrons-electrons_scf_function_0
# Job info - HDEEM
JOB ID,17280380.19
Nodelist,taurusi5526
AVG Runtime of function [s],13.5481
MAX Runtime of function [s],13.5481
MIN Runtime of function [s],13.5481
# COUNTERS - HDEEM: 
AVG Energy consumption [J] (Stats structure),1305.53
MAX Energy consumption [J] (Stats structure),1305.53
MIN Energy consumption [J] (Stats structure),1305.53
SUM Energy consumption [J] (Stats structure),1305.53
