# CALLTREE;init_0;Main-PWSCF_0;run-PWSCF_0;run-PWSCF-electrons_function_1;electrons-electrons_scf_function_0
# Job info - HDEEM
JOB ID,17280380.2
Nodelist,taurusi5526
AVG Runtime of function [s],10.6437
MAX Runtime of function [s],10.6437
MIN Runtime of function [s],10.6437
# COUNTERS - HDEEM: 
AVG Energy consumption [J] (Stats structure),1166.32
MAX Energy consumption [J] (Stats structure),1166.32
MIN Energy consumption [J] (Stats structure),1166.32
SUM Energy consumption [J] (Stats structure),1166.32
# CALLTREE;init_0;Main-PWSCF_0;run-PWSCF_0;run-PWSCF-electrons_function_1;electrons-electrons_scf_function_0
# Job info - HDEEM
JOB ID,17280380.2
Nodelist,taurusi5526
AVG Runtime of function [s],10.6109
MAX Runtime of function [s],10.6109
MIN Runtime of function [s],10.6109
# COUNTERS - HDEEM: 
AVG Energy consumption [J] (Stats structure),1162.73
MAX Energy consumption [J] (Stats structure),1162.73
MIN Energy consumption [J] (Stats structure),1162.73
SUM Energy consumption [J] (Stats structure),1162.73
# CALLTREE;init_0;Main-PWSCF_0;run-PWSCF_0;run-PWSCF-electrons_function_1;electrons-electrons_scf_function_0
# Job info - HDEEM
JOB ID,17280380.2
Nodelist,taurusi5526
AVG Runtime of function [s],10.6327
MAX Runtime of function [s],10.6327
MIN Runtime of function [s],10.6327
# COUNTERS - HDEEM: 
AVG Energy consumption [J] (Stats structure),1182.29
MAX Energy consumption [J] (Stats structure),1182.29
MIN Energy consumption [J] (Stats structure),1182.29
SUM Energy consumption [J] (Stats structure),1182.29
# CALLTREE;init_0;Main-PWSCF_0;run-PWSCF_0;run-PWSCF-electrons_function_1;electrons-electrons_scf_function_0
# Job info - HDEEM
JOB ID,17280380.2
Nodelist,taurusi5526
AVG Runtime of function [s],10.6239
MAX Runtime of function [s],10.6239
MIN Runtime of function [s],10.6239
# COUNTERS - HDEEM: 
AVG Energy consumption [J] (Stats structure),1174.99
MAX Energy consumption [J] (Stats structure),1174.99
MIN Energy consumption [J] (Stats structure),1174.99
SUM Energy consumption [J] (Stats structure),1174.99
# CALLTREE;init_0;Main-PWSCF_0;run-PWSCF_0;run-PWSCF-electrons_function_1;electrons-electrons_scf_function_0
# Job info - HDEEM
JOB ID,17280380.2
Nodelist,taurusi5526
AVG Runtime of function [s],10.6255
MAX Runtime of function [s],10.6255
MIN Runtime of function [s],10.6255
# COUNTERS - HDEEM: 
AVG Energy consumption [J] (Stats structure),1177.18
MAX Energy consumption [J] (Stats structure),1177.18
MIN Energy consumption [J] (Stats structure),1177.18
SUM Energy consumption [J] (Stats structure),1177.18
# CALLTREE;init_0;Main-PWSCF_0;run-PWSCF_0;run-PWSCF-electrons_function_1;electrons-electrons_scf_function_0
# Job info - HDEEM
JOB ID,17280380.2
Nodelist,taurusi5526
AVG Runtime of function [s],10.5849
MAX Runtime of function [s],10.5849
MIN Runtime of function [s],10.5849
# COUNTERS - HDEEM: 
AVG Energy consumption [J] (Stats structure),1159.8
MAX Energy consumption [J] (Stats structure),1159.8
MIN Energy consumption [J] (Stats structure),1159.8
SUM Energy consumption [J] (Stats structure),1159.8
# CALLTREE;init_0;Main-PWSCF_0;run-PWSCF_0;run-PWSCF-electrons_function_1;electrons-electrons_scf_function_0
# Job info - HDEEM
JOB ID,17280380.2
Nodelist,taurusi5526
AVG Runtime of function [s],10.6021
MAX Runtime of function [s],10.6021
MIN Runtime of function [s],10.6021
# COUNTERS - HDEEM: 
AVG Energy consumption [J] (Stats structure),1161.43
MAX Energy consumption [J] (Stats structure),1161.43
MIN Energy consumption [J] (Stats structure),1161.43
SUM Energy consumption [J] (Stats structure),1161.43
# CALLTREE;init_0;Main-PWSCF_0;run-PWSCF_0;run-PWSCF-electrons_function_1;electrons-electrons_scf_function_0
# Job info - HDEEM
JOB ID,17280380.2
Nodelist,taurusi5526
AVG Runtime of function [s],10.6464
MAX Runtime of function [s],10.6464
MIN Runtime of function [s],10.6464
# COUNTERS - HDEEM: 
AVG Energy consumption [J] (Stats structure),1179.62
MAX Energy consumption [J] (Stats structure),1179.62
MIN Energy consumption [J] (Stats structure),1179.62
SUM Energy consumption [J] (Stats structure),1179.62
