# CALLTREE;init_0;Main-PWSCF_0;run-PWSCF_0;run-PWSCF-electrons_function_1;electrons-electrons_scf_function_0
# Job info - HDEEM
JOB ID,17280380.11
Nodelist,taurusi5526
AVG Runtime of function [s],11.96
MAX Runtime of function [s],11.96
MIN Runtime of function [s],11.96
# COUNTERS - HDEEM: 
AVG Energy consumption [J] (Stats structure),1391.77
MAX Energy consumption [J] (Stats structure),1391.77
MIN Energy consumption [J] (Stats structure),1391.77
SUM Energy consumption [J] (Stats structure),1391.77
# CALLTREE;init_0;Main-PWSCF_0;run-PWSCF_0;run-PWSCF-electrons_function_1;electrons-electrons_scf_function_0
# Job info - HDEEM
JOB ID,17280380.11
Nodelist,taurusi5526
AVG Runtime of function [s],11.8928
MAX Runtime of function [s],11.8928
MIN Runtime of function [s],11.8928
# COUNTERS - HDEEM: 
AVG Energy consumption [J] (Stats structure),1384.87
MAX Energy consumption [J] (Stats structure),1384.87
MIN Energy consumption [J] (Stats structure),1384.87
SUM Energy consumption [J] (Stats structure),1384.87
# CALLTREE;init_0;Main-PWSCF_0;run-PWSCF_0;run-PWSCF-electrons_function_1;electrons-electrons_scf_function_0
# Job info - HDEEM
JOB ID,17280380.11
Nodelist,taurusi5526
AVG Runtime of function [s],11.9366
MAX Runtime of function [s],11.9366
MIN Runtime of function [s],11.9366
# COUNTERS - HDEEM: 
AVG Energy consumption [J] (Stats structure),1389.09
MAX Energy consumption [J] (Stats structure),1389.09
MIN Energy consumption [J] (Stats structure),1389.09
SUM Energy consumption [J] (Stats structure),1389.09
# CALLTREE;init_0;Main-PWSCF_0;run-PWSCF_0;run-PWSCF-electrons_function_1;electrons-electrons_scf_function_0
# Job info - HDEEM
JOB ID,17280380.11
Nodelist,taurusi5526
AVG Runtime of function [s],11.8795
MAX Runtime of function [s],11.8795
MIN Runtime of function [s],11.8795
# COUNTERS - HDEEM: 
AVG Energy consumption [J] (Stats structure),1389.8
MAX Energy consumption [J] (Stats structure),1389.8
MIN Energy consumption [J] (Stats structure),1389.8
SUM Energy consumption [J] (Stats structure),1389.8
# CALLTREE;init_0;Main-PWSCF_0;run-PWSCF_0;run-PWSCF-electrons_function_1;electrons-electrons_scf_function_0
# Job info - HDEEM
JOB ID,17280380.11
Nodelist,taurusi5526
AVG Runtime of function [s],11.9163
MAX Runtime of function [s],11.9163
MIN Runtime of function [s],11.9163
# COUNTERS - HDEEM: 
AVG Energy consumption [J] (Stats structure),1391.72
MAX Energy consumption [J] (Stats structure),1391.72
MIN Energy consumption [J] (Stats structure),1391.72
SUM Energy consumption [J] (Stats structure),1391.72
# CALLTREE;init_0;Main-PWSCF_0;run-PWSCF_0;run-PWSCF-electrons_function_1;electrons-electrons_scf_function_0
# Job info - HDEEM
JOB ID,17280380.11
Nodelist,taurusi5526
AVG Runtime of function [s],11.9333
MAX Runtime of function [s],11.9333
MIN Runtime of function [s],11.9333
# COUNTERS - HDEEM: 
AVG Energy consumption [J] (Stats structure),1398.78
MAX Energy consumption [J] (Stats structure),1398.78
MIN Energy consumption [J] (Stats structure),1398.78
SUM Energy consumption [J] (Stats structure),1398.78
# CALLTREE;init_0;Main-PWSCF_0;run-PWSCF_0;run-PWSCF-electrons_function_1;electrons-electrons_scf_function_0
# Job info - HDEEM
JOB ID,17280380.11
Nodelist,taurusi5526
AVG Runtime of function [s],11.9252
MAX Runtime of function [s],11.9252
MIN Runtime of function [s],11.9252
# COUNTERS - HDEEM: 
AVG Energy consumption [J] (Stats structure),1392.37
MAX Energy consumption [J] (Stats structure),1392.37
MIN Energy consumption [J] (Stats structure),1392.37
SUM Energy consumption [J] (Stats structure),1392.37
# CALLTREE;init_0;Main-PWSCF_0;run-PWSCF_0;run-PWSCF-electrons_function_1;electrons-electrons_scf_function_0
# Job info - HDEEM
JOB ID,17280380.11
Nodelist,taurusi5526
AVG Runtime of function [s],11.9119
MAX Runtime of function [s],11.9119
MIN Runtime of function [s],11.9119
# COUNTERS - HDEEM: 
AVG Energy consumption [J] (Stats structure),1392.68
MAX Energy consumption [J] (Stats structure),1392.68
MIN Energy consumption [J] (Stats structure),1392.68
SUM Energy consumption [J] (Stats structure),1392.68
