# CALLTREE;init_0;Main-PWSCF_0;run-PWSCF_0;run-PWSCF-electrons_function_1;electrons-electrons_scf_function_0
# Job info - HDEEM
JOB ID,17280380.0
Nodelist,taurusi5526
AVG Runtime of function [s],10.4359
MAX Runtime of function [s],10.4359
MIN Runtime of function [s],10.4359
# COUNTERS - HDEEM: 
AVG Energy consumption [J] (Stats structure),1331.62
MAX Energy consumption [J] (Stats structure),1331.62
MIN Energy consumption [J] (Stats structure),1331.62
SUM Energy consumption [J] (Stats structure),1331.62
# CALLTREE;init_0;Main-PWSCF_0;run-PWSCF_0;run-PWSCF-electrons_function_1;electrons-electrons_scf_function_0
# Job info - HDEEM
JOB ID,17280380.0
Nodelist,taurusi5526
AVG Runtime of function [s],10.3863
MAX Runtime of function [s],10.3863
MIN Runtime of function [s],10.3863
# COUNTERS - HDEEM: 
AVG Energy consumption [J] (Stats structure),1324.86
MAX Energy consumption [J] (Stats structure),1324.86
MIN Energy consumption [J] (Stats structure),1324.86
SUM Energy consumption [J] (Stats structure),1324.86
# CALLTREE;init_0;Main-PWSCF_0;run-PWSCF_0;run-PWSCF-electrons_function_1;electrons-electrons_scf_function_0
# Job info - HDEEM
JOB ID,17280380.0
Nodelist,taurusi5526
AVG Runtime of function [s],10.4116
MAX Runtime of function [s],10.4116
MIN Runtime of function [s],10.4116
# COUNTERS - HDEEM: 
AVG Energy consumption [J] (Stats structure),1340.85
MAX Energy consumption [J] (Stats structure),1340.85
MIN Energy consumption [J] (Stats structure),1340.85
SUM Energy consumption [J] (Stats structure),1340.85
# CALLTREE;init_0;Main-PWSCF_0;run-PWSCF_0;run-PWSCF-electrons_function_1;electrons-electrons_scf_function_0
# Job info - HDEEM
JOB ID,17280380.0
Nodelist,taurusi5526
AVG Runtime of function [s],10.3598
MAX Runtime of function [s],10.3598
MIN Runtime of function [s],10.3598
# COUNTERS - HDEEM: 
AVG Energy consumption [J] (Stats structure),1322.82
MAX Energy consumption [J] (Stats structure),1322.82
MIN Energy consumption [J] (Stats structure),1322.82
SUM Energy consumption [J] (Stats structure),1322.82
# CALLTREE;init_0;Main-PWSCF_0;run-PWSCF_0;run-PWSCF-electrons_function_1;electrons-electrons_scf_function_0
# Job info - HDEEM
JOB ID,17280380.0
Nodelist,taurusi5526
AVG Runtime of function [s],10.3747
MAX Runtime of function [s],10.3747
MIN Runtime of function [s],10.3747
# COUNTERS - HDEEM: 
AVG Energy consumption [J] (Stats structure),1332.58
MAX Energy consumption [J] (Stats structure),1332.58
MIN Energy consumption [J] (Stats structure),1332.58
SUM Energy consumption [J] (Stats structure),1332.58
# CALLTREE;init_0;Main-PWSCF_0;run-PWSCF_0;run-PWSCF-electrons_function_1;electrons-electrons_scf_function_0
# Job info - HDEEM
JOB ID,17280380.0
Nodelist,taurusi5526
AVG Runtime of function [s],10.3607
MAX Runtime of function [s],10.3607
MIN Runtime of function [s],10.3607
# COUNTERS - HDEEM: 
AVG Energy consumption [J] (Stats structure),1321.74
MAX Energy consumption [J] (Stats structure),1321.74
MIN Energy consumption [J] (Stats structure),1321.74
SUM Energy consumption [J] (Stats structure),1321.74
# CALLTREE;init_0;Main-PWSCF_0;run-PWSCF_0;run-PWSCF-electrons_function_1;electrons-electrons_scf_function_0
# Job info - HDEEM
JOB ID,17280380.0
Nodelist,taurusi5526
AVG Runtime of function [s],10.3739
MAX Runtime of function [s],10.3739
MIN Runtime of function [s],10.3739
# COUNTERS - HDEEM: 
AVG Energy consumption [J] (Stats structure),1322.91
MAX Energy consumption [J] (Stats structure),1322.91
MIN Energy consumption [J] (Stats structure),1322.91
SUM Energy consumption [J] (Stats structure),1322.91
# CALLTREE;init_0;Main-PWSCF_0;run-PWSCF_0;run-PWSCF-electrons_function_1;electrons-electrons_scf_function_0
# Job info - HDEEM
JOB ID,17280380.0
Nodelist,taurusi5526
AVG Runtime of function [s],10.3913
MAX Runtime of function [s],10.3913
MIN Runtime of function [s],10.3913
# COUNTERS - HDEEM: 
AVG Energy consumption [J] (Stats structure),1325.88
MAX Energy consumption [J] (Stats structure),1325.88
MIN Energy consumption [J] (Stats structure),1325.88
SUM Energy consumption [J] (Stats structure),1325.88
