# CALLTREE;init_0;Main-PWSCF_0;run-PWSCF_0
# Job info - HDEEM
JOB ID,17281896.5
Nodelist,taurusi5610
AVG Runtime of function [s],5.89987
MAX Runtime of function [s],5.89987
MIN Runtime of function [s],5.89987
# COUNTERS - HDEEM: 
AVG Energy consumption [J] (Stats structure),1623.45
MAX Energy consumption [J] (Stats structure),1623.45
MIN Energy consumption [J] (Stats structure),1623.45
SUM Energy consumption [J] (Stats structure),1623.45
# CALLTREE;init_0;Main-PWSCF_0;run-PWSCF_0
# Job info - HDEEM
JOB ID,17281896.5
Nodelist,taurusi5610
AVG Runtime of function [s],202.452
MAX Runtime of function [s],202.452
MIN Runtime of function [s],202.452
# COUNTERS - HDEEM: 
AVG Energy consumption [J] (Stats structure),54501
MAX Energy consumption [J] (Stats structure),54501
MIN Energy consumption [J] (Stats structure),54501
SUM Energy consumption [J] (Stats structure),54501
