# CALLTREE;init_0;Main-PWSCF_0;run-PWSCF_0
# Job info - HDEEM
JOB ID,17281896.4
Nodelist,taurusi5610
AVG Runtime of function [s],6.11465
MAX Runtime of function [s],6.11465
MIN Runtime of function [s],6.11465
# COUNTERS - HDEEM: 
AVG Energy consumption [J] (Stats structure),1618.57
MAX Energy consumption [J] (Stats structure),1618.57
MIN Energy consumption [J] (Stats structure),1618.57
SUM Energy consumption [J] (Stats structure),1618.57
# CALLTREE;init_0;Main-PWSCF_0;run-PWSCF_0
# Job info - HDEEM
JOB ID,17281896.4
Nodelist,taurusi5610
AVG Runtime of function [s],210.533
MAX Runtime of function [s],210.533
MIN Runtime of function [s],210.533
# COUNTERS - HDEEM: 
AVG Energy consumption [J] (Stats structure),54400.9
MAX Energy consumption [J] (Stats structure),54400.9
MIN Energy consumption [J] (Stats structure),54400.9
SUM Energy consumption [J] (Stats structure),54400.9
