# CALLTREE;init_0;Main-PWSCF_0;run-PWSCF_0
# Job info - HDEEM
JOB ID,17281896.14
Nodelist,taurusi5610
AVG Runtime of function [s],7.74261
MAX Runtime of function [s],7.74261
MIN Runtime of function [s],7.74261
# COUNTERS - HDEEM: 
AVG Energy consumption [J] (Stats structure),1478.87
MAX Energy consumption [J] (Stats structure),1478.87
MIN Energy consumption [J] (Stats structure),1478.87
SUM Energy consumption [J] (Stats structure),1478.87
# CALLTREE;init_0;Main-PWSCF_0;run-PWSCF_0
# Job info - HDEEM
JOB ID,17281896.14
Nodelist,taurusi5610
AVG Runtime of function [s],260.999
MAX Runtime of function [s],260.999
MIN Runtime of function [s],260.999
# COUNTERS - HDEEM: 
AVG Energy consumption [J] (Stats structure),49038.4
MAX Energy consumption [J] (Stats structure),49038.4
MIN Energy consumption [J] (Stats structure),49038.4
SUM Energy consumption [J] (Stats structure),49038.4
