# CALLTREE;init_0;Main-PWSCF_0;run-PWSCF_0;run-PWSCF-electrons_function_1;electrons-electrons_scf_function_0
# Job info - HDEEM
JOB ID,17280379.18
Nodelist,taurusi5525
AVG Runtime of function [s],16.3905
MAX Runtime of function [s],16.3905
MIN Runtime of function [s],16.3905
# COUNTERS - HDEEM: 
AVG Energy consumption [J] (Stats structure),1773.78
MAX Energy consumption [J] (Stats structure),1773.78
MIN Energy consumption [J] (Stats structure),1773.78
SUM Energy consumption [J] (Stats structure),1773.78
# CALLTREE;init_0;Main-PWSCF_0;run-PWSCF_0;run-PWSCF-electrons_function_1;electrons-electrons_scf_function_0
# Job info - HDEEM
JOB ID,17280379.18
Nodelist,taurusi5525
AVG Runtime of function [s],16.3818
MAX Runtime of function [s],16.3818
MIN Runtime of function [s],16.3818
# COUNTERS - HDEEM: 
AVG Energy consumption [J] (Stats structure),1772.03
MAX Energy consumption [J] (Stats structure),1772.03
MIN Energy consumption [J] (Stats structure),1772.03
SUM Energy consumption [J] (Stats structure),1772.03
# CALLTREE;init_0;Main-PWSCF_0;run-PWSCF_0;run-PWSCF-electrons_function_1;electrons-electrons_scf_function_0
# Job info - HDEEM
JOB ID,17280379.18
Nodelist,taurusi5525
AVG Runtime of function [s],16.3926
MAX Runtime of function [s],16.3926
MIN Runtime of function [s],16.3926
# COUNTERS - HDEEM: 
AVG Energy consumption [J] (Stats structure),1771.23
MAX Energy consumption [J] (Stats structure),1771.23
MIN Energy consumption [J] (Stats structure),1771.23
SUM Energy consumption [J] (Stats structure),1771.23
# CALLTREE;init_0;Main-PWSCF_0;run-PWSCF_0;run-PWSCF-electrons_function_1;electrons-electrons_scf_function_0
# Job info - HDEEM
JOB ID,17280379.18
Nodelist,taurusi5525
AVG Runtime of function [s],16.4002
MAX Runtime of function [s],16.4002
MIN Runtime of function [s],16.4002
# COUNTERS - HDEEM: 
AVG Energy consumption [J] (Stats structure),1762.78
MAX Energy consumption [J] (Stats structure),1762.78
MIN Energy consumption [J] (Stats structure),1762.78
SUM Energy consumption [J] (Stats structure),1762.78
# CALLTREE;init_0;Main-PWSCF_0;run-PWSCF_0;run-PWSCF-electrons_function_1;electrons-electrons_scf_function_0
# Job info - HDEEM
JOB ID,17280379.18
Nodelist,taurusi5525
AVG Runtime of function [s],16.3758
MAX Runtime of function [s],16.3758
MIN Runtime of function [s],16.3758
# COUNTERS - HDEEM: 
AVG Energy consumption [J] (Stats structure),1771.44
MAX Energy consumption [J] (Stats structure),1771.44
MIN Energy consumption [J] (Stats structure),1771.44
SUM Energy consumption [J] (Stats structure),1771.44
# CALLTREE;init_0;Main-PWSCF_0;run-PWSCF_0;run-PWSCF-electrons_function_1;electrons-electrons_scf_function_0
# Job info - HDEEM
JOB ID,17280379.18
Nodelist,taurusi5525
AVG Runtime of function [s],16.3999
MAX Runtime of function [s],16.3999
MIN Runtime of function [s],16.3999
# COUNTERS - HDEEM: 
AVG Energy consumption [J] (Stats structure),1763.8
MAX Energy consumption [J] (Stats structure),1763.8
MIN Energy consumption [J] (Stats structure),1763.8
SUM Energy consumption [J] (Stats structure),1763.8
# CALLTREE;init_0;Main-PWSCF_0;run-PWSCF_0;run-PWSCF-electrons_function_1;electrons-electrons_scf_function_0
# Job info - HDEEM
JOB ID,17280379.18
Nodelist,taurusi5525
AVG Runtime of function [s],16.3996
MAX Runtime of function [s],16.3996
MIN Runtime of function [s],16.3996
# COUNTERS - HDEEM: 
AVG Energy consumption [J] (Stats structure),1764.13
MAX Energy consumption [J] (Stats structure),1764.13
MIN Energy consumption [J] (Stats structure),1764.13
SUM Energy consumption [J] (Stats structure),1764.13
# CALLTREE;init_0;Main-PWSCF_0;run-PWSCF_0;run-PWSCF-electrons_function_1;electrons-electrons_scf_function_0
# Job info - HDEEM
JOB ID,17280379.18
Nodelist,taurusi5525
AVG Runtime of function [s],16.3911
MAX Runtime of function [s],16.3911
MIN Runtime of function [s],16.3911
# COUNTERS - HDEEM: 
AVG Energy consumption [J] (Stats structure),1777.88
MAX Energy consumption [J] (Stats structure),1777.88
MIN Energy consumption [J] (Stats structure),1777.88
SUM Energy consumption [J] (Stats structure),1777.88
# CALLTREE;init_0;Main-PWSCF_0;run-PWSCF_0;run-PWSCF-electrons_function_1;electrons-electrons_scf_function_0
# Job info - HDEEM
JOB ID,17280379.18
Nodelist,taurusi5525
AVG Runtime of function [s],16.4137
MAX Runtime of function [s],16.4137
MIN Runtime of function [s],16.4137
# COUNTERS - HDEEM: 
AVG Energy consumption [J] (Stats structure),1766.34
MAX Energy consumption [J] (Stats structure),1766.34
MIN Energy consumption [J] (Stats structure),1766.34
SUM Energy consumption [J] (Stats structure),1766.34
# CALLTREE;init_0;Main-PWSCF_0;run-PWSCF_0;run-PWSCF-electrons_function_1;electrons-electrons_scf_function_0
# Job info - HDEEM
JOB ID,17280379.18
Nodelist,taurusi5525
AVG Runtime of function [s],16.4602
MAX Runtime of function [s],16.4602
MIN Runtime of function [s],16.4602
# COUNTERS - HDEEM: 
AVG Energy consumption [J] (Stats structure),1777.4
MAX Energy consumption [J] (Stats structure),1777.4
MIN Energy consumption [J] (Stats structure),1777.4
SUM Energy consumption [J] (Stats structure),1777.4
# CALLTREE;init_0;Main-PWSCF_0;run-PWSCF_0;run-PWSCF-electrons_function_1;electrons-electrons_scf_function_0
# Job info - HDEEM
JOB ID,17280379.18
Nodelist,taurusi5525
AVG Runtime of function [s],16.4265
MAX Runtime of function [s],16.4265
MIN Runtime of function [s],16.4265
# COUNTERS - HDEEM: 
AVG Energy consumption [J] (Stats structure),1766.96
MAX Energy consumption [J] (Stats structure),1766.96
MIN Energy consumption [J] (Stats structure),1766.96
SUM Energy consumption [J] (Stats structure),1766.96
# CALLTREE;init_0;Main-PWSCF_0;run-PWSCF_0;run-PWSCF-electrons_function_1;electrons-electrons_scf_function_0
# Job info - HDEEM
JOB ID,17280379.18
Nodelist,taurusi5525
AVG Runtime of function [s],16.4088
MAX Runtime of function [s],16.4088
MIN Runtime of function [s],16.4088
# COUNTERS - HDEEM: 
AVG Energy consumption [J] (Stats structure),1773.18
MAX Energy consumption [J] (Stats structure),1773.18
MIN Energy consumption [J] (Stats structure),1773.18
SUM Energy consumption [J] (Stats structure),1773.18
# CALLTREE;init_0;Main-PWSCF_0;run-PWSCF_0;run-PWSCF-electrons_function_1;electrons-electrons_scf_function_0
# Job info - HDEEM
JOB ID,17280379.18
Nodelist,taurusi5525
AVG Runtime of function [s],16.3955
MAX Runtime of function [s],16.3955
MIN Runtime of function [s],16.3955
# COUNTERS - HDEEM: 
AVG Energy consumption [J] (Stats structure),1763.57
MAX Energy consumption [J] (Stats structure),1763.57
MIN Energy consumption [J] (Stats structure),1763.57
SUM Energy consumption [J] (Stats structure),1763.57
# CALLTREE;init_0;Main-PWSCF_0;run-PWSCF_0;run-PWSCF-electrons_function_1;electrons-electrons_scf_function_0
# Job info - HDEEM
JOB ID,17280379.18
Nodelist,taurusi5525
AVG Runtime of function [s],16.3896
MAX Runtime of function [s],16.3896
MIN Runtime of function [s],16.3896
# COUNTERS - HDEEM: 
AVG Energy consumption [J] (Stats structure),1767.67
MAX Energy consumption [J] (Stats structure),1767.67
MIN Energy consumption [J] (Stats structure),1767.67
SUM Energy consumption [J] (Stats structure),1767.67
