# CALLTREE;init_0;Main-PWSCF_0;run-PWSCF_0;run-PWSCF-electrons_function_1;electrons-electrons_scf_function_0
# Job info - HDEEM
JOB ID,17280379.10
Nodelist,taurusi5525
AVG Runtime of function [s],12.3616
MAX Runtime of function [s],12.3616
MIN Runtime of function [s],12.3616
# COUNTERS - HDEEM: 
AVG Energy consumption [J] (Stats structure),1655.76
MAX Energy consumption [J] (Stats structure),1655.76
MIN Energy consumption [J] (Stats structure),1655.76
SUM Energy consumption [J] (Stats structure),1655.76
# CALLTREE;init_0;Main-PWSCF_0;run-PWSCF_0;run-PWSCF-electrons_function_1;electrons-electrons_scf_function_0
# Job info - HDEEM
JOB ID,17280379.10
Nodelist,taurusi5525
AVG Runtime of function [s],12.3392
MAX Runtime of function [s],12.3392
MIN Runtime of function [s],12.3392
# COUNTERS - HDEEM: 
AVG Energy consumption [J] (Stats structure),1662.55
MAX Energy consumption [J] (Stats structure),1662.55
MIN Energy consumption [J] (Stats structure),1662.55
SUM Energy consumption [J] (Stats structure),1662.55
# CALLTREE;init_0;Main-PWSCF_0;run-PWSCF_0;run-PWSCF-electrons_function_1;electrons-electrons_scf_function_0
# Job info - HDEEM
JOB ID,17280379.10
Nodelist,taurusi5525
AVG Runtime of function [s],12.3305
MAX Runtime of function [s],12.3305
MIN Runtime of function [s],12.3305
# COUNTERS - HDEEM: 
AVG Energy consumption [J] (Stats structure),1651.27
MAX Energy consumption [J] (Stats structure),1651.27
MIN Energy consumption [J] (Stats structure),1651.27
SUM Energy consumption [J] (Stats structure),1651.27
# CALLTREE;init_0;Main-PWSCF_0;run-PWSCF_0;run-PWSCF-electrons_function_1;electrons-electrons_scf_function_0
# Job info - HDEEM
JOB ID,17280379.10
Nodelist,taurusi5525
AVG Runtime of function [s],12.3261
MAX Runtime of function [s],12.3261
MIN Runtime of function [s],12.3261
# COUNTERS - HDEEM: 
AVG Energy consumption [J] (Stats structure),1658.15
MAX Energy consumption [J] (Stats structure),1658.15
MIN Energy consumption [J] (Stats structure),1658.15
SUM Energy consumption [J] (Stats structure),1658.15
# CALLTREE;init_0;Main-PWSCF_0;run-PWSCF_0;run-PWSCF-electrons_function_1;electrons-electrons_scf_function_0
# Job info - HDEEM
JOB ID,17280379.10
Nodelist,taurusi5525
AVG Runtime of function [s],12.3244
MAX Runtime of function [s],12.3244
MIN Runtime of function [s],12.3244
# COUNTERS - HDEEM: 
AVG Energy consumption [J] (Stats structure),1656.99
MAX Energy consumption [J] (Stats structure),1656.99
MIN Energy consumption [J] (Stats structure),1656.99
SUM Energy consumption [J] (Stats structure),1656.99
# CALLTREE;init_0;Main-PWSCF_0;run-PWSCF_0;run-PWSCF-electrons_function_1;electrons-electrons_scf_function_0
# Job info - HDEEM
JOB ID,17280379.10
Nodelist,taurusi5525
AVG Runtime of function [s],12.3493
MAX Runtime of function [s],12.3493
MIN Runtime of function [s],12.3493
# COUNTERS - HDEEM: 
AVG Energy consumption [J] (Stats structure),1654.07
MAX Energy consumption [J] (Stats structure),1654.07
MIN Energy consumption [J] (Stats structure),1654.07
SUM Energy consumption [J] (Stats structure),1654.07
# CALLTREE;init_0;Main-PWSCF_0;run-PWSCF_0;run-PWSCF-electrons_function_1;electrons-electrons_scf_function_0
# Job info - HDEEM
JOB ID,17280379.10
Nodelist,taurusi5525
AVG Runtime of function [s],12.3119
MAX Runtime of function [s],12.3119
MIN Runtime of function [s],12.3119
# COUNTERS - HDEEM: 
AVG Energy consumption [J] (Stats structure),1648.79
MAX Energy consumption [J] (Stats structure),1648.79
MIN Energy consumption [J] (Stats structure),1648.79
SUM Energy consumption [J] (Stats structure),1648.79
# CALLTREE;init_0;Main-PWSCF_0;run-PWSCF_0;run-PWSCF-electrons_function_1;electrons-electrons_scf_function_0
# Job info - HDEEM
JOB ID,17280379.10
Nodelist,taurusi5525
AVG Runtime of function [s],12.3099
MAX Runtime of function [s],12.3099
MIN Runtime of function [s],12.3099
# COUNTERS - HDEEM: 
AVG Energy consumption [J] (Stats structure),1664.03
MAX Energy consumption [J] (Stats structure),1664.03
MIN Energy consumption [J] (Stats structure),1664.03
SUM Energy consumption [J] (Stats structure),1664.03
# CALLTREE;init_0;Main-PWSCF_0;run-PWSCF_0;run-PWSCF-electrons_function_1;electrons-electrons_scf_function_0
# Job info - HDEEM
JOB ID,17280379.10
Nodelist,taurusi5525
AVG Runtime of function [s],12.3073
MAX Runtime of function [s],12.3073
MIN Runtime of function [s],12.3073
# COUNTERS - HDEEM: 
AVG Energy consumption [J] (Stats structure),1659.89
MAX Energy consumption [J] (Stats structure),1659.89
MIN Energy consumption [J] (Stats structure),1659.89
SUM Energy consumption [J] (Stats structure),1659.89
# CALLTREE;init_0;Main-PWSCF_0;run-PWSCF_0;run-PWSCF-electrons_function_1;electrons-electrons_scf_function_0
# Job info - HDEEM
JOB ID,17280379.10
Nodelist,taurusi5525
AVG Runtime of function [s],12.3049
MAX Runtime of function [s],12.3049
MIN Runtime of function [s],12.3049
# COUNTERS - HDEEM: 
AVG Energy consumption [J] (Stats structure),1648.89
MAX Energy consumption [J] (Stats structure),1648.89
MIN Energy consumption [J] (Stats structure),1648.89
SUM Energy consumption [J] (Stats structure),1648.89
# CALLTREE;init_0;Main-PWSCF_0;run-PWSCF_0;run-PWSCF-electrons_function_1;electrons-electrons_scf_function_0
# Job info - HDEEM
JOB ID,17280379.10
Nodelist,taurusi5525
AVG Runtime of function [s],12.3357
MAX Runtime of function [s],12.3357
MIN Runtime of function [s],12.3357
# COUNTERS - HDEEM: 
AVG Energy consumption [J] (Stats structure),1652.4
MAX Energy consumption [J] (Stats structure),1652.4
MIN Energy consumption [J] (Stats structure),1652.4
SUM Energy consumption [J] (Stats structure),1652.4
# CALLTREE;init_0;Main-PWSCF_0;run-PWSCF_0;run-PWSCF-electrons_function_1;electrons-electrons_scf_function_0
# Job info - HDEEM
JOB ID,17280379.10
Nodelist,taurusi5525
AVG Runtime of function [s],12.3187
MAX Runtime of function [s],12.3187
MIN Runtime of function [s],12.3187
# COUNTERS - HDEEM: 
AVG Energy consumption [J] (Stats structure),1659.74
MAX Energy consumption [J] (Stats structure),1659.74
MIN Energy consumption [J] (Stats structure),1659.74
SUM Energy consumption [J] (Stats structure),1659.74
# CALLTREE;init_0;Main-PWSCF_0;run-PWSCF_0;run-PWSCF-electrons_function_1;electrons-electrons_scf_function_0
# Job info - HDEEM
JOB ID,17280379.10
Nodelist,taurusi5525
AVG Runtime of function [s],12.2922
MAX Runtime of function [s],12.2922
MIN Runtime of function [s],12.2922
# COUNTERS - HDEEM: 
AVG Energy consumption [J] (Stats structure),1661.57
MAX Energy consumption [J] (Stats structure),1661.57
MIN Energy consumption [J] (Stats structure),1661.57
SUM Energy consumption [J] (Stats structure),1661.57
# CALLTREE;init_0;Main-PWSCF_0;run-PWSCF_0;run-PWSCF-electrons_function_1;electrons-electrons_scf_function_0
# Job info - HDEEM
JOB ID,17280379.10
Nodelist,taurusi5525
AVG Runtime of function [s],12.3028
MAX Runtime of function [s],12.3028
MIN Runtime of function [s],12.3028
# COUNTERS - HDEEM: 
AVG Energy consumption [J] (Stats structure),1648.01
MAX Energy consumption [J] (Stats structure),1648.01
MIN Energy consumption [J] (Stats structure),1648.01
SUM Energy consumption [J] (Stats structure),1648.01
