# CALLTREE;init_0;Main-PWSCF_0;run-PWSCF_0;run-PWSCF-electrons_function_1;electrons-electrons_scf_function_0;sum_band_function_0
# Job info - HDEEM
JOB ID,17280379.4
Nodelist,taurusi5525
AVG Runtime of function [s],13.8252
MAX Runtime of function [s],13.8252
MIN Runtime of function [s],13.8252
# COUNTERS - HDEEM: 
AVG Energy consumption [J] (Stats structure),1486.38
MAX Energy consumption [J] (Stats structure),1486.38
MIN Energy consumption [J] (Stats structure),1486.38
SUM Energy consumption [J] (Stats structure),1486.38
# CALLTREE;init_0;Main-PWSCF_0;run-PWSCF_0;run-PWSCF-electrons_function_1;electrons-electrons_scf_function_0;sum_band_function_1
# Job info - HDEEM
JOB ID,17280379.4
Nodelist,taurusi5525
AVG Runtime of function [s],13.7943
MAX Runtime of function [s],13.7943
MIN Runtime of function [s],13.7943
# COUNTERS - HDEEM: 
AVG Energy consumption [J] (Stats structure),1473.18
MAX Energy consumption [J] (Stats structure),1473.18
MIN Energy consumption [J] (Stats structure),1473.18
SUM Energy consumption [J] (Stats structure),1473.18
# CALLTREE;init_0;Main-PWSCF_0;run-PWSCF_0;run-PWSCF-electrons_function_1;electrons-electrons_scf_function_0;sum_band_function_2
# Job info - HDEEM
JOB ID,17280379.4
Nodelist,taurusi5525
AVG Runtime of function [s],13.7278
MAX Runtime of function [s],13.7278
MIN Runtime of function [s],13.7278
# COUNTERS - HDEEM: 
AVG Energy consumption [J] (Stats structure),1466.33
MAX Energy consumption [J] (Stats structure),1466.33
MIN Energy consumption [J] (Stats structure),1466.33
SUM Energy consumption [J] (Stats structure),1466.33
# CALLTREE;init_0;Main-PWSCF_0;run-PWSCF_0;run-PWSCF-electrons_function_1;electrons-electrons_scf_function_0;sum_band_function_3
# Job info - HDEEM
JOB ID,17280379.4
Nodelist,taurusi5525
AVG Runtime of function [s],13.7067
MAX Runtime of function [s],13.7067
MIN Runtime of function [s],13.7067
# COUNTERS - HDEEM: 
AVG Energy consumption [J] (Stats structure),1483.01
MAX Energy consumption [J] (Stats structure),1483.01
MIN Energy consumption [J] (Stats structure),1483.01
SUM Energy consumption [J] (Stats structure),1483.01
# CALLTREE;init_0;Main-PWSCF_0;run-PWSCF_0;run-PWSCF-electrons_function_1;electrons-electrons_scf_function_0;sum_band_function_4
# Job info - HDEEM
JOB ID,17280379.4
Nodelist,taurusi5525
AVG Runtime of function [s],13.722
MAX Runtime of function [s],13.722
MIN Runtime of function [s],13.722
# COUNTERS - HDEEM: 
AVG Energy consumption [J] (Stats structure),1466.65
MAX Energy consumption [J] (Stats structure),1466.65
MIN Energy consumption [J] (Stats structure),1466.65
SUM Energy consumption [J] (Stats structure),1466.65
# CALLTREE;init_0;Main-PWSCF_0;run-PWSCF_0;run-PWSCF-electrons_function_1;electrons-electrons_scf_function_0;sum_band_function_5
# Job info - HDEEM
JOB ID,17280379.4
Nodelist,taurusi5525
AVG Runtime of function [s],13.7511
MAX Runtime of function [s],13.7511
MIN Runtime of function [s],13.7511
# COUNTERS - HDEEM: 
AVG Energy consumption [J] (Stats structure),1481.39
MAX Energy consumption [J] (Stats structure),1481.39
MIN Energy consumption [J] (Stats structure),1481.39
SUM Energy consumption [J] (Stats structure),1481.39
# CALLTREE;init_0;Main-PWSCF_0;run-PWSCF_0;run-PWSCF-electrons_function_1;electrons-electrons_scf_function_0;sum_band_function_6
# Job info - HDEEM
JOB ID,17280379.4
Nodelist,taurusi5525
AVG Runtime of function [s],13.7552
MAX Runtime of function [s],13.7552
MIN Runtime of function [s],13.7552
# COUNTERS - HDEEM: 
AVG Energy consumption [J] (Stats structure),1481.4
MAX Energy consumption [J] (Stats structure),1481.4
MIN Energy consumption [J] (Stats structure),1481.4
SUM Energy consumption [J] (Stats structure),1481.4
# CALLTREE;init_0;Main-PWSCF_0;run-PWSCF_0;run-PWSCF-electrons_function_1;electrons-electrons_scf_function_0;sum_band_function_7
# Job info - HDEEM
JOB ID,17280379.4
Nodelist,taurusi5525
AVG Runtime of function [s],13.7778
MAX Runtime of function [s],13.7778
MIN Runtime of function [s],13.7778
# COUNTERS - HDEEM: 
AVG Energy consumption [J] (Stats structure),1483.14
MAX Energy consumption [J] (Stats structure),1483.14
MIN Energy consumption [J] (Stats structure),1483.14
SUM Energy consumption [J] (Stats structure),1483.14
# CALLTREE;init_0;Main-PWSCF_0;run-PWSCF_0;run-PWSCF-electrons_function_1;electrons-electrons_scf_function_0;sum_band_function_8
# Job info - HDEEM
JOB ID,17280379.4
Nodelist,taurusi5525
AVG Runtime of function [s],13.7208
MAX Runtime of function [s],13.7208
MIN Runtime of function [s],13.7208
# COUNTERS - HDEEM: 
AVG Energy consumption [J] (Stats structure),1465.77
MAX Energy consumption [J] (Stats structure),1465.77
MIN Energy consumption [J] (Stats structure),1465.77
SUM Energy consumption [J] (Stats structure),1465.77
# CALLTREE;init_0;Main-PWSCF_0;run-PWSCF_0;run-PWSCF-electrons_function_1;electrons-electrons_scf_function_0;sum_band_function_9
# Job info - HDEEM
JOB ID,17280379.4
Nodelist,taurusi5525
AVG Runtime of function [s],13.8325
MAX Runtime of function [s],13.8325
MIN Runtime of function [s],13.8325
# COUNTERS - HDEEM: 
AVG Energy consumption [J] (Stats structure),1488.93
MAX Energy consumption [J] (Stats structure),1488.93
MIN Energy consumption [J] (Stats structure),1488.93
SUM Energy consumption [J] (Stats structure),1488.93
# CALLTREE;init_0;Main-PWSCF_0;run-PWSCF_0;run-PWSCF-electrons_function_1;electrons-electrons_scf_function_0;sum_band_function_10
# Job info - HDEEM
JOB ID,17280379.4
Nodelist,taurusi5525
AVG Runtime of function [s],13.7302
MAX Runtime of function [s],13.7302
MIN Runtime of function [s],13.7302
# COUNTERS - HDEEM: 
AVG Energy consumption [J] (Stats structure),1478.2
MAX Energy consumption [J] (Stats structure),1478.2
MIN Energy consumption [J] (Stats structure),1478.2
SUM Energy consumption [J] (Stats structure),1478.2
# CALLTREE;init_0;Main-PWSCF_0;run-PWSCF_0;run-PWSCF-electrons_function_1;electrons-electrons_scf_function_0;sum_band_function_11
# Job info - HDEEM
JOB ID,17280379.4
Nodelist,taurusi5525
AVG Runtime of function [s],13.7203
MAX Runtime of function [s],13.7203
MIN Runtime of function [s],13.7203
# COUNTERS - HDEEM: 
AVG Energy consumption [J] (Stats structure),1473.36
MAX Energy consumption [J] (Stats structure),1473.36
MIN Energy consumption [J] (Stats structure),1473.36
SUM Energy consumption [J] (Stats structure),1473.36
# CALLTREE;init_0;Main-PWSCF_0;run-PWSCF_0;run-PWSCF-electrons_function_1;electrons-electrons_scf_function_0;sum_band_function_12
# Job info - HDEEM
JOB ID,17280379.4
Nodelist,taurusi5525
AVG Runtime of function [s],13.6898
MAX Runtime of function [s],13.6898
MIN Runtime of function [s],13.6898
# COUNTERS - HDEEM: 
AVG Energy consumption [J] (Stats structure),1462.2
MAX Energy consumption [J] (Stats structure),1462.2
MIN Energy consumption [J] (Stats structure),1462.2
SUM Energy consumption [J] (Stats structure),1462.2
# CALLTREE;init_0;Main-PWSCF_0;run-PWSCF_0;run-PWSCF-electrons_function_1;electrons-electrons_scf_function_0;sum_band_function_13
# Job info - HDEEM
JOB ID,17280379.4
Nodelist,taurusi5525
AVG Runtime of function [s],13.7987
MAX Runtime of function [s],13.7987
MIN Runtime of function [s],13.7987
# COUNTERS - HDEEM: 
AVG Energy consumption [J] (Stats structure),1490.28
MAX Energy consumption [J] (Stats structure),1490.28
MIN Energy consumption [J] (Stats structure),1490.28
SUM Energy consumption [J] (Stats structure),1490.28
# CALLTREE;init_0;Main-PWSCF_0;run-PWSCF_0;run-PWSCF-electrons_function_1;electrons-electrons_scf_function_0;sum_band_function_14
# Job info - HDEEM
JOB ID,17280379.4
Nodelist,taurusi5525
AVG Runtime of function [s],13.6665
MAX Runtime of function [s],13.6665
MIN Runtime of function [s],13.6665
# COUNTERS - HDEEM: 
AVG Energy consumption [J] (Stats structure),1474.94
MAX Energy consumption [J] (Stats structure),1474.94
MIN Energy consumption [J] (Stats structure),1474.94
SUM Energy consumption [J] (Stats structure),1474.94
