# CALLTREE;init_0;Main-PWSCF_0;run-PWSCF_0;run-PWSCF-electrons_function_1;electrons-electrons_scf_function_0;sum_band_function_0
# Job info - HDEEM
JOB ID,17280379.9
Nodelist,taurusi5525
AVG Runtime of function [s],14.8944
MAX Runtime of function [s],14.8944
MIN Runtime of function [s],14.8944
# COUNTERS - HDEEM: 
AVG Energy consumption [J] (Stats structure),1582.88
MAX Energy consumption [J] (Stats structure),1582.88
MIN Energy consumption [J] (Stats structure),1582.88
SUM Energy consumption [J] (Stats structure),1582.88
# CALLTREE;init_0;Main-PWSCF_0;run-PWSCF_0;run-PWSCF-electrons_function_1;electrons-electrons_scf_function_0;sum_band_function_1
# Job info - HDEEM
JOB ID,17280379.9
Nodelist,taurusi5525
AVG Runtime of function [s],14.9347
MAX Runtime of function [s],14.9347
MIN Runtime of function [s],14.9347
# COUNTERS - HDEEM: 
AVG Energy consumption [J] (Stats structure),1574.61
MAX Energy consumption [J] (Stats structure),1574.61
MIN Energy consumption [J] (Stats structure),1574.61
SUM Energy consumption [J] (Stats structure),1574.61
# CALLTREE;init_0;Main-PWSCF_0;run-PWSCF_0;run-PWSCF-electrons_function_1;electrons-electrons_scf_function_0;sum_band_function_2
# Job info - HDEEM
JOB ID,17280379.9
Nodelist,taurusi5525
AVG Runtime of function [s],15.0165
MAX Runtime of function [s],15.0165
MIN Runtime of function [s],15.0165
# COUNTERS - HDEEM: 
AVG Energy consumption [J] (Stats structure),1584.78
MAX Energy consumption [J] (Stats structure),1584.78
MIN Energy consumption [J] (Stats structure),1584.78
SUM Energy consumption [J] (Stats structure),1584.78
# CALLTREE;init_0;Main-PWSCF_0;run-PWSCF_0;run-PWSCF-electrons_function_1;electrons-electrons_scf_function_0;sum_band_function_3
# Job info - HDEEM
JOB ID,17280379.9
Nodelist,taurusi5525
AVG Runtime of function [s],14.8194
MAX Runtime of function [s],14.8194
MIN Runtime of function [s],14.8194
# COUNTERS - HDEEM: 
AVG Energy consumption [J] (Stats structure),1562.77
MAX Energy consumption [J] (Stats structure),1562.77
MIN Energy consumption [J] (Stats structure),1562.77
SUM Energy consumption [J] (Stats structure),1562.77
# CALLTREE;init_0;Main-PWSCF_0;run-PWSCF_0;run-PWSCF-electrons_function_1;electrons-electrons_scf_function_0;sum_band_function_4
# Job info - HDEEM
JOB ID,17280379.9
Nodelist,taurusi5525
AVG Runtime of function [s],14.8401
MAX Runtime of function [s],14.8401
MIN Runtime of function [s],14.8401
# COUNTERS - HDEEM: 
AVG Energy consumption [J] (Stats structure),1574.87
MAX Energy consumption [J] (Stats structure),1574.87
MIN Energy consumption [J] (Stats structure),1574.87
SUM Energy consumption [J] (Stats structure),1574.87
# CALLTREE;init_0;Main-PWSCF_0;run-PWSCF_0;run-PWSCF-electrons_function_1;electrons-electrons_scf_function_0;sum_band_function_5
# Job info - HDEEM
JOB ID,17280379.9
Nodelist,taurusi5525
AVG Runtime of function [s],14.9916
MAX Runtime of function [s],14.9916
MIN Runtime of function [s],14.9916
# COUNTERS - HDEEM: 
AVG Energy consumption [J] (Stats structure),1596.01
MAX Energy consumption [J] (Stats structure),1596.01
MIN Energy consumption [J] (Stats structure),1596.01
SUM Energy consumption [J] (Stats structure),1596.01
# CALLTREE;init_0;Main-PWSCF_0;run-PWSCF_0;run-PWSCF-electrons_function_1;electrons-electrons_scf_function_0;sum_band_function_6
# Job info - HDEEM
JOB ID,17280379.9
Nodelist,taurusi5525
AVG Runtime of function [s],14.847
MAX Runtime of function [s],14.847
MIN Runtime of function [s],14.847
# COUNTERS - HDEEM: 
AVG Energy consumption [J] (Stats structure),1577.56
MAX Energy consumption [J] (Stats structure),1577.56
MIN Energy consumption [J] (Stats structure),1577.56
SUM Energy consumption [J] (Stats structure),1577.56
# CALLTREE;init_0;Main-PWSCF_0;run-PWSCF_0;run-PWSCF-electrons_function_1;electrons-electrons_scf_function_0;sum_band_function_7
# Job info - HDEEM
JOB ID,17280379.9
Nodelist,taurusi5525
AVG Runtime of function [s],14.8919
MAX Runtime of function [s],14.8919
MIN Runtime of function [s],14.8919
# COUNTERS - HDEEM: 
AVG Energy consumption [J] (Stats structure),1570.23
MAX Energy consumption [J] (Stats structure),1570.23
MIN Energy consumption [J] (Stats structure),1570.23
SUM Energy consumption [J] (Stats structure),1570.23
# CALLTREE;init_0;Main-PWSCF_0;run-PWSCF_0;run-PWSCF-electrons_function_1;electrons-electrons_scf_function_0;sum_band_function_8
# Job info - HDEEM
JOB ID,17280379.9
Nodelist,taurusi5525
AVG Runtime of function [s],14.8944
MAX Runtime of function [s],14.8944
MIN Runtime of function [s],14.8944
# COUNTERS - HDEEM: 
AVG Energy consumption [J] (Stats structure),1583.9
MAX Energy consumption [J] (Stats structure),1583.9
MIN Energy consumption [J] (Stats structure),1583.9
SUM Energy consumption [J] (Stats structure),1583.9
# CALLTREE;init_0;Main-PWSCF_0;run-PWSCF_0;run-PWSCF-electrons_function_1;electrons-electrons_scf_function_0;sum_band_function_9
# Job info - HDEEM
JOB ID,17280379.9
Nodelist,taurusi5525
AVG Runtime of function [s],14.8168
MAX Runtime of function [s],14.8168
MIN Runtime of function [s],14.8168
# COUNTERS - HDEEM: 
AVG Energy consumption [J] (Stats structure),1576.65
MAX Energy consumption [J] (Stats structure),1576.65
MIN Energy consumption [J] (Stats structure),1576.65
SUM Energy consumption [J] (Stats structure),1576.65
# CALLTREE;init_0;Main-PWSCF_0;run-PWSCF_0;run-PWSCF-electrons_function_1;electrons-electrons_scf_function_0;sum_band_function_10
# Job info - HDEEM
JOB ID,17280379.9
Nodelist,taurusi5525
AVG Runtime of function [s],14.835
MAX Runtime of function [s],14.835
MIN Runtime of function [s],14.835
# COUNTERS - HDEEM: 
AVG Energy consumption [J] (Stats structure),1563.91
MAX Energy consumption [J] (Stats structure),1563.91
MIN Energy consumption [J] (Stats structure),1563.91
SUM Energy consumption [J] (Stats structure),1563.91
# CALLTREE;init_0;Main-PWSCF_0;run-PWSCF_0;run-PWSCF-electrons_function_1;electrons-electrons_scf_function_0;sum_band_function_11
# Job info - HDEEM
JOB ID,17280379.9
Nodelist,taurusi5525
AVG Runtime of function [s],14.8907
MAX Runtime of function [s],14.8907
MIN Runtime of function [s],14.8907
# COUNTERS - HDEEM: 
AVG Energy consumption [J] (Stats structure),1570.23
MAX Energy consumption [J] (Stats structure),1570.23
MIN Energy consumption [J] (Stats structure),1570.23
SUM Energy consumption [J] (Stats structure),1570.23
# CALLTREE;init_0;Main-PWSCF_0;run-PWSCF_0;run-PWSCF-electrons_function_1;electrons-electrons_scf_function_0;sum_band_function_12
# Job info - HDEEM
JOB ID,17280379.9
Nodelist,taurusi5525
AVG Runtime of function [s],14.8173
MAX Runtime of function [s],14.8173
MIN Runtime of function [s],14.8173
# COUNTERS - HDEEM: 
AVG Energy consumption [J] (Stats structure),1562.02
MAX Energy consumption [J] (Stats structure),1562.02
MIN Energy consumption [J] (Stats structure),1562.02
SUM Energy consumption [J] (Stats structure),1562.02
# CALLTREE;init_0;Main-PWSCF_0;run-PWSCF_0;run-PWSCF-electrons_function_1;electrons-electrons_scf_function_0;sum_band_function_13
# Job info - HDEEM
JOB ID,17280379.9
Nodelist,taurusi5525
AVG Runtime of function [s],14.9612
MAX Runtime of function [s],14.9612
MIN Runtime of function [s],14.9612
# COUNTERS - HDEEM: 
AVG Energy consumption [J] (Stats structure),1591.2
MAX Energy consumption [J] (Stats structure),1591.2
MIN Energy consumption [J] (Stats structure),1591.2
SUM Energy consumption [J] (Stats structure),1591.2
# CALLTREE;init_0;Main-PWSCF_0;run-PWSCF_0;run-PWSCF-electrons_function_1;electrons-electrons_scf_function_0;sum_band_function_14
# Job info - HDEEM
JOB ID,17280379.9
Nodelist,taurusi5525
AVG Runtime of function [s],14.8527
MAX Runtime of function [s],14.8527
MIN Runtime of function [s],14.8527
# COUNTERS - HDEEM: 
AVG Energy consumption [J] (Stats structure),1577.43
MAX Energy consumption [J] (Stats structure),1577.43
MIN Energy consumption [J] (Stats structure),1577.43
SUM Energy consumption [J] (Stats structure),1577.43
