# CALLTREE;init_0;Main-PWSCF_0;run-PWSCF_0;run-PWSCF-electrons_function_1;electrons-electrons_scf_function_0;sum_band_function_0
# Job info - HDEEM
JOB ID,17280379.17
Nodelist,taurusi5525
AVG Runtime of function [s],17.525
MAX Runtime of function [s],17.525
MIN Runtime of function [s],17.525
# COUNTERS - HDEEM: 
AVG Energy consumption [J] (Stats structure),2017.3
MAX Energy consumption [J] (Stats structure),2017.3
MIN Energy consumption [J] (Stats structure),2017.3
SUM Energy consumption [J] (Stats structure),2017.3
# CALLTREE;init_0;Main-PWSCF_0;run-PWSCF_0;run-PWSCF-electrons_function_1;electrons-electrons_scf_function_0;sum_band_function_1
# Job info - HDEEM
JOB ID,17280379.17
Nodelist,taurusi5525
AVG Runtime of function [s],17.5766
MAX Runtime of function [s],17.5766
MIN Runtime of function [s],17.5766
# COUNTERS - HDEEM: 
AVG Energy consumption [J] (Stats structure),2022.2
MAX Energy consumption [J] (Stats structure),2022.2
MIN Energy consumption [J] (Stats structure),2022.2
SUM Energy consumption [J] (Stats structure),2022.2
# CALLTREE;init_0;Main-PWSCF_0;run-PWSCF_0;run-PWSCF-electrons_function_1;electrons-electrons_scf_function_0;sum_band_function_2
# Job info - HDEEM
JOB ID,17280379.17
Nodelist,taurusi5525
AVG Runtime of function [s],17.5348
MAX Runtime of function [s],17.5348
MIN Runtime of function [s],17.5348
# COUNTERS - HDEEM: 
AVG Energy consumption [J] (Stats structure),2019.4
MAX Energy consumption [J] (Stats structure),2019.4
MIN Energy consumption [J] (Stats structure),2019.4
SUM Energy consumption [J] (Stats structure),2019.4
# CALLTREE;init_0;Main-PWSCF_0;run-PWSCF_0;run-PWSCF-electrons_function_1;electrons-electrons_scf_function_0;sum_band_function_3
# Job info - HDEEM
JOB ID,17280379.17
Nodelist,taurusi5525
AVG Runtime of function [s],17.5281
MAX Runtime of function [s],17.5281
MIN Runtime of function [s],17.5281
# COUNTERS - HDEEM: 
AVG Energy consumption [J] (Stats structure),2015.32
MAX Energy consumption [J] (Stats structure),2015.32
MIN Energy consumption [J] (Stats structure),2015.32
SUM Energy consumption [J] (Stats structure),2015.32
# CALLTREE;init_0;Main-PWSCF_0;run-PWSCF_0;run-PWSCF-electrons_function_1;electrons-electrons_scf_function_0;sum_band_function_4
# Job info - HDEEM
JOB ID,17280379.17
Nodelist,taurusi5525
AVG Runtime of function [s],17.4235
MAX Runtime of function [s],17.4235
MIN Runtime of function [s],17.4235
# COUNTERS - HDEEM: 
AVG Energy consumption [J] (Stats structure),2002.19
MAX Energy consumption [J] (Stats structure),2002.19
MIN Energy consumption [J] (Stats structure),2002.19
SUM Energy consumption [J] (Stats structure),2002.19
# CALLTREE;init_0;Main-PWSCF_0;run-PWSCF_0;run-PWSCF-electrons_function_1;electrons-electrons_scf_function_0;sum_band_function_5
# Job info - HDEEM
JOB ID,17280379.17
Nodelist,taurusi5525
AVG Runtime of function [s],17.4426
MAX Runtime of function [s],17.4426
MIN Runtime of function [s],17.4426
# COUNTERS - HDEEM: 
AVG Energy consumption [J] (Stats structure),2003.99
MAX Energy consumption [J] (Stats structure),2003.99
MIN Energy consumption [J] (Stats structure),2003.99
SUM Energy consumption [J] (Stats structure),2003.99
# CALLTREE;init_0;Main-PWSCF_0;run-PWSCF_0;run-PWSCF-electrons_function_1;electrons-electrons_scf_function_0;sum_band_function_6
# Job info - HDEEM
JOB ID,17280379.17
Nodelist,taurusi5525
AVG Runtime of function [s],17.4488
MAX Runtime of function [s],17.4488
MIN Runtime of function [s],17.4488
# COUNTERS - HDEEM: 
AVG Energy consumption [J] (Stats structure),1995.33
MAX Energy consumption [J] (Stats structure),1995.33
MIN Energy consumption [J] (Stats structure),1995.33
SUM Energy consumption [J] (Stats structure),1995.33
# CALLTREE;init_0;Main-PWSCF_0;run-PWSCF_0;run-PWSCF-electrons_function_1;electrons-electrons_scf_function_0;sum_band_function_7
# Job info - HDEEM
JOB ID,17280379.17
Nodelist,taurusi5525
AVG Runtime of function [s],17.5162
MAX Runtime of function [s],17.5162
MIN Runtime of function [s],17.5162
# COUNTERS - HDEEM: 
AVG Energy consumption [J] (Stats structure),2012.68
MAX Energy consumption [J] (Stats structure),2012.68
MIN Energy consumption [J] (Stats structure),2012.68
SUM Energy consumption [J] (Stats structure),2012.68
# CALLTREE;init_0;Main-PWSCF_0;run-PWSCF_0;run-PWSCF-electrons_function_1;electrons-electrons_scf_function_0;sum_band_function_8
# Job info - HDEEM
JOB ID,17280379.17
Nodelist,taurusi5525
AVG Runtime of function [s],17.4066
MAX Runtime of function [s],17.4066
MIN Runtime of function [s],17.4066
# COUNTERS - HDEEM: 
AVG Energy consumption [J] (Stats structure),1996.72
MAX Energy consumption [J] (Stats structure),1996.72
MIN Energy consumption [J] (Stats structure),1996.72
SUM Energy consumption [J] (Stats structure),1996.72
# CALLTREE;init_0;Main-PWSCF_0;run-PWSCF_0;run-PWSCF-electrons_function_1;electrons-electrons_scf_function_0;sum_band_function_9
# Job info - HDEEM
JOB ID,17280379.17
Nodelist,taurusi5525
AVG Runtime of function [s],17.4586
MAX Runtime of function [s],17.4586
MIN Runtime of function [s],17.4586
# COUNTERS - HDEEM: 
AVG Energy consumption [J] (Stats structure),2004.73
MAX Energy consumption [J] (Stats structure),2004.73
MIN Energy consumption [J] (Stats structure),2004.73
SUM Energy consumption [J] (Stats structure),2004.73
# CALLTREE;init_0;Main-PWSCF_0;run-PWSCF_0;run-PWSCF-electrons_function_1;electrons-electrons_scf_function_0;sum_band_function_10
# Job info - HDEEM
JOB ID,17280379.17
Nodelist,taurusi5525
AVG Runtime of function [s],17.4386
MAX Runtime of function [s],17.4386
MIN Runtime of function [s],17.4386
# COUNTERS - HDEEM: 
AVG Energy consumption [J] (Stats structure),2002.04
MAX Energy consumption [J] (Stats structure),2002.04
MIN Energy consumption [J] (Stats structure),2002.04
SUM Energy consumption [J] (Stats structure),2002.04
# CALLTREE;init_0;Main-PWSCF_0;run-PWSCF_0;run-PWSCF-electrons_function_1;electrons-electrons_scf_function_0;sum_band_function_11
# Job info - HDEEM
JOB ID,17280379.17
Nodelist,taurusi5525
AVG Runtime of function [s],17.5092
MAX Runtime of function [s],17.5092
MIN Runtime of function [s],17.5092
# COUNTERS - HDEEM: 
AVG Energy consumption [J] (Stats structure),2013.17
MAX Energy consumption [J] (Stats structure),2013.17
MIN Energy consumption [J] (Stats structure),2013.17
SUM Energy consumption [J] (Stats structure),2013.17
# CALLTREE;init_0;Main-PWSCF_0;run-PWSCF_0;run-PWSCF-electrons_function_1;electrons-electrons_scf_function_0;sum_band_function_12
# Job info - HDEEM
JOB ID,17280379.17
Nodelist,taurusi5525
AVG Runtime of function [s],17.4806
MAX Runtime of function [s],17.4806
MIN Runtime of function [s],17.4806
# COUNTERS - HDEEM: 
AVG Energy consumption [J] (Stats structure),1999.32
MAX Energy consumption [J] (Stats structure),1999.32
MIN Energy consumption [J] (Stats structure),1999.32
SUM Energy consumption [J] (Stats structure),1999.32
# CALLTREE;init_0;Main-PWSCF_0;run-PWSCF_0;run-PWSCF-electrons_function_1;electrons-electrons_scf_function_0;sum_band_function_13
# Job info - HDEEM
JOB ID,17280379.17
Nodelist,taurusi5525
AVG Runtime of function [s],17.4547
MAX Runtime of function [s],17.4547
MIN Runtime of function [s],17.4547
# COUNTERS - HDEEM: 
AVG Energy consumption [J] (Stats structure),2006.46
MAX Energy consumption [J] (Stats structure),2006.46
MIN Energy consumption [J] (Stats structure),2006.46
SUM Energy consumption [J] (Stats structure),2006.46
# CALLTREE;init_0;Main-PWSCF_0;run-PWSCF_0;run-PWSCF-electrons_function_1;electrons-electrons_scf_function_0;sum_band_function_14
# Job info - HDEEM
JOB ID,17280379.17
Nodelist,taurusi5525
AVG Runtime of function [s],17.5512
MAX Runtime of function [s],17.5512
MIN Runtime of function [s],17.5512
# COUNTERS - HDEEM: 
AVG Energy consumption [J] (Stats structure),2017.18
MAX Energy consumption [J] (Stats structure),2017.18
MIN Energy consumption [J] (Stats structure),2017.18
SUM Energy consumption [J] (Stats structure),2017.18
