# CALLTREE;init_0;Main-PWSCF_0;run-PWSCF_0;run-PWSCF-electrons_function_1;electrons-electrons_scf_function_0;sum_band_function_0
# Job info - HDEEM
JOB ID,17281868.0
Nodelist,taurusi5546
AVG Runtime of function [s],0.565718
MAX Runtime of function [s],0.565718
MIN Runtime of function [s],0.565718
# COUNTERS - HDEEM: 
AVG Energy consumption [J] (Stats structure),167.831
MAX Energy consumption [J] (Stats structure),167.831
MIN Energy consumption [J] (Stats structure),167.831
SUM Energy consumption [J] (Stats structure),167.831
# CALLTREE;init_0;Main-PWSCF_0;run-PWSCF_0;run-PWSCF-electrons_function_1;electrons-electrons_scf_function_0;sum_band_function_1
# Job info - HDEEM
JOB ID,17281868.0
Nodelist,taurusi5546
AVG Runtime of function [s],0.551892
MAX Runtime of function [s],0.551892
MIN Runtime of function [s],0.551892
# COUNTERS - HDEEM: 
AVG Energy consumption [J] (Stats structure),165.47
MAX Energy consumption [J] (Stats structure),165.47
MIN Energy consumption [J] (Stats structure),165.47
SUM Energy consumption [J] (Stats structure),165.47
# CALLTREE;init_0;Main-PWSCF_0;run-PWSCF_0;run-PWSCF-electrons_function_1;electrons-electrons_scf_function_0;sum_band_function_2
# Job info - HDEEM
JOB ID,17281868.0
Nodelist,taurusi5546
AVG Runtime of function [s],0.566961
MAX Runtime of function [s],0.566961
MIN Runtime of function [s],0.566961
# COUNTERS - HDEEM: 
AVG Energy consumption [J] (Stats structure),168.894
MAX Energy consumption [J] (Stats structure),168.894
MIN Energy consumption [J] (Stats structure),168.894
SUM Energy consumption [J] (Stats structure),168.894
# CALLTREE;init_0;Main-PWSCF_0;run-PWSCF_0;run-PWSCF-electrons_function_1;electrons-electrons_scf_function_0;sum_band_function_3
# Job info - HDEEM
JOB ID,17281868.0
Nodelist,taurusi5546
AVG Runtime of function [s],0.564343
MAX Runtime of function [s],0.564343
MIN Runtime of function [s],0.564343
# COUNTERS - HDEEM: 
AVG Energy consumption [J] (Stats structure),168.615
MAX Energy consumption [J] (Stats structure),168.615
MIN Energy consumption [J] (Stats structure),168.615
SUM Energy consumption [J] (Stats structure),168.615
# CALLTREE;init_0;Main-PWSCF_0;run-PWSCF_0;run-PWSCF-electrons_function_1;electrons-electrons_scf_function_0;sum_band_function_4
# Job info - HDEEM
JOB ID,17281868.0
Nodelist,taurusi5546
AVG Runtime of function [s],0.564751
MAX Runtime of function [s],0.564751
MIN Runtime of function [s],0.564751
# COUNTERS - HDEEM: 
AVG Energy consumption [J] (Stats structure),168.953
MAX Energy consumption [J] (Stats structure),168.953
MIN Energy consumption [J] (Stats structure),168.953
SUM Energy consumption [J] (Stats structure),168.953
# CALLTREE;init_0;Main-PWSCF_0;run-PWSCF_0;run-PWSCF-electrons_function_1;electrons-electrons_scf_function_0;sum_band_function_5
# Job info - HDEEM
JOB ID,17281868.0
Nodelist,taurusi5546
AVG Runtime of function [s],0.563359
MAX Runtime of function [s],0.563359
MIN Runtime of function [s],0.563359
# COUNTERS - HDEEM: 
AVG Energy consumption [J] (Stats structure),169.019
MAX Energy consumption [J] (Stats structure),169.019
MIN Energy consumption [J] (Stats structure),169.019
SUM Energy consumption [J] (Stats structure),169.019
# CALLTREE;init_0;Main-PWSCF_0;run-PWSCF_0;run-PWSCF-electrons_function_1;electrons-electrons_scf_function_0;sum_band_function_6
# Job info - HDEEM
JOB ID,17281868.0
Nodelist,taurusi5546
AVG Runtime of function [s],0.56426
MAX Runtime of function [s],0.56426
MIN Runtime of function [s],0.56426
# COUNTERS - HDEEM: 
AVG Energy consumption [J] (Stats structure),169.534
MAX Energy consumption [J] (Stats structure),169.534
MIN Energy consumption [J] (Stats structure),169.534
SUM Energy consumption [J] (Stats structure),169.534
# CALLTREE;init_0;Main-PWSCF_0;run-PWSCF_0;run-PWSCF-electrons_function_1;electrons-electrons_scf_function_0;sum_band_function_7
# Job info - HDEEM
JOB ID,17281868.0
Nodelist,taurusi5546
AVG Runtime of function [s],0.563412
MAX Runtime of function [s],0.563412
MIN Runtime of function [s],0.563412
# COUNTERS - HDEEM: 
AVG Energy consumption [J] (Stats structure),169.725
MAX Energy consumption [J] (Stats structure),169.725
MIN Energy consumption [J] (Stats structure),169.725
SUM Energy consumption [J] (Stats structure),169.725
# CALLTREE;init_0;Main-PWSCF_0;run-PWSCF_0;run-PWSCF-electrons_function_1;electrons-electrons_scf_function_0;sum_band_function_8
# Job info - HDEEM
JOB ID,17281868.0
Nodelist,taurusi5546
AVG Runtime of function [s],0.567652
MAX Runtime of function [s],0.567652
MIN Runtime of function [s],0.567652
# COUNTERS - HDEEM: 
AVG Energy consumption [J] (Stats structure),170.743
MAX Energy consumption [J] (Stats structure),170.743
MIN Energy consumption [J] (Stats structure),170.743
SUM Energy consumption [J] (Stats structure),170.743
# CALLTREE;init_0;Main-PWSCF_0;run-PWSCF_0;run-PWSCF-electrons_function_1;electrons-electrons_scf_function_0;sum_band_function_9
# Job info - HDEEM
JOB ID,17281868.0
Nodelist,taurusi5546
AVG Runtime of function [s],0.56779
MAX Runtime of function [s],0.56779
MIN Runtime of function [s],0.56779
# COUNTERS - HDEEM: 
AVG Energy consumption [J] (Stats structure),170.563
MAX Energy consumption [J] (Stats structure),170.563
MIN Energy consumption [J] (Stats structure),170.563
SUM Energy consumption [J] (Stats structure),170.563
# CALLTREE;init_0;Main-PWSCF_0;run-PWSCF_0;run-PWSCF-electrons_function_1;electrons-electrons_scf_function_0;sum_band_function_10
# Job info - HDEEM
JOB ID,17281868.0
Nodelist,taurusi5546
AVG Runtime of function [s],0.564023
MAX Runtime of function [s],0.564023
MIN Runtime of function [s],0.564023
# COUNTERS - HDEEM: 
AVG Energy consumption [J] (Stats structure),169.969
MAX Energy consumption [J] (Stats structure),169.969
MIN Energy consumption [J] (Stats structure),169.969
SUM Energy consumption [J] (Stats structure),169.969
# CALLTREE;init_0;Main-PWSCF_0;run-PWSCF_0;run-PWSCF-electrons_function_1;electrons-electrons_scf_function_0;sum_band_function_11
# Job info - HDEEM
JOB ID,17281868.0
Nodelist,taurusi5546
AVG Runtime of function [s],0.552331
MAX Runtime of function [s],0.552331
MIN Runtime of function [s],0.552331
# COUNTERS - HDEEM: 
AVG Energy consumption [J] (Stats structure),167.12
MAX Energy consumption [J] (Stats structure),167.12
MIN Energy consumption [J] (Stats structure),167.12
SUM Energy consumption [J] (Stats structure),167.12
# CALLTREE;init_0;Main-PWSCF_0;run-PWSCF_0;run-PWSCF-electrons_function_1;electrons-electrons_scf_function_0;sum_band_function_12
# Job info - HDEEM
JOB ID,17281868.0
Nodelist,taurusi5546
AVG Runtime of function [s],0.542614
MAX Runtime of function [s],0.542614
MIN Runtime of function [s],0.542614
# COUNTERS - HDEEM: 
AVG Energy consumption [J] (Stats structure),164.947
MAX Energy consumption [J] (Stats structure),164.947
MIN Energy consumption [J] (Stats structure),164.947
SUM Energy consumption [J] (Stats structure),164.947
# CALLTREE;init_0;Main-PWSCF_0;run-PWSCF_0;run-PWSCF-electrons_function_1;electrons-electrons_scf_function_0;sum_band_function_13
# Job info - HDEEM
JOB ID,17281868.0
Nodelist,taurusi5546
AVG Runtime of function [s],0.544688
MAX Runtime of function [s],0.544688
MIN Runtime of function [s],0.544688
# COUNTERS - HDEEM: 
AVG Energy consumption [J] (Stats structure),165.56
MAX Energy consumption [J] (Stats structure),165.56
MIN Energy consumption [J] (Stats structure),165.56
SUM Energy consumption [J] (Stats structure),165.56
# CALLTREE;init_0;Main-PWSCF_0;run-PWSCF_0;run-PWSCF-electrons_function_1;electrons-electrons_scf_function_0;sum_band_function_14
# Job info - HDEEM
JOB ID,17281868.0
Nodelist,taurusi5546
AVG Runtime of function [s],0.556977
MAX Runtime of function [s],0.556977
MIN Runtime of function [s],0.556977
# COUNTERS - HDEEM: 
AVG Energy consumption [J] (Stats structure),168.716
MAX Energy consumption [J] (Stats structure),168.716
MIN Energy consumption [J] (Stats structure),168.716
SUM Energy consumption [J] (Stats structure),168.716
# CALLTREE;init_0;Main-PWSCF_0;run-PWSCF_0;run-PWSCF-electrons_function_1;electrons-electrons_scf_function_0;sum_band_function_15
# Job info - HDEEM
JOB ID,17281868.0
Nodelist,taurusi5546
AVG Runtime of function [s],0.556091
MAX Runtime of function [s],0.556091
MIN Runtime of function [s],0.556091
# COUNTERS - HDEEM: 
AVG Energy consumption [J] (Stats structure),168.419
MAX Energy consumption [J] (Stats structure),168.419
MIN Energy consumption [J] (Stats structure),168.419
SUM Energy consumption [J] (Stats structure),168.419
# CALLTREE;init_1;Main-PWSCF_0;run-PWSCF_0;run-PWSCF-electrons_function_1;electrons-electrons_scf_function_0;sum_band_function_0
# Job info - HDEEM
JOB ID,17281869.0
Nodelist,taurusi5546
AVG Runtime of function [s],0.580468
MAX Runtime of function [s],0.580468
MIN Runtime of function [s],0.580468
# COUNTERS - HDEEM: 
AVG Energy consumption [J] (Stats structure),171.93
MAX Energy consumption [J] (Stats structure),171.93
MIN Energy consumption [J] (Stats structure),171.93
SUM Energy consumption [J] (Stats structure),171.93
# CALLTREE;init_1;Main-PWSCF_0;run-PWSCF_0;run-PWSCF-electrons_function_1;electrons-electrons_scf_function_0;sum_band_function_1
# Job info - HDEEM
JOB ID,17281869.0
Nodelist,taurusi5546
AVG Runtime of function [s],0.559084
MAX Runtime of function [s],0.559084
MIN Runtime of function [s],0.559084
# COUNTERS - HDEEM: 
AVG Energy consumption [J] (Stats structure),167.902
MAX Energy consumption [J] (Stats structure),167.902
MIN Energy consumption [J] (Stats structure),167.902
SUM Energy consumption [J] (Stats structure),167.902
# CALLTREE;init_1;Main-PWSCF_0;run-PWSCF_0;run-PWSCF-electrons_function_1;electrons-electrons_scf_function_0;sum_band_function_2
# Job info - HDEEM
JOB ID,17281869.0
Nodelist,taurusi5546
AVG Runtime of function [s],0.571129
MAX Runtime of function [s],0.571129
MIN Runtime of function [s],0.571129
# COUNTERS - HDEEM: 
AVG Energy consumption [J] (Stats structure),170.85
MAX Energy consumption [J] (Stats structure),170.85
MIN Energy consumption [J] (Stats structure),170.85
SUM Energy consumption [J] (Stats structure),170.85
# CALLTREE;init_1;Main-PWSCF_0;run-PWSCF_0;run-PWSCF-electrons_function_1;electrons-electrons_scf_function_0;sum_band_function_3
# Job info - HDEEM
JOB ID,17281869.0
Nodelist,taurusi5546
AVG Runtime of function [s],0.572664
MAX Runtime of function [s],0.572664
MIN Runtime of function [s],0.572664
# COUNTERS - HDEEM: 
AVG Energy consumption [J] (Stats structure),171.052
MAX Energy consumption [J] (Stats structure),171.052
MIN Energy consumption [J] (Stats structure),171.052
SUM Energy consumption [J] (Stats structure),171.052
# CALLTREE;init_1;Main-PWSCF_0;run-PWSCF_0;run-PWSCF-electrons_function_1;electrons-electrons_scf_function_0;sum_band_function_4
# Job info - HDEEM
JOB ID,17281869.0
Nodelist,taurusi5546
AVG Runtime of function [s],0.574526
MAX Runtime of function [s],0.574526
MIN Runtime of function [s],0.574526
# COUNTERS - HDEEM: 
AVG Energy consumption [J] (Stats structure),171.807
MAX Energy consumption [J] (Stats structure),171.807
MIN Energy consumption [J] (Stats structure),171.807
SUM Energy consumption [J] (Stats structure),171.807
# CALLTREE;init_1;Main-PWSCF_0;run-PWSCF_0;run-PWSCF-electrons_function_1;electrons-electrons_scf_function_0;sum_band_function_5
# Job info - HDEEM
JOB ID,17281869.0
Nodelist,taurusi5546
AVG Runtime of function [s],0.568731
MAX Runtime of function [s],0.568731
MIN Runtime of function [s],0.568731
# COUNTERS - HDEEM: 
AVG Energy consumption [J] (Stats structure),170.68
MAX Energy consumption [J] (Stats structure),170.68
MIN Energy consumption [J] (Stats structure),170.68
SUM Energy consumption [J] (Stats structure),170.68
# CALLTREE;init_1;Main-PWSCF_0;run-PWSCF_0;run-PWSCF-electrons_function_1;electrons-electrons_scf_function_0;sum_band_function_6
# Job info - HDEEM
JOB ID,17281869.0
Nodelist,taurusi5546
AVG Runtime of function [s],0.569439
MAX Runtime of function [s],0.569439
MIN Runtime of function [s],0.569439
# COUNTERS - HDEEM: 
AVG Energy consumption [J] (Stats structure),171.171
MAX Energy consumption [J] (Stats structure),171.171
MIN Energy consumption [J] (Stats structure),171.171
SUM Energy consumption [J] (Stats structure),171.171
# CALLTREE;init_1;Main-PWSCF_0;run-PWSCF_0;run-PWSCF-electrons_function_1;electrons-electrons_scf_function_0;sum_band_function_7
# Job info - HDEEM
JOB ID,17281869.0
Nodelist,taurusi5546
AVG Runtime of function [s],0.571339
MAX Runtime of function [s],0.571339
MIN Runtime of function [s],0.571339
# COUNTERS - HDEEM: 
AVG Energy consumption [J] (Stats structure),171.717
MAX Energy consumption [J] (Stats structure),171.717
MIN Energy consumption [J] (Stats structure),171.717
SUM Energy consumption [J] (Stats structure),171.717
# CALLTREE;init_1;Main-PWSCF_0;run-PWSCF_0;run-PWSCF-electrons_function_1;electrons-electrons_scf_function_0;sum_band_function_8
# Job info - HDEEM
JOB ID,17281869.0
Nodelist,taurusi5546
AVG Runtime of function [s],0.573639
MAX Runtime of function [s],0.573639
MIN Runtime of function [s],0.573639
# COUNTERS - HDEEM: 
AVG Energy consumption [J] (Stats structure),172.483
MAX Energy consumption [J] (Stats structure),172.483
MIN Energy consumption [J] (Stats structure),172.483
SUM Energy consumption [J] (Stats structure),172.483
# CALLTREE;init_1;Main-PWSCF_0;run-PWSCF_0;run-PWSCF-electrons_function_1;electrons-electrons_scf_function_0;sum_band_function_9
# Job info - HDEEM
JOB ID,17281869.0
Nodelist,taurusi5546
AVG Runtime of function [s],0.571873
MAX Runtime of function [s],0.571873
MIN Runtime of function [s],0.571873
# COUNTERS - HDEEM: 
AVG Energy consumption [J] (Stats structure),172.041
MAX Energy consumption [J] (Stats structure),172.041
MIN Energy consumption [J] (Stats structure),172.041
SUM Energy consumption [J] (Stats structure),172.041
# CALLTREE;init_1;Main-PWSCF_0;run-PWSCF_0;run-PWSCF-electrons_function_1;electrons-electrons_scf_function_0;sum_band_function_10
# Job info - HDEEM
JOB ID,17281869.0
Nodelist,taurusi5546
AVG Runtime of function [s],0.571389
MAX Runtime of function [s],0.571389
MIN Runtime of function [s],0.571389
# COUNTERS - HDEEM: 
AVG Energy consumption [J] (Stats structure),171.9
MAX Energy consumption [J] (Stats structure),171.9
MIN Energy consumption [J] (Stats structure),171.9
SUM Energy consumption [J] (Stats structure),171.9
# CALLTREE;init_1;Main-PWSCF_0;run-PWSCF_0;run-PWSCF-electrons_function_1;electrons-electrons_scf_function_0;sum_band_function_11
# Job info - HDEEM
JOB ID,17281869.0
Nodelist,taurusi5546
AVG Runtime of function [s],0.553635
MAX Runtime of function [s],0.553635
MIN Runtime of function [s],0.553635
# COUNTERS - HDEEM: 
AVG Energy consumption [J] (Stats structure),167.72
MAX Energy consumption [J] (Stats structure),167.72
MIN Energy consumption [J] (Stats structure),167.72
SUM Energy consumption [J] (Stats structure),167.72
# CALLTREE;init_1;Main-PWSCF_0;run-PWSCF_0;run-PWSCF-electrons_function_1;electrons-electrons_scf_function_0;sum_band_function_12
# Job info - HDEEM
JOB ID,17281869.0
Nodelist,taurusi5546
AVG Runtime of function [s],0.547236
MAX Runtime of function [s],0.547236
MIN Runtime of function [s],0.547236
# COUNTERS - HDEEM: 
AVG Energy consumption [J] (Stats structure),166.368
MAX Energy consumption [J] (Stats structure),166.368
MIN Energy consumption [J] (Stats structure),166.368
SUM Energy consumption [J] (Stats structure),166.368
# CALLTREE;init_1;Main-PWSCF_0;run-PWSCF_0;run-PWSCF-electrons_function_1;electrons-electrons_scf_function_0;sum_band_function_13
# Job info - HDEEM
JOB ID,17281869.0
Nodelist,taurusi5546
AVG Runtime of function [s],0.54557
MAX Runtime of function [s],0.54557
MIN Runtime of function [s],0.54557
# COUNTERS - HDEEM: 
AVG Energy consumption [J] (Stats structure),166.012
MAX Energy consumption [J] (Stats structure),166.012
MIN Energy consumption [J] (Stats structure),166.012
SUM Energy consumption [J] (Stats structure),166.012
# CALLTREE;init_1;Main-PWSCF_0;run-PWSCF_0;run-PWSCF-electrons_function_1;electrons-electrons_scf_function_0;sum_band_function_14
# Job info - HDEEM
JOB ID,17281869.0
Nodelist,taurusi5546
AVG Runtime of function [s],0.560615
MAX Runtime of function [s],0.560615
MIN Runtime of function [s],0.560615
# COUNTERS - HDEEM: 
AVG Energy consumption [J] (Stats structure),169.567
MAX Energy consumption [J] (Stats structure),169.567
MIN Energy consumption [J] (Stats structure),169.567
SUM Energy consumption [J] (Stats structure),169.567
# CALLTREE;init_1;Main-PWSCF_0;run-PWSCF_0;run-PWSCF-electrons_function_1;electrons-electrons_scf_function_0;sum_band_function_15
# Job info - HDEEM
JOB ID,17281869.0
Nodelist,taurusi5546
AVG Runtime of function [s],0.560466
MAX Runtime of function [s],0.560466
MIN Runtime of function [s],0.560466
# COUNTERS - HDEEM: 
AVG Energy consumption [J] (Stats structure),169.499
MAX Energy consumption [J] (Stats structure),169.499
MIN Energy consumption [J] (Stats structure),169.499
SUM Energy consumption [J] (Stats structure),169.499
