# CALLTREE;init_0;Main-PWSCF_0;run-PWSCF_0;run-PWSCF-electrons_function_1;electrons-electrons_scf_function_0
# Job info - HDEEM
JOB ID,17281896.12
Nodelist,taurusi5610
AVG Runtime of function [s],2.12435
MAX Runtime of function [s],2.12435
MIN Runtime of function [s],2.12435
# COUNTERS - HDEEM: 
AVG Energy consumption [J] (Stats structure),449.78
MAX Energy consumption [J] (Stats structure),449.78
MIN Energy consumption [J] (Stats structure),449.78
SUM Energy consumption [J] (Stats structure),449.78
# CALLTREE;init_0;Main-PWSCF_0;run-PWSCF_0;run-PWSCF-electrons_function_1;electrons-electrons_scf_function_0
# Job info - HDEEM
JOB ID,17281896.12
Nodelist,taurusi5610
AVG Runtime of function [s],2.09956
MAX Runtime of function [s],2.09956
MIN Runtime of function [s],2.09956
# COUNTERS - HDEEM: 
AVG Energy consumption [J] (Stats structure),445.505
MAX Energy consumption [J] (Stats structure),445.505
MIN Energy consumption [J] (Stats structure),445.505
SUM Energy consumption [J] (Stats structure),445.505
# CALLTREE;init_0;Main-PWSCF_0;run-PWSCF_0;run-PWSCF-electrons_function_1;electrons-electrons_scf_function_0
# Job info - HDEEM
JOB ID,17281896.12
Nodelist,taurusi5610
AVG Runtime of function [s],2.09712
MAX Runtime of function [s],2.09712
MIN Runtime of function [s],2.09712
# COUNTERS - HDEEM: 
AVG Energy consumption [J] (Stats structure),445.201
MAX Energy consumption [J] (Stats structure),445.201
MIN Energy consumption [J] (Stats structure),445.201
SUM Energy consumption [J] (Stats structure),445.201
# CALLTREE;init_0;Main-PWSCF_0;run-PWSCF_0;run-PWSCF-electrons_function_1;electrons-electrons_scf_function_0
# Job info - HDEEM
JOB ID,17281896.12
Nodelist,taurusi5610
AVG Runtime of function [s],2.11334
MAX Runtime of function [s],2.11334
MIN Runtime of function [s],2.11334
# COUNTERS - HDEEM: 
AVG Energy consumption [J] (Stats structure),447.319
MAX Energy consumption [J] (Stats structure),447.319
MIN Energy consumption [J] (Stats structure),447.319
SUM Energy consumption [J] (Stats structure),447.319
# CALLTREE;init_0;Main-PWSCF_0;run-PWSCF_0;run-PWSCF-electrons_function_1;electrons-electrons_scf_function_0
# Job info - HDEEM
JOB ID,17281896.12
Nodelist,taurusi5610
AVG Runtime of function [s],2.10576
MAX Runtime of function [s],2.10576
MIN Runtime of function [s],2.10576
# COUNTERS - HDEEM: 
AVG Energy consumption [J] (Stats structure),446.246
MAX Energy consumption [J] (Stats structure),446.246
MIN Energy consumption [J] (Stats structure),446.246
SUM Energy consumption [J] (Stats structure),446.246
# CALLTREE;init_0;Main-PWSCF_0;run-PWSCF_0;run-PWSCF-electrons_function_1;electrons-electrons_scf_function_0
# Job info - HDEEM
JOB ID,17281896.12
Nodelist,taurusi5610
AVG Runtime of function [s],2.08974
MAX Runtime of function [s],2.08974
MIN Runtime of function [s],2.08974
# COUNTERS - HDEEM: 
AVG Energy consumption [J] (Stats structure),443.554
MAX Energy consumption [J] (Stats structure),443.554
MIN Energy consumption [J] (Stats structure),443.554
SUM Energy consumption [J] (Stats structure),443.554
# CALLTREE;init_0;Main-PWSCF_0;run-PWSCF_0;run-PWSCF-electrons_function_1;electrons-electrons_scf_function_0
# Job info - HDEEM
JOB ID,17281896.12
Nodelist,taurusi5610
AVG Runtime of function [s],2.17924
MAX Runtime of function [s],2.17924
MIN Runtime of function [s],2.17924
# COUNTERS - HDEEM: 
AVG Energy consumption [J] (Stats structure),458.768
MAX Energy consumption [J] (Stats structure),458.768
MIN Energy consumption [J] (Stats structure),458.768
SUM Energy consumption [J] (Stats structure),458.768
# CALLTREE;init_0;Main-PWSCF_0;run-PWSCF_0;run-PWSCF-electrons_function_1;electrons-electrons_scf_function_0
# Job info - HDEEM
JOB ID,17281896.12
Nodelist,taurusi5610
AVG Runtime of function [s],2.08757
MAX Runtime of function [s],2.08757
MIN Runtime of function [s],2.08757
# COUNTERS - HDEEM: 
AVG Energy consumption [J] (Stats structure),443.581
MAX Energy consumption [J] (Stats structure),443.581
MIN Energy consumption [J] (Stats structure),443.581
SUM Energy consumption [J] (Stats structure),443.581
# CALLTREE;init_0;Main-PWSCF_0;run-PWSCF_0;run-PWSCF-electrons_function_1;electrons-electrons_scf_function_0
# Job info - HDEEM
JOB ID,17281896.12
Nodelist,taurusi5610
AVG Runtime of function [s],2.08884
MAX Runtime of function [s],2.08884
MIN Runtime of function [s],2.08884
# COUNTERS - HDEEM: 
AVG Energy consumption [J] (Stats structure),443.639
MAX Energy consumption [J] (Stats structure),443.639
MIN Energy consumption [J] (Stats structure),443.639
SUM Energy consumption [J] (Stats structure),443.639
# CALLTREE;init_0;Main-PWSCF_0;run-PWSCF_0;run-PWSCF-electrons_function_1;electrons-electrons_scf_function_0
# Job info - HDEEM
JOB ID,17281896.12
Nodelist,taurusi5610
AVG Runtime of function [s],2.08908
MAX Runtime of function [s],2.08908
MIN Runtime of function [s],2.08908
# COUNTERS - HDEEM: 
AVG Energy consumption [J] (Stats structure),443.455
MAX Energy consumption [J] (Stats structure),443.455
MIN Energy consumption [J] (Stats structure),443.455
SUM Energy consumption [J] (Stats structure),443.455
# CALLTREE;init_0;Main-PWSCF_0;run-PWSCF_0;run-PWSCF-electrons_function_1;electrons-electrons_scf_function_0
# Job info - HDEEM
JOB ID,17281896.12
Nodelist,taurusi5610
AVG Runtime of function [s],2.09021
MAX Runtime of function [s],2.09021
MIN Runtime of function [s],2.09021
# COUNTERS - HDEEM: 
AVG Energy consumption [J] (Stats structure),443.961
MAX Energy consumption [J] (Stats structure),443.961
MIN Energy consumption [J] (Stats structure),443.961
SUM Energy consumption [J] (Stats structure),443.961
# CALLTREE;init_0;Main-PWSCF_0;run-PWSCF_0;run-PWSCF-electrons_function_1;electrons-electrons_scf_function_0
# Job info - HDEEM
JOB ID,17281896.12
Nodelist,taurusi5610
AVG Runtime of function [s],2.08237
MAX Runtime of function [s],2.08237
MIN Runtime of function [s],2.08237
# COUNTERS - HDEEM: 
AVG Energy consumption [J] (Stats structure),442.629
MAX Energy consumption [J] (Stats structure),442.629
MIN Energy consumption [J] (Stats structure),442.629
SUM Energy consumption [J] (Stats structure),442.629
# CALLTREE;init_0;Main-PWSCF_0;run-PWSCF_0;run-PWSCF-electrons_function_1;electrons-electrons_scf_function_0
# Job info - HDEEM
JOB ID,17281896.12
Nodelist,taurusi5610
AVG Runtime of function [s],2.06647
MAX Runtime of function [s],2.06647
MIN Runtime of function [s],2.06647
# COUNTERS - HDEEM: 
AVG Energy consumption [J] (Stats structure),439.96
MAX Energy consumption [J] (Stats structure),439.96
MIN Energy consumption [J] (Stats structure),439.96
SUM Energy consumption [J] (Stats structure),439.96
# CALLTREE;init_0;Main-PWSCF_0;run-PWSCF_0;run-PWSCF-electrons_function_1;electrons-electrons_scf_function_0
# Job info - HDEEM
JOB ID,17281896.12
Nodelist,taurusi5610
AVG Runtime of function [s],2.06485
MAX Runtime of function [s],2.06485
MIN Runtime of function [s],2.06485
# COUNTERS - HDEEM: 
AVG Energy consumption [J] (Stats structure),439.805
MAX Energy consumption [J] (Stats structure),439.805
MIN Energy consumption [J] (Stats structure),439.805
SUM Energy consumption [J] (Stats structure),439.805
# CALLTREE;init_0;Main-PWSCF_0;run-PWSCF_0;run-PWSCF-electrons_function_1;electrons-electrons_scf_function_0
# Job info - HDEEM
JOB ID,17281896.12
Nodelist,taurusi5610
AVG Runtime of function [s],2.07777
MAX Runtime of function [s],2.07777
MIN Runtime of function [s],2.07777
# COUNTERS - HDEEM: 
AVG Energy consumption [J] (Stats structure),442.098
MAX Energy consumption [J] (Stats structure),442.098
MIN Energy consumption [J] (Stats structure),442.098
SUM Energy consumption [J] (Stats structure),442.098
# CALLTREE;init_0;Main-PWSCF_0;run-PWSCF_0;run-PWSCF-electrons_function_1;electrons-electrons_scf_function_0
# Job info - HDEEM
JOB ID,17281896.12
Nodelist,taurusi5610
AVG Runtime of function [s],2.13481
MAX Runtime of function [s],2.13481
MIN Runtime of function [s],2.13481
# COUNTERS - HDEEM: 
AVG Energy consumption [J] (Stats structure),451.513
MAX Energy consumption [J] (Stats structure),451.513
MIN Energy consumption [J] (Stats structure),451.513
SUM Energy consumption [J] (Stats structure),451.513
