# CALLTREE;init_0;Main-PWSCF_0;run-PWSCF_0;run-PWSCF-electrons_function_1;electrons-electrons_scf_function_0
# Job info - HDEEM
JOB ID,17281896.14
Nodelist,taurusi5610
AVG Runtime of function [s],2.40124
MAX Runtime of function [s],2.40124
MIN Runtime of function [s],2.40124
# COUNTERS - HDEEM: 
AVG Energy consumption [J] (Stats structure),457.236
MAX Energy consumption [J] (Stats structure),457.236
MIN Energy consumption [J] (Stats structure),457.236
SUM Energy consumption [J] (Stats structure),457.236
# CALLTREE;init_0;Main-PWSCF_0;run-PWSCF_0;run-PWSCF-electrons_function_1;electrons-electrons_scf_function_0
# Job info - HDEEM
JOB ID,17281896.14
Nodelist,taurusi5610
AVG Runtime of function [s],2.38084
MAX Runtime of function [s],2.38084
MIN Runtime of function [s],2.38084
# COUNTERS - HDEEM: 
AVG Energy consumption [J] (Stats structure),454.333
MAX Energy consumption [J] (Stats structure),454.333
MIN Energy consumption [J] (Stats structure),454.333
SUM Energy consumption [J] (Stats structure),454.333
# CALLTREE;init_0;Main-PWSCF_0;run-PWSCF_0;run-PWSCF-electrons_function_1;electrons-electrons_scf_function_0
# Job info - HDEEM
JOB ID,17281896.14
Nodelist,taurusi5610
AVG Runtime of function [s],2.37445
MAX Runtime of function [s],2.37445
MIN Runtime of function [s],2.37445
# COUNTERS - HDEEM: 
AVG Energy consumption [J] (Stats structure),453.15
MAX Energy consumption [J] (Stats structure),453.15
MIN Energy consumption [J] (Stats structure),453.15
SUM Energy consumption [J] (Stats structure),453.15
# CALLTREE;init_0;Main-PWSCF_0;run-PWSCF_0;run-PWSCF-electrons_function_1;electrons-electrons_scf_function_0
# Job info - HDEEM
JOB ID,17281896.14
Nodelist,taurusi5610
AVG Runtime of function [s],2.381
MAX Runtime of function [s],2.381
MIN Runtime of function [s],2.381
# COUNTERS - HDEEM: 
AVG Energy consumption [J] (Stats structure),453.895
MAX Energy consumption [J] (Stats structure),453.895
MIN Energy consumption [J] (Stats structure),453.895
SUM Energy consumption [J] (Stats structure),453.895
# CALLTREE;init_0;Main-PWSCF_0;run-PWSCF_0;run-PWSCF-electrons_function_1;electrons-electrons_scf_function_0
# Job info - HDEEM
JOB ID,17281896.14
Nodelist,taurusi5610
AVG Runtime of function [s],2.38558
MAX Runtime of function [s],2.38558
MIN Runtime of function [s],2.38558
# COUNTERS - HDEEM: 
AVG Energy consumption [J] (Stats structure),454.829
MAX Energy consumption [J] (Stats structure),454.829
MIN Energy consumption [J] (Stats structure),454.829
SUM Energy consumption [J] (Stats structure),454.829
# CALLTREE;init_0;Main-PWSCF_0;run-PWSCF_0;run-PWSCF-electrons_function_1;electrons-electrons_scf_function_0
# Job info - HDEEM
JOB ID,17281896.14
Nodelist,taurusi5610
AVG Runtime of function [s],2.36166
MAX Runtime of function [s],2.36166
MIN Runtime of function [s],2.36166
# COUNTERS - HDEEM: 
AVG Energy consumption [J] (Stats structure),451.046
MAX Energy consumption [J] (Stats structure),451.046
MIN Energy consumption [J] (Stats structure),451.046
SUM Energy consumption [J] (Stats structure),451.046
# CALLTREE;init_0;Main-PWSCF_0;run-PWSCF_0;run-PWSCF-electrons_function_1;electrons-electrons_scf_function_0
# Job info - HDEEM
JOB ID,17281896.14
Nodelist,taurusi5610
AVG Runtime of function [s],2.37326
MAX Runtime of function [s],2.37326
MIN Runtime of function [s],2.37326
# COUNTERS - HDEEM: 
AVG Energy consumption [J] (Stats structure),452.989
MAX Energy consumption [J] (Stats structure),452.989
MIN Energy consumption [J] (Stats structure),452.989
SUM Energy consumption [J] (Stats structure),452.989
# CALLTREE;init_0;Main-PWSCF_0;run-PWSCF_0;run-PWSCF-electrons_function_1;electrons-electrons_scf_function_0
# Job info - HDEEM
JOB ID,17281896.14
Nodelist,taurusi5610
AVG Runtime of function [s],2.36753
MAX Runtime of function [s],2.36753
MIN Runtime of function [s],2.36753
# COUNTERS - HDEEM: 
AVG Energy consumption [J] (Stats structure),451.925
MAX Energy consumption [J] (Stats structure),451.925
MIN Energy consumption [J] (Stats structure),451.925
SUM Energy consumption [J] (Stats structure),451.925
# CALLTREE;init_0;Main-PWSCF_0;run-PWSCF_0;run-PWSCF-electrons_function_1;electrons-electrons_scf_function_0
# Job info - HDEEM
JOB ID,17281896.14
Nodelist,taurusi5610
AVG Runtime of function [s],2.37094
MAX Runtime of function [s],2.37094
MIN Runtime of function [s],2.37094
# COUNTERS - HDEEM: 
AVG Energy consumption [J] (Stats structure),452.407
MAX Energy consumption [J] (Stats structure),452.407
MIN Energy consumption [J] (Stats structure),452.407
SUM Energy consumption [J] (Stats structure),452.407
# CALLTREE;init_0;Main-PWSCF_0;run-PWSCF_0;run-PWSCF-electrons_function_1;electrons-electrons_scf_function_0
# Job info - HDEEM
JOB ID,17281896.14
Nodelist,taurusi5610
AVG Runtime of function [s],2.3753
MAX Runtime of function [s],2.3753
MIN Runtime of function [s],2.3753
# COUNTERS - HDEEM: 
AVG Energy consumption [J] (Stats structure),453.112
MAX Energy consumption [J] (Stats structure),453.112
MIN Energy consumption [J] (Stats structure),453.112
SUM Energy consumption [J] (Stats structure),453.112
# CALLTREE;init_0;Main-PWSCF_0;run-PWSCF_0;run-PWSCF-electrons_function_1;electrons-electrons_scf_function_0
# Job info - HDEEM
JOB ID,17281896.14
Nodelist,taurusi5610
AVG Runtime of function [s],2.37331
MAX Runtime of function [s],2.37331
MIN Runtime of function [s],2.37331
# COUNTERS - HDEEM: 
AVG Energy consumption [J] (Stats structure),452.907
MAX Energy consumption [J] (Stats structure),452.907
MIN Energy consumption [J] (Stats structure),452.907
SUM Energy consumption [J] (Stats structure),452.907
# CALLTREE;init_0;Main-PWSCF_0;run-PWSCF_0;run-PWSCF-electrons_function_1;electrons-electrons_scf_function_0
# Job info - HDEEM
JOB ID,17281896.14
Nodelist,taurusi5610
AVG Runtime of function [s],2.37096
MAX Runtime of function [s],2.37096
MIN Runtime of function [s],2.37096
# COUNTERS - HDEEM: 
AVG Energy consumption [J] (Stats structure),452.599
MAX Energy consumption [J] (Stats structure),452.599
MIN Energy consumption [J] (Stats structure),452.599
SUM Energy consumption [J] (Stats structure),452.599
# CALLTREE;init_0;Main-PWSCF_0;run-PWSCF_0;run-PWSCF-electrons_function_1;electrons-electrons_scf_function_0
# Job info - HDEEM
JOB ID,17281896.14
Nodelist,taurusi5610
AVG Runtime of function [s],2.33984
MAX Runtime of function [s],2.33984
MIN Runtime of function [s],2.33984
# COUNTERS - HDEEM: 
AVG Energy consumption [J] (Stats structure),447.836
MAX Energy consumption [J] (Stats structure),447.836
MIN Energy consumption [J] (Stats structure),447.836
SUM Energy consumption [J] (Stats structure),447.836
# CALLTREE;init_0;Main-PWSCF_0;run-PWSCF_0;run-PWSCF-electrons_function_1;electrons-electrons_scf_function_0
# Job info - HDEEM
JOB ID,17281896.14
Nodelist,taurusi5610
AVG Runtime of function [s],2.34038
MAX Runtime of function [s],2.34038
MIN Runtime of function [s],2.34038
# COUNTERS - HDEEM: 
AVG Energy consumption [J] (Stats structure),447.781
MAX Energy consumption [J] (Stats structure),447.781
MIN Energy consumption [J] (Stats structure),447.781
SUM Energy consumption [J] (Stats structure),447.781
# CALLTREE;init_0;Main-PWSCF_0;run-PWSCF_0;run-PWSCF-electrons_function_1;electrons-electrons_scf_function_0
# Job info - HDEEM
JOB ID,17281896.14
Nodelist,taurusi5610
AVG Runtime of function [s],2.35548
MAX Runtime of function [s],2.35548
MIN Runtime of function [s],2.35548
# COUNTERS - HDEEM: 
AVG Energy consumption [J] (Stats structure),450.343
MAX Energy consumption [J] (Stats structure),450.343
MIN Energy consumption [J] (Stats structure),450.343
SUM Energy consumption [J] (Stats structure),450.343
# CALLTREE;init_0;Main-PWSCF_0;run-PWSCF_0;run-PWSCF-electrons_function_1;electrons-electrons_scf_function_0
# Job info - HDEEM
JOB ID,17281896.14
Nodelist,taurusi5610
AVG Runtime of function [s],2.35453
MAX Runtime of function [s],2.35453
MIN Runtime of function [s],2.35453
# COUNTERS - HDEEM: 
AVG Energy consumption [J] (Stats structure),450.274
MAX Energy consumption [J] (Stats structure),450.274
MIN Energy consumption [J] (Stats structure),450.274
SUM Energy consumption [J] (Stats structure),450.274
