# CALLTREE;init_0;Main-PWSCF_0;run-PWSCF_0;run-PWSCF-electrons_function_1;electrons-electrons_scf_function_0
# Job info - HDEEM
JOB ID,17281823.1
Nodelist,taurusi5610
AVG Runtime of function [s],6.81383
MAX Runtime of function [s],6.81383
MIN Runtime of function [s],6.81383
# COUNTERS - HDEEM: 
AVG Energy consumption [J] (Stats structure),1643.15
MAX Energy consumption [J] (Stats structure),1643.15
MIN Energy consumption [J] (Stats structure),1643.15
SUM Energy consumption [J] (Stats structure),1643.15
# CALLTREE;init_0;Main-PWSCF_0;run-PWSCF_0;run-PWSCF-electrons_function_1;electrons-electrons_scf_function_0
# Job info - HDEEM
JOB ID,17281823.1
Nodelist,taurusi5610
AVG Runtime of function [s],6.80116
MAX Runtime of function [s],6.80116
MIN Runtime of function [s],6.80116
# COUNTERS - HDEEM: 
AVG Energy consumption [J] (Stats structure),1641.56
MAX Energy consumption [J] (Stats structure),1641.56
MIN Energy consumption [J] (Stats structure),1641.56
SUM Energy consumption [J] (Stats structure),1641.56
# CALLTREE;init_0;Main-PWSCF_0;run-PWSCF_0;run-PWSCF-electrons_function_1;electrons-electrons_scf_function_0
# Job info - HDEEM
JOB ID,17281823.1
Nodelist,taurusi5610
AVG Runtime of function [s],6.80612
MAX Runtime of function [s],6.80612
MIN Runtime of function [s],6.80612
# COUNTERS - HDEEM: 
AVG Energy consumption [J] (Stats structure),1642.41
MAX Energy consumption [J] (Stats structure),1642.41
MIN Energy consumption [J] (Stats structure),1642.41
SUM Energy consumption [J] (Stats structure),1642.41
# CALLTREE;init_0;Main-PWSCF_0;run-PWSCF_0;run-PWSCF-electrons_function_1;electrons-electrons_scf_function_0
# Job info - HDEEM
JOB ID,17281823.1
Nodelist,taurusi5610
AVG Runtime of function [s],6.82935
MAX Runtime of function [s],6.82935
MIN Runtime of function [s],6.82935
# COUNTERS - HDEEM: 
AVG Energy consumption [J] (Stats structure),1646.97
MAX Energy consumption [J] (Stats structure),1646.97
MIN Energy consumption [J] (Stats structure),1646.97
SUM Energy consumption [J] (Stats structure),1646.97
# CALLTREE;init_0;Main-PWSCF_0;run-PWSCF_0;run-PWSCF-electrons_function_1;electrons-electrons_scf_function_0
# Job info - HDEEM
JOB ID,17281823.1
Nodelist,taurusi5610
AVG Runtime of function [s],6.81597
MAX Runtime of function [s],6.81597
MIN Runtime of function [s],6.81597
# COUNTERS - HDEEM: 
AVG Energy consumption [J] (Stats structure),1644.43
MAX Energy consumption [J] (Stats structure),1644.43
MIN Energy consumption [J] (Stats structure),1644.43
SUM Energy consumption [J] (Stats structure),1644.43
# CALLTREE;init_0;Main-PWSCF_0;run-PWSCF_0;run-PWSCF-electrons_function_1;electrons-electrons_scf_function_0
# Job info - HDEEM
JOB ID,17281823.1
Nodelist,taurusi5610
AVG Runtime of function [s],6.81306
MAX Runtime of function [s],6.81306
MIN Runtime of function [s],6.81306
# COUNTERS - HDEEM: 
AVG Energy consumption [J] (Stats structure),1643.11
MAX Energy consumption [J] (Stats structure),1643.11
MIN Energy consumption [J] (Stats structure),1643.11
SUM Energy consumption [J] (Stats structure),1643.11
# CALLTREE;init_0;Main-PWSCF_0;run-PWSCF_0;run-PWSCF-electrons_function_1;electrons-electrons_scf_function_0
# Job info - HDEEM
JOB ID,17281823.1
Nodelist,taurusi5610
AVG Runtime of function [s],6.8223
MAX Runtime of function [s],6.8223
MIN Runtime of function [s],6.8223
# COUNTERS - HDEEM: 
AVG Energy consumption [J] (Stats structure),1645.89
MAX Energy consumption [J] (Stats structure),1645.89
MIN Energy consumption [J] (Stats structure),1645.89
SUM Energy consumption [J] (Stats structure),1645.89
# CALLTREE;init_0;Main-PWSCF_0;run-PWSCF_0;run-PWSCF-electrons_function_1;electrons-electrons_scf_function_0
# Job info - HDEEM
JOB ID,17281823.1
Nodelist,taurusi5610
AVG Runtime of function [s],6.86364
MAX Runtime of function [s],6.86364
MIN Runtime of function [s],6.86364
# COUNTERS - HDEEM: 
AVG Energy consumption [J] (Stats structure),1655.26
MAX Energy consumption [J] (Stats structure),1655.26
MIN Energy consumption [J] (Stats structure),1655.26
SUM Energy consumption [J] (Stats structure),1655.26
# CALLTREE;init_0;Main-PWSCF_0;run-PWSCF_0;run-PWSCF-electrons_function_1;electrons-electrons_scf_function_0
# Job info - HDEEM
JOB ID,17281823.1
Nodelist,taurusi5610
AVG Runtime of function [s],6.79915
MAX Runtime of function [s],6.79915
MIN Runtime of function [s],6.79915
# COUNTERS - HDEEM: 
AVG Energy consumption [J] (Stats structure),1640.83
MAX Energy consumption [J] (Stats structure),1640.83
MIN Energy consumption [J] (Stats structure),1640.83
SUM Energy consumption [J] (Stats structure),1640.83
# CALLTREE;init_0;Main-PWSCF_0;run-PWSCF_0;run-PWSCF-electrons_function_1;electrons-electrons_scf_function_0
# Job info - HDEEM
JOB ID,17281823.1
Nodelist,taurusi5610
AVG Runtime of function [s],6.81042
MAX Runtime of function [s],6.81042
MIN Runtime of function [s],6.81042
# COUNTERS - HDEEM: 
AVG Energy consumption [J] (Stats structure),1642.27
MAX Energy consumption [J] (Stats structure),1642.27
MIN Energy consumption [J] (Stats structure),1642.27
SUM Energy consumption [J] (Stats structure),1642.27
# CALLTREE;init_0;Main-PWSCF_0;run-PWSCF_0;run-PWSCF-electrons_function_1;electrons-electrons_scf_function_0
# Job info - HDEEM
JOB ID,17281823.1
Nodelist,taurusi5610
AVG Runtime of function [s],6.82082
MAX Runtime of function [s],6.82082
MIN Runtime of function [s],6.82082
# COUNTERS - HDEEM: 
AVG Energy consumption [J] (Stats structure),1644.85
MAX Energy consumption [J] (Stats structure),1644.85
MIN Energy consumption [J] (Stats structure),1644.85
SUM Energy consumption [J] (Stats structure),1644.85
# CALLTREE;init_0;Main-PWSCF_0;run-PWSCF_0;run-PWSCF-electrons_function_1;electrons-electrons_scf_function_0
# Job info - HDEEM
JOB ID,17281823.1
Nodelist,taurusi5610
AVG Runtime of function [s],6.81843
MAX Runtime of function [s],6.81843
MIN Runtime of function [s],6.81843
# COUNTERS - HDEEM: 
AVG Energy consumption [J] (Stats structure),1644.47
MAX Energy consumption [J] (Stats structure),1644.47
MIN Energy consumption [J] (Stats structure),1644.47
SUM Energy consumption [J] (Stats structure),1644.47
# CALLTREE;init_0;Main-PWSCF_0;run-PWSCF_0;run-PWSCF-electrons_function_1;electrons-electrons_scf_function_0
# Job info - HDEEM
JOB ID,17281823.1
Nodelist,taurusi5610
AVG Runtime of function [s],6.7962
MAX Runtime of function [s],6.7962
MIN Runtime of function [s],6.7962
# COUNTERS - HDEEM: 
AVG Energy consumption [J] (Stats structure),1639.01
MAX Energy consumption [J] (Stats structure),1639.01
MIN Energy consumption [J] (Stats structure),1639.01
SUM Energy consumption [J] (Stats structure),1639.01
# CALLTREE;init_0;Main-PWSCF_0;run-PWSCF_0;run-PWSCF-electrons_function_1;electrons-electrons_scf_function_0
# Job info - HDEEM
JOB ID,17281823.1
Nodelist,taurusi5610
AVG Runtime of function [s],6.80748
MAX Runtime of function [s],6.80748
MIN Runtime of function [s],6.80748
# COUNTERS - HDEEM: 
AVG Energy consumption [J] (Stats structure),1642.14
MAX Energy consumption [J] (Stats structure),1642.14
MIN Energy consumption [J] (Stats structure),1642.14
SUM Energy consumption [J] (Stats structure),1642.14
# CALLTREE;init_0;Main-PWSCF_0;run-PWSCF_0;run-PWSCF-electrons_function_1;electrons-electrons_scf_function_0
# Job info - HDEEM
JOB ID,17281823.1
Nodelist,taurusi5610
AVG Runtime of function [s],6.81834
MAX Runtime of function [s],6.81834
MIN Runtime of function [s],6.81834
# COUNTERS - HDEEM: 
AVG Energy consumption [J] (Stats structure),1644.25
MAX Energy consumption [J] (Stats structure),1644.25
MIN Energy consumption [J] (Stats structure),1644.25
SUM Energy consumption [J] (Stats structure),1644.25
# CALLTREE;init_0;Main-PWSCF_0;run-PWSCF_0;run-PWSCF-electrons_function_1;electrons-electrons_scf_function_0
# Job info - HDEEM
JOB ID,17281823.1
Nodelist,taurusi5610
AVG Runtime of function [s],6.90514
MAX Runtime of function [s],6.90514
MIN Runtime of function [s],6.90514
# COUNTERS - HDEEM: 
AVG Energy consumption [J] (Stats structure),1664.07
MAX Energy consumption [J] (Stats structure),1664.07
MIN Energy consumption [J] (Stats structure),1664.07
SUM Energy consumption [J] (Stats structure),1664.07
# CALLTREE;init_1;Main-PWSCF_0;run-PWSCF_0;run-PWSCF-electrons_function_1;electrons-electrons_scf_function_0
# Job info - HDEEM
JOB ID,17281896.1
Nodelist,taurusi5610
AVG Runtime of function [s],1.59331
MAX Runtime of function [s],1.59331
MIN Runtime of function [s],1.59331
# COUNTERS - HDEEM: 
AVG Energy consumption [J] (Stats structure),482.424
MAX Energy consumption [J] (Stats structure),482.424
MIN Energy consumption [J] (Stats structure),482.424
SUM Energy consumption [J] (Stats structure),482.424
# CALLTREE;init_1;Main-PWSCF_0;run-PWSCF_0;run-PWSCF-electrons_function_1;electrons-electrons_scf_function_0
# Job info - HDEEM
JOB ID,17281896.1
Nodelist,taurusi5610
AVG Runtime of function [s],1.57569
MAX Runtime of function [s],1.57569
MIN Runtime of function [s],1.57569
# COUNTERS - HDEEM: 
AVG Energy consumption [J] (Stats structure),478.968
MAX Energy consumption [J] (Stats structure),478.968
MIN Energy consumption [J] (Stats structure),478.968
SUM Energy consumption [J] (Stats structure),478.968
# CALLTREE;init_1;Main-PWSCF_0;run-PWSCF_0;run-PWSCF-electrons_function_1;electrons-electrons_scf_function_0
# Job info - HDEEM
JOB ID,17281896.1
Nodelist,taurusi5610
AVG Runtime of function [s],1.57663
MAX Runtime of function [s],1.57663
MIN Runtime of function [s],1.57663
# COUNTERS - HDEEM: 
AVG Energy consumption [J] (Stats structure),478.684
MAX Energy consumption [J] (Stats structure),478.684
MIN Energy consumption [J] (Stats structure),478.684
SUM Energy consumption [J] (Stats structure),478.684
# CALLTREE;init_1;Main-PWSCF_0;run-PWSCF_0;run-PWSCF-electrons_function_1;electrons-electrons_scf_function_0
# Job info - HDEEM
JOB ID,17281896.1
Nodelist,taurusi5610
AVG Runtime of function [s],1.57008
MAX Runtime of function [s],1.57008
MIN Runtime of function [s],1.57008
# COUNTERS - HDEEM: 
AVG Energy consumption [J] (Stats structure),477.429
MAX Energy consumption [J] (Stats structure),477.429
MIN Energy consumption [J] (Stats structure),477.429
SUM Energy consumption [J] (Stats structure),477.429
# CALLTREE;init_1;Main-PWSCF_0;run-PWSCF_0;run-PWSCF-electrons_function_1;electrons-electrons_scf_function_0
# Job info - HDEEM
JOB ID,17281896.1
Nodelist,taurusi5610
AVG Runtime of function [s],1.57128
MAX Runtime of function [s],1.57128
MIN Runtime of function [s],1.57128
# COUNTERS - HDEEM: 
AVG Energy consumption [J] (Stats structure),477.796
MAX Energy consumption [J] (Stats structure),477.796
MIN Energy consumption [J] (Stats structure),477.796
SUM Energy consumption [J] (Stats structure),477.796
# CALLTREE;init_1;Main-PWSCF_0;run-PWSCF_0;run-PWSCF-electrons_function_1;electrons-electrons_scf_function_0
# Job info - HDEEM
JOB ID,17281896.1
Nodelist,taurusi5610
AVG Runtime of function [s],1.5668
MAX Runtime of function [s],1.5668
MIN Runtime of function [s],1.5668
# COUNTERS - HDEEM: 
AVG Energy consumption [J] (Stats structure),477.189
MAX Energy consumption [J] (Stats structure),477.189
MIN Energy consumption [J] (Stats structure),477.189
SUM Energy consumption [J] (Stats structure),477.189
# CALLTREE;init_1;Main-PWSCF_0;run-PWSCF_0;run-PWSCF-electrons_function_1;electrons-electrons_scf_function_0
# Job info - HDEEM
JOB ID,17281896.1
Nodelist,taurusi5610
AVG Runtime of function [s],1.57282
MAX Runtime of function [s],1.57282
MIN Runtime of function [s],1.57282
# COUNTERS - HDEEM: 
AVG Energy consumption [J] (Stats structure),478.279
MAX Energy consumption [J] (Stats structure),478.279
MIN Energy consumption [J] (Stats structure),478.279
SUM Energy consumption [J] (Stats structure),478.279
# CALLTREE;init_1;Main-PWSCF_0;run-PWSCF_0;run-PWSCF-electrons_function_1;electrons-electrons_scf_function_0
# Job info - HDEEM
JOB ID,17281896.1
Nodelist,taurusi5610
AVG Runtime of function [s],1.57364
MAX Runtime of function [s],1.57364
MIN Runtime of function [s],1.57364
# COUNTERS - HDEEM: 
AVG Energy consumption [J] (Stats structure),478.392
MAX Energy consumption [J] (Stats structure),478.392
MIN Energy consumption [J] (Stats structure),478.392
SUM Energy consumption [J] (Stats structure),478.392
# CALLTREE;init_1;Main-PWSCF_0;run-PWSCF_0;run-PWSCF-electrons_function_1;electrons-electrons_scf_function_0
# Job info - HDEEM
JOB ID,17281896.1
Nodelist,taurusi5610
AVG Runtime of function [s],1.57524
MAX Runtime of function [s],1.57524
MIN Runtime of function [s],1.57524
# COUNTERS - HDEEM: 
AVG Energy consumption [J] (Stats structure),479.055
MAX Energy consumption [J] (Stats structure),479.055
MIN Energy consumption [J] (Stats structure),479.055
SUM Energy consumption [J] (Stats structure),479.055
# CALLTREE;init_1;Main-PWSCF_0;run-PWSCF_0;run-PWSCF-electrons_function_1;electrons-electrons_scf_function_0
# Job info - HDEEM
JOB ID,17281896.1
Nodelist,taurusi5610
AVG Runtime of function [s],1.56897
MAX Runtime of function [s],1.56897
MIN Runtime of function [s],1.56897
# COUNTERS - HDEEM: 
AVG Energy consumption [J] (Stats structure),477.885
MAX Energy consumption [J] (Stats structure),477.885
MIN Energy consumption [J] (Stats structure),477.885
SUM Energy consumption [J] (Stats structure),477.885
# CALLTREE;init_1;Main-PWSCF_0;run-PWSCF_0;run-PWSCF-electrons_function_1;electrons-electrons_scf_function_0
# Job info - HDEEM
JOB ID,17281896.1
Nodelist,taurusi5610
AVG Runtime of function [s],1.57189
MAX Runtime of function [s],1.57189
MIN Runtime of function [s],1.57189
# COUNTERS - HDEEM: 
AVG Energy consumption [J] (Stats structure),478.197
MAX Energy consumption [J] (Stats structure),478.197
MIN Energy consumption [J] (Stats structure),478.197
SUM Energy consumption [J] (Stats structure),478.197
# CALLTREE;init_1;Main-PWSCF_0;run-PWSCF_0;run-PWSCF-electrons_function_1;electrons-electrons_scf_function_0
# Job info - HDEEM
JOB ID,17281896.1
Nodelist,taurusi5610
AVG Runtime of function [s],1.5552
MAX Runtime of function [s],1.5552
MIN Runtime of function [s],1.5552
# COUNTERS - HDEEM: 
AVG Energy consumption [J] (Stats structure),474.709
MAX Energy consumption [J] (Stats structure),474.709
MIN Energy consumption [J] (Stats structure),474.709
SUM Energy consumption [J] (Stats structure),474.709
# CALLTREE;init_1;Main-PWSCF_0;run-PWSCF_0;run-PWSCF-electrons_function_1;electrons-electrons_scf_function_0
# Job info - HDEEM
JOB ID,17281896.1
Nodelist,taurusi5610
AVG Runtime of function [s],1.55904
MAX Runtime of function [s],1.55904
MIN Runtime of function [s],1.55904
# COUNTERS - HDEEM: 
AVG Energy consumption [J] (Stats structure),475.587
MAX Energy consumption [J] (Stats structure),475.587
MIN Energy consumption [J] (Stats structure),475.587
SUM Energy consumption [J] (Stats structure),475.587
# CALLTREE;init_1;Main-PWSCF_0;run-PWSCF_0;run-PWSCF-electrons_function_1;electrons-electrons_scf_function_0
# Job info - HDEEM
JOB ID,17281896.1
Nodelist,taurusi5610
AVG Runtime of function [s],1.55735
MAX Runtime of function [s],1.55735
MIN Runtime of function [s],1.55735
# COUNTERS - HDEEM: 
AVG Energy consumption [J] (Stats structure),475.648
MAX Energy consumption [J] (Stats structure),475.648
MIN Energy consumption [J] (Stats structure),475.648
SUM Energy consumption [J] (Stats structure),475.648
# CALLTREE;init_1;Main-PWSCF_0;run-PWSCF_0;run-PWSCF-electrons_function_1;electrons-electrons_scf_function_0
# Job info - HDEEM
JOB ID,17281896.1
Nodelist,taurusi5610
AVG Runtime of function [s],1.55728
MAX Runtime of function [s],1.55728
MIN Runtime of function [s],1.55728
# COUNTERS - HDEEM: 
AVG Energy consumption [J] (Stats structure),476.163
MAX Energy consumption [J] (Stats structure),476.163
MIN Energy consumption [J] (Stats structure),476.163
SUM Energy consumption [J] (Stats structure),476.163
# CALLTREE;init_1;Main-PWSCF_0;run-PWSCF_0;run-PWSCF-electrons_function_1;electrons-electrons_scf_function_0
# Job info - HDEEM
JOB ID,17281896.1
Nodelist,taurusi5610
AVG Runtime of function [s],1.56201
MAX Runtime of function [s],1.56201
MIN Runtime of function [s],1.56201
# COUNTERS - HDEEM: 
AVG Energy consumption [J] (Stats structure),477.135
MAX Energy consumption [J] (Stats structure),477.135
MIN Energy consumption [J] (Stats structure),477.135
SUM Energy consumption [J] (Stats structure),477.135
