# CALLTREE;init_0;Main-PWSCF_0;run-PWSCF_0;run-PWSCF-electrons_function_1;electrons-electrons_scf_function_0
# Job info - HDEEM
JOB ID,17281896.10
Nodelist,taurusi5610
AVG Runtime of function [s],2.03602
MAX Runtime of function [s],2.03602
MIN Runtime of function [s],2.03602
# COUNTERS - HDEEM: 
AVG Energy consumption [J] (Stats structure),484.098
MAX Energy consumption [J] (Stats structure),484.098
MIN Energy consumption [J] (Stats structure),484.098
SUM Energy consumption [J] (Stats structure),484.098
# CALLTREE;init_0;Main-PWSCF_0;run-PWSCF_0;run-PWSCF-electrons_function_1;electrons-electrons_scf_function_0
# Job info - HDEEM
JOB ID,17281896.10
Nodelist,taurusi5610
AVG Runtime of function [s],2.0088
MAX Runtime of function [s],2.0088
MIN Runtime of function [s],2.0088
# COUNTERS - HDEEM: 
AVG Energy consumption [J] (Stats structure),479.108
MAX Energy consumption [J] (Stats structure),479.108
MIN Energy consumption [J] (Stats structure),479.108
SUM Energy consumption [J] (Stats structure),479.108
# CALLTREE;init_0;Main-PWSCF_0;run-PWSCF_0;run-PWSCF-electrons_function_1;electrons-electrons_scf_function_0
# Job info - HDEEM
JOB ID,17281896.10
Nodelist,taurusi5610
AVG Runtime of function [s],2.00813
MAX Runtime of function [s],2.00813
MIN Runtime of function [s],2.00813
# COUNTERS - HDEEM: 
AVG Energy consumption [J] (Stats structure),479.225
MAX Energy consumption [J] (Stats structure),479.225
MIN Energy consumption [J] (Stats structure),479.225
SUM Energy consumption [J] (Stats structure),479.225
# CALLTREE;init_0;Main-PWSCF_0;run-PWSCF_0;run-PWSCF-electrons_function_1;electrons-electrons_scf_function_0
# Job info - HDEEM
JOB ID,17281896.10
Nodelist,taurusi5610
AVG Runtime of function [s],2.01003
MAX Runtime of function [s],2.01003
MIN Runtime of function [s],2.01003
# COUNTERS - HDEEM: 
AVG Energy consumption [J] (Stats structure),478.844
MAX Energy consumption [J] (Stats structure),478.844
MIN Energy consumption [J] (Stats structure),478.844
SUM Energy consumption [J] (Stats structure),478.844
# CALLTREE;init_0;Main-PWSCF_0;run-PWSCF_0;run-PWSCF-electrons_function_1;electrons-electrons_scf_function_0
# Job info - HDEEM
JOB ID,17281896.10
Nodelist,taurusi5610
AVG Runtime of function [s],2.00896
MAX Runtime of function [s],2.00896
MIN Runtime of function [s],2.00896
# COUNTERS - HDEEM: 
AVG Energy consumption [J] (Stats structure),479.6
MAX Energy consumption [J] (Stats structure),479.6
MIN Energy consumption [J] (Stats structure),479.6
SUM Energy consumption [J] (Stats structure),479.6
# CALLTREE;init_0;Main-PWSCF_0;run-PWSCF_0;run-PWSCF-electrons_function_1;electrons-electrons_scf_function_0
# Job info - HDEEM
JOB ID,17281896.10
Nodelist,taurusi5610
AVG Runtime of function [s],2.00169
MAX Runtime of function [s],2.00169
MIN Runtime of function [s],2.00169
# COUNTERS - HDEEM: 
AVG Energy consumption [J] (Stats structure),477.742
MAX Energy consumption [J] (Stats structure),477.742
MIN Energy consumption [J] (Stats structure),477.742
SUM Energy consumption [J] (Stats structure),477.742
# CALLTREE;init_0;Main-PWSCF_0;run-PWSCF_0;run-PWSCF-electrons_function_1;electrons-electrons_scf_function_0
# Job info - HDEEM
JOB ID,17281896.10
Nodelist,taurusi5610
AVG Runtime of function [s],2.006
MAX Runtime of function [s],2.006
MIN Runtime of function [s],2.006
# COUNTERS - HDEEM: 
AVG Energy consumption [J] (Stats structure),478.859
MAX Energy consumption [J] (Stats structure),478.859
MIN Energy consumption [J] (Stats structure),478.859
SUM Energy consumption [J] (Stats structure),478.859
# CALLTREE;init_0;Main-PWSCF_0;run-PWSCF_0;run-PWSCF-electrons_function_1;electrons-electrons_scf_function_0
# Job info - HDEEM
JOB ID,17281896.10
Nodelist,taurusi5610
AVG Runtime of function [s],2.00244
MAX Runtime of function [s],2.00244
MIN Runtime of function [s],2.00244
# COUNTERS - HDEEM: 
AVG Energy consumption [J] (Stats structure),478.248
MAX Energy consumption [J] (Stats structure),478.248
MIN Energy consumption [J] (Stats structure),478.248
SUM Energy consumption [J] (Stats structure),478.248
# CALLTREE;init_0;Main-PWSCF_0;run-PWSCF_0;run-PWSCF-electrons_function_1;electrons-electrons_scf_function_0
# Job info - HDEEM
JOB ID,17281896.10
Nodelist,taurusi5610
AVG Runtime of function [s],2.00799
MAX Runtime of function [s],2.00799
MIN Runtime of function [s],2.00799
# COUNTERS - HDEEM: 
AVG Energy consumption [J] (Stats structure),479.338
MAX Energy consumption [J] (Stats structure),479.338
MIN Energy consumption [J] (Stats structure),479.338
SUM Energy consumption [J] (Stats structure),479.338
# CALLTREE;init_0;Main-PWSCF_0;run-PWSCF_0;run-PWSCF-electrons_function_1;electrons-electrons_scf_function_0
# Job info - HDEEM
JOB ID,17281896.10
Nodelist,taurusi5610
AVG Runtime of function [s],1.99953
MAX Runtime of function [s],1.99953
MIN Runtime of function [s],1.99953
# COUNTERS - HDEEM: 
AVG Energy consumption [J] (Stats structure),477.555
MAX Energy consumption [J] (Stats structure),477.555
MIN Energy consumption [J] (Stats structure),477.555
SUM Energy consumption [J] (Stats structure),477.555
# CALLTREE;init_0;Main-PWSCF_0;run-PWSCF_0;run-PWSCF-electrons_function_1;electrons-electrons_scf_function_0
# Job info - HDEEM
JOB ID,17281896.10
Nodelist,taurusi5610
AVG Runtime of function [s],2.00083
MAX Runtime of function [s],2.00083
MIN Runtime of function [s],2.00083
# COUNTERS - HDEEM: 
AVG Energy consumption [J] (Stats structure),477.939
MAX Energy consumption [J] (Stats structure),477.939
MIN Energy consumption [J] (Stats structure),477.939
SUM Energy consumption [J] (Stats structure),477.939
# CALLTREE;init_0;Main-PWSCF_0;run-PWSCF_0;run-PWSCF-electrons_function_1;electrons-electrons_scf_function_0
# Job info - HDEEM
JOB ID,17281896.10
Nodelist,taurusi5610
AVG Runtime of function [s],1.9865
MAX Runtime of function [s],1.9865
MIN Runtime of function [s],1.9865
# COUNTERS - HDEEM: 
AVG Energy consumption [J] (Stats structure),475.232
MAX Energy consumption [J] (Stats structure),475.232
MIN Energy consumption [J] (Stats structure),475.232
SUM Energy consumption [J] (Stats structure),475.232
# CALLTREE;init_0;Main-PWSCF_0;run-PWSCF_0;run-PWSCF-electrons_function_1;electrons-electrons_scf_function_0
# Job info - HDEEM
JOB ID,17281896.10
Nodelist,taurusi5610
AVG Runtime of function [s],1.98987
MAX Runtime of function [s],1.98987
MIN Runtime of function [s],1.98987
# COUNTERS - HDEEM: 
AVG Energy consumption [J] (Stats structure),475.897
MAX Energy consumption [J] (Stats structure),475.897
MIN Energy consumption [J] (Stats structure),475.897
SUM Energy consumption [J] (Stats structure),475.897
# CALLTREE;init_0;Main-PWSCF_0;run-PWSCF_0;run-PWSCF-electrons_function_1;electrons-electrons_scf_function_0
# Job info - HDEEM
JOB ID,17281896.10
Nodelist,taurusi5610
AVG Runtime of function [s],1.98405
MAX Runtime of function [s],1.98405
MIN Runtime of function [s],1.98405
# COUNTERS - HDEEM: 
AVG Energy consumption [J] (Stats structure),474.996
MAX Energy consumption [J] (Stats structure),474.996
MIN Energy consumption [J] (Stats structure),474.996
SUM Energy consumption [J] (Stats structure),474.996
# CALLTREE;init_0;Main-PWSCF_0;run-PWSCF_0;run-PWSCF-electrons_function_1;electrons-electrons_scf_function_0
# Job info - HDEEM
JOB ID,17281896.10
Nodelist,taurusi5610
AVG Runtime of function [s],2.96978
MAX Runtime of function [s],2.96978
MIN Runtime of function [s],2.96978
# COUNTERS - HDEEM: 
AVG Energy consumption [J] (Stats structure),659.336
MAX Energy consumption [J] (Stats structure),659.336
MIN Energy consumption [J] (Stats structure),659.336
SUM Energy consumption [J] (Stats structure),659.336
# CALLTREE;init_0;Main-PWSCF_0;run-PWSCF_0;run-PWSCF-electrons_function_1;electrons-electrons_scf_function_0
# Job info - HDEEM
JOB ID,17281896.10
Nodelist,taurusi5610
AVG Runtime of function [s],1.99409
MAX Runtime of function [s],1.99409
MIN Runtime of function [s],1.99409
# COUNTERS - HDEEM: 
AVG Energy consumption [J] (Stats structure),476.996
MAX Energy consumption [J] (Stats structure),476.996
MIN Energy consumption [J] (Stats structure),476.996
SUM Energy consumption [J] (Stats structure),476.996
