# CALLTREE;init_0;Main-PWSCF_0;run-PWSCF_0;run-PWSCF-electrons_function_1;electrons-electrons_scf_function_0
# Job info - HDEEM
JOB ID,17280380.0
Nodelist,taurusi5526
AVG Runtime of function [s],62.0411
MAX Runtime of function [s],62.0411
MIN Runtime of function [s],62.0411
# COUNTERS - HDEEM: 
AVG Energy consumption [J] (Stats structure),7937.79
MAX Energy consumption [J] (Stats structure),7937.79
MIN Energy consumption [J] (Stats structure),7937.79
SUM Energy consumption [J] (Stats structure),7937.79
# CALLTREE;init_0;Main-PWSCF_0;run-PWSCF_0;run-PWSCF-electrons_function_1;electrons-electrons_scf_function_0
# Job info - HDEEM
JOB ID,17280380.0
Nodelist,taurusi5526
AVG Runtime of function [s],58.3992
MAX Runtime of function [s],58.3992
MIN Runtime of function [s],58.3992
# COUNTERS - HDEEM: 
AVG Energy consumption [J] (Stats structure),7477.71
MAX Energy consumption [J] (Stats structure),7477.71
MIN Energy consumption [J] (Stats structure),7477.71
SUM Energy consumption [J] (Stats structure),7477.71
# CALLTREE;init_0;Main-PWSCF_0;run-PWSCF_0;run-PWSCF-electrons_function_1;electrons-electrons_scf_function_0
# Job info - HDEEM
JOB ID,17280380.0
Nodelist,taurusi5526
AVG Runtime of function [s],51.6942
MAX Runtime of function [s],51.6942
MIN Runtime of function [s],51.6942
# COUNTERS - HDEEM: 
AVG Energy consumption [J] (Stats structure),6606.29
MAX Energy consumption [J] (Stats structure),6606.29
MIN Energy consumption [J] (Stats structure),6606.29
SUM Energy consumption [J] (Stats structure),6606.29
# CALLTREE;init_0;Main-PWSCF_0;run-PWSCF_0;run-PWSCF-electrons_function_1;electrons-electrons_scf_function_0
# Job info - HDEEM
JOB ID,17280380.0
Nodelist,taurusi5526
AVG Runtime of function [s],69.681
MAX Runtime of function [s],69.681
MIN Runtime of function [s],69.681
# COUNTERS - HDEEM: 
AVG Energy consumption [J] (Stats structure),8907.44
MAX Energy consumption [J] (Stats structure),8907.44
MIN Energy consumption [J] (Stats structure),8907.44
SUM Energy consumption [J] (Stats structure),8907.44
# CALLTREE;init_0;Main-PWSCF_0;run-PWSCF_0;run-PWSCF-electrons_function_1;electrons-electrons_scf_function_0
# Job info - HDEEM
JOB ID,17280380.0
Nodelist,taurusi5526
AVG Runtime of function [s],58.1589
MAX Runtime of function [s],58.1589
MIN Runtime of function [s],58.1589
# COUNTERS - HDEEM: 
AVG Energy consumption [J] (Stats structure),7419.78
MAX Energy consumption [J] (Stats structure),7419.78
MIN Energy consumption [J] (Stats structure),7419.78
SUM Energy consumption [J] (Stats structure),7419.78
# CALLTREE;init_0;Main-PWSCF_0;run-PWSCF_0;run-PWSCF-electrons_function_1;electrons-electrons_scf_function_0
# Job info - HDEEM
JOB ID,17280380.0
Nodelist,taurusi5526
AVG Runtime of function [s],51.6203
MAX Runtime of function [s],51.6203
MIN Runtime of function [s],51.6203
# COUNTERS - HDEEM: 
AVG Energy consumption [J] (Stats structure),6583.36
MAX Energy consumption [J] (Stats structure),6583.36
MIN Energy consumption [J] (Stats structure),6583.36
SUM Energy consumption [J] (Stats structure),6583.36
# CALLTREE;init_0;Main-PWSCF_0;run-PWSCF_0;run-PWSCF-electrons_function_1;electrons-electrons_scf_function_0
# Job info - HDEEM
JOB ID,17280380.0
Nodelist,taurusi5526
AVG Runtime of function [s],56.4624
MAX Runtime of function [s],56.4624
MIN Runtime of function [s],56.4624
# COUNTERS - HDEEM: 
AVG Energy consumption [J] (Stats structure),7218.1
MAX Energy consumption [J] (Stats structure),7218.1
MIN Energy consumption [J] (Stats structure),7218.1
SUM Energy consumption [J] (Stats structure),7218.1
# CALLTREE;init_0;Main-PWSCF_0;run-PWSCF_0;run-PWSCF-electrons_function_1;electrons-electrons_scf_function_0
# Job info - HDEEM
JOB ID,17280380.0
Nodelist,taurusi5526
AVG Runtime of function [s],48.5644
MAX Runtime of function [s],48.5644
MIN Runtime of function [s],48.5644
# COUNTERS - HDEEM: 
AVG Energy consumption [J] (Stats structure),6213.23
MAX Energy consumption [J] (Stats structure),6213.23
MIN Energy consumption [J] (Stats structure),6213.23
SUM Energy consumption [J] (Stats structure),6213.23
