# CALLTREE;init_0;Main-PWSCF_0;run-PWSCF_0;run-PWSCF-electrons_function_1;electrons-electrons_scf_function_0
# Job info - HDEEM
JOB ID,17280380.9
Nodelist,taurusi5526
AVG Runtime of function [s],67.3957
MAX Runtime of function [s],67.3957
MIN Runtime of function [s],67.3957
# COUNTERS - HDEEM: 
AVG Energy consumption [J] (Stats structure),6596.57
MAX Energy consumption [J] (Stats structure),6596.57
MIN Energy consumption [J] (Stats structure),6596.57
SUM Energy consumption [J] (Stats structure),6596.57
# CALLTREE;init_0;Main-PWSCF_0;run-PWSCF_0;run-PWSCF-electrons_function_1;electrons-electrons_scf_function_0
# Job info - HDEEM
JOB ID,17280380.9
Nodelist,taurusi5526
AVG Runtime of function [s],63.5217
MAX Runtime of function [s],63.5217
MIN Runtime of function [s],63.5217
# COUNTERS - HDEEM: 
AVG Energy consumption [J] (Stats structure),6219.3
MAX Energy consumption [J] (Stats structure),6219.3
MIN Energy consumption [J] (Stats structure),6219.3
SUM Energy consumption [J] (Stats structure),6219.3
# CALLTREE;init_0;Main-PWSCF_0;run-PWSCF_0;run-PWSCF-electrons_function_1;electrons-electrons_scf_function_0
# Job info - HDEEM
JOB ID,17280380.9
Nodelist,taurusi5526
AVG Runtime of function [s],56.0311
MAX Runtime of function [s],56.0311
MIN Runtime of function [s],56.0311
# COUNTERS - HDEEM: 
AVG Energy consumption [J] (Stats structure),5478.19
MAX Energy consumption [J] (Stats structure),5478.19
MIN Energy consumption [J] (Stats structure),5478.19
SUM Energy consumption [J] (Stats structure),5478.19
# CALLTREE;init_0;Main-PWSCF_0;run-PWSCF_0;run-PWSCF-electrons_function_1;electrons-electrons_scf_function_0
# Job info - HDEEM
JOB ID,17280380.9
Nodelist,taurusi5526
AVG Runtime of function [s],75.8643
MAX Runtime of function [s],75.8643
MIN Runtime of function [s],75.8643
# COUNTERS - HDEEM: 
AVG Energy consumption [J] (Stats structure),7418.65
MAX Energy consumption [J] (Stats structure),7418.65
MIN Energy consumption [J] (Stats structure),7418.65
SUM Energy consumption [J] (Stats structure),7418.65
# CALLTREE;init_0;Main-PWSCF_0;run-PWSCF_0;run-PWSCF-electrons_function_1;electrons-electrons_scf_function_0
# Job info - HDEEM
JOB ID,17280380.9
Nodelist,taurusi5526
AVG Runtime of function [s],63.1335
MAX Runtime of function [s],63.1335
MIN Runtime of function [s],63.1335
# COUNTERS - HDEEM: 
AVG Energy consumption [J] (Stats structure),6174.67
MAX Energy consumption [J] (Stats structure),6174.67
MIN Energy consumption [J] (Stats structure),6174.67
SUM Energy consumption [J] (Stats structure),6174.67
# CALLTREE;init_0;Main-PWSCF_0;run-PWSCF_0;run-PWSCF-electrons_function_1;electrons-electrons_scf_function_0
# Job info - HDEEM
JOB ID,17280380.9
Nodelist,taurusi5526
AVG Runtime of function [s],56.0796
MAX Runtime of function [s],56.0796
MIN Runtime of function [s],56.0796
# COUNTERS - HDEEM: 
AVG Energy consumption [J] (Stats structure),5480.65
MAX Energy consumption [J] (Stats structure),5480.65
MIN Energy consumption [J] (Stats structure),5480.65
SUM Energy consumption [J] (Stats structure),5480.65
# CALLTREE;init_0;Main-PWSCF_0;run-PWSCF_0;run-PWSCF-electrons_function_1;electrons-electrons_scf_function_0
# Job info - HDEEM
JOB ID,17280380.9
Nodelist,taurusi5526
AVG Runtime of function [s],61.4882
MAX Runtime of function [s],61.4882
MIN Runtime of function [s],61.4882
# COUNTERS - HDEEM: 
AVG Energy consumption [J] (Stats structure),6011.08
MAX Energy consumption [J] (Stats structure),6011.08
MIN Energy consumption [J] (Stats structure),6011.08
SUM Energy consumption [J] (Stats structure),6011.08
# CALLTREE;init_0;Main-PWSCF_0;run-PWSCF_0;run-PWSCF-electrons_function_1;electrons-electrons_scf_function_0
# Job info - HDEEM
JOB ID,17280380.9
Nodelist,taurusi5526
AVG Runtime of function [s],52.8644
MAX Runtime of function [s],52.8644
MIN Runtime of function [s],52.8644
# COUNTERS - HDEEM: 
AVG Energy consumption [J] (Stats structure),5179.28
MAX Energy consumption [J] (Stats structure),5179.28
MIN Energy consumption [J] (Stats structure),5179.28
SUM Energy consumption [J] (Stats structure),5179.28
