# CALLTREE;init_0;Main-PWSCF_0;run-PWSCF_0;run-PWSCF-electrons_function_1;electrons-electrons_scf_function_0
# Job info - HDEEM
JOB ID,17280380.10
Nodelist,taurusi5526
AVG Runtime of function [s],68.9562
MAX Runtime of function [s],68.9562
MIN Runtime of function [s],68.9562
# COUNTERS - HDEEM: 
AVG Energy consumption [J] (Stats structure),8725.01
MAX Energy consumption [J] (Stats structure),8725.01
MIN Energy consumption [J] (Stats structure),8725.01
SUM Energy consumption [J] (Stats structure),8725.01
# CALLTREE;init_0;Main-PWSCF_0;run-PWSCF_0;run-PWSCF-electrons_function_1;electrons-electrons_scf_function_0
# Job info - HDEEM
JOB ID,17280380.10
Nodelist,taurusi5526
AVG Runtime of function [s],64.993
MAX Runtime of function [s],64.993
MIN Runtime of function [s],64.993
# COUNTERS - HDEEM: 
AVG Energy consumption [J] (Stats structure),8228.74
MAX Energy consumption [J] (Stats structure),8228.74
MIN Energy consumption [J] (Stats structure),8228.74
SUM Energy consumption [J] (Stats structure),8228.74
# CALLTREE;init_0;Main-PWSCF_0;run-PWSCF_0;run-PWSCF-electrons_function_1;electrons-electrons_scf_function_0
# Job info - HDEEM
JOB ID,17280380.10
Nodelist,taurusi5526
AVG Runtime of function [s],57.4217
MAX Runtime of function [s],57.4217
MIN Runtime of function [s],57.4217
# COUNTERS - HDEEM: 
AVG Energy consumption [J] (Stats structure),7271.9
MAX Energy consumption [J] (Stats structure),7271.9
MIN Energy consumption [J] (Stats structure),7271.9
SUM Energy consumption [J] (Stats structure),7271.9
# CALLTREE;init_0;Main-PWSCF_0;run-PWSCF_0;run-PWSCF-electrons_function_1;electrons-electrons_scf_function_0
# Job info - HDEEM
JOB ID,17280380.10
Nodelist,taurusi5526
AVG Runtime of function [s],77.5155
MAX Runtime of function [s],77.5155
MIN Runtime of function [s],77.5155
# COUNTERS - HDEEM: 
AVG Energy consumption [J] (Stats structure),9804.79
MAX Energy consumption [J] (Stats structure),9804.79
MIN Energy consumption [J] (Stats structure),9804.79
SUM Energy consumption [J] (Stats structure),9804.79
# CALLTREE;init_0;Main-PWSCF_0;run-PWSCF_0;run-PWSCF-electrons_function_1;electrons-electrons_scf_function_0
# Job info - HDEEM
JOB ID,17280380.10
Nodelist,taurusi5526
AVG Runtime of function [s],64.5831
MAX Runtime of function [s],64.5831
MIN Runtime of function [s],64.5831
# COUNTERS - HDEEM: 
AVG Energy consumption [J] (Stats structure),8160.59
MAX Energy consumption [J] (Stats structure),8160.59
MIN Energy consumption [J] (Stats structure),8160.59
SUM Energy consumption [J] (Stats structure),8160.59
# CALLTREE;init_0;Main-PWSCF_0;run-PWSCF_0;run-PWSCF-electrons_function_1;electrons-electrons_scf_function_0
# Job info - HDEEM
JOB ID,17280380.10
Nodelist,taurusi5526
AVG Runtime of function [s],57.4164
MAX Runtime of function [s],57.4164
MIN Runtime of function [s],57.4164
# COUNTERS - HDEEM: 
AVG Energy consumption [J] (Stats structure),7257.29
MAX Energy consumption [J] (Stats structure),7257.29
MIN Energy consumption [J] (Stats structure),7257.29
SUM Energy consumption [J] (Stats structure),7257.29
# CALLTREE;init_0;Main-PWSCF_0;run-PWSCF_0;run-PWSCF-electrons_function_1;electrons-electrons_scf_function_0
# Job info - HDEEM
JOB ID,17280380.10
Nodelist,taurusi5526
AVG Runtime of function [s],62.8836
MAX Runtime of function [s],62.8836
MIN Runtime of function [s],62.8836
# COUNTERS - HDEEM: 
AVG Energy consumption [J] (Stats structure),7942.02
MAX Energy consumption [J] (Stats structure),7942.02
MIN Energy consumption [J] (Stats structure),7942.02
SUM Energy consumption [J] (Stats structure),7942.02
# CALLTREE;init_0;Main-PWSCF_0;run-PWSCF_0;run-PWSCF-electrons_function_1;electrons-electrons_scf_function_0
# Job info - HDEEM
JOB ID,17280380.10
Nodelist,taurusi5526
AVG Runtime of function [s],54.0285
MAX Runtime of function [s],54.0285
MIN Runtime of function [s],54.0285
# COUNTERS - HDEEM: 
AVG Energy consumption [J] (Stats structure),6836.81
MAX Energy consumption [J] (Stats structure),6836.81
MIN Energy consumption [J] (Stats structure),6836.81
SUM Energy consumption [J] (Stats structure),6836.81
