# CALLTREE;init_0;Main-PWSCF_0;run-PWSCF_0;run-PWSCF-electrons_function_1;electrons-electrons_scf_function_0
# Job info - HDEEM
JOB ID,17280380.17
Nodelist,taurusi5526
AVG Runtime of function [s],75.0226
MAX Runtime of function [s],75.0226
MIN Runtime of function [s],75.0226
# COUNTERS - HDEEM: 
AVG Energy consumption [J] (Stats structure),8092.08
MAX Energy consumption [J] (Stats structure),8092.08
MIN Energy consumption [J] (Stats structure),8092.08
SUM Energy consumption [J] (Stats structure),8092.08
# CALLTREE;init_0;Main-PWSCF_0;run-PWSCF_0;run-PWSCF-electrons_function_1;electrons-electrons_scf_function_0
# Job info - HDEEM
JOB ID,17280380.17
Nodelist,taurusi5526
AVG Runtime of function [s],70.7557
MAX Runtime of function [s],70.7557
MIN Runtime of function [s],70.7557
# COUNTERS - HDEEM: 
AVG Energy consumption [J] (Stats structure),7619.85
MAX Energy consumption [J] (Stats structure),7619.85
MIN Energy consumption [J] (Stats structure),7619.85
SUM Energy consumption [J] (Stats structure),7619.85
# CALLTREE;init_0;Main-PWSCF_0;run-PWSCF_0;run-PWSCF-electrons_function_1;electrons-electrons_scf_function_0
# Job info - HDEEM
JOB ID,17280380.17
Nodelist,taurusi5526
AVG Runtime of function [s],62.548
MAX Runtime of function [s],62.548
MIN Runtime of function [s],62.548
# COUNTERS - HDEEM: 
AVG Energy consumption [J] (Stats structure),6742.12
MAX Energy consumption [J] (Stats structure),6742.12
MIN Energy consumption [J] (Stats structure),6742.12
SUM Energy consumption [J] (Stats structure),6742.12
# CALLTREE;init_0;Main-PWSCF_0;run-PWSCF_0;run-PWSCF-electrons_function_1;electrons-electrons_scf_function_0
# Job info - HDEEM
JOB ID,17280380.17
Nodelist,taurusi5526
AVG Runtime of function [s],84.5141
MAX Runtime of function [s],84.5141
MIN Runtime of function [s],84.5141
# COUNTERS - HDEEM: 
AVG Energy consumption [J] (Stats structure),9113.37
MAX Energy consumption [J] (Stats structure),9113.37
MIN Energy consumption [J] (Stats structure),9113.37
SUM Energy consumption [J] (Stats structure),9113.37
# CALLTREE;init_0;Main-PWSCF_0;run-PWSCF_0;run-PWSCF-electrons_function_1;electrons-electrons_scf_function_0
# Job info - HDEEM
JOB ID,17280380.17
Nodelist,taurusi5526
AVG Runtime of function [s],70.4096
MAX Runtime of function [s],70.4096
MIN Runtime of function [s],70.4096
# COUNTERS - HDEEM: 
AVG Energy consumption [J] (Stats structure),7592.32
MAX Energy consumption [J] (Stats structure),7592.32
MIN Energy consumption [J] (Stats structure),7592.32
SUM Energy consumption [J] (Stats structure),7592.32
# CALLTREE;init_0;Main-PWSCF_0;run-PWSCF_0;run-PWSCF-electrons_function_1;electrons-electrons_scf_function_0
# Job info - HDEEM
JOB ID,17280380.17
Nodelist,taurusi5526
AVG Runtime of function [s],62.4828
MAX Runtime of function [s],62.4828
MIN Runtime of function [s],62.4828
# COUNTERS - HDEEM: 
AVG Energy consumption [J] (Stats structure),6730.75
MAX Energy consumption [J] (Stats structure),6730.75
MIN Energy consumption [J] (Stats structure),6730.75
SUM Energy consumption [J] (Stats structure),6730.75
# CALLTREE;init_0;Main-PWSCF_0;run-PWSCF_0;run-PWSCF-electrons_function_1;electrons-electrons_scf_function_0
# Job info - HDEEM
JOB ID,17280380.17
Nodelist,taurusi5526
AVG Runtime of function [s],68.5517
MAX Runtime of function [s],68.5517
MIN Runtime of function [s],68.5517
# COUNTERS - HDEEM: 
AVG Energy consumption [J] (Stats structure),7399.76
MAX Energy consumption [J] (Stats structure),7399.76
MIN Energy consumption [J] (Stats structure),7399.76
SUM Energy consumption [J] (Stats structure),7399.76
# CALLTREE;init_0;Main-PWSCF_0;run-PWSCF_0;run-PWSCF-electrons_function_1;electrons-electrons_scf_function_0
# Job info - HDEEM
JOB ID,17280380.17
Nodelist,taurusi5526
AVG Runtime of function [s],58.773
MAX Runtime of function [s],58.773
MIN Runtime of function [s],58.773
# COUNTERS - HDEEM: 
AVG Energy consumption [J] (Stats structure),6341.31
MAX Energy consumption [J] (Stats structure),6341.31
MIN Energy consumption [J] (Stats structure),6341.31
SUM Energy consumption [J] (Stats structure),6341.31
