# CALLTREE;init_0;Main-PWSCF_0;run-PWSCF_0;run-PWSCF-electrons_function_1;electrons-electrons_scf_function_0
# Job info - HDEEM
JOB ID,17281565.5
Nodelist,taurusi5540
AVG Runtime of function [s],0.0243653
MAX Runtime of function [s],0.0243653
MIN Runtime of function [s],0.0243653
# COUNTERS - HDEEM: 
AVG Energy consumption [J] (Stats structure),6.222
MAX Energy consumption [J] (Stats structure),6.222
MIN Energy consumption [J] (Stats structure),6.222
SUM Energy consumption [J] (Stats structure),6.222
