# CALLTREE;init_0;Main-PWSCF_0;run-PWSCF_0;run-PWSCF-electrons_function_1;electrons-electrons_scf_function_0;sum_band_function_0
# Job info - HDEEM
JOB ID,17280380.0
Nodelist,taurusi5526
AVG Runtime of function [s],0.692821
MAX Runtime of function [s],0.692821
MIN Runtime of function [s],0.692821
# COUNTERS - HDEEM: 
AVG Energy consumption [J] (Stats structure),91.891
MAX Energy consumption [J] (Stats structure),91.891
MIN Energy consumption [J] (Stats structure),91.891
SUM Energy consumption [J] (Stats structure),91.891
# CALLTREE;init_0;Main-PWSCF_0;run-PWSCF_0;run-PWSCF-electrons_function_1;electrons-electrons_scf_function_0;sum_band_function_1
# Job info - HDEEM
JOB ID,17280380.0
Nodelist,taurusi5526
AVG Runtime of function [s],0.687298
MAX Runtime of function [s],0.687298
MIN Runtime of function [s],0.687298
# COUNTERS - HDEEM: 
AVG Energy consumption [J] (Stats structure),91.251
MAX Energy consumption [J] (Stats structure),91.251
MIN Energy consumption [J] (Stats structure),91.251
SUM Energy consumption [J] (Stats structure),91.251
# CALLTREE;init_0;Main-PWSCF_0;run-PWSCF_0;run-PWSCF-electrons_function_1;electrons-electrons_scf_function_0;sum_band_function_2
# Job info - HDEEM
JOB ID,17280380.0
Nodelist,taurusi5526
AVG Runtime of function [s],0.686104
MAX Runtime of function [s],0.686104
MIN Runtime of function [s],0.686104
# COUNTERS - HDEEM: 
AVG Energy consumption [J] (Stats structure),91.122
MAX Energy consumption [J] (Stats structure),91.122
MIN Energy consumption [J] (Stats structure),91.122
SUM Energy consumption [J] (Stats structure),91.122
# CALLTREE;init_0;Main-PWSCF_0;run-PWSCF_0;run-PWSCF-electrons_function_1;electrons-electrons_scf_function_0;sum_band_function_3
# Job info - HDEEM
JOB ID,17280380.0
Nodelist,taurusi5526
AVG Runtime of function [s],0.685461
MAX Runtime of function [s],0.685461
MIN Runtime of function [s],0.685461
# COUNTERS - HDEEM: 
AVG Energy consumption [J] (Stats structure),91.213
MAX Energy consumption [J] (Stats structure),91.213
MIN Energy consumption [J] (Stats structure),91.213
SUM Energy consumption [J] (Stats structure),91.213
# CALLTREE;init_0;Main-PWSCF_0;run-PWSCF_0;run-PWSCF-electrons_function_1;electrons-electrons_scf_function_0;sum_band_function_4
# Job info - HDEEM
JOB ID,17280380.0
Nodelist,taurusi5526
AVG Runtime of function [s],0.68215
MAX Runtime of function [s],0.68215
MIN Runtime of function [s],0.68215
# COUNTERS - HDEEM: 
AVG Energy consumption [J] (Stats structure),90.493
MAX Energy consumption [J] (Stats structure),90.493
MIN Energy consumption [J] (Stats structure),90.493
SUM Energy consumption [J] (Stats structure),90.493
# CALLTREE;init_0;Main-PWSCF_0;run-PWSCF_0;run-PWSCF-electrons_function_1;electrons-electrons_scf_function_0;sum_band_function_5
# Job info - HDEEM
JOB ID,17280380.0
Nodelist,taurusi5526
AVG Runtime of function [s],0.684896
MAX Runtime of function [s],0.684896
MIN Runtime of function [s],0.684896
# COUNTERS - HDEEM: 
AVG Energy consumption [J] (Stats structure),90.904
MAX Energy consumption [J] (Stats structure),90.904
MIN Energy consumption [J] (Stats structure),90.904
SUM Energy consumption [J] (Stats structure),90.904
# CALLTREE;init_0;Main-PWSCF_0;run-PWSCF_0;run-PWSCF-electrons_function_1;electrons-electrons_scf_function_0;sum_band_function_6
# Job info - HDEEM
JOB ID,17280380.0
Nodelist,taurusi5526
AVG Runtime of function [s],0.682704
MAX Runtime of function [s],0.682704
MIN Runtime of function [s],0.682704
# COUNTERS - HDEEM: 
AVG Energy consumption [J] (Stats structure),90.63
MAX Energy consumption [J] (Stats structure),90.63
MIN Energy consumption [J] (Stats structure),90.63
SUM Energy consumption [J] (Stats structure),90.63
# CALLTREE;init_0;Main-PWSCF_0;run-PWSCF_0;run-PWSCF-electrons_function_1;electrons-electrons_scf_function_0;sum_band_function_7
# Job info - HDEEM
JOB ID,17280380.0
Nodelist,taurusi5526
AVG Runtime of function [s],0.684619
MAX Runtime of function [s],0.684619
MIN Runtime of function [s],0.684619
# COUNTERS - HDEEM: 
AVG Energy consumption [J] (Stats structure),90.77
MAX Energy consumption [J] (Stats structure),90.77
MIN Energy consumption [J] (Stats structure),90.77
SUM Energy consumption [J] (Stats structure),90.77
