# CALLTREE;init_0;Main-PWSCF_0;run-PWSCF_0;run-PWSCF-electrons_function_1;electrons-electrons_scf_function_0;sum_band_function_0
# Job info - HDEEM
JOB ID,17280380.18
Nodelist,taurusi5526
AVG Runtime of function [s],1.23978
MAX Runtime of function [s],1.23978
MIN Runtime of function [s],1.23978
# COUNTERS - HDEEM: 
AVG Energy consumption [J] (Stats structure),127.972
MAX Energy consumption [J] (Stats structure),127.972
MIN Energy consumption [J] (Stats structure),127.972
SUM Energy consumption [J] (Stats structure),127.972
# CALLTREE;init_0;Main-PWSCF_0;run-PWSCF_0;run-PWSCF-electrons_function_1;electrons-electrons_scf_function_0;sum_band_function_1
# Job info - HDEEM
JOB ID,17280380.18
Nodelist,taurusi5526
AVG Runtime of function [s],1.22983
MAX Runtime of function [s],1.22983
MIN Runtime of function [s],1.22983
# COUNTERS - HDEEM: 
AVG Energy consumption [J] (Stats structure),126.957
MAX Energy consumption [J] (Stats structure),126.957
MIN Energy consumption [J] (Stats structure),126.957
SUM Energy consumption [J] (Stats structure),126.957
# CALLTREE;init_0;Main-PWSCF_0;run-PWSCF_0;run-PWSCF-electrons_function_1;electrons-electrons_scf_function_0;sum_band_function_2
# Job info - HDEEM
JOB ID,17280380.18
Nodelist,taurusi5526
AVG Runtime of function [s],1.22624
MAX Runtime of function [s],1.22624
MIN Runtime of function [s],1.22624
# COUNTERS - HDEEM: 
AVG Energy consumption [J] (Stats structure),126.663
MAX Energy consumption [J] (Stats structure),126.663
MIN Energy consumption [J] (Stats structure),126.663
SUM Energy consumption [J] (Stats structure),126.663
# CALLTREE;init_0;Main-PWSCF_0;run-PWSCF_0;run-PWSCF-electrons_function_1;electrons-electrons_scf_function_0;sum_band_function_3
# Job info - HDEEM
JOB ID,17280380.18
Nodelist,taurusi5526
AVG Runtime of function [s],1.24008
MAX Runtime of function [s],1.24008
MIN Runtime of function [s],1.24008
# COUNTERS - HDEEM: 
AVG Energy consumption [J] (Stats structure),127.918
MAX Energy consumption [J] (Stats structure),127.918
MIN Energy consumption [J] (Stats structure),127.918
SUM Energy consumption [J] (Stats structure),127.918
# CALLTREE;init_0;Main-PWSCF_0;run-PWSCF_0;run-PWSCF-electrons_function_1;electrons-electrons_scf_function_0;sum_band_function_4
# Job info - HDEEM
JOB ID,17280380.18
Nodelist,taurusi5526
AVG Runtime of function [s],1.23885
MAX Runtime of function [s],1.23885
MIN Runtime of function [s],1.23885
# COUNTERS - HDEEM: 
AVG Energy consumption [J] (Stats structure),127.836
MAX Energy consumption [J] (Stats structure),127.836
MIN Energy consumption [J] (Stats structure),127.836
SUM Energy consumption [J] (Stats structure),127.836
# CALLTREE;init_0;Main-PWSCF_0;run-PWSCF_0;run-PWSCF-electrons_function_1;electrons-electrons_scf_function_0;sum_band_function_5
# Job info - HDEEM
JOB ID,17280380.18
Nodelist,taurusi5526
AVG Runtime of function [s],1.24228
MAX Runtime of function [s],1.24228
MIN Runtime of function [s],1.24228
# COUNTERS - HDEEM: 
AVG Energy consumption [J] (Stats structure),133.854
MAX Energy consumption [J] (Stats structure),133.854
MIN Energy consumption [J] (Stats structure),133.854
SUM Energy consumption [J] (Stats structure),133.854
# CALLTREE;init_0;Main-PWSCF_0;run-PWSCF_0;run-PWSCF-electrons_function_1;electrons-electrons_scf_function_0;sum_band_function_6
# Job info - HDEEM
JOB ID,17280380.18
Nodelist,taurusi5526
AVG Runtime of function [s],1.23876
MAX Runtime of function [s],1.23876
MIN Runtime of function [s],1.23876
# COUNTERS - HDEEM: 
AVG Energy consumption [J] (Stats structure),127.994
MAX Energy consumption [J] (Stats structure),127.994
MIN Energy consumption [J] (Stats structure),127.994
SUM Energy consumption [J] (Stats structure),127.994
# CALLTREE;init_0;Main-PWSCF_0;run-PWSCF_0;run-PWSCF-electrons_function_1;electrons-electrons_scf_function_0;sum_band_function_7
# Job info - HDEEM
JOB ID,17280380.18
Nodelist,taurusi5526
AVG Runtime of function [s],1.23731
MAX Runtime of function [s],1.23731
MIN Runtime of function [s],1.23731
# COUNTERS - HDEEM: 
AVG Energy consumption [J] (Stats structure),127.766
MAX Energy consumption [J] (Stats structure),127.766
MIN Energy consumption [J] (Stats structure),127.766
SUM Energy consumption [J] (Stats structure),127.766
