# CALLTREE;init_0;Main-PWSCF_0;run-PWSCF_0;run-PWSCF-electrons_function_1;electrons-electrons_scf_function_0;sum_band_function_0
# Job info - HDEEM
JOB ID,17280380.15
Nodelist,taurusi5526
AVG Runtime of function [s],1.16876
MAX Runtime of function [s],1.16876
MIN Runtime of function [s],1.16876
# COUNTERS - HDEEM: 
AVG Energy consumption [J] (Stats structure),149.788
MAX Energy consumption [J] (Stats structure),149.788
MIN Energy consumption [J] (Stats structure),149.788
SUM Energy consumption [J] (Stats structure),149.788
# CALLTREE;init_0;Main-PWSCF_0;run-PWSCF_0;run-PWSCF-electrons_function_1;electrons-electrons_scf_function_0;sum_band_function_1
# Job info - HDEEM
JOB ID,17280380.15
Nodelist,taurusi5526
AVG Runtime of function [s],1.15123
MAX Runtime of function [s],1.15123
MIN Runtime of function [s],1.15123
# COUNTERS - HDEEM: 
AVG Energy consumption [J] (Stats structure),147.417
MAX Energy consumption [J] (Stats structure),147.417
MIN Energy consumption [J] (Stats structure),147.417
SUM Energy consumption [J] (Stats structure),147.417
# CALLTREE;init_0;Main-PWSCF_0;run-PWSCF_0;run-PWSCF-electrons_function_1;electrons-electrons_scf_function_0;sum_band_function_2
# Job info - HDEEM
JOB ID,17280380.15
Nodelist,taurusi5526
AVG Runtime of function [s],1.15383
MAX Runtime of function [s],1.15383
MIN Runtime of function [s],1.15383
# COUNTERS - HDEEM: 
AVG Energy consumption [J] (Stats structure),147.83
MAX Energy consumption [J] (Stats structure),147.83
MIN Energy consumption [J] (Stats structure),147.83
SUM Energy consumption [J] (Stats structure),147.83
# CALLTREE;init_0;Main-PWSCF_0;run-PWSCF_0;run-PWSCF-electrons_function_1;electrons-electrons_scf_function_0;sum_band_function_3
# Job info - HDEEM
JOB ID,17280380.15
Nodelist,taurusi5526
AVG Runtime of function [s],1.15274
MAX Runtime of function [s],1.15274
MIN Runtime of function [s],1.15274
# COUNTERS - HDEEM: 
AVG Energy consumption [J] (Stats structure),147.583
MAX Energy consumption [J] (Stats structure),147.583
MIN Energy consumption [J] (Stats structure),147.583
SUM Energy consumption [J] (Stats structure),147.583
# CALLTREE;init_0;Main-PWSCF_0;run-PWSCF_0;run-PWSCF-electrons_function_1;electrons-electrons_scf_function_0;sum_band_function_4
# Job info - HDEEM
JOB ID,17280380.15
Nodelist,taurusi5526
AVG Runtime of function [s],1.15332
MAX Runtime of function [s],1.15332
MIN Runtime of function [s],1.15332
# COUNTERS - HDEEM: 
AVG Energy consumption [J] (Stats structure),147.709
MAX Energy consumption [J] (Stats structure),147.709
MIN Energy consumption [J] (Stats structure),147.709
SUM Energy consumption [J] (Stats structure),147.709
# CALLTREE;init_0;Main-PWSCF_0;run-PWSCF_0;run-PWSCF-electrons_function_1;electrons-electrons_scf_function_0;sum_band_function_5
# Job info - HDEEM
JOB ID,17280380.15
Nodelist,taurusi5526
AVG Runtime of function [s],1.14948
MAX Runtime of function [s],1.14948
MIN Runtime of function [s],1.14948
# COUNTERS - HDEEM: 
AVG Energy consumption [J] (Stats structure),150.87
MAX Energy consumption [J] (Stats structure),150.87
MIN Energy consumption [J] (Stats structure),150.87
SUM Energy consumption [J] (Stats structure),150.87
# CALLTREE;init_0;Main-PWSCF_0;run-PWSCF_0;run-PWSCF-electrons_function_1;electrons-electrons_scf_function_0;sum_band_function_6
# Job info - HDEEM
JOB ID,17280380.15
Nodelist,taurusi5526
AVG Runtime of function [s],1.15259
MAX Runtime of function [s],1.15259
MIN Runtime of function [s],1.15259
# COUNTERS - HDEEM: 
AVG Energy consumption [J] (Stats structure),147.571
MAX Energy consumption [J] (Stats structure),147.571
MIN Energy consumption [J] (Stats structure),147.571
SUM Energy consumption [J] (Stats structure),147.571
# CALLTREE;init_0;Main-PWSCF_0;run-PWSCF_0;run-PWSCF-electrons_function_1;electrons-electrons_scf_function_0;sum_band_function_7
# Job info - HDEEM
JOB ID,17280380.15
Nodelist,taurusi5526
AVG Runtime of function [s],1.15191
MAX Runtime of function [s],1.15191
MIN Runtime of function [s],1.15191
# COUNTERS - HDEEM: 
AVG Energy consumption [J] (Stats structure),147.486
MAX Energy consumption [J] (Stats structure),147.486
MIN Energy consumption [J] (Stats structure),147.486
SUM Energy consumption [J] (Stats structure),147.486
