# CALLTREE;init_0;Main-PWSCF_0;run-PWSCF_0;run-PWSCF-electrons_function_1;electrons-electrons_scf_function_0;sum_band_function_0
# Job info - HDEEM
JOB ID,17280380.5
Nodelist,taurusi5526
AVG Runtime of function [s],0.794281
MAX Runtime of function [s],0.794281
MIN Runtime of function [s],0.794281
# COUNTERS - HDEEM: 
AVG Energy consumption [J] (Stats structure),104.075
MAX Energy consumption [J] (Stats structure),104.075
MIN Energy consumption [J] (Stats structure),104.075
SUM Energy consumption [J] (Stats structure),104.075
# CALLTREE;init_0;Main-PWSCF_0;run-PWSCF_0;run-PWSCF-electrons_function_1;electrons-electrons_scf_function_0;sum_band_function_1
# Job info - HDEEM
JOB ID,17280380.5
Nodelist,taurusi5526
AVG Runtime of function [s],0.791742
MAX Runtime of function [s],0.791742
MIN Runtime of function [s],0.791742
# COUNTERS - HDEEM: 
AVG Energy consumption [J] (Stats structure),108.181
MAX Energy consumption [J] (Stats structure),108.181
MIN Energy consumption [J] (Stats structure),108.181
SUM Energy consumption [J] (Stats structure),108.181
# CALLTREE;init_0;Main-PWSCF_0;run-PWSCF_0;run-PWSCF-electrons_function_1;electrons-electrons_scf_function_0;sum_band_function_2
# Job info - HDEEM
JOB ID,17280380.5
Nodelist,taurusi5526
AVG Runtime of function [s],0.785984
MAX Runtime of function [s],0.785984
MIN Runtime of function [s],0.785984
# COUNTERS - HDEEM: 
AVG Energy consumption [J] (Stats structure),102.965
MAX Energy consumption [J] (Stats structure),102.965
MIN Energy consumption [J] (Stats structure),102.965
SUM Energy consumption [J] (Stats structure),102.965
# CALLTREE;init_0;Main-PWSCF_0;run-PWSCF_0;run-PWSCF-electrons_function_1;electrons-electrons_scf_function_0;sum_band_function_3
# Job info - HDEEM
JOB ID,17280380.5
Nodelist,taurusi5526
AVG Runtime of function [s],0.788411
MAX Runtime of function [s],0.788411
MIN Runtime of function [s],0.788411
# COUNTERS - HDEEM: 
AVG Energy consumption [J] (Stats structure),103.322
MAX Energy consumption [J] (Stats structure),103.322
MIN Energy consumption [J] (Stats structure),103.322
SUM Energy consumption [J] (Stats structure),103.322
# CALLTREE;init_0;Main-PWSCF_0;run-PWSCF_0;run-PWSCF-electrons_function_1;electrons-electrons_scf_function_0;sum_band_function_4
# Job info - HDEEM
JOB ID,17280380.5
Nodelist,taurusi5526
AVG Runtime of function [s],0.786481
MAX Runtime of function [s],0.786481
MIN Runtime of function [s],0.786481
# COUNTERS - HDEEM: 
AVG Energy consumption [J] (Stats structure),103.044
MAX Energy consumption [J] (Stats structure),103.044
MIN Energy consumption [J] (Stats structure),103.044
SUM Energy consumption [J] (Stats structure),103.044
# CALLTREE;init_0;Main-PWSCF_0;run-PWSCF_0;run-PWSCF-electrons_function_1;electrons-electrons_scf_function_0;sum_band_function_5
# Job info - HDEEM
JOB ID,17280380.5
Nodelist,taurusi5526
AVG Runtime of function [s],0.788129
MAX Runtime of function [s],0.788129
MIN Runtime of function [s],0.788129
# COUNTERS - HDEEM: 
AVG Energy consumption [J] (Stats structure),103.289
MAX Energy consumption [J] (Stats structure),103.289
MIN Energy consumption [J] (Stats structure),103.289
SUM Energy consumption [J] (Stats structure),103.289
# CALLTREE;init_0;Main-PWSCF_0;run-PWSCF_0;run-PWSCF-electrons_function_1;electrons-electrons_scf_function_0;sum_band_function_6
# Job info - HDEEM
JOB ID,17280380.5
Nodelist,taurusi5526
AVG Runtime of function [s],0.78796
MAX Runtime of function [s],0.78796
MIN Runtime of function [s],0.78796
# COUNTERS - HDEEM: 
AVG Energy consumption [J] (Stats structure),103.283
MAX Energy consumption [J] (Stats structure),103.283
MIN Energy consumption [J] (Stats structure),103.283
SUM Energy consumption [J] (Stats structure),103.283
# CALLTREE;init_0;Main-PWSCF_0;run-PWSCF_0;run-PWSCF-electrons_function_1;electrons-electrons_scf_function_0;sum_band_function_7
# Job info - HDEEM
JOB ID,17280380.5
Nodelist,taurusi5526
AVG Runtime of function [s],0.786576
MAX Runtime of function [s],0.786576
MIN Runtime of function [s],0.786576
# COUNTERS - HDEEM: 
AVG Energy consumption [J] (Stats structure),108.654
MAX Energy consumption [J] (Stats structure),108.654
MIN Energy consumption [J] (Stats structure),108.654
SUM Energy consumption [J] (Stats structure),108.654
