# CALLTREE;init_0;Main-PWSCF_0;run-PWSCF_0;run-PWSCF-electrons_function_1;electrons-electrons_scf_function_0
# Job info - HDEEM
JOB ID,17281896.12
Nodelist,taurusi5610
AVG Runtime of function [s],0.648656
MAX Runtime of function [s],0.648656
MIN Runtime of function [s],0.648656
# COUNTERS - HDEEM: 
AVG Energy consumption [J] (Stats structure),133.552
MAX Energy consumption [J] (Stats structure),133.552
MIN Energy consumption [J] (Stats structure),133.552
SUM Energy consumption [J] (Stats structure),133.552
# CALLTREE;init_0;Main-PWSCF_0;run-PWSCF_0;run-PWSCF-electrons_function_1;electrons-electrons_scf_function_0
# Job info - HDEEM
JOB ID,17281896.12
Nodelist,taurusi5610
AVG Runtime of function [s],0.648465
MAX Runtime of function [s],0.648465
MIN Runtime of function [s],0.648465
# COUNTERS - HDEEM: 
AVG Energy consumption [J] (Stats structure),133.601
MAX Energy consumption [J] (Stats structure),133.601
MIN Energy consumption [J] (Stats structure),133.601
SUM Energy consumption [J] (Stats structure),133.601
# CALLTREE;init_0;Main-PWSCF_0;run-PWSCF_0;run-PWSCF-electrons_function_1;electrons-electrons_scf_function_0
# Job info - HDEEM
JOB ID,17281896.12
Nodelist,taurusi5610
AVG Runtime of function [s],0.645597
MAX Runtime of function [s],0.645597
MIN Runtime of function [s],0.645597
# COUNTERS - HDEEM: 
AVG Energy consumption [J] (Stats structure),133.029
MAX Energy consumption [J] (Stats structure),133.029
MIN Energy consumption [J] (Stats structure),133.029
SUM Energy consumption [J] (Stats structure),133.029
# CALLTREE;init_0;Main-PWSCF_0;run-PWSCF_0;run-PWSCF-electrons_function_1;electrons-electrons_scf_function_0
# Job info - HDEEM
JOB ID,17281896.12
Nodelist,taurusi5610
AVG Runtime of function [s],0.641138
MAX Runtime of function [s],0.641138
MIN Runtime of function [s],0.641138
# COUNTERS - HDEEM: 
AVG Energy consumption [J] (Stats structure),132.465
MAX Energy consumption [J] (Stats structure),132.465
MIN Energy consumption [J] (Stats structure),132.465
SUM Energy consumption [J] (Stats structure),132.465
# CALLTREE;init_0;Main-PWSCF_0;run-PWSCF_0;run-PWSCF-electrons_function_1;electrons-electrons_scf_function_0
# Job info - HDEEM
JOB ID,17281896.12
Nodelist,taurusi5610
AVG Runtime of function [s],0.641576
MAX Runtime of function [s],0.641576
MIN Runtime of function [s],0.641576
# COUNTERS - HDEEM: 
AVG Energy consumption [J] (Stats structure),132.407
MAX Energy consumption [J] (Stats structure),132.407
MIN Energy consumption [J] (Stats structure),132.407
SUM Energy consumption [J] (Stats structure),132.407
# CALLTREE;init_0;Main-PWSCF_0;run-PWSCF_0;run-PWSCF-electrons_function_1;electrons-electrons_scf_function_0
# Job info - HDEEM
JOB ID,17281896.12
Nodelist,taurusi5610
AVG Runtime of function [s],0.641366
MAX Runtime of function [s],0.641366
MIN Runtime of function [s],0.641366
# COUNTERS - HDEEM: 
AVG Energy consumption [J] (Stats structure),132.417
MAX Energy consumption [J] (Stats structure),132.417
MIN Energy consumption [J] (Stats structure),132.417
SUM Energy consumption [J] (Stats structure),132.417
# CALLTREE;init_0;Main-PWSCF_0;run-PWSCF_0;run-PWSCF-electrons_function_1;electrons-electrons_scf_function_0
# Job info - HDEEM
JOB ID,17281896.12
Nodelist,taurusi5610
AVG Runtime of function [s],0.641113
MAX Runtime of function [s],0.641113
MIN Runtime of function [s],0.641113
# COUNTERS - HDEEM: 
AVG Energy consumption [J] (Stats structure),132.236
MAX Energy consumption [J] (Stats structure),132.236
MIN Energy consumption [J] (Stats structure),132.236
SUM Energy consumption [J] (Stats structure),132.236
# CALLTREE;init_0;Main-PWSCF_0;run-PWSCF_0;run-PWSCF-electrons_function_1;electrons-electrons_scf_function_0
# Job info - HDEEM
JOB ID,17281896.12
Nodelist,taurusi5610
AVG Runtime of function [s],0.64182
MAX Runtime of function [s],0.64182
MIN Runtime of function [s],0.64182
# COUNTERS - HDEEM: 
AVG Energy consumption [J] (Stats structure),132.627
MAX Energy consumption [J] (Stats structure),132.627
MIN Energy consumption [J] (Stats structure),132.627
SUM Energy consumption [J] (Stats structure),132.627
# CALLTREE;init_0;Main-PWSCF_0;run-PWSCF_0;run-PWSCF-electrons_function_1;electrons-electrons_scf_function_0
# Job info - HDEEM
JOB ID,17281896.12
Nodelist,taurusi5610
AVG Runtime of function [s],0.641256
MAX Runtime of function [s],0.641256
MIN Runtime of function [s],0.641256
# COUNTERS - HDEEM: 
AVG Energy consumption [J] (Stats structure),132.637
MAX Energy consumption [J] (Stats structure),132.637
MIN Energy consumption [J] (Stats structure),132.637
SUM Energy consumption [J] (Stats structure),132.637
# CALLTREE;init_0;Main-PWSCF_0;run-PWSCF_0;run-PWSCF-electrons_function_1;electrons-electrons_scf_function_0
# Job info - HDEEM
JOB ID,17281896.12
Nodelist,taurusi5610
AVG Runtime of function [s],0.642905
MAX Runtime of function [s],0.642905
MIN Runtime of function [s],0.642905
# COUNTERS - HDEEM: 
AVG Energy consumption [J] (Stats structure),132.781
MAX Energy consumption [J] (Stats structure),132.781
MIN Energy consumption [J] (Stats structure),132.781
SUM Energy consumption [J] (Stats structure),132.781
# CALLTREE;init_0;Main-PWSCF_0;run-PWSCF_0;run-PWSCF-electrons_function_1;electrons-electrons_scf_function_0
# Job info - HDEEM
JOB ID,17281896.12
Nodelist,taurusi5610
AVG Runtime of function [s],0.642286
MAX Runtime of function [s],0.642286
MIN Runtime of function [s],0.642286
# COUNTERS - HDEEM: 
AVG Energy consumption [J] (Stats structure),132.586
MAX Energy consumption [J] (Stats structure),132.586
MIN Energy consumption [J] (Stats structure),132.586
SUM Energy consumption [J] (Stats structure),132.586
# CALLTREE;init_0;Main-PWSCF_0;run-PWSCF_0;run-PWSCF-electrons_function_1;electrons-electrons_scf_function_0
# Job info - HDEEM
JOB ID,17281896.12
Nodelist,taurusi5610
AVG Runtime of function [s],0.64297
MAX Runtime of function [s],0.64297
MIN Runtime of function [s],0.64297
# COUNTERS - HDEEM: 
AVG Energy consumption [J] (Stats structure),132.817
MAX Energy consumption [J] (Stats structure),132.817
MIN Energy consumption [J] (Stats structure),132.817
SUM Energy consumption [J] (Stats structure),132.817
# CALLTREE;init_0;Main-PWSCF_0;run-PWSCF_0;run-PWSCF-electrons_function_1;electrons-electrons_scf_function_0
# Job info - HDEEM
JOB ID,17281896.12
Nodelist,taurusi5610
AVG Runtime of function [s],0.641455
MAX Runtime of function [s],0.641455
MIN Runtime of function [s],0.641455
# COUNTERS - HDEEM: 
AVG Energy consumption [J] (Stats structure),132.966
MAX Energy consumption [J] (Stats structure),132.966
MIN Energy consumption [J] (Stats structure),132.966
SUM Energy consumption [J] (Stats structure),132.966
# CALLTREE;init_0;Main-PWSCF_0;run-PWSCF_0;run-PWSCF-electrons_function_1;electrons-electrons_scf_function_0
# Job info - HDEEM
JOB ID,17281896.12
Nodelist,taurusi5610
AVG Runtime of function [s],0.641504
MAX Runtime of function [s],0.641504
MIN Runtime of function [s],0.641504
# COUNTERS - HDEEM: 
AVG Energy consumption [J] (Stats structure),132.507
MAX Energy consumption [J] (Stats structure),132.507
MIN Energy consumption [J] (Stats structure),132.507
SUM Energy consumption [J] (Stats structure),132.507
# CALLTREE;init_0;Main-PWSCF_0;run-PWSCF_0;run-PWSCF-electrons_function_1;electrons-electrons_scf_function_0
# Job info - HDEEM
JOB ID,17281896.12
Nodelist,taurusi5610
AVG Runtime of function [s],0.640444
MAX Runtime of function [s],0.640444
MIN Runtime of function [s],0.640444
# COUNTERS - HDEEM: 
AVG Energy consumption [J] (Stats structure),132.349
MAX Energy consumption [J] (Stats structure),132.349
MIN Energy consumption [J] (Stats structure),132.349
SUM Energy consumption [J] (Stats structure),132.349
