# CALLTREE;init_0;Main-PWSCF_0;run-PWSCF_0
# Job info - HDEEM
JOB ID,17280380.18
Nodelist,taurusi5526
AVG Runtime of function [s],32.5714
MAX Runtime of function [s],32.5714
MIN Runtime of function [s],32.5714
# COUNTERS - HDEEM: 
AVG Energy consumption [J] (Stats structure),3318.81
MAX Energy consumption [J] (Stats structure),3318.81
MIN Energy consumption [J] (Stats structure),3318.81
SUM Energy consumption [J] (Stats structure),3318.81
# CALLTREE;init_0;Main-PWSCF_0;run-PWSCF_0
# Job info - HDEEM
JOB ID,17280380.18
Nodelist,taurusi5526
AVG Runtime of function [s],683.865
MAX Runtime of function [s],683.865
MIN Runtime of function [s],683.865
# COUNTERS - HDEEM: 
AVG Energy consumption [J] (Stats structure),69375.7
MAX Energy consumption [J] (Stats structure),69375.7
MIN Energy consumption [J] (Stats structure),69375.7
SUM Energy consumption [J] (Stats structure),69375.7
