# CALLTREE;init_0;Main-PWSCF_0;run-PWSCF_0;run-PWSCF-electrons_function_1;electrons-electrons_scf_function_0;c_bands_function_0
# Job info - HDEEM
JOB ID,17280379.19
Nodelist,taurusi5525
AVG Runtime of function [s],85.4637
MAX Runtime of function [s],85.4637
MIN Runtime of function [s],85.4637
# COUNTERS - HDEEM: 
AVG Energy consumption [J] (Stats structure),8758.68
MAX Energy consumption [J] (Stats structure),8758.68
MIN Energy consumption [J] (Stats structure),8758.68
SUM Energy consumption [J] (Stats structure),8758.68
# CALLTREE;init_0;Main-PWSCF_0;run-PWSCF_0;run-PWSCF-electrons_function_1;electrons-electrons_scf_function_0;c_bands_function_0
# Job info - HDEEM
JOB ID,17280379.19
Nodelist,taurusi5525
AVG Runtime of function [s],87.9874
MAX Runtime of function [s],87.9874
MIN Runtime of function [s],87.9874
# COUNTERS - HDEEM: 
AVG Energy consumption [J] (Stats structure),8999.58
MAX Energy consumption [J] (Stats structure),8999.58
MIN Energy consumption [J] (Stats structure),8999.58
SUM Energy consumption [J] (Stats structure),8999.58
# CALLTREE;init_0;Main-PWSCF_0;run-PWSCF_0;run-PWSCF-electrons_function_1;electrons-electrons_scf_function_0;c_bands_function_0
# Job info - HDEEM
JOB ID,17280379.19
Nodelist,taurusi5525
AVG Runtime of function [s],89.08
MAX Runtime of function [s],89.08
MIN Runtime of function [s],89.08
# COUNTERS - HDEEM: 
AVG Energy consumption [J] (Stats structure),9119.19
MAX Energy consumption [J] (Stats structure),9119.19
MIN Energy consumption [J] (Stats structure),9119.19
SUM Energy consumption [J] (Stats structure),9119.19
# CALLTREE;init_0;Main-PWSCF_0;run-PWSCF_0;run-PWSCF-electrons_function_1;electrons-electrons_scf_function_0;c_bands_function_0
# Job info - HDEEM
JOB ID,17280379.19
Nodelist,taurusi5525
AVG Runtime of function [s],89.0324
MAX Runtime of function [s],89.0324
MIN Runtime of function [s],89.0324
# COUNTERS - HDEEM: 
AVG Energy consumption [J] (Stats structure),9111.76
MAX Energy consumption [J] (Stats structure),9111.76
MIN Energy consumption [J] (Stats structure),9111.76
SUM Energy consumption [J] (Stats structure),9111.76
# CALLTREE;init_0;Main-PWSCF_0;run-PWSCF_0;run-PWSCF-electrons_function_1;electrons-electrons_scf_function_0;c_bands_function_1
# Job info - HDEEM
JOB ID,17280379.19
Nodelist,taurusi5525
AVG Runtime of function [s],59.3045
MAX Runtime of function [s],59.3045
MIN Runtime of function [s],59.3045
# COUNTERS - HDEEM: 
AVG Energy consumption [J] (Stats structure),6072.12
MAX Energy consumption [J] (Stats structure),6072.12
MIN Energy consumption [J] (Stats structure),6072.12
SUM Energy consumption [J] (Stats structure),6072.12
# CALLTREE;init_0;Main-PWSCF_0;run-PWSCF_0;run-PWSCF-electrons_function_1;electrons-electrons_scf_function_0;c_bands_function_1
# Job info - HDEEM
JOB ID,17280379.19
Nodelist,taurusi5525
AVG Runtime of function [s],58.0453
MAX Runtime of function [s],58.0453
MIN Runtime of function [s],58.0453
# COUNTERS - HDEEM: 
AVG Energy consumption [J] (Stats structure),5933.67
MAX Energy consumption [J] (Stats structure),5933.67
MIN Energy consumption [J] (Stats structure),5933.67
SUM Energy consumption [J] (Stats structure),5933.67
# CALLTREE;init_0;Main-PWSCF_0;run-PWSCF_0;run-PWSCF-electrons_function_1;electrons-electrons_scf_function_0;c_bands_function_1
# Job info - HDEEM
JOB ID,17280379.19
Nodelist,taurusi5525
AVG Runtime of function [s],57.3311
MAX Runtime of function [s],57.3311
MIN Runtime of function [s],57.3311
# COUNTERS - HDEEM: 
AVG Energy consumption [J] (Stats structure),5859.41
MAX Energy consumption [J] (Stats structure),5859.41
MIN Energy consumption [J] (Stats structure),5859.41
SUM Energy consumption [J] (Stats structure),5859.41
# CALLTREE;init_0;Main-PWSCF_0;run-PWSCF_0;run-PWSCF-electrons_function_1;electrons-electrons_scf_function_0;c_bands_function_1
# Job info - HDEEM
JOB ID,17280379.19
Nodelist,taurusi5525
AVG Runtime of function [s],57.3111
MAX Runtime of function [s],57.3111
MIN Runtime of function [s],57.3111
# COUNTERS - HDEEM: 
AVG Energy consumption [J] (Stats structure),5856.76
MAX Energy consumption [J] (Stats structure),5856.76
MIN Energy consumption [J] (Stats structure),5856.76
SUM Energy consumption [J] (Stats structure),5856.76
# CALLTREE;init_0;Main-PWSCF_0;run-PWSCF_0;run-PWSCF-electrons_function_1;electrons-electrons_scf_function_0;c_bands_function_2
# Job info - HDEEM
JOB ID,17280379.19
Nodelist,taurusi5525
AVG Runtime of function [s],57.368
MAX Runtime of function [s],57.368
MIN Runtime of function [s],57.368
# COUNTERS - HDEEM: 
AVG Energy consumption [J] (Stats structure),5863.69
MAX Energy consumption [J] (Stats structure),5863.69
MIN Energy consumption [J] (Stats structure),5863.69
SUM Energy consumption [J] (Stats structure),5863.69
# CALLTREE;init_0;Main-PWSCF_0;run-PWSCF_0;run-PWSCF-electrons_function_1;electrons-electrons_scf_function_0;c_bands_function_2
# Job info - HDEEM
JOB ID,17280379.19
Nodelist,taurusi5525
AVG Runtime of function [s],57.2257
MAX Runtime of function [s],57.2257
MIN Runtime of function [s],57.2257
# COUNTERS - HDEEM: 
AVG Energy consumption [J] (Stats structure),5848.54
MAX Energy consumption [J] (Stats structure),5848.54
MIN Energy consumption [J] (Stats structure),5848.54
SUM Energy consumption [J] (Stats structure),5848.54
# CALLTREE;init_0;Main-PWSCF_0;run-PWSCF_0;run-PWSCF-electrons_function_1;electrons-electrons_scf_function_0;c_bands_function_2
# Job info - HDEEM
JOB ID,17280379.19
Nodelist,taurusi5525
AVG Runtime of function [s],57.289
MAX Runtime of function [s],57.289
MIN Runtime of function [s],57.289
# COUNTERS - HDEEM: 
AVG Energy consumption [J] (Stats structure),5854.59
MAX Energy consumption [J] (Stats structure),5854.59
MIN Energy consumption [J] (Stats structure),5854.59
SUM Energy consumption [J] (Stats structure),5854.59
# CALLTREE;init_0;Main-PWSCF_0;run-PWSCF_0;run-PWSCF-electrons_function_1;electrons-electrons_scf_function_0;c_bands_function_2
# Job info - HDEEM
JOB ID,17280379.19
Nodelist,taurusi5525
AVG Runtime of function [s],57.3415
MAX Runtime of function [s],57.3415
MIN Runtime of function [s],57.3415
# COUNTERS - HDEEM: 
AVG Energy consumption [J] (Stats structure),5857.59
MAX Energy consumption [J] (Stats structure),5857.59
MIN Energy consumption [J] (Stats structure),5857.59
SUM Energy consumption [J] (Stats structure),5857.59
# CALLTREE;init_0;Main-PWSCF_0;run-PWSCF_0;run-PWSCF-electrons_function_1;electrons-electrons_scf_function_0;c_bands_function_3
# Job info - HDEEM
JOB ID,17280379.19
Nodelist,taurusi5525
AVG Runtime of function [s],91.1307
MAX Runtime of function [s],91.1307
MIN Runtime of function [s],91.1307
# COUNTERS - HDEEM: 
AVG Energy consumption [J] (Stats structure),9335.45
MAX Energy consumption [J] (Stats structure),9335.45
MIN Energy consumption [J] (Stats structure),9335.45
SUM Energy consumption [J] (Stats structure),9335.45
# CALLTREE;init_0;Main-PWSCF_0;run-PWSCF_0;run-PWSCF-electrons_function_1;electrons-electrons_scf_function_0;c_bands_function_3
# Job info - HDEEM
JOB ID,17280379.19
Nodelist,taurusi5525
AVG Runtime of function [s],100.429
MAX Runtime of function [s],100.429
MIN Runtime of function [s],100.429
# COUNTERS - HDEEM: 
AVG Energy consumption [J] (Stats structure),10283.3
MAX Energy consumption [J] (Stats structure),10283.3
MIN Energy consumption [J] (Stats structure),10283.3
SUM Energy consumption [J] (Stats structure),10283.3
# CALLTREE;init_0;Main-PWSCF_0;run-PWSCF_0;run-PWSCF-electrons_function_1;electrons-electrons_scf_function_0;c_bands_function_3
# Job info - HDEEM
JOB ID,17280379.19
Nodelist,taurusi5525
AVG Runtime of function [s],104.173
MAX Runtime of function [s],104.173
MIN Runtime of function [s],104.173
# COUNTERS - HDEEM: 
AVG Energy consumption [J] (Stats structure),10667.9
MAX Energy consumption [J] (Stats structure),10667.9
MIN Energy consumption [J] (Stats structure),10667.9
SUM Energy consumption [J] (Stats structure),10667.9
# CALLTREE;init_0;Main-PWSCF_0;run-PWSCF_0;run-PWSCF-electrons_function_1;electrons-electrons_scf_function_0;c_bands_function_3
# Job info - HDEEM
JOB ID,17280379.19
Nodelist,taurusi5525
AVG Runtime of function [s],103.288
MAX Runtime of function [s],103.288
MIN Runtime of function [s],103.288
# COUNTERS - HDEEM: 
AVG Energy consumption [J] (Stats structure),10574
MAX Energy consumption [J] (Stats structure),10574
MIN Energy consumption [J] (Stats structure),10574
SUM Energy consumption [J] (Stats structure),10574
# CALLTREE;init_0;Main-PWSCF_0;run-PWSCF_0;run-PWSCF-electrons_function_1;electrons-electrons_scf_function_0;c_bands_function_4
# Job info - HDEEM
JOB ID,17280379.19
Nodelist,taurusi5525
AVG Runtime of function [s],98.2233
MAX Runtime of function [s],98.2233
MIN Runtime of function [s],98.2233
# COUNTERS - HDEEM: 
AVG Energy consumption [J] (Stats structure),10051
MAX Energy consumption [J] (Stats structure),10051
MIN Energy consumption [J] (Stats structure),10051
SUM Energy consumption [J] (Stats structure),10051
# CALLTREE;init_0;Main-PWSCF_0;run-PWSCF_0;run-PWSCF-electrons_function_1;electrons-electrons_scf_function_0;c_bands_function_4
# Job info - HDEEM
JOB ID,17280379.19
Nodelist,taurusi5525
AVG Runtime of function [s],101.584
MAX Runtime of function [s],101.584
MIN Runtime of function [s],101.584
# COUNTERS - HDEEM: 
AVG Energy consumption [J] (Stats structure),10400.4
MAX Energy consumption [J] (Stats structure),10400.4
MIN Energy consumption [J] (Stats structure),10400.4
SUM Energy consumption [J] (Stats structure),10400.4
# CALLTREE;init_0;Main-PWSCF_0;run-PWSCF_0;run-PWSCF-electrons_function_1;electrons-electrons_scf_function_0;c_bands_function_4
# Job info - HDEEM
JOB ID,17280379.19
Nodelist,taurusi5525
AVG Runtime of function [s],104.809
MAX Runtime of function [s],104.809
MIN Runtime of function [s],104.809
# COUNTERS - HDEEM: 
AVG Energy consumption [J] (Stats structure),10723.1
MAX Energy consumption [J] (Stats structure),10723.1
MIN Energy consumption [J] (Stats structure),10723.1
SUM Energy consumption [J] (Stats structure),10723.1
# CALLTREE;init_0;Main-PWSCF_0;run-PWSCF_0;run-PWSCF-electrons_function_1;electrons-electrons_scf_function_0;c_bands_function_4
# Job info - HDEEM
JOB ID,17280379.19
Nodelist,taurusi5525
AVG Runtime of function [s],90.0855
MAX Runtime of function [s],90.0855
MIN Runtime of function [s],90.0855
# COUNTERS - HDEEM: 
AVG Energy consumption [J] (Stats structure),9220.58
MAX Energy consumption [J] (Stats structure),9220.58
MIN Energy consumption [J] (Stats structure),9220.58
SUM Energy consumption [J] (Stats structure),9220.58
# CALLTREE;init_0;Main-PWSCF_0;run-PWSCF_0;run-PWSCF-electrons_function_1;electrons-electrons_scf_function_0;c_bands_function_5
# Job info - HDEEM
JOB ID,17280379.19
Nodelist,taurusi5525
AVG Runtime of function [s],76.1881
MAX Runtime of function [s],76.1881
MIN Runtime of function [s],76.1881
# COUNTERS - HDEEM: 
AVG Energy consumption [J] (Stats structure),7790.92
MAX Energy consumption [J] (Stats structure),7790.92
MIN Energy consumption [J] (Stats structure),7790.92
SUM Energy consumption [J] (Stats structure),7790.92
# CALLTREE;init_0;Main-PWSCF_0;run-PWSCF_0;run-PWSCF-electrons_function_1;electrons-electrons_scf_function_0;c_bands_function_5
# Job info - HDEEM
JOB ID,17280379.19
Nodelist,taurusi5525
AVG Runtime of function [s],87.4338
MAX Runtime of function [s],87.4338
MIN Runtime of function [s],87.4338
# COUNTERS - HDEEM: 
AVG Energy consumption [J] (Stats structure),8946.19
MAX Energy consumption [J] (Stats structure),8946.19
MIN Energy consumption [J] (Stats structure),8946.19
SUM Energy consumption [J] (Stats structure),8946.19
# CALLTREE;init_0;Main-PWSCF_0;run-PWSCF_0;run-PWSCF-electrons_function_1;electrons-electrons_scf_function_0;c_bands_function_5
# Job info - HDEEM
JOB ID,17280379.19
Nodelist,taurusi5525
AVG Runtime of function [s],86.8002
MAX Runtime of function [s],86.8002
MIN Runtime of function [s],86.8002
# COUNTERS - HDEEM: 
AVG Energy consumption [J] (Stats structure),8890.2
MAX Energy consumption [J] (Stats structure),8890.2
MIN Energy consumption [J] (Stats structure),8890.2
SUM Energy consumption [J] (Stats structure),8890.2
# CALLTREE;init_0;Main-PWSCF_0;run-PWSCF_0;run-PWSCF-electrons_function_1;electrons-electrons_scf_function_0;c_bands_function_5
# Job info - HDEEM
JOB ID,17280379.19
Nodelist,taurusi5525
AVG Runtime of function [s],78.5224
MAX Runtime of function [s],78.5224
MIN Runtime of function [s],78.5224
# COUNTERS - HDEEM: 
AVG Energy consumption [J] (Stats structure),8027.01
MAX Energy consumption [J] (Stats structure),8027.01
MIN Energy consumption [J] (Stats structure),8027.01
SUM Energy consumption [J] (Stats structure),8027.01
# CALLTREE;init_0;Main-PWSCF_0;run-PWSCF_0;run-PWSCF-electrons_function_1;electrons-electrons_scf_function_0;c_bands_function_6
# Job info - HDEEM
JOB ID,17280379.19
Nodelist,taurusi5525
AVG Runtime of function [s],74.0434
MAX Runtime of function [s],74.0434
MIN Runtime of function [s],74.0434
# COUNTERS - HDEEM: 
AVG Energy consumption [J] (Stats structure),7569.94
MAX Energy consumption [J] (Stats structure),7569.94
MIN Energy consumption [J] (Stats structure),7569.94
SUM Energy consumption [J] (Stats structure),7569.94
# CALLTREE;init_0;Main-PWSCF_0;run-PWSCF_0;run-PWSCF-electrons_function_1;electrons-electrons_scf_function_0;c_bands_function_6
# Job info - HDEEM
JOB ID,17280379.19
Nodelist,taurusi5525
AVG Runtime of function [s],74.254
MAX Runtime of function [s],74.254
MIN Runtime of function [s],74.254
# COUNTERS - HDEEM: 
AVG Energy consumption [J] (Stats structure),7594.53
MAX Energy consumption [J] (Stats structure),7594.53
MIN Energy consumption [J] (Stats structure),7594.53
SUM Energy consumption [J] (Stats structure),7594.53
# CALLTREE;init_0;Main-PWSCF_0;run-PWSCF_0;run-PWSCF-electrons_function_1;electrons-electrons_scf_function_0;c_bands_function_6
# Job info - HDEEM
JOB ID,17280379.19
Nodelist,taurusi5525
AVG Runtime of function [s],75.0238
MAX Runtime of function [s],75.0238
MIN Runtime of function [s],75.0238
# COUNTERS - HDEEM: 
AVG Energy consumption [J] (Stats structure),7675.97
MAX Energy consumption [J] (Stats structure),7675.97
MIN Energy consumption [J] (Stats structure),7675.97
SUM Energy consumption [J] (Stats structure),7675.97
# CALLTREE;init_0;Main-PWSCF_0;run-PWSCF_0;run-PWSCF-electrons_function_1;electrons-electrons_scf_function_0;c_bands_function_6
# Job info - HDEEM
JOB ID,17280379.19
Nodelist,taurusi5525
AVG Runtime of function [s],74.0194
MAX Runtime of function [s],74.0194
MIN Runtime of function [s],74.0194
# COUNTERS - HDEEM: 
AVG Energy consumption [J] (Stats structure),7570.91
MAX Energy consumption [J] (Stats structure),7570.91
MIN Energy consumption [J] (Stats structure),7570.91
SUM Energy consumption [J] (Stats structure),7570.91
# CALLTREE;init_0;Main-PWSCF_0;run-PWSCF_0;run-PWSCF-electrons_function_1;electrons-electrons_scf_function_0;c_bands_function_7
# Job info - HDEEM
JOB ID,17280379.19
Nodelist,taurusi5525
AVG Runtime of function [s],78.1894
MAX Runtime of function [s],78.1894
MIN Runtime of function [s],78.1894
# COUNTERS - HDEEM: 
AVG Energy consumption [J] (Stats structure),7995.09
MAX Energy consumption [J] (Stats structure),7995.09
MIN Energy consumption [J] (Stats structure),7995.09
SUM Energy consumption [J] (Stats structure),7995.09
# CALLTREE;init_0;Main-PWSCF_0;run-PWSCF_0;run-PWSCF-electrons_function_1;electrons-electrons_scf_function_0;c_bands_function_7
# Job info - HDEEM
JOB ID,17280379.19
Nodelist,taurusi5525
AVG Runtime of function [s],79.1783
MAX Runtime of function [s],79.1783
MIN Runtime of function [s],79.1783
# COUNTERS - HDEEM: 
AVG Energy consumption [J] (Stats structure),8095.85
MAX Energy consumption [J] (Stats structure),8095.85
MIN Energy consumption [J] (Stats structure),8095.85
SUM Energy consumption [J] (Stats structure),8095.85
# CALLTREE;init_0;Main-PWSCF_0;run-PWSCF_0;run-PWSCF-electrons_function_1;electrons-electrons_scf_function_0;c_bands_function_7
# Job info - HDEEM
JOB ID,17280379.19
Nodelist,taurusi5525
AVG Runtime of function [s],80.2789
MAX Runtime of function [s],80.2789
MIN Runtime of function [s],80.2789
# COUNTERS - HDEEM: 
AVG Energy consumption [J] (Stats structure),8208.36
MAX Energy consumption [J] (Stats structure),8208.36
MIN Energy consumption [J] (Stats structure),8208.36
SUM Energy consumption [J] (Stats structure),8208.36
# CALLTREE;init_0;Main-PWSCF_0;run-PWSCF_0;run-PWSCF-electrons_function_1;electrons-electrons_scf_function_0;c_bands_function_7
# Job info - HDEEM
JOB ID,17280379.19
Nodelist,taurusi5525
AVG Runtime of function [s],82.7705
MAX Runtime of function [s],82.7705
MIN Runtime of function [s],82.7705
# COUNTERS - HDEEM: 
AVG Energy consumption [J] (Stats structure),8476
MAX Energy consumption [J] (Stats structure),8476
MIN Energy consumption [J] (Stats structure),8476
SUM Energy consumption [J] (Stats structure),8476
# CALLTREE;init_0;Main-PWSCF_0;run-PWSCF_0;run-PWSCF-electrons_function_1;electrons-electrons_scf_function_0;c_bands_function_8
# Job info - HDEEM
JOB ID,17280379.19
Nodelist,taurusi5525
AVG Runtime of function [s],80.431
MAX Runtime of function [s],80.431
MIN Runtime of function [s],80.431
# COUNTERS - HDEEM: 
AVG Energy consumption [J] (Stats structure),8216.74
MAX Energy consumption [J] (Stats structure),8216.74
MIN Energy consumption [J] (Stats structure),8216.74
SUM Energy consumption [J] (Stats structure),8216.74
# CALLTREE;init_0;Main-PWSCF_0;run-PWSCF_0;run-PWSCF-electrons_function_1;electrons-electrons_scf_function_0;c_bands_function_8
# Job info - HDEEM
JOB ID,17280379.19
Nodelist,taurusi5525
AVG Runtime of function [s],81.4091
MAX Runtime of function [s],81.4091
MIN Runtime of function [s],81.4091
# COUNTERS - HDEEM: 
AVG Energy consumption [J] (Stats structure),8336.55
MAX Energy consumption [J] (Stats structure),8336.55
MIN Energy consumption [J] (Stats structure),8336.55
SUM Energy consumption [J] (Stats structure),8336.55
# CALLTREE;init_0;Main-PWSCF_0;run-PWSCF_0;run-PWSCF-electrons_function_1;electrons-electrons_scf_function_0;c_bands_function_8
# Job info - HDEEM
JOB ID,17280379.19
Nodelist,taurusi5525
AVG Runtime of function [s],81.1734
MAX Runtime of function [s],81.1734
MIN Runtime of function [s],81.1734
# COUNTERS - HDEEM: 
AVG Energy consumption [J] (Stats structure),8306.03
MAX Energy consumption [J] (Stats structure),8306.03
MIN Energy consumption [J] (Stats structure),8306.03
SUM Energy consumption [J] (Stats structure),8306.03
# CALLTREE;init_0;Main-PWSCF_0;run-PWSCF_0;run-PWSCF-electrons_function_1;electrons-electrons_scf_function_0;c_bands_function_8
# Job info - HDEEM
JOB ID,17280379.19
Nodelist,taurusi5525
AVG Runtime of function [s],78.4797
MAX Runtime of function [s],78.4797
MIN Runtime of function [s],78.4797
# COUNTERS - HDEEM: 
AVG Energy consumption [J] (Stats structure),8025.67
MAX Energy consumption [J] (Stats structure),8025.67
MIN Energy consumption [J] (Stats structure),8025.67
SUM Energy consumption [J] (Stats structure),8025.67
# CALLTREE;init_0;Main-PWSCF_0;run-PWSCF_0;run-PWSCF-electrons_function_1;electrons-electrons_scf_function_0;c_bands_function_9
# Job info - HDEEM
JOB ID,17280379.19
Nodelist,taurusi5525
AVG Runtime of function [s],77.27
MAX Runtime of function [s],77.27
MIN Runtime of function [s],77.27
# COUNTERS - HDEEM: 
AVG Energy consumption [J] (Stats structure),7909.66
MAX Energy consumption [J] (Stats structure),7909.66
MIN Energy consumption [J] (Stats structure),7909.66
SUM Energy consumption [J] (Stats structure),7909.66
# CALLTREE;init_0;Main-PWSCF_0;run-PWSCF_0;run-PWSCF-electrons_function_1;electrons-electrons_scf_function_0;c_bands_function_9
# Job info - HDEEM
JOB ID,17280379.19
Nodelist,taurusi5525
AVG Runtime of function [s],77.571
MAX Runtime of function [s],77.571
MIN Runtime of function [s],77.571
# COUNTERS - HDEEM: 
AVG Energy consumption [J] (Stats structure),7923.1
MAX Energy consumption [J] (Stats structure),7923.1
MIN Energy consumption [J] (Stats structure),7923.1
SUM Energy consumption [J] (Stats structure),7923.1
# CALLTREE;init_0;Main-PWSCF_0;run-PWSCF_0;run-PWSCF-electrons_function_1;electrons-electrons_scf_function_0;c_bands_function_9
# Job info - HDEEM
JOB ID,17280379.19
Nodelist,taurusi5525
AVG Runtime of function [s],76.5794
MAX Runtime of function [s],76.5794
MIN Runtime of function [s],76.5794
# COUNTERS - HDEEM: 
AVG Energy consumption [J] (Stats structure),7839.27
MAX Energy consumption [J] (Stats structure),7839.27
MIN Energy consumption [J] (Stats structure),7839.27
SUM Energy consumption [J] (Stats structure),7839.27
# CALLTREE;init_0;Main-PWSCF_0;run-PWSCF_0;run-PWSCF-electrons_function_1;electrons-electrons_scf_function_0;c_bands_function_9
# Job info - HDEEM
JOB ID,17280379.19
Nodelist,taurusi5525
AVG Runtime of function [s],77.4732
MAX Runtime of function [s],77.4732
MIN Runtime of function [s],77.4732
# COUNTERS - HDEEM: 
AVG Energy consumption [J] (Stats structure),7911.48
MAX Energy consumption [J] (Stats structure),7911.48
MIN Energy consumption [J] (Stats structure),7911.48
SUM Energy consumption [J] (Stats structure),7911.48
# CALLTREE;init_0;Main-PWSCF_0;run-PWSCF_0;run-PWSCF-electrons_function_1;electrons-electrons_scf_function_0;c_bands_function_10
# Job info - HDEEM
JOB ID,17280379.19
Nodelist,taurusi5525
AVG Runtime of function [s],75.3892
MAX Runtime of function [s],75.3892
MIN Runtime of function [s],75.3892
# COUNTERS - HDEEM: 
AVG Energy consumption [J] (Stats structure),7706.58
MAX Energy consumption [J] (Stats structure),7706.58
MIN Energy consumption [J] (Stats structure),7706.58
SUM Energy consumption [J] (Stats structure),7706.58
# CALLTREE;init_0;Main-PWSCF_0;run-PWSCF_0;run-PWSCF-electrons_function_1;electrons-electrons_scf_function_0;c_bands_function_10
# Job info - HDEEM
JOB ID,17280379.19
Nodelist,taurusi5525
AVG Runtime of function [s],76.0548
MAX Runtime of function [s],76.0548
MIN Runtime of function [s],76.0548
# COUNTERS - HDEEM: 
AVG Energy consumption [J] (Stats structure),7774
MAX Energy consumption [J] (Stats structure),7774
MIN Energy consumption [J] (Stats structure),7774
SUM Energy consumption [J] (Stats structure),7774
# CALLTREE;init_0;Main-PWSCF_0;run-PWSCF_0;run-PWSCF-electrons_function_1;electrons-electrons_scf_function_0;c_bands_function_10
# Job info - HDEEM
JOB ID,17280379.19
Nodelist,taurusi5525
AVG Runtime of function [s],78.839
MAX Runtime of function [s],78.839
MIN Runtime of function [s],78.839
# COUNTERS - HDEEM: 
AVG Energy consumption [J] (Stats structure),8060.29
MAX Energy consumption [J] (Stats structure),8060.29
MIN Energy consumption [J] (Stats structure),8060.29
SUM Energy consumption [J] (Stats structure),8060.29
# CALLTREE;init_0;Main-PWSCF_0;run-PWSCF_0;run-PWSCF-electrons_function_1;electrons-electrons_scf_function_0;c_bands_function_10
# Job info - HDEEM
JOB ID,17280379.19
Nodelist,taurusi5525
AVG Runtime of function [s],75.2462
MAX Runtime of function [s],75.2462
MIN Runtime of function [s],75.2462
# COUNTERS - HDEEM: 
AVG Energy consumption [J] (Stats structure),7704.18
MAX Energy consumption [J] (Stats structure),7704.18
MIN Energy consumption [J] (Stats structure),7704.18
SUM Energy consumption [J] (Stats structure),7704.18
# CALLTREE;init_0;Main-PWSCF_0;run-PWSCF_0;run-PWSCF-electrons_function_1;electrons-electrons_scf_function_0;c_bands_function_11
# Job info - HDEEM
JOB ID,17280379.19
Nodelist,taurusi5525
AVG Runtime of function [s],66.8757
MAX Runtime of function [s],66.8757
MIN Runtime of function [s],66.8757
# COUNTERS - HDEEM: 
AVG Energy consumption [J] (Stats structure),6836.08
MAX Energy consumption [J] (Stats structure),6836.08
MIN Energy consumption [J] (Stats structure),6836.08
SUM Energy consumption [J] (Stats structure),6836.08
# CALLTREE;init_0;Main-PWSCF_0;run-PWSCF_0;run-PWSCF-electrons_function_1;electrons-electrons_scf_function_0;c_bands_function_11
# Job info - HDEEM
JOB ID,17280379.19
Nodelist,taurusi5525
AVG Runtime of function [s],67.4386
MAX Runtime of function [s],67.4386
MIN Runtime of function [s],67.4386
# COUNTERS - HDEEM: 
AVG Energy consumption [J] (Stats structure),6892.23
MAX Energy consumption [J] (Stats structure),6892.23
MIN Energy consumption [J] (Stats structure),6892.23
SUM Energy consumption [J] (Stats structure),6892.23
# CALLTREE;init_0;Main-PWSCF_0;run-PWSCF_0;run-PWSCF-electrons_function_1;electrons-electrons_scf_function_0;c_bands_function_11
# Job info - HDEEM
JOB ID,17280379.19
Nodelist,taurusi5525
AVG Runtime of function [s],66.8416
MAX Runtime of function [s],66.8416
MIN Runtime of function [s],66.8416
# COUNTERS - HDEEM: 
AVG Energy consumption [J] (Stats structure),6841.9
MAX Energy consumption [J] (Stats structure),6841.9
MIN Energy consumption [J] (Stats structure),6841.9
SUM Energy consumption [J] (Stats structure),6841.9
# CALLTREE;init_0;Main-PWSCF_0;run-PWSCF_0;run-PWSCF-electrons_function_1;electrons-electrons_scf_function_0;c_bands_function_11
# Job info - HDEEM
JOB ID,17280379.19
Nodelist,taurusi5525
AVG Runtime of function [s],65.5236
MAX Runtime of function [s],65.5236
MIN Runtime of function [s],65.5236
# COUNTERS - HDEEM: 
AVG Energy consumption [J] (Stats structure),6696.63
MAX Energy consumption [J] (Stats structure),6696.63
MIN Energy consumption [J] (Stats structure),6696.63
SUM Energy consumption [J] (Stats structure),6696.63
# CALLTREE;init_0;Main-PWSCF_0;run-PWSCF_0;run-PWSCF-electrons_function_1;electrons-electrons_scf_function_0;c_bands_function_12
# Job info - HDEEM
JOB ID,17280379.19
Nodelist,taurusi5525
AVG Runtime of function [s],83.7687
MAX Runtime of function [s],83.7687
MIN Runtime of function [s],83.7687
# COUNTERS - HDEEM: 
AVG Energy consumption [J] (Stats structure),8565.38
MAX Energy consumption [J] (Stats structure),8565.38
MIN Energy consumption [J] (Stats structure),8565.38
SUM Energy consumption [J] (Stats structure),8565.38
# CALLTREE;init_0;Main-PWSCF_0;run-PWSCF_0;run-PWSCF-electrons_function_1;electrons-electrons_scf_function_0;c_bands_function_12
# Job info - HDEEM
JOB ID,17280379.19
Nodelist,taurusi5525
AVG Runtime of function [s],82.3822
MAX Runtime of function [s],82.3822
MIN Runtime of function [s],82.3822
# COUNTERS - HDEEM: 
AVG Energy consumption [J] (Stats structure),8434.77
MAX Energy consumption [J] (Stats structure),8434.77
MIN Energy consumption [J] (Stats structure),8434.77
SUM Energy consumption [J] (Stats structure),8434.77
# CALLTREE;init_0;Main-PWSCF_0;run-PWSCF_0;run-PWSCF-electrons_function_1;electrons-electrons_scf_function_0;c_bands_function_12
# Job info - HDEEM
JOB ID,17280379.19
Nodelist,taurusi5525
AVG Runtime of function [s],82.7713
MAX Runtime of function [s],82.7713
MIN Runtime of function [s],82.7713
# COUNTERS - HDEEM: 
AVG Energy consumption [J] (Stats structure),8466.23
MAX Energy consumption [J] (Stats structure),8466.23
MIN Energy consumption [J] (Stats structure),8466.23
SUM Energy consumption [J] (Stats structure),8466.23
# CALLTREE;init_0;Main-PWSCF_0;run-PWSCF_0;run-PWSCF-electrons_function_1;electrons-electrons_scf_function_0;c_bands_function_12
# Job info - HDEEM
JOB ID,17280379.19
Nodelist,taurusi5525
AVG Runtime of function [s],85.887
MAX Runtime of function [s],85.887
MIN Runtime of function [s],85.887
# COUNTERS - HDEEM: 
AVG Energy consumption [J] (Stats structure),8777.74
MAX Energy consumption [J] (Stats structure),8777.74
MIN Energy consumption [J] (Stats structure),8777.74
SUM Energy consumption [J] (Stats structure),8777.74
# CALLTREE;init_0;Main-PWSCF_0;run-PWSCF_0;run-PWSCF-electrons_function_1;electrons-electrons_scf_function_0;c_bands_function_13
# Job info - HDEEM
JOB ID,17280379.19
Nodelist,taurusi5525
AVG Runtime of function [s],78.4579
MAX Runtime of function [s],78.4579
MIN Runtime of function [s],78.4579
# COUNTERS - HDEEM: 
AVG Energy consumption [J] (Stats structure),8024.19
MAX Energy consumption [J] (Stats structure),8024.19
MIN Energy consumption [J] (Stats structure),8024.19
SUM Energy consumption [J] (Stats structure),8024.19
# CALLTREE;init_0;Main-PWSCF_0;run-PWSCF_0;run-PWSCF-electrons_function_1;electrons-electrons_scf_function_0;c_bands_function_13
# Job info - HDEEM
JOB ID,17280379.19
Nodelist,taurusi5525
AVG Runtime of function [s],79.9055
MAX Runtime of function [s],79.9055
MIN Runtime of function [s],79.9055
# COUNTERS - HDEEM: 
AVG Energy consumption [J] (Stats structure),8167.27
MAX Energy consumption [J] (Stats structure),8167.27
MIN Energy consumption [J] (Stats structure),8167.27
SUM Energy consumption [J] (Stats structure),8167.27
# CALLTREE;init_0;Main-PWSCF_0;run-PWSCF_0;run-PWSCF-electrons_function_1;electrons-electrons_scf_function_0;c_bands_function_13
# Job info - HDEEM
JOB ID,17280379.19
Nodelist,taurusi5525
AVG Runtime of function [s],80.1675
MAX Runtime of function [s],80.1675
MIN Runtime of function [s],80.1675
# COUNTERS - HDEEM: 
AVG Energy consumption [J] (Stats structure),8193.63
MAX Energy consumption [J] (Stats structure),8193.63
MIN Energy consumption [J] (Stats structure),8193.63
SUM Energy consumption [J] (Stats structure),8193.63
# CALLTREE;init_0;Main-PWSCF_0;run-PWSCF_0;run-PWSCF-electrons_function_1;electrons-electrons_scf_function_0;c_bands_function_13
# Job info - HDEEM
JOB ID,17280379.19
Nodelist,taurusi5525
AVG Runtime of function [s],78.7076
MAX Runtime of function [s],78.7076
MIN Runtime of function [s],78.7076
# COUNTERS - HDEEM: 
AVG Energy consumption [J] (Stats structure),8061.02
MAX Energy consumption [J] (Stats structure),8061.02
MIN Energy consumption [J] (Stats structure),8061.02
SUM Energy consumption [J] (Stats structure),8061.02
# CALLTREE;init_0;Main-PWSCF_0;run-PWSCF_0;run-PWSCF-electrons_function_1;electrons-electrons_scf_function_0;c_bands_function_14
# Job info - HDEEM
JOB ID,17280379.19
Nodelist,taurusi5525
AVG Runtime of function [s],57.3532
MAX Runtime of function [s],57.3532
MIN Runtime of function [s],57.3532
# COUNTERS - HDEEM: 
AVG Energy consumption [J] (Stats structure),5855.7
MAX Energy consumption [J] (Stats structure),5855.7
MIN Energy consumption [J] (Stats structure),5855.7
SUM Energy consumption [J] (Stats structure),5855.7
# CALLTREE;init_0;Main-PWSCF_0;run-PWSCF_0;run-PWSCF-electrons_function_1;electrons-electrons_scf_function_0;c_bands_function_14
# Job info - HDEEM
JOB ID,17280379.19
Nodelist,taurusi5525
AVG Runtime of function [s],57.2227
MAX Runtime of function [s],57.2227
MIN Runtime of function [s],57.2227
# COUNTERS - HDEEM: 
AVG Energy consumption [J] (Stats structure),5842.16
MAX Energy consumption [J] (Stats structure),5842.16
MIN Energy consumption [J] (Stats structure),5842.16
SUM Energy consumption [J] (Stats structure),5842.16
# CALLTREE;init_0;Main-PWSCF_0;run-PWSCF_0;run-PWSCF-electrons_function_1;electrons-electrons_scf_function_0;c_bands_function_14
# Job info - HDEEM
JOB ID,17280379.19
Nodelist,taurusi5525
AVG Runtime of function [s],57.3217
MAX Runtime of function [s],57.3217
MIN Runtime of function [s],57.3217
# COUNTERS - HDEEM: 
AVG Energy consumption [J] (Stats structure),5859.98
MAX Energy consumption [J] (Stats structure),5859.98
MIN Energy consumption [J] (Stats structure),5859.98
SUM Energy consumption [J] (Stats structure),5859.98
# CALLTREE;init_0;Main-PWSCF_0;run-PWSCF_0;run-PWSCF-electrons_function_1;electrons-electrons_scf_function_0;c_bands_function_14
# Job info - HDEEM
JOB ID,17280379.19
Nodelist,taurusi5525
AVG Runtime of function [s],58.8776
MAX Runtime of function [s],58.8776
MIN Runtime of function [s],58.8776
# COUNTERS - HDEEM: 
AVG Energy consumption [J] (Stats structure),6022.53
MAX Energy consumption [J] (Stats structure),6022.53
MIN Energy consumption [J] (Stats structure),6022.53
SUM Energy consumption [J] (Stats structure),6022.53
