# CALLTREE;init_0;Main-PWSCF_0;run-PWSCF_0;run-PWSCF-electrons_function_1;electrons-electrons_scf_function_0;c_bands_function_0
# Job info - HDEEM
JOB ID,17280379.1
Nodelist,taurusi5525
AVG Runtime of function [s],49.0905
MAX Runtime of function [s],49.0905
MIN Runtime of function [s],49.0905
# COUNTERS - HDEEM: 
AVG Energy consumption [J] (Stats structure),6203.28
MAX Energy consumption [J] (Stats structure),6203.28
MIN Energy consumption [J] (Stats structure),6203.28
SUM Energy consumption [J] (Stats structure),6203.28
# CALLTREE;init_0;Main-PWSCF_0;run-PWSCF_0;run-PWSCF-electrons_function_1;electrons-electrons_scf_function_0;c_bands_function_0
# Job info - HDEEM
JOB ID,17280379.1
Nodelist,taurusi5525
AVG Runtime of function [s],50.5849
MAX Runtime of function [s],50.5849
MIN Runtime of function [s],50.5849
# COUNTERS - HDEEM: 
AVG Energy consumption [J] (Stats structure),6376.84
MAX Energy consumption [J] (Stats structure),6376.84
MIN Energy consumption [J] (Stats structure),6376.84
SUM Energy consumption [J] (Stats structure),6376.84
# CALLTREE;init_0;Main-PWSCF_0;run-PWSCF_0;run-PWSCF-electrons_function_1;electrons-electrons_scf_function_0;c_bands_function_0
# Job info - HDEEM
JOB ID,17280379.1
Nodelist,taurusi5525
AVG Runtime of function [s],51.1492
MAX Runtime of function [s],51.1492
MIN Runtime of function [s],51.1492
# COUNTERS - HDEEM: 
AVG Energy consumption [J] (Stats structure),6450.94
MAX Energy consumption [J] (Stats structure),6450.94
MIN Energy consumption [J] (Stats structure),6450.94
SUM Energy consumption [J] (Stats structure),6450.94
# CALLTREE;init_0;Main-PWSCF_0;run-PWSCF_0;run-PWSCF-electrons_function_1;electrons-electrons_scf_function_0;c_bands_function_0
# Job info - HDEEM
JOB ID,17280379.1
Nodelist,taurusi5525
AVG Runtime of function [s],51.1082
MAX Runtime of function [s],51.1082
MIN Runtime of function [s],51.1082
# COUNTERS - HDEEM: 
AVG Energy consumption [J] (Stats structure),6443.42
MAX Energy consumption [J] (Stats structure),6443.42
MIN Energy consumption [J] (Stats structure),6443.42
SUM Energy consumption [J] (Stats structure),6443.42
# CALLTREE;init_0;Main-PWSCF_0;run-PWSCF_0;run-PWSCF-electrons_function_1;electrons-electrons_scf_function_0;c_bands_function_1
# Job info - HDEEM
JOB ID,17280379.1
Nodelist,taurusi5525
AVG Runtime of function [s],34.1021
MAX Runtime of function [s],34.1021
MIN Runtime of function [s],34.1021
# COUNTERS - HDEEM: 
AVG Energy consumption [J] (Stats structure),4284.8
MAX Energy consumption [J] (Stats structure),4284.8
MIN Energy consumption [J] (Stats structure),4284.8
SUM Energy consumption [J] (Stats structure),4284.8
# CALLTREE;init_0;Main-PWSCF_0;run-PWSCF_0;run-PWSCF-electrons_function_1;electrons-electrons_scf_function_0;c_bands_function_1
# Job info - HDEEM
JOB ID,17280379.1
Nodelist,taurusi5525
AVG Runtime of function [s],33.2924
MAX Runtime of function [s],33.2924
MIN Runtime of function [s],33.2924
# COUNTERS - HDEEM: 
AVG Energy consumption [J] (Stats structure),4189.35
MAX Energy consumption [J] (Stats structure),4189.35
MIN Energy consumption [J] (Stats structure),4189.35
SUM Energy consumption [J] (Stats structure),4189.35
# CALLTREE;init_0;Main-PWSCF_0;run-PWSCF_0;run-PWSCF-electrons_function_1;electrons-electrons_scf_function_0;c_bands_function_1
# Job info - HDEEM
JOB ID,17280379.1
Nodelist,taurusi5525
AVG Runtime of function [s],32.8658
MAX Runtime of function [s],32.8658
MIN Runtime of function [s],32.8658
# COUNTERS - HDEEM: 
AVG Energy consumption [J] (Stats structure),4148.39
MAX Energy consumption [J] (Stats structure),4148.39
MIN Energy consumption [J] (Stats structure),4148.39
SUM Energy consumption [J] (Stats structure),4148.39
# CALLTREE;init_0;Main-PWSCF_0;run-PWSCF_0;run-PWSCF-electrons_function_1;electrons-electrons_scf_function_0;c_bands_function_1
# Job info - HDEEM
JOB ID,17280379.1
Nodelist,taurusi5525
AVG Runtime of function [s],32.8847
MAX Runtime of function [s],32.8847
MIN Runtime of function [s],32.8847
# COUNTERS - HDEEM: 
AVG Energy consumption [J] (Stats structure),4136.78
MAX Energy consumption [J] (Stats structure),4136.78
MIN Energy consumption [J] (Stats structure),4136.78
SUM Energy consumption [J] (Stats structure),4136.78
# CALLTREE;init_0;Main-PWSCF_0;run-PWSCF_0;run-PWSCF-electrons_function_1;electrons-electrons_scf_function_0;c_bands_function_2
# Job info - HDEEM
JOB ID,17280379.1
Nodelist,taurusi5525
AVG Runtime of function [s],32.8844
MAX Runtime of function [s],32.8844
MIN Runtime of function [s],32.8844
# COUNTERS - HDEEM: 
AVG Energy consumption [J] (Stats structure),4137.91
MAX Energy consumption [J] (Stats structure),4137.91
MIN Energy consumption [J] (Stats structure),4137.91
SUM Energy consumption [J] (Stats structure),4137.91
# CALLTREE;init_0;Main-PWSCF_0;run-PWSCF_0;run-PWSCF-electrons_function_1;electrons-electrons_scf_function_0;c_bands_function_2
# Job info - HDEEM
JOB ID,17280379.1
Nodelist,taurusi5525
AVG Runtime of function [s],32.8203
MAX Runtime of function [s],32.8203
MIN Runtime of function [s],32.8203
# COUNTERS - HDEEM: 
AVG Energy consumption [J] (Stats structure),4126.86
MAX Energy consumption [J] (Stats structure),4126.86
MIN Energy consumption [J] (Stats structure),4126.86
SUM Energy consumption [J] (Stats structure),4126.86
# CALLTREE;init_0;Main-PWSCF_0;run-PWSCF_0;run-PWSCF-electrons_function_1;electrons-electrons_scf_function_0;c_bands_function_2
# Job info - HDEEM
JOB ID,17280379.1
Nodelist,taurusi5525
AVG Runtime of function [s],32.8912
MAX Runtime of function [s],32.8912
MIN Runtime of function [s],32.8912
# COUNTERS - HDEEM: 
AVG Energy consumption [J] (Stats structure),4145.91
MAX Energy consumption [J] (Stats structure),4145.91
MIN Energy consumption [J] (Stats structure),4145.91
SUM Energy consumption [J] (Stats structure),4145.91
# CALLTREE;init_0;Main-PWSCF_0;run-PWSCF_0;run-PWSCF-electrons_function_1;electrons-electrons_scf_function_0;c_bands_function_2
# Job info - HDEEM
JOB ID,17280379.1
Nodelist,taurusi5525
AVG Runtime of function [s],32.894
MAX Runtime of function [s],32.894
MIN Runtime of function [s],32.894
# COUNTERS - HDEEM: 
AVG Energy consumption [J] (Stats structure),4134.21
MAX Energy consumption [J] (Stats structure),4134.21
MIN Energy consumption [J] (Stats structure),4134.21
SUM Energy consumption [J] (Stats structure),4134.21
# CALLTREE;init_0;Main-PWSCF_0;run-PWSCF_0;run-PWSCF-electrons_function_1;electrons-electrons_scf_function_0;c_bands_function_3
# Job info - HDEEM
JOB ID,17280379.1
Nodelist,taurusi5525
AVG Runtime of function [s],52.6921
MAX Runtime of function [s],52.6921
MIN Runtime of function [s],52.6921
# COUNTERS - HDEEM: 
AVG Energy consumption [J] (Stats structure),6646.42
MAX Energy consumption [J] (Stats structure),6646.42
MIN Energy consumption [J] (Stats structure),6646.42
SUM Energy consumption [J] (Stats structure),6646.42
# CALLTREE;init_0;Main-PWSCF_0;run-PWSCF_0;run-PWSCF-electrons_function_1;electrons-electrons_scf_function_0;c_bands_function_3
# Job info - HDEEM
JOB ID,17280379.1
Nodelist,taurusi5525
AVG Runtime of function [s],57.937
MAX Runtime of function [s],57.937
MIN Runtime of function [s],57.937
# COUNTERS - HDEEM: 
AVG Energy consumption [J] (Stats structure),7298.2
MAX Energy consumption [J] (Stats structure),7298.2
MIN Energy consumption [J] (Stats structure),7298.2
SUM Energy consumption [J] (Stats structure),7298.2
# CALLTREE;init_0;Main-PWSCF_0;run-PWSCF_0;run-PWSCF-electrons_function_1;electrons-electrons_scf_function_0;c_bands_function_3
# Job info - HDEEM
JOB ID,17280379.1
Nodelist,taurusi5525
AVG Runtime of function [s],60.2719
MAX Runtime of function [s],60.2719
MIN Runtime of function [s],60.2719
# COUNTERS - HDEEM: 
AVG Energy consumption [J] (Stats structure),7601.22
MAX Energy consumption [J] (Stats structure),7601.22
MIN Energy consumption [J] (Stats structure),7601.22
SUM Energy consumption [J] (Stats structure),7601.22
# CALLTREE;init_0;Main-PWSCF_0;run-PWSCF_0;run-PWSCF-electrons_function_1;electrons-electrons_scf_function_0;c_bands_function_3
# Job info - HDEEM
JOB ID,17280379.1
Nodelist,taurusi5525
AVG Runtime of function [s],59.578
MAX Runtime of function [s],59.578
MIN Runtime of function [s],59.578
# COUNTERS - HDEEM: 
AVG Energy consumption [J] (Stats structure),7507.39
MAX Energy consumption [J] (Stats structure),7507.39
MIN Energy consumption [J] (Stats structure),7507.39
SUM Energy consumption [J] (Stats structure),7507.39
# CALLTREE;init_0;Main-PWSCF_0;run-PWSCF_0;run-PWSCF-electrons_function_1;electrons-electrons_scf_function_0;c_bands_function_4
# Job info - HDEEM
JOB ID,17280379.1
Nodelist,taurusi5525
AVG Runtime of function [s],56.6979
MAX Runtime of function [s],56.6979
MIN Runtime of function [s],56.6979
# COUNTERS - HDEEM: 
AVG Energy consumption [J] (Stats structure),7149.35
MAX Energy consumption [J] (Stats structure),7149.35
MIN Energy consumption [J] (Stats structure),7149.35
SUM Energy consumption [J] (Stats structure),7149.35
# CALLTREE;init_0;Main-PWSCF_0;run-PWSCF_0;run-PWSCF-electrons_function_1;electrons-electrons_scf_function_0;c_bands_function_4
# Job info - HDEEM
JOB ID,17280379.1
Nodelist,taurusi5525
AVG Runtime of function [s],58.7361
MAX Runtime of function [s],58.7361
MIN Runtime of function [s],58.7361
# COUNTERS - HDEEM: 
AVG Energy consumption [J] (Stats structure),7409.26
MAX Energy consumption [J] (Stats structure),7409.26
MIN Energy consumption [J] (Stats structure),7409.26
SUM Energy consumption [J] (Stats structure),7409.26
# CALLTREE;init_0;Main-PWSCF_0;run-PWSCF_0;run-PWSCF-electrons_function_1;electrons-electrons_scf_function_0;c_bands_function_4
# Job info - HDEEM
JOB ID,17280379.1
Nodelist,taurusi5525
AVG Runtime of function [s],60.4185
MAX Runtime of function [s],60.4185
MIN Runtime of function [s],60.4185
# COUNTERS - HDEEM: 
AVG Energy consumption [J] (Stats structure),7612.89
MAX Energy consumption [J] (Stats structure),7612.89
MIN Energy consumption [J] (Stats structure),7612.89
SUM Energy consumption [J] (Stats structure),7612.89
# CALLTREE;init_0;Main-PWSCF_0;run-PWSCF_0;run-PWSCF-electrons_function_1;electrons-electrons_scf_function_0;c_bands_function_4
# Job info - HDEEM
JOB ID,17280379.1
Nodelist,taurusi5525
AVG Runtime of function [s],51.7984
MAX Runtime of function [s],51.7984
MIN Runtime of function [s],51.7984
# COUNTERS - HDEEM: 
AVG Energy consumption [J] (Stats structure),6529.71
MAX Energy consumption [J] (Stats structure),6529.71
MIN Energy consumption [J] (Stats structure),6529.71
SUM Energy consumption [J] (Stats structure),6529.71
# CALLTREE;init_0;Main-PWSCF_0;run-PWSCF_0;run-PWSCF-electrons_function_1;electrons-electrons_scf_function_0;c_bands_function_5
# Job info - HDEEM
JOB ID,17280379.1
Nodelist,taurusi5525
AVG Runtime of function [s],43.7893
MAX Runtime of function [s],43.7893
MIN Runtime of function [s],43.7893
# COUNTERS - HDEEM: 
AVG Energy consumption [J] (Stats structure),5515.22
MAX Energy consumption [J] (Stats structure),5515.22
MIN Energy consumption [J] (Stats structure),5515.22
SUM Energy consumption [J] (Stats structure),5515.22
# CALLTREE;init_0;Main-PWSCF_0;run-PWSCF_0;run-PWSCF-electrons_function_1;electrons-electrons_scf_function_0;c_bands_function_5
# Job info - HDEEM
JOB ID,17280379.1
Nodelist,taurusi5525
AVG Runtime of function [s],50.5224
MAX Runtime of function [s],50.5224
MIN Runtime of function [s],50.5224
# COUNTERS - HDEEM: 
AVG Energy consumption [J] (Stats structure),6366.45
MAX Energy consumption [J] (Stats structure),6366.45
MIN Energy consumption [J] (Stats structure),6366.45
SUM Energy consumption [J] (Stats structure),6366.45
# CALLTREE;init_0;Main-PWSCF_0;run-PWSCF_0;run-PWSCF-electrons_function_1;electrons-electrons_scf_function_0;c_bands_function_5
# Job info - HDEEM
JOB ID,17280379.1
Nodelist,taurusi5525
AVG Runtime of function [s],50.1005
MAX Runtime of function [s],50.1005
MIN Runtime of function [s],50.1005
# COUNTERS - HDEEM: 
AVG Energy consumption [J] (Stats structure),6314.88
MAX Energy consumption [J] (Stats structure),6314.88
MIN Energy consumption [J] (Stats structure),6314.88
SUM Energy consumption [J] (Stats structure),6314.88
# CALLTREE;init_0;Main-PWSCF_0;run-PWSCF_0;run-PWSCF-electrons_function_1;electrons-electrons_scf_function_0;c_bands_function_5
# Job info - HDEEM
JOB ID,17280379.1
Nodelist,taurusi5525
AVG Runtime of function [s],45.1386
MAX Runtime of function [s],45.1386
MIN Runtime of function [s],45.1386
# COUNTERS - HDEEM: 
AVG Energy consumption [J] (Stats structure),5676.48
MAX Energy consumption [J] (Stats structure),5676.48
MIN Energy consumption [J] (Stats structure),5676.48
SUM Energy consumption [J] (Stats structure),5676.48
# CALLTREE;init_0;Main-PWSCF_0;run-PWSCF_0;run-PWSCF-electrons_function_1;electrons-electrons_scf_function_0;c_bands_function_6
# Job info - HDEEM
JOB ID,17280379.1
Nodelist,taurusi5525
AVG Runtime of function [s],42.5229
MAX Runtime of function [s],42.5229
MIN Runtime of function [s],42.5229
# COUNTERS - HDEEM: 
AVG Energy consumption [J] (Stats structure),5366.29
MAX Energy consumption [J] (Stats structure),5366.29
MIN Energy consumption [J] (Stats structure),5366.29
SUM Energy consumption [J] (Stats structure),5366.29
# CALLTREE;init_0;Main-PWSCF_0;run-PWSCF_0;run-PWSCF-electrons_function_1;electrons-electrons_scf_function_0;c_bands_function_6
# Job info - HDEEM
JOB ID,17280379.1
Nodelist,taurusi5525
AVG Runtime of function [s],42.6624
MAX Runtime of function [s],42.6624
MIN Runtime of function [s],42.6624
# COUNTERS - HDEEM: 
AVG Energy consumption [J] (Stats structure),5371.49
MAX Energy consumption [J] (Stats structure),5371.49
MIN Energy consumption [J] (Stats structure),5371.49
SUM Energy consumption [J] (Stats structure),5371.49
# CALLTREE;init_0;Main-PWSCF_0;run-PWSCF_0;run-PWSCF-electrons_function_1;electrons-electrons_scf_function_0;c_bands_function_6
# Job info - HDEEM
JOB ID,17280379.1
Nodelist,taurusi5525
AVG Runtime of function [s],43.1071
MAX Runtime of function [s],43.1071
MIN Runtime of function [s],43.1071
# COUNTERS - HDEEM: 
AVG Energy consumption [J] (Stats structure),5435.9
MAX Energy consumption [J] (Stats structure),5435.9
MIN Energy consumption [J] (Stats structure),5435.9
SUM Energy consumption [J] (Stats structure),5435.9
# CALLTREE;init_0;Main-PWSCF_0;run-PWSCF_0;run-PWSCF-electrons_function_1;electrons-electrons_scf_function_0;c_bands_function_6
# Job info - HDEEM
JOB ID,17280379.1
Nodelist,taurusi5525
AVG Runtime of function [s],42.4845
MAX Runtime of function [s],42.4845
MIN Runtime of function [s],42.4845
# COUNTERS - HDEEM: 
AVG Energy consumption [J] (Stats structure),5364.4
MAX Energy consumption [J] (Stats structure),5364.4
MIN Energy consumption [J] (Stats structure),5364.4
SUM Energy consumption [J] (Stats structure),5364.4
# CALLTREE;init_0;Main-PWSCF_0;run-PWSCF_0;run-PWSCF-electrons_function_1;electrons-electrons_scf_function_0;c_bands_function_7
# Job info - HDEEM
JOB ID,17280379.1
Nodelist,taurusi5525
AVG Runtime of function [s],44.95
MAX Runtime of function [s],44.95
MIN Runtime of function [s],44.95
# COUNTERS - HDEEM: 
AVG Energy consumption [J] (Stats structure),5653.08
MAX Energy consumption [J] (Stats structure),5653.08
MIN Energy consumption [J] (Stats structure),5653.08
SUM Energy consumption [J] (Stats structure),5653.08
# CALLTREE;init_0;Main-PWSCF_0;run-PWSCF_0;run-PWSCF-electrons_function_1;electrons-electrons_scf_function_0;c_bands_function_7
# Job info - HDEEM
JOB ID,17280379.1
Nodelist,taurusi5525
AVG Runtime of function [s],45.4897
MAX Runtime of function [s],45.4897
MIN Runtime of function [s],45.4897
# COUNTERS - HDEEM: 
AVG Energy consumption [J] (Stats structure),5731.39
MAX Energy consumption [J] (Stats structure),5731.39
MIN Energy consumption [J] (Stats structure),5731.39
SUM Energy consumption [J] (Stats structure),5731.39
# CALLTREE;init_0;Main-PWSCF_0;run-PWSCF_0;run-PWSCF-electrons_function_1;electrons-electrons_scf_function_0;c_bands_function_7
# Job info - HDEEM
JOB ID,17280379.1
Nodelist,taurusi5525
AVG Runtime of function [s],46.1365
MAX Runtime of function [s],46.1365
MIN Runtime of function [s],46.1365
# COUNTERS - HDEEM: 
AVG Energy consumption [J] (Stats structure),5814.25
MAX Energy consumption [J] (Stats structure),5814.25
MIN Energy consumption [J] (Stats structure),5814.25
SUM Energy consumption [J] (Stats structure),5814.25
# CALLTREE;init_0;Main-PWSCF_0;run-PWSCF_0;run-PWSCF-electrons_function_1;electrons-electrons_scf_function_0;c_bands_function_7
# Job info - HDEEM
JOB ID,17280379.1
Nodelist,taurusi5525
AVG Runtime of function [s],47.5835
MAX Runtime of function [s],47.5835
MIN Runtime of function [s],47.5835
# COUNTERS - HDEEM: 
AVG Energy consumption [J] (Stats structure),5996.09
MAX Energy consumption [J] (Stats structure),5996.09
MIN Energy consumption [J] (Stats structure),5996.09
SUM Energy consumption [J] (Stats structure),5996.09
# CALLTREE;init_0;Main-PWSCF_0;run-PWSCF_0;run-PWSCF-electrons_function_1;electrons-electrons_scf_function_0;c_bands_function_8
# Job info - HDEEM
JOB ID,17280379.1
Nodelist,taurusi5525
AVG Runtime of function [s],46.2777
MAX Runtime of function [s],46.2777
MIN Runtime of function [s],46.2777
# COUNTERS - HDEEM: 
AVG Energy consumption [J] (Stats structure),5833.34
MAX Energy consumption [J] (Stats structure),5833.34
MIN Energy consumption [J] (Stats structure),5833.34
SUM Energy consumption [J] (Stats structure),5833.34
# CALLTREE;init_0;Main-PWSCF_0;run-PWSCF_0;run-PWSCF-electrons_function_1;electrons-electrons_scf_function_0;c_bands_function_8
# Job info - HDEEM
JOB ID,17280379.1
Nodelist,taurusi5525
AVG Runtime of function [s],46.7841
MAX Runtime of function [s],46.7841
MIN Runtime of function [s],46.7841
# COUNTERS - HDEEM: 
AVG Energy consumption [J] (Stats structure),5892.37
MAX Energy consumption [J] (Stats structure),5892.37
MIN Energy consumption [J] (Stats structure),5892.37
SUM Energy consumption [J] (Stats structure),5892.37
# CALLTREE;init_0;Main-PWSCF_0;run-PWSCF_0;run-PWSCF-electrons_function_1;electrons-electrons_scf_function_0;c_bands_function_8
# Job info - HDEEM
JOB ID,17280379.1
Nodelist,taurusi5525
AVG Runtime of function [s],46.6937
MAX Runtime of function [s],46.6937
MIN Runtime of function [s],46.6937
# COUNTERS - HDEEM: 
AVG Energy consumption [J] (Stats structure),5896.64
MAX Energy consumption [J] (Stats structure),5896.64
MIN Energy consumption [J] (Stats structure),5896.64
SUM Energy consumption [J] (Stats structure),5896.64
# CALLTREE;init_0;Main-PWSCF_0;run-PWSCF_0;run-PWSCF-electrons_function_1;electrons-electrons_scf_function_0;c_bands_function_8
# Job info - HDEEM
JOB ID,17280379.1
Nodelist,taurusi5525
AVG Runtime of function [s],45.144
MAX Runtime of function [s],45.144
MIN Runtime of function [s],45.144
# COUNTERS - HDEEM: 
AVG Energy consumption [J] (Stats structure),5675.08
MAX Energy consumption [J] (Stats structure),5675.08
MIN Energy consumption [J] (Stats structure),5675.08
SUM Energy consumption [J] (Stats structure),5675.08
# CALLTREE;init_0;Main-PWSCF_0;run-PWSCF_0;run-PWSCF-electrons_function_1;electrons-electrons_scf_function_0;c_bands_function_9
# Job info - HDEEM
JOB ID,17280379.1
Nodelist,taurusi5525
AVG Runtime of function [s],44.4202
MAX Runtime of function [s],44.4202
MIN Runtime of function [s],44.4202
# COUNTERS - HDEEM: 
AVG Energy consumption [J] (Stats structure),5607.45
MAX Energy consumption [J] (Stats structure),5607.45
MIN Energy consumption [J] (Stats structure),5607.45
SUM Energy consumption [J] (Stats structure),5607.45
# CALLTREE;init_0;Main-PWSCF_0;run-PWSCF_0;run-PWSCF-electrons_function_1;electrons-electrons_scf_function_0;c_bands_function_9
# Job info - HDEEM
JOB ID,17280379.1
Nodelist,taurusi5525
AVG Runtime of function [s],44.5977
MAX Runtime of function [s],44.5977
MIN Runtime of function [s],44.5977
# COUNTERS - HDEEM: 
AVG Energy consumption [J] (Stats structure),5626.33
MAX Energy consumption [J] (Stats structure),5626.33
MIN Energy consumption [J] (Stats structure),5626.33
SUM Energy consumption [J] (Stats structure),5626.33
# CALLTREE;init_0;Main-PWSCF_0;run-PWSCF_0;run-PWSCF-electrons_function_1;electrons-electrons_scf_function_0;c_bands_function_9
# Job info - HDEEM
JOB ID,17280379.1
Nodelist,taurusi5525
AVG Runtime of function [s],43.9938
MAX Runtime of function [s],43.9938
MIN Runtime of function [s],43.9938
# COUNTERS - HDEEM: 
AVG Energy consumption [J] (Stats structure),5553.29
MAX Energy consumption [J] (Stats structure),5553.29
MIN Energy consumption [J] (Stats structure),5553.29
SUM Energy consumption [J] (Stats structure),5553.29
# CALLTREE;init_0;Main-PWSCF_0;run-PWSCF_0;run-PWSCF-electrons_function_1;electrons-electrons_scf_function_0;c_bands_function_9
# Job info - HDEEM
JOB ID,17280379.1
Nodelist,taurusi5525
AVG Runtime of function [s],44.5173
MAX Runtime of function [s],44.5173
MIN Runtime of function [s],44.5173
# COUNTERS - HDEEM: 
AVG Energy consumption [J] (Stats structure),5600.72
MAX Energy consumption [J] (Stats structure),5600.72
MIN Energy consumption [J] (Stats structure),5600.72
SUM Energy consumption [J] (Stats structure),5600.72
# CALLTREE;init_0;Main-PWSCF_0;run-PWSCF_0;run-PWSCF-electrons_function_1;electrons-electrons_scf_function_0;c_bands_function_10
# Job info - HDEEM
JOB ID,17280379.1
Nodelist,taurusi5525
AVG Runtime of function [s],43.3755
MAX Runtime of function [s],43.3755
MIN Runtime of function [s],43.3755
# COUNTERS - HDEEM: 
AVG Energy consumption [J] (Stats structure),5463.03
MAX Energy consumption [J] (Stats structure),5463.03
MIN Energy consumption [J] (Stats structure),5463.03
SUM Energy consumption [J] (Stats structure),5463.03
# CALLTREE;init_0;Main-PWSCF_0;run-PWSCF_0;run-PWSCF-electrons_function_1;electrons-electrons_scf_function_0;c_bands_function_10
# Job info - HDEEM
JOB ID,17280379.1
Nodelist,taurusi5525
AVG Runtime of function [s],43.706
MAX Runtime of function [s],43.706
MIN Runtime of function [s],43.706
# COUNTERS - HDEEM: 
AVG Energy consumption [J] (Stats structure),5507.19
MAX Energy consumption [J] (Stats structure),5507.19
MIN Energy consumption [J] (Stats structure),5507.19
SUM Energy consumption [J] (Stats structure),5507.19
# CALLTREE;init_0;Main-PWSCF_0;run-PWSCF_0;run-PWSCF-electrons_function_1;electrons-electrons_scf_function_0;c_bands_function_10
# Job info - HDEEM
JOB ID,17280379.1
Nodelist,taurusi5525
AVG Runtime of function [s],45.3706
MAX Runtime of function [s],45.3706
MIN Runtime of function [s],45.3706
# COUNTERS - HDEEM: 
AVG Energy consumption [J] (Stats structure),5715.19
MAX Energy consumption [J] (Stats structure),5715.19
MIN Energy consumption [J] (Stats structure),5715.19
SUM Energy consumption [J] (Stats structure),5715.19
# CALLTREE;init_0;Main-PWSCF_0;run-PWSCF_0;run-PWSCF-electrons_function_1;electrons-electrons_scf_function_0;c_bands_function_10
# Job info - HDEEM
JOB ID,17280379.1
Nodelist,taurusi5525
AVG Runtime of function [s],43.2707
MAX Runtime of function [s],43.2707
MIN Runtime of function [s],43.2707
# COUNTERS - HDEEM: 
AVG Energy consumption [J] (Stats structure),5438.22
MAX Energy consumption [J] (Stats structure),5438.22
MIN Energy consumption [J] (Stats structure),5438.22
SUM Energy consumption [J] (Stats structure),5438.22
# CALLTREE;init_0;Main-PWSCF_0;run-PWSCF_0;run-PWSCF-electrons_function_1;electrons-electrons_scf_function_0;c_bands_function_11
# Job info - HDEEM
JOB ID,17280379.1
Nodelist,taurusi5525
AVG Runtime of function [s],38.5155
MAX Runtime of function [s],38.5155
MIN Runtime of function [s],38.5155
# COUNTERS - HDEEM: 
AVG Energy consumption [J] (Stats structure),4863.49
MAX Energy consumption [J] (Stats structure),4863.49
MIN Energy consumption [J] (Stats structure),4863.49
SUM Energy consumption [J] (Stats structure),4863.49
# CALLTREE;init_0;Main-PWSCF_0;run-PWSCF_0;run-PWSCF-electrons_function_1;electrons-electrons_scf_function_0;c_bands_function_11
# Job info - HDEEM
JOB ID,17280379.1
Nodelist,taurusi5525
AVG Runtime of function [s],38.7372
MAX Runtime of function [s],38.7372
MIN Runtime of function [s],38.7372
# COUNTERS - HDEEM: 
AVG Energy consumption [J] (Stats structure),4870.75
MAX Energy consumption [J] (Stats structure),4870.75
MIN Energy consumption [J] (Stats structure),4870.75
SUM Energy consumption [J] (Stats structure),4870.75
# CALLTREE;init_0;Main-PWSCF_0;run-PWSCF_0;run-PWSCF-electrons_function_1;electrons-electrons_scf_function_0;c_bands_function_11
# Job info - HDEEM
JOB ID,17280379.1
Nodelist,taurusi5525
AVG Runtime of function [s],38.4508
MAX Runtime of function [s],38.4508
MIN Runtime of function [s],38.4508
# COUNTERS - HDEEM: 
AVG Energy consumption [J] (Stats structure),4846.87
MAX Energy consumption [J] (Stats structure),4846.87
MIN Energy consumption [J] (Stats structure),4846.87
SUM Energy consumption [J] (Stats structure),4846.87
# CALLTREE;init_0;Main-PWSCF_0;run-PWSCF_0;run-PWSCF-electrons_function_1;electrons-electrons_scf_function_0;c_bands_function_11
# Job info - HDEEM
JOB ID,17280379.1
Nodelist,taurusi5525
AVG Runtime of function [s],37.746
MAX Runtime of function [s],37.746
MIN Runtime of function [s],37.746
# COUNTERS - HDEEM: 
AVG Energy consumption [J] (Stats structure),4759.65
MAX Energy consumption [J] (Stats structure),4759.65
MIN Energy consumption [J] (Stats structure),4759.65
SUM Energy consumption [J] (Stats structure),4759.65
# CALLTREE;init_0;Main-PWSCF_0;run-PWSCF_0;run-PWSCF-electrons_function_1;electrons-electrons_scf_function_0;c_bands_function_12
# Job info - HDEEM
JOB ID,17280379.1
Nodelist,taurusi5525
AVG Runtime of function [s],48.1673
MAX Runtime of function [s],48.1673
MIN Runtime of function [s],48.1673
# COUNTERS - HDEEM: 
AVG Energy consumption [J] (Stats structure),6077.55
MAX Energy consumption [J] (Stats structure),6077.55
MIN Energy consumption [J] (Stats structure),6077.55
SUM Energy consumption [J] (Stats structure),6077.55
# CALLTREE;init_0;Main-PWSCF_0;run-PWSCF_0;run-PWSCF-electrons_function_1;electrons-electrons_scf_function_0;c_bands_function_12
# Job info - HDEEM
JOB ID,17280379.1
Nodelist,taurusi5525
AVG Runtime of function [s],47.3887
MAX Runtime of function [s],47.3887
MIN Runtime of function [s],47.3887
# COUNTERS - HDEEM: 
AVG Energy consumption [J] (Stats structure),5973.98
MAX Energy consumption [J] (Stats structure),5973.98
MIN Energy consumption [J] (Stats structure),5973.98
SUM Energy consumption [J] (Stats structure),5973.98
# CALLTREE;init_0;Main-PWSCF_0;run-PWSCF_0;run-PWSCF-electrons_function_1;electrons-electrons_scf_function_0;c_bands_function_12
# Job info - HDEEM
JOB ID,17280379.1
Nodelist,taurusi5525
AVG Runtime of function [s],47.577
MAX Runtime of function [s],47.577
MIN Runtime of function [s],47.577
# COUNTERS - HDEEM: 
AVG Energy consumption [J] (Stats structure),5991.35
MAX Energy consumption [J] (Stats structure),5991.35
MIN Energy consumption [J] (Stats structure),5991.35
SUM Energy consumption [J] (Stats structure),5991.35
# CALLTREE;init_0;Main-PWSCF_0;run-PWSCF_0;run-PWSCF-electrons_function_1;electrons-electrons_scf_function_0;c_bands_function_12
# Job info - HDEEM
JOB ID,17280379.1
Nodelist,taurusi5525
AVG Runtime of function [s],49.4109
MAX Runtime of function [s],49.4109
MIN Runtime of function [s],49.4109
# COUNTERS - HDEEM: 
AVG Energy consumption [J] (Stats structure),6223.92
MAX Energy consumption [J] (Stats structure),6223.92
MIN Energy consumption [J] (Stats structure),6223.92
SUM Energy consumption [J] (Stats structure),6223.92
# CALLTREE;init_0;Main-PWSCF_0;run-PWSCF_0;run-PWSCF-electrons_function_1;electrons-electrons_scf_function_0;c_bands_function_13
# Job info - HDEEM
JOB ID,17280379.1
Nodelist,taurusi5525
AVG Runtime of function [s],45.2116
MAX Runtime of function [s],45.2116
MIN Runtime of function [s],45.2116
# COUNTERS - HDEEM: 
AVG Energy consumption [J] (Stats structure),5696.66
MAX Energy consumption [J] (Stats structure),5696.66
MIN Energy consumption [J] (Stats structure),5696.66
SUM Energy consumption [J] (Stats structure),5696.66
# CALLTREE;init_0;Main-PWSCF_0;run-PWSCF_0;run-PWSCF-electrons_function_1;electrons-electrons_scf_function_0;c_bands_function_13
# Job info - HDEEM
JOB ID,17280379.1
Nodelist,taurusi5525
AVG Runtime of function [s],45.9821
MAX Runtime of function [s],45.9821
MIN Runtime of function [s],45.9821
# COUNTERS - HDEEM: 
AVG Energy consumption [J] (Stats structure),5794.11
MAX Energy consumption [J] (Stats structure),5794.11
MIN Energy consumption [J] (Stats structure),5794.11
SUM Energy consumption [J] (Stats structure),5794.11
# CALLTREE;init_0;Main-PWSCF_0;run-PWSCF_0;run-PWSCF-electrons_function_1;electrons-electrons_scf_function_0;c_bands_function_13
# Job info - HDEEM
JOB ID,17280379.1
Nodelist,taurusi5525
AVG Runtime of function [s],46.0767
MAX Runtime of function [s],46.0767
MIN Runtime of function [s],46.0767
# COUNTERS - HDEEM: 
AVG Energy consumption [J] (Stats structure),5806.41
MAX Energy consumption [J] (Stats structure),5806.41
MIN Energy consumption [J] (Stats structure),5806.41
SUM Energy consumption [J] (Stats structure),5806.41
# CALLTREE;init_0;Main-PWSCF_0;run-PWSCF_0;run-PWSCF-electrons_function_1;electrons-electrons_scf_function_0;c_bands_function_13
# Job info - HDEEM
JOB ID,17280379.1
Nodelist,taurusi5525
AVG Runtime of function [s],45.248
MAX Runtime of function [s],45.248
MIN Runtime of function [s],45.248
# COUNTERS - HDEEM: 
AVG Energy consumption [J] (Stats structure),5694.92
MAX Energy consumption [J] (Stats structure),5694.92
MIN Energy consumption [J] (Stats structure),5694.92
SUM Energy consumption [J] (Stats structure),5694.92
# CALLTREE;init_0;Main-PWSCF_0;run-PWSCF_0;run-PWSCF-electrons_function_1;electrons-electrons_scf_function_0;c_bands_function_14
# Job info - HDEEM
JOB ID,17280379.1
Nodelist,taurusi5525
AVG Runtime of function [s],32.9085
MAX Runtime of function [s],32.9085
MIN Runtime of function [s],32.9085
# COUNTERS - HDEEM: 
AVG Energy consumption [J] (Stats structure),4154.18
MAX Energy consumption [J] (Stats structure),4154.18
MIN Energy consumption [J] (Stats structure),4154.18
SUM Energy consumption [J] (Stats structure),4154.18
# CALLTREE;init_0;Main-PWSCF_0;run-PWSCF_0;run-PWSCF-electrons_function_1;electrons-electrons_scf_function_0;c_bands_function_14
# Job info - HDEEM
JOB ID,17280379.1
Nodelist,taurusi5525
AVG Runtime of function [s],32.8121
MAX Runtime of function [s],32.8121
MIN Runtime of function [s],32.8121
# COUNTERS - HDEEM: 
AVG Energy consumption [J] (Stats structure),4131.36
MAX Energy consumption [J] (Stats structure),4131.36
MIN Energy consumption [J] (Stats structure),4131.36
SUM Energy consumption [J] (Stats structure),4131.36
# CALLTREE;init_0;Main-PWSCF_0;run-PWSCF_0;run-PWSCF-electrons_function_1;electrons-electrons_scf_function_0;c_bands_function_14
# Job info - HDEEM
JOB ID,17280379.1
Nodelist,taurusi5525
AVG Runtime of function [s],32.8883
MAX Runtime of function [s],32.8883
MIN Runtime of function [s],32.8883
# COUNTERS - HDEEM: 
AVG Energy consumption [J] (Stats structure),4136.46
MAX Energy consumption [J] (Stats structure),4136.46
MIN Energy consumption [J] (Stats structure),4136.46
SUM Energy consumption [J] (Stats structure),4136.46
# CALLTREE;init_0;Main-PWSCF_0;run-PWSCF_0;run-PWSCF-electrons_function_1;electrons-electrons_scf_function_0;c_bands_function_14
# Job info - HDEEM
JOB ID,17280379.1
Nodelist,taurusi5525
AVG Runtime of function [s],33.8836
MAX Runtime of function [s],33.8836
MIN Runtime of function [s],33.8836
# COUNTERS - HDEEM: 
AVG Energy consumption [J] (Stats structure),4278.15
MAX Energy consumption [J] (Stats structure),4278.15
MIN Energy consumption [J] (Stats structure),4278.15
SUM Energy consumption [J] (Stats structure),4278.15
