# CALLTREE;init_0;Main-PWSCF_0;run-PWSCF_0;run-PWSCF-electrons_function_1;electrons-electrons_scf_function_0;c_bands_function_0
# Job info - HDEEM
JOB ID,17280379.13
Nodelist,taurusi5525
AVG Runtime of function [s],67.4888
MAX Runtime of function [s],67.4888
MIN Runtime of function [s],67.4888
# COUNTERS - HDEEM: 
AVG Energy consumption [J] (Stats structure),7285.72
MAX Energy consumption [J] (Stats structure),7285.72
MIN Energy consumption [J] (Stats structure),7285.72
SUM Energy consumption [J] (Stats structure),7285.72
# CALLTREE;init_0;Main-PWSCF_0;run-PWSCF_0;run-PWSCF-electrons_function_1;electrons-electrons_scf_function_0;c_bands_function_0
# Job info - HDEEM
JOB ID,17280379.13
Nodelist,taurusi5525
AVG Runtime of function [s],69.5956
MAX Runtime of function [s],69.5956
MIN Runtime of function [s],69.5956
# COUNTERS - HDEEM: 
AVG Energy consumption [J] (Stats structure),7519.21
MAX Energy consumption [J] (Stats structure),7519.21
MIN Energy consumption [J] (Stats structure),7519.21
SUM Energy consumption [J] (Stats structure),7519.21
# CALLTREE;init_0;Main-PWSCF_0;run-PWSCF_0;run-PWSCF-electrons_function_1;electrons-electrons_scf_function_0;c_bands_function_0
# Job info - HDEEM
JOB ID,17280379.13
Nodelist,taurusi5525
AVG Runtime of function [s],70.3692
MAX Runtime of function [s],70.3692
MIN Runtime of function [s],70.3692
# COUNTERS - HDEEM: 
AVG Energy consumption [J] (Stats structure),7610.7
MAX Energy consumption [J] (Stats structure),7610.7
MIN Energy consumption [J] (Stats structure),7610.7
SUM Energy consumption [J] (Stats structure),7610.7
# CALLTREE;init_0;Main-PWSCF_0;run-PWSCF_0;run-PWSCF-electrons_function_1;electrons-electrons_scf_function_0;c_bands_function_0
# Job info - HDEEM
JOB ID,17280379.13
Nodelist,taurusi5525
AVG Runtime of function [s],70.3456
MAX Runtime of function [s],70.3456
MIN Runtime of function [s],70.3456
# COUNTERS - HDEEM: 
AVG Energy consumption [J] (Stats structure),7601.03
MAX Energy consumption [J] (Stats structure),7601.03
MIN Energy consumption [J] (Stats structure),7601.03
SUM Energy consumption [J] (Stats structure),7601.03
# CALLTREE;init_0;Main-PWSCF_0;run-PWSCF_0;run-PWSCF-electrons_function_1;electrons-electrons_scf_function_0;c_bands_function_1
# Job info - HDEEM
JOB ID,17280379.13
Nodelist,taurusi5525
AVG Runtime of function [s],46.8866
MAX Runtime of function [s],46.8866
MIN Runtime of function [s],46.8866
# COUNTERS - HDEEM: 
AVG Energy consumption [J] (Stats structure),5058.47
MAX Energy consumption [J] (Stats structure),5058.47
MIN Energy consumption [J] (Stats structure),5058.47
SUM Energy consumption [J] (Stats structure),5058.47
# CALLTREE;init_0;Main-PWSCF_0;run-PWSCF_0;run-PWSCF-electrons_function_1;electrons-electrons_scf_function_0;c_bands_function_1
# Job info - HDEEM
JOB ID,17280379.13
Nodelist,taurusi5525
AVG Runtime of function [s],45.8074
MAX Runtime of function [s],45.8074
MIN Runtime of function [s],45.8074
# COUNTERS - HDEEM: 
AVG Energy consumption [J] (Stats structure),4946.87
MAX Energy consumption [J] (Stats structure),4946.87
MIN Energy consumption [J] (Stats structure),4946.87
SUM Energy consumption [J] (Stats structure),4946.87
# CALLTREE;init_0;Main-PWSCF_0;run-PWSCF_0;run-PWSCF-electrons_function_1;electrons-electrons_scf_function_0;c_bands_function_1
# Job info - HDEEM
JOB ID,17280379.13
Nodelist,taurusi5525
AVG Runtime of function [s],45.2638
MAX Runtime of function [s],45.2638
MIN Runtime of function [s],45.2638
# COUNTERS - HDEEM: 
AVG Energy consumption [J] (Stats structure),4887.86
MAX Energy consumption [J] (Stats structure),4887.86
MIN Energy consumption [J] (Stats structure),4887.86
SUM Energy consumption [J] (Stats structure),4887.86
# CALLTREE;init_0;Main-PWSCF_0;run-PWSCF_0;run-PWSCF-electrons_function_1;electrons-electrons_scf_function_0;c_bands_function_1
# Job info - HDEEM
JOB ID,17280379.13
Nodelist,taurusi5525
AVG Runtime of function [s],45.2532
MAX Runtime of function [s],45.2532
MIN Runtime of function [s],45.2532
# COUNTERS - HDEEM: 
AVG Energy consumption [J] (Stats structure),4878.15
MAX Energy consumption [J] (Stats structure),4878.15
MIN Energy consumption [J] (Stats structure),4878.15
SUM Energy consumption [J] (Stats structure),4878.15
# CALLTREE;init_0;Main-PWSCF_0;run-PWSCF_0;run-PWSCF-electrons_function_1;electrons-electrons_scf_function_0;c_bands_function_2
# Job info - HDEEM
JOB ID,17280379.13
Nodelist,taurusi5525
AVG Runtime of function [s],45.2891
MAX Runtime of function [s],45.2891
MIN Runtime of function [s],45.2891
# COUNTERS - HDEEM: 
AVG Energy consumption [J] (Stats structure),4892.43
MAX Energy consumption [J] (Stats structure),4892.43
MIN Energy consumption [J] (Stats structure),4892.43
SUM Energy consumption [J] (Stats structure),4892.43
# CALLTREE;init_0;Main-PWSCF_0;run-PWSCF_0;run-PWSCF-electrons_function_1;electrons-electrons_scf_function_0;c_bands_function_2
# Job info - HDEEM
JOB ID,17280379.13
Nodelist,taurusi5525
AVG Runtime of function [s],45.2087
MAX Runtime of function [s],45.2087
MIN Runtime of function [s],45.2087
# COUNTERS - HDEEM: 
AVG Energy consumption [J] (Stats structure),4885.61
MAX Energy consumption [J] (Stats structure),4885.61
MIN Energy consumption [J] (Stats structure),4885.61
SUM Energy consumption [J] (Stats structure),4885.61
# CALLTREE;init_0;Main-PWSCF_0;run-PWSCF_0;run-PWSCF-electrons_function_1;electrons-electrons_scf_function_0;c_bands_function_2
# Job info - HDEEM
JOB ID,17280379.13
Nodelist,taurusi5525
AVG Runtime of function [s],45.299
MAX Runtime of function [s],45.299
MIN Runtime of function [s],45.299
# COUNTERS - HDEEM: 
AVG Energy consumption [J] (Stats structure),4885.43
MAX Energy consumption [J] (Stats structure),4885.43
MIN Energy consumption [J] (Stats structure),4885.43
SUM Energy consumption [J] (Stats structure),4885.43
# CALLTREE;init_0;Main-PWSCF_0;run-PWSCF_0;run-PWSCF-electrons_function_1;electrons-electrons_scf_function_0;c_bands_function_2
# Job info - HDEEM
JOB ID,17280379.13
Nodelist,taurusi5525
AVG Runtime of function [s],45.2715
MAX Runtime of function [s],45.2715
MIN Runtime of function [s],45.2715
# COUNTERS - HDEEM: 
AVG Energy consumption [J] (Stats structure),4889.8
MAX Energy consumption [J] (Stats structure),4889.8
MIN Energy consumption [J] (Stats structure),4889.8
SUM Energy consumption [J] (Stats structure),4889.8
# CALLTREE;init_0;Main-PWSCF_0;run-PWSCF_0;run-PWSCF-electrons_function_1;electrons-electrons_scf_function_0;c_bands_function_3
# Job info - HDEEM
JOB ID,17280379.13
Nodelist,taurusi5525
AVG Runtime of function [s],72.2002
MAX Runtime of function [s],72.2002
MIN Runtime of function [s],72.2002
# COUNTERS - HDEEM: 
AVG Energy consumption [J] (Stats structure),7810.44
MAX Energy consumption [J] (Stats structure),7810.44
MIN Energy consumption [J] (Stats structure),7810.44
SUM Energy consumption [J] (Stats structure),7810.44
# CALLTREE;init_0;Main-PWSCF_0;run-PWSCF_0;run-PWSCF-electrons_function_1;electrons-electrons_scf_function_0;c_bands_function_3
# Job info - HDEEM
JOB ID,17280379.13
Nodelist,taurusi5525
AVG Runtime of function [s],79.5046
MAX Runtime of function [s],79.5046
MIN Runtime of function [s],79.5046
# COUNTERS - HDEEM: 
AVG Energy consumption [J] (Stats structure),8588.21
MAX Energy consumption [J] (Stats structure),8588.21
MIN Energy consumption [J] (Stats structure),8588.21
SUM Energy consumption [J] (Stats structure),8588.21
# CALLTREE;init_0;Main-PWSCF_0;run-PWSCF_0;run-PWSCF-electrons_function_1;electrons-electrons_scf_function_0;c_bands_function_3
# Job info - HDEEM
JOB ID,17280379.13
Nodelist,taurusi5525
AVG Runtime of function [s],82.5523
MAX Runtime of function [s],82.5523
MIN Runtime of function [s],82.5523
# COUNTERS - HDEEM: 
AVG Energy consumption [J] (Stats structure),8918.1
MAX Energy consumption [J] (Stats structure),8918.1
MIN Energy consumption [J] (Stats structure),8918.1
SUM Energy consumption [J] (Stats structure),8918.1
# CALLTREE;init_0;Main-PWSCF_0;run-PWSCF_0;run-PWSCF-electrons_function_1;electrons-electrons_scf_function_0;c_bands_function_3
# Job info - HDEEM
JOB ID,17280379.13
Nodelist,taurusi5525
AVG Runtime of function [s],81.7932
MAX Runtime of function [s],81.7932
MIN Runtime of function [s],81.7932
# COUNTERS - HDEEM: 
AVG Energy consumption [J] (Stats structure),8841.3
MAX Energy consumption [J] (Stats structure),8841.3
MIN Energy consumption [J] (Stats structure),8841.3
SUM Energy consumption [J] (Stats structure),8841.3
# CALLTREE;init_0;Main-PWSCF_0;run-PWSCF_0;run-PWSCF-electrons_function_1;electrons-electrons_scf_function_0;c_bands_function_4
# Job info - HDEEM
JOB ID,17280379.13
Nodelist,taurusi5525
AVG Runtime of function [s],77.7718
MAX Runtime of function [s],77.7718
MIN Runtime of function [s],77.7718
# COUNTERS - HDEEM: 
AVG Energy consumption [J] (Stats structure),8404.72
MAX Energy consumption [J] (Stats structure),8404.72
MIN Energy consumption [J] (Stats structure),8404.72
SUM Energy consumption [J] (Stats structure),8404.72
# CALLTREE;init_0;Main-PWSCF_0;run-PWSCF_0;run-PWSCF-electrons_function_1;electrons-electrons_scf_function_0;c_bands_function_4
# Job info - HDEEM
JOB ID,17280379.13
Nodelist,taurusi5525
AVG Runtime of function [s],80.5124
MAX Runtime of function [s],80.5124
MIN Runtime of function [s],80.5124
# COUNTERS - HDEEM: 
AVG Energy consumption [J] (Stats structure),8707.01
MAX Energy consumption [J] (Stats structure),8707.01
MIN Energy consumption [J] (Stats structure),8707.01
SUM Energy consumption [J] (Stats structure),8707.01
# CALLTREE;init_0;Main-PWSCF_0;run-PWSCF_0;run-PWSCF-electrons_function_1;electrons-electrons_scf_function_0;c_bands_function_4
# Job info - HDEEM
JOB ID,17280379.13
Nodelist,taurusi5525
AVG Runtime of function [s],82.894
MAX Runtime of function [s],82.894
MIN Runtime of function [s],82.894
# COUNTERS - HDEEM: 
AVG Energy consumption [J] (Stats structure),8962.74
MAX Energy consumption [J] (Stats structure),8962.74
MIN Energy consumption [J] (Stats structure),8962.74
SUM Energy consumption [J] (Stats structure),8962.74
# CALLTREE;init_0;Main-PWSCF_0;run-PWSCF_0;run-PWSCF-electrons_function_1;electrons-electrons_scf_function_0;c_bands_function_4
# Job info - HDEEM
JOB ID,17280379.13
Nodelist,taurusi5525
AVG Runtime of function [s],71.2257
MAX Runtime of function [s],71.2257
MIN Runtime of function [s],71.2257
# COUNTERS - HDEEM: 
AVG Energy consumption [J] (Stats structure),7691.75
MAX Energy consumption [J] (Stats structure),7691.75
MIN Energy consumption [J] (Stats structure),7691.75
SUM Energy consumption [J] (Stats structure),7691.75
# CALLTREE;init_0;Main-PWSCF_0;run-PWSCF_0;run-PWSCF-electrons_function_1;electrons-electrons_scf_function_0;c_bands_function_5
# Job info - HDEEM
JOB ID,17280379.13
Nodelist,taurusi5525
AVG Runtime of function [s],60.2414
MAX Runtime of function [s],60.2414
MIN Runtime of function [s],60.2414
# COUNTERS - HDEEM: 
AVG Energy consumption [J] (Stats structure),6515.18
MAX Energy consumption [J] (Stats structure),6515.18
MIN Energy consumption [J] (Stats structure),6515.18
SUM Energy consumption [J] (Stats structure),6515.18
# CALLTREE;init_0;Main-PWSCF_0;run-PWSCF_0;run-PWSCF-electrons_function_1;electrons-electrons_scf_function_0;c_bands_function_5
# Job info - HDEEM
JOB ID,17280379.13
Nodelist,taurusi5525
AVG Runtime of function [s],69.2611
MAX Runtime of function [s],69.2611
MIN Runtime of function [s],69.2611
# COUNTERS - HDEEM: 
AVG Energy consumption [J] (Stats structure),7488.05
MAX Energy consumption [J] (Stats structure),7488.05
MIN Energy consumption [J] (Stats structure),7488.05
SUM Energy consumption [J] (Stats structure),7488.05
# CALLTREE;init_0;Main-PWSCF_0;run-PWSCF_0;run-PWSCF-electrons_function_1;electrons-electrons_scf_function_0;c_bands_function_5
# Job info - HDEEM
JOB ID,17280379.13
Nodelist,taurusi5525
AVG Runtime of function [s],68.7294
MAX Runtime of function [s],68.7294
MIN Runtime of function [s],68.7294
# COUNTERS - HDEEM: 
AVG Energy consumption [J] (Stats structure),7416.27
MAX Energy consumption [J] (Stats structure),7416.27
MIN Energy consumption [J] (Stats structure),7416.27
SUM Energy consumption [J] (Stats structure),7416.27
# CALLTREE;init_0;Main-PWSCF_0;run-PWSCF_0;run-PWSCF-electrons_function_1;electrons-electrons_scf_function_0;c_bands_function_5
# Job info - HDEEM
JOB ID,17280379.13
Nodelist,taurusi5525
AVG Runtime of function [s],62.0783
MAX Runtime of function [s],62.0783
MIN Runtime of function [s],62.0783
# COUNTERS - HDEEM: 
AVG Energy consumption [J] (Stats structure),6715.33
MAX Energy consumption [J] (Stats structure),6715.33
MIN Energy consumption [J] (Stats structure),6715.33
SUM Energy consumption [J] (Stats structure),6715.33
# CALLTREE;init_0;Main-PWSCF_0;run-PWSCF_0;run-PWSCF-electrons_function_1;electrons-electrons_scf_function_0;c_bands_function_6
# Job info - HDEEM
JOB ID,17280379.13
Nodelist,taurusi5525
AVG Runtime of function [s],58.582
MAX Runtime of function [s],58.582
MIN Runtime of function [s],58.582
# COUNTERS - HDEEM: 
AVG Energy consumption [J] (Stats structure),6326.41
MAX Energy consumption [J] (Stats structure),6326.41
MIN Energy consumption [J] (Stats structure),6326.41
SUM Energy consumption [J] (Stats structure),6326.41
# CALLTREE;init_0;Main-PWSCF_0;run-PWSCF_0;run-PWSCF-electrons_function_1;electrons-electrons_scf_function_0;c_bands_function_6
# Job info - HDEEM
JOB ID,17280379.13
Nodelist,taurusi5525
AVG Runtime of function [s],58.6848
MAX Runtime of function [s],58.6848
MIN Runtime of function [s],58.6848
# COUNTERS - HDEEM: 
AVG Energy consumption [J] (Stats structure),6342.78
MAX Energy consumption [J] (Stats structure),6342.78
MIN Energy consumption [J] (Stats structure),6342.78
SUM Energy consumption [J] (Stats structure),6342.78
# CALLTREE;init_0;Main-PWSCF_0;run-PWSCF_0;run-PWSCF-electrons_function_1;electrons-electrons_scf_function_0;c_bands_function_6
# Job info - HDEEM
JOB ID,17280379.13
Nodelist,taurusi5525
AVG Runtime of function [s],59.2694
MAX Runtime of function [s],59.2694
MIN Runtime of function [s],59.2694
# COUNTERS - HDEEM: 
AVG Energy consumption [J] (Stats structure),6405.72
MAX Energy consumption [J] (Stats structure),6405.72
MIN Energy consumption [J] (Stats structure),6405.72
SUM Energy consumption [J] (Stats structure),6405.72
# CALLTREE;init_0;Main-PWSCF_0;run-PWSCF_0;run-PWSCF-electrons_function_1;electrons-electrons_scf_function_0;c_bands_function_6
# Job info - HDEEM
JOB ID,17280379.13
Nodelist,taurusi5525
AVG Runtime of function [s],58.4338
MAX Runtime of function [s],58.4338
MIN Runtime of function [s],58.4338
# COUNTERS - HDEEM: 
AVG Energy consumption [J] (Stats structure),6309.63
MAX Energy consumption [J] (Stats structure),6309.63
MIN Energy consumption [J] (Stats structure),6309.63
SUM Energy consumption [J] (Stats structure),6309.63
# CALLTREE;init_0;Main-PWSCF_0;run-PWSCF_0;run-PWSCF-electrons_function_1;electrons-electrons_scf_function_0;c_bands_function_7
# Job info - HDEEM
JOB ID,17280379.13
Nodelist,taurusi5525
AVG Runtime of function [s],61.8295
MAX Runtime of function [s],61.8295
MIN Runtime of function [s],61.8295
# COUNTERS - HDEEM: 
AVG Energy consumption [J] (Stats structure),6672.89
MAX Energy consumption [J] (Stats structure),6672.89
MIN Energy consumption [J] (Stats structure),6672.89
SUM Energy consumption [J] (Stats structure),6672.89
# CALLTREE;init_0;Main-PWSCF_0;run-PWSCF_0;run-PWSCF-electrons_function_1;electrons-electrons_scf_function_0;c_bands_function_7
# Job info - HDEEM
JOB ID,17280379.13
Nodelist,taurusi5525
AVG Runtime of function [s],62.5312
MAX Runtime of function [s],62.5312
MIN Runtime of function [s],62.5312
# COUNTERS - HDEEM: 
AVG Energy consumption [J] (Stats structure),6759.51
MAX Energy consumption [J] (Stats structure),6759.51
MIN Energy consumption [J] (Stats structure),6759.51
SUM Energy consumption [J] (Stats structure),6759.51
# CALLTREE;init_0;Main-PWSCF_0;run-PWSCF_0;run-PWSCF-electrons_function_1;electrons-electrons_scf_function_0;c_bands_function_7
# Job info - HDEEM
JOB ID,17280379.13
Nodelist,taurusi5525
AVG Runtime of function [s],63.4204
MAX Runtime of function [s],63.4204
MIN Runtime of function [s],63.4204
# COUNTERS - HDEEM: 
AVG Energy consumption [J] (Stats structure),6841.08
MAX Energy consumption [J] (Stats structure),6841.08
MIN Energy consumption [J] (Stats structure),6841.08
SUM Energy consumption [J] (Stats structure),6841.08
# CALLTREE;init_0;Main-PWSCF_0;run-PWSCF_0;run-PWSCF-electrons_function_1;electrons-electrons_scf_function_0;c_bands_function_7
# Job info - HDEEM
JOB ID,17280379.13
Nodelist,taurusi5525
AVG Runtime of function [s],65.3622
MAX Runtime of function [s],65.3622
MIN Runtime of function [s],65.3622
# COUNTERS - HDEEM: 
AVG Energy consumption [J] (Stats structure),7064.67
MAX Energy consumption [J] (Stats structure),7064.67
MIN Energy consumption [J] (Stats structure),7064.67
SUM Energy consumption [J] (Stats structure),7064.67
# CALLTREE;init_0;Main-PWSCF_0;run-PWSCF_0;run-PWSCF-electrons_function_1;electrons-electrons_scf_function_0;c_bands_function_8
# Job info - HDEEM
JOB ID,17280379.13
Nodelist,taurusi5525
AVG Runtime of function [s],63.5717
MAX Runtime of function [s],63.5717
MIN Runtime of function [s],63.5717
# COUNTERS - HDEEM: 
AVG Energy consumption [J] (Stats structure),6923.08
MAX Energy consumption [J] (Stats structure),6923.08
MIN Energy consumption [J] (Stats structure),6923.08
SUM Energy consumption [J] (Stats structure),6923.08
# CALLTREE;init_0;Main-PWSCF_0;run-PWSCF_0;run-PWSCF-electrons_function_1;electrons-electrons_scf_function_0;c_bands_function_8
# Job info - HDEEM
JOB ID,17280379.13
Nodelist,taurusi5525
AVG Runtime of function [s],64.3243
MAX Runtime of function [s],64.3243
MIN Runtime of function [s],64.3243
# COUNTERS - HDEEM: 
AVG Energy consumption [J] (Stats structure),7000.59
MAX Energy consumption [J] (Stats structure),7000.59
MIN Energy consumption [J] (Stats structure),7000.59
SUM Energy consumption [J] (Stats structure),7000.59
# CALLTREE;init_0;Main-PWSCF_0;run-PWSCF_0;run-PWSCF-electrons_function_1;electrons-electrons_scf_function_0;c_bands_function_8
# Job info - HDEEM
JOB ID,17280379.13
Nodelist,taurusi5525
AVG Runtime of function [s],64.1194
MAX Runtime of function [s],64.1194
MIN Runtime of function [s],64.1194
# COUNTERS - HDEEM: 
AVG Energy consumption [J] (Stats structure),6918.88
MAX Energy consumption [J] (Stats structure),6918.88
MIN Energy consumption [J] (Stats structure),6918.88
SUM Energy consumption [J] (Stats structure),6918.88
# CALLTREE;init_0;Main-PWSCF_0;run-PWSCF_0;run-PWSCF-electrons_function_1;electrons-electrons_scf_function_0;c_bands_function_8
# Job info - HDEEM
JOB ID,17280379.13
Nodelist,taurusi5525
AVG Runtime of function [s],61.9995
MAX Runtime of function [s],61.9995
MIN Runtime of function [s],61.9995
# COUNTERS - HDEEM: 
AVG Energy consumption [J] (Stats structure),6703.87
MAX Energy consumption [J] (Stats structure),6703.87
MIN Energy consumption [J] (Stats structure),6703.87
SUM Energy consumption [J] (Stats structure),6703.87
# CALLTREE;init_0;Main-PWSCF_0;run-PWSCF_0;run-PWSCF-electrons_function_1;electrons-electrons_scf_function_0;c_bands_function_9
# Job info - HDEEM
JOB ID,17280379.13
Nodelist,taurusi5525
AVG Runtime of function [s],61.0746
MAX Runtime of function [s],61.0746
MIN Runtime of function [s],61.0746
# COUNTERS - HDEEM: 
AVG Energy consumption [J] (Stats structure),6601.17
MAX Energy consumption [J] (Stats structure),6601.17
MIN Energy consumption [J] (Stats structure),6601.17
SUM Energy consumption [J] (Stats structure),6601.17
# CALLTREE;init_0;Main-PWSCF_0;run-PWSCF_0;run-PWSCF-electrons_function_1;electrons-electrons_scf_function_0;c_bands_function_9
# Job info - HDEEM
JOB ID,17280379.13
Nodelist,taurusi5525
AVG Runtime of function [s],61.2567
MAX Runtime of function [s],61.2567
MIN Runtime of function [s],61.2567
# COUNTERS - HDEEM: 
AVG Energy consumption [J] (Stats structure),6613.27
MAX Energy consumption [J] (Stats structure),6613.27
MIN Energy consumption [J] (Stats structure),6613.27
SUM Energy consumption [J] (Stats structure),6613.27
# CALLTREE;init_0;Main-PWSCF_0;run-PWSCF_0;run-PWSCF-electrons_function_1;electrons-electrons_scf_function_0;c_bands_function_9
# Job info - HDEEM
JOB ID,17280379.13
Nodelist,taurusi5525
AVG Runtime of function [s],60.4877
MAX Runtime of function [s],60.4877
MIN Runtime of function [s],60.4877
# COUNTERS - HDEEM: 
AVG Energy consumption [J] (Stats structure),6544.28
MAX Energy consumption [J] (Stats structure),6544.28
MIN Energy consumption [J] (Stats structure),6544.28
SUM Energy consumption [J] (Stats structure),6544.28
# CALLTREE;init_0;Main-PWSCF_0;run-PWSCF_0;run-PWSCF-electrons_function_1;electrons-electrons_scf_function_0;c_bands_function_9
# Job info - HDEEM
JOB ID,17280379.13
Nodelist,taurusi5525
AVG Runtime of function [s],61.2289
MAX Runtime of function [s],61.2289
MIN Runtime of function [s],61.2289
# COUNTERS - HDEEM: 
AVG Energy consumption [J] (Stats structure),6606.68
MAX Energy consumption [J] (Stats structure),6606.68
MIN Energy consumption [J] (Stats structure),6606.68
SUM Energy consumption [J] (Stats structure),6606.68
# CALLTREE;init_0;Main-PWSCF_0;run-PWSCF_0;run-PWSCF-electrons_function_1;electrons-electrons_scf_function_0;c_bands_function_10
# Job info - HDEEM
JOB ID,17280379.13
Nodelist,taurusi5525
AVG Runtime of function [s],59.6044
MAX Runtime of function [s],59.6044
MIN Runtime of function [s],59.6044
# COUNTERS - HDEEM: 
AVG Energy consumption [J] (Stats structure),6439.77
MAX Energy consumption [J] (Stats structure),6439.77
MIN Energy consumption [J] (Stats structure),6439.77
SUM Energy consumption [J] (Stats structure),6439.77
# CALLTREE;init_0;Main-PWSCF_0;run-PWSCF_0;run-PWSCF-electrons_function_1;electrons-electrons_scf_function_0;c_bands_function_10
# Job info - HDEEM
JOB ID,17280379.13
Nodelist,taurusi5525
AVG Runtime of function [s],60.0705
MAX Runtime of function [s],60.0705
MIN Runtime of function [s],60.0705
# COUNTERS - HDEEM: 
AVG Energy consumption [J] (Stats structure),6491.37
MAX Energy consumption [J] (Stats structure),6491.37
MIN Energy consumption [J] (Stats structure),6491.37
SUM Energy consumption [J] (Stats structure),6491.37
# CALLTREE;init_0;Main-PWSCF_0;run-PWSCF_0;run-PWSCF-electrons_function_1;electrons-electrons_scf_function_0;c_bands_function_10
# Job info - HDEEM
JOB ID,17280379.13
Nodelist,taurusi5525
AVG Runtime of function [s],62.2689
MAX Runtime of function [s],62.2689
MIN Runtime of function [s],62.2689
# COUNTERS - HDEEM: 
AVG Energy consumption [J] (Stats structure),6720
MAX Energy consumption [J] (Stats structure),6720
MIN Energy consumption [J] (Stats structure),6720
SUM Energy consumption [J] (Stats structure),6720
# CALLTREE;init_0;Main-PWSCF_0;run-PWSCF_0;run-PWSCF-electrons_function_1;electrons-electrons_scf_function_0;c_bands_function_10
# Job info - HDEEM
JOB ID,17280379.13
Nodelist,taurusi5525
AVG Runtime of function [s],59.4587
MAX Runtime of function [s],59.4587
MIN Runtime of function [s],59.4587
# COUNTERS - HDEEM: 
AVG Energy consumption [J] (Stats structure),6422.05
MAX Energy consumption [J] (Stats structure),6422.05
MIN Energy consumption [J] (Stats structure),6422.05
SUM Energy consumption [J] (Stats structure),6422.05
# CALLTREE;init_0;Main-PWSCF_0;run-PWSCF_0;run-PWSCF-electrons_function_1;electrons-electrons_scf_function_0;c_bands_function_11
# Job info - HDEEM
JOB ID,17280379.13
Nodelist,taurusi5525
AVG Runtime of function [s],52.8655
MAX Runtime of function [s],52.8655
MIN Runtime of function [s],52.8655
# COUNTERS - HDEEM: 
AVG Energy consumption [J] (Stats structure),5711.28
MAX Energy consumption [J] (Stats structure),5711.28
MIN Energy consumption [J] (Stats structure),5711.28
SUM Energy consumption [J] (Stats structure),5711.28
# CALLTREE;init_0;Main-PWSCF_0;run-PWSCF_0;run-PWSCF-electrons_function_1;electrons-electrons_scf_function_0;c_bands_function_11
# Job info - HDEEM
JOB ID,17280379.13
Nodelist,taurusi5525
AVG Runtime of function [s],53.2764
MAX Runtime of function [s],53.2764
MIN Runtime of function [s],53.2764
# COUNTERS - HDEEM: 
AVG Energy consumption [J] (Stats structure),5751.68
MAX Energy consumption [J] (Stats structure),5751.68
MIN Energy consumption [J] (Stats structure),5751.68
SUM Energy consumption [J] (Stats structure),5751.68
# CALLTREE;init_0;Main-PWSCF_0;run-PWSCF_0;run-PWSCF-electrons_function_1;electrons-electrons_scf_function_0;c_bands_function_11
# Job info - HDEEM
JOB ID,17280379.13
Nodelist,taurusi5525
AVG Runtime of function [s],52.8328
MAX Runtime of function [s],52.8328
MIN Runtime of function [s],52.8328
# COUNTERS - HDEEM: 
AVG Energy consumption [J] (Stats structure),5700.96
MAX Energy consumption [J] (Stats structure),5700.96
MIN Energy consumption [J] (Stats structure),5700.96
SUM Energy consumption [J] (Stats structure),5700.96
# CALLTREE;init_0;Main-PWSCF_0;run-PWSCF_0;run-PWSCF-electrons_function_1;electrons-electrons_scf_function_0;c_bands_function_11
# Job info - HDEEM
JOB ID,17280379.13
Nodelist,taurusi5525
AVG Runtime of function [s],51.845
MAX Runtime of function [s],51.845
MIN Runtime of function [s],51.845
# COUNTERS - HDEEM: 
AVG Energy consumption [J] (Stats structure),5609.62
MAX Energy consumption [J] (Stats structure),5609.62
MIN Energy consumption [J] (Stats structure),5609.62
SUM Energy consumption [J] (Stats structure),5609.62
# CALLTREE;init_0;Main-PWSCF_0;run-PWSCF_0;run-PWSCF-electrons_function_1;electrons-electrons_scf_function_0;c_bands_function_12
# Job info - HDEEM
JOB ID,17280379.13
Nodelist,taurusi5525
AVG Runtime of function [s],66.1102
MAX Runtime of function [s],66.1102
MIN Runtime of function [s],66.1102
# COUNTERS - HDEEM: 
AVG Energy consumption [J] (Stats structure),7149.31
MAX Energy consumption [J] (Stats structure),7149.31
MIN Energy consumption [J] (Stats structure),7149.31
SUM Energy consumption [J] (Stats structure),7149.31
# CALLTREE;init_0;Main-PWSCF_0;run-PWSCF_0;run-PWSCF-electrons_function_1;electrons-electrons_scf_function_0;c_bands_function_12
# Job info - HDEEM
JOB ID,17280379.13
Nodelist,taurusi5525
AVG Runtime of function [s],65.1235
MAX Runtime of function [s],65.1235
MIN Runtime of function [s],65.1235
# COUNTERS - HDEEM: 
AVG Energy consumption [J] (Stats structure),7030.29
MAX Energy consumption [J] (Stats structure),7030.29
MIN Energy consumption [J] (Stats structure),7030.29
SUM Energy consumption [J] (Stats structure),7030.29
# CALLTREE;init_0;Main-PWSCF_0;run-PWSCF_0;run-PWSCF-electrons_function_1;electrons-electrons_scf_function_0;c_bands_function_12
# Job info - HDEEM
JOB ID,17280379.13
Nodelist,taurusi5525
AVG Runtime of function [s],65.3259
MAX Runtime of function [s],65.3259
MIN Runtime of function [s],65.3259
# COUNTERS - HDEEM: 
AVG Energy consumption [J] (Stats structure),7056.49
MAX Energy consumption [J] (Stats structure),7056.49
MIN Energy consumption [J] (Stats structure),7056.49
SUM Energy consumption [J] (Stats structure),7056.49
# CALLTREE;init_0;Main-PWSCF_0;run-PWSCF_0;run-PWSCF-electrons_function_1;electrons-electrons_scf_function_0;c_bands_function_12
# Job info - HDEEM
JOB ID,17280379.13
Nodelist,taurusi5525
AVG Runtime of function [s],67.8984
MAX Runtime of function [s],67.8984
MIN Runtime of function [s],67.8984
# COUNTERS - HDEEM: 
AVG Energy consumption [J] (Stats structure),7339.29
MAX Energy consumption [J] (Stats structure),7339.29
MIN Energy consumption [J] (Stats structure),7339.29
SUM Energy consumption [J] (Stats structure),7339.29
# CALLTREE;init_0;Main-PWSCF_0;run-PWSCF_0;run-PWSCF-electrons_function_1;electrons-electrons_scf_function_0;c_bands_function_13
# Job info - HDEEM
JOB ID,17280379.13
Nodelist,taurusi5525
AVG Runtime of function [s],61.9888
MAX Runtime of function [s],61.9888
MIN Runtime of function [s],61.9888
# COUNTERS - HDEEM: 
AVG Energy consumption [J] (Stats structure),6706.2
MAX Energy consumption [J] (Stats structure),6706.2
MIN Energy consumption [J] (Stats structure),6706.2
SUM Energy consumption [J] (Stats structure),6706.2
# CALLTREE;init_0;Main-PWSCF_0;run-PWSCF_0;run-PWSCF-electrons_function_1;electrons-electrons_scf_function_0;c_bands_function_13
# Job info - HDEEM
JOB ID,17280379.13
Nodelist,taurusi5525
AVG Runtime of function [s],63.1036
MAX Runtime of function [s],63.1036
MIN Runtime of function [s],63.1036
# COUNTERS - HDEEM: 
AVG Energy consumption [J] (Stats structure),6812.59
MAX Energy consumption [J] (Stats structure),6812.59
MIN Energy consumption [J] (Stats structure),6812.59
SUM Energy consumption [J] (Stats structure),6812.59
# CALLTREE;init_0;Main-PWSCF_0;run-PWSCF_0;run-PWSCF-electrons_function_1;electrons-electrons_scf_function_0;c_bands_function_13
# Job info - HDEEM
JOB ID,17280379.13
Nodelist,taurusi5525
AVG Runtime of function [s],63.2997
MAX Runtime of function [s],63.2997
MIN Runtime of function [s],63.2997
# COUNTERS - HDEEM: 
AVG Energy consumption [J] (Stats structure),6837.02
MAX Energy consumption [J] (Stats structure),6837.02
MIN Energy consumption [J] (Stats structure),6837.02
SUM Energy consumption [J] (Stats structure),6837.02
# CALLTREE;init_0;Main-PWSCF_0;run-PWSCF_0;run-PWSCF-electrons_function_1;electrons-electrons_scf_function_0;c_bands_function_13
# Job info - HDEEM
JOB ID,17280379.13
Nodelist,taurusi5525
AVG Runtime of function [s],62.1879
MAX Runtime of function [s],62.1879
MIN Runtime of function [s],62.1879
# COUNTERS - HDEEM: 
AVG Energy consumption [J] (Stats structure),6723.01
MAX Energy consumption [J] (Stats structure),6723.01
MIN Energy consumption [J] (Stats structure),6723.01
SUM Energy consumption [J] (Stats structure),6723.01
# CALLTREE;init_0;Main-PWSCF_0;run-PWSCF_0;run-PWSCF-electrons_function_1;electrons-electrons_scf_function_0;c_bands_function_14
# Job info - HDEEM
JOB ID,17280379.13
Nodelist,taurusi5525
AVG Runtime of function [s],45.2885
MAX Runtime of function [s],45.2885
MIN Runtime of function [s],45.2885
# COUNTERS - HDEEM: 
AVG Energy consumption [J] (Stats structure),4895.42
MAX Energy consumption [J] (Stats structure),4895.42
MIN Energy consumption [J] (Stats structure),4895.42
SUM Energy consumption [J] (Stats structure),4895.42
# CALLTREE;init_0;Main-PWSCF_0;run-PWSCF_0;run-PWSCF-electrons_function_1;electrons-electrons_scf_function_0;c_bands_function_14
# Job info - HDEEM
JOB ID,17280379.13
Nodelist,taurusi5525
AVG Runtime of function [s],45.1887
MAX Runtime of function [s],45.1887
MIN Runtime of function [s],45.1887
# COUNTERS - HDEEM: 
AVG Energy consumption [J] (Stats structure),4876.25
MAX Energy consumption [J] (Stats structure),4876.25
MIN Energy consumption [J] (Stats structure),4876.25
SUM Energy consumption [J] (Stats structure),4876.25
# CALLTREE;init_0;Main-PWSCF_0;run-PWSCF_0;run-PWSCF-electrons_function_1;electrons-electrons_scf_function_0;c_bands_function_14
# Job info - HDEEM
JOB ID,17280379.13
Nodelist,taurusi5525
AVG Runtime of function [s],45.2255
MAX Runtime of function [s],45.2255
MIN Runtime of function [s],45.2255
# COUNTERS - HDEEM: 
AVG Energy consumption [J] (Stats structure),4882.9
MAX Energy consumption [J] (Stats structure),4882.9
MIN Energy consumption [J] (Stats structure),4882.9
SUM Energy consumption [J] (Stats structure),4882.9
# CALLTREE;init_0;Main-PWSCF_0;run-PWSCF_0;run-PWSCF-electrons_function_1;electrons-electrons_scf_function_0;c_bands_function_14
# Job info - HDEEM
JOB ID,17280379.13
Nodelist,taurusi5525
AVG Runtime of function [s],46.5263
MAX Runtime of function [s],46.5263
MIN Runtime of function [s],46.5263
# COUNTERS - HDEEM: 
AVG Energy consumption [J] (Stats structure),5020.07
MAX Energy consumption [J] (Stats structure),5020.07
MIN Energy consumption [J] (Stats structure),5020.07
SUM Energy consumption [J] (Stats structure),5020.07
