# CALLTREE;init_0;Main-PWSCF_0;run-PWSCF_0;run-PWSCF-electrons_function_1;electrons-electrons_scf_function_0
# Job info - HDEEM
JOB ID,17280380.3
Nodelist,taurusi5526
AVG Runtime of function [s],0.367813
MAX Runtime of function [s],0.367813
MIN Runtime of function [s],0.367813
# COUNTERS - HDEEM: 
AVG Energy consumption [J] (Stats structure),38.883
MAX Energy consumption [J] (Stats structure),38.883
MIN Energy consumption [J] (Stats structure),38.883
SUM Energy consumption [J] (Stats structure),38.883
# CALLTREE;init_0;Main-PWSCF_0;run-PWSCF_0;run-PWSCF-electrons_function_1;electrons-electrons_scf_function_0
# Job info - HDEEM
JOB ID,17280380.3
Nodelist,taurusi5526
AVG Runtime of function [s],0.365578
MAX Runtime of function [s],0.365578
MIN Runtime of function [s],0.365578
# COUNTERS - HDEEM: 
AVG Energy consumption [J] (Stats structure),38.586
MAX Energy consumption [J] (Stats structure),38.586
MIN Energy consumption [J] (Stats structure),38.586
SUM Energy consumption [J] (Stats structure),38.586
# CALLTREE;init_0;Main-PWSCF_0;run-PWSCF_0;run-PWSCF-electrons_function_1;electrons-electrons_scf_function_0
# Job info - HDEEM
JOB ID,17280380.3
Nodelist,taurusi5526
AVG Runtime of function [s],0.36483
MAX Runtime of function [s],0.36483
MIN Runtime of function [s],0.36483
# COUNTERS - HDEEM: 
AVG Energy consumption [J] (Stats structure),38.555
MAX Energy consumption [J] (Stats structure),38.555
MIN Energy consumption [J] (Stats structure),38.555
SUM Energy consumption [J] (Stats structure),38.555
# CALLTREE;init_0;Main-PWSCF_0;run-PWSCF_0;run-PWSCF-electrons_function_1;electrons-electrons_scf_function_0
# Job info - HDEEM
JOB ID,17280380.3
Nodelist,taurusi5526
AVG Runtime of function [s],0.364584
MAX Runtime of function [s],0.364584
MIN Runtime of function [s],0.364584
# COUNTERS - HDEEM: 
AVG Energy consumption [J] (Stats structure),38.532
MAX Energy consumption [J] (Stats structure),38.532
MIN Energy consumption [J] (Stats structure),38.532
SUM Energy consumption [J] (Stats structure),38.532
# CALLTREE;init_0;Main-PWSCF_0;run-PWSCF_0;run-PWSCF-electrons_function_1;electrons-electrons_scf_function_0
# Job info - HDEEM
JOB ID,17280380.3
Nodelist,taurusi5526
AVG Runtime of function [s],0.367462
MAX Runtime of function [s],0.367462
MIN Runtime of function [s],0.367462
# COUNTERS - HDEEM: 
AVG Energy consumption [J] (Stats structure),38.875
MAX Energy consumption [J] (Stats structure),38.875
MIN Energy consumption [J] (Stats structure),38.875
SUM Energy consumption [J] (Stats structure),38.875
# CALLTREE;init_0;Main-PWSCF_0;run-PWSCF_0;run-PWSCF-electrons_function_1;electrons-electrons_scf_function_0
# Job info - HDEEM
JOB ID,17280380.3
Nodelist,taurusi5526
AVG Runtime of function [s],0.365826
MAX Runtime of function [s],0.365826
MIN Runtime of function [s],0.365826
# COUNTERS - HDEEM: 
AVG Energy consumption [J] (Stats structure),38.636
MAX Energy consumption [J] (Stats structure),38.636
MIN Energy consumption [J] (Stats structure),38.636
SUM Energy consumption [J] (Stats structure),38.636
# CALLTREE;init_0;Main-PWSCF_0;run-PWSCF_0;run-PWSCF-electrons_function_1;electrons-electrons_scf_function_0
# Job info - HDEEM
JOB ID,17280380.3
Nodelist,taurusi5526
AVG Runtime of function [s],0.366121
MAX Runtime of function [s],0.366121
MIN Runtime of function [s],0.366121
# COUNTERS - HDEEM: 
AVG Energy consumption [J] (Stats structure),38.662
MAX Energy consumption [J] (Stats structure),38.662
MIN Energy consumption [J] (Stats structure),38.662
SUM Energy consumption [J] (Stats structure),38.662
# CALLTREE;init_0;Main-PWSCF_0;run-PWSCF_0;run-PWSCF-electrons_function_1;electrons-electrons_scf_function_0
# Job info - HDEEM
JOB ID,17280380.3
Nodelist,taurusi5526
AVG Runtime of function [s],0.368039
MAX Runtime of function [s],0.368039
MIN Runtime of function [s],0.368039
# COUNTERS - HDEEM: 
AVG Energy consumption [J] (Stats structure),45.868
MAX Energy consumption [J] (Stats structure),45.868
MIN Energy consumption [J] (Stats structure),45.868
SUM Energy consumption [J] (Stats structure),45.868
