# CALLTREE;init_0;Main-PWSCF_0;run-PWSCF_0;run-PWSCF-electrons_function_1;electrons-electrons_scf_function_0
# Job info - HDEEM
JOB ID,17280380.7
Nodelist,taurusi5526
AVG Runtime of function [s],0.412701
MAX Runtime of function [s],0.412701
MIN Runtime of function [s],0.412701
# COUNTERS - HDEEM: 
AVG Energy consumption [J] (Stats structure),46.924
MAX Energy consumption [J] (Stats structure),46.924
MIN Energy consumption [J] (Stats structure),46.924
SUM Energy consumption [J] (Stats structure),46.924
# CALLTREE;init_0;Main-PWSCF_0;run-PWSCF_0;run-PWSCF-electrons_function_1;electrons-electrons_scf_function_0
# Job info - HDEEM
JOB ID,17280380.7
Nodelist,taurusi5526
AVG Runtime of function [s],0.413044
MAX Runtime of function [s],0.413044
MIN Runtime of function [s],0.413044
# COUNTERS - HDEEM: 
AVG Energy consumption [J] (Stats structure),49.593
MAX Energy consumption [J] (Stats structure),49.593
MIN Energy consumption [J] (Stats structure),49.593
SUM Energy consumption [J] (Stats structure),49.593
# CALLTREE;init_0;Main-PWSCF_0;run-PWSCF_0;run-PWSCF-electrons_function_1;electrons-electrons_scf_function_0
# Job info - HDEEM
JOB ID,17280380.7
Nodelist,taurusi5526
AVG Runtime of function [s],0.408628
MAX Runtime of function [s],0.408628
MIN Runtime of function [s],0.408628
# COUNTERS - HDEEM: 
AVG Energy consumption [J] (Stats structure),45.363
MAX Energy consumption [J] (Stats structure),45.363
MIN Energy consumption [J] (Stats structure),45.363
SUM Energy consumption [J] (Stats structure),45.363
# CALLTREE;init_0;Main-PWSCF_0;run-PWSCF_0;run-PWSCF-electrons_function_1;electrons-electrons_scf_function_0
# Job info - HDEEM
JOB ID,17280380.7
Nodelist,taurusi5526
AVG Runtime of function [s],0.414189
MAX Runtime of function [s],0.414189
MIN Runtime of function [s],0.414189
# COUNTERS - HDEEM: 
AVG Energy consumption [J] (Stats structure),45.843
MAX Energy consumption [J] (Stats structure),45.843
MIN Energy consumption [J] (Stats structure),45.843
SUM Energy consumption [J] (Stats structure),45.843
# CALLTREE;init_0;Main-PWSCF_0;run-PWSCF_0;run-PWSCF-electrons_function_1;electrons-electrons_scf_function_0
# Job info - HDEEM
JOB ID,17280380.7
Nodelist,taurusi5526
AVG Runtime of function [s],0.417401
MAX Runtime of function [s],0.417401
MIN Runtime of function [s],0.417401
# COUNTERS - HDEEM: 
AVG Energy consumption [J] (Stats structure),46.299
MAX Energy consumption [J] (Stats structure),46.299
MIN Energy consumption [J] (Stats structure),46.299
SUM Energy consumption [J] (Stats structure),46.299
# CALLTREE;init_0;Main-PWSCF_0;run-PWSCF_0;run-PWSCF-electrons_function_1;electrons-electrons_scf_function_0
# Job info - HDEEM
JOB ID,17280380.7
Nodelist,taurusi5526
AVG Runtime of function [s],0.406952
MAX Runtime of function [s],0.406952
MIN Runtime of function [s],0.406952
# COUNTERS - HDEEM: 
AVG Energy consumption [J] (Stats structure),45.155
MAX Energy consumption [J] (Stats structure),45.155
MIN Energy consumption [J] (Stats structure),45.155
SUM Energy consumption [J] (Stats structure),45.155
# CALLTREE;init_0;Main-PWSCF_0;run-PWSCF_0;run-PWSCF-electrons_function_1;electrons-electrons_scf_function_0
# Job info - HDEEM
JOB ID,17280380.7
Nodelist,taurusi5526
AVG Runtime of function [s],0.411425
MAX Runtime of function [s],0.411425
MIN Runtime of function [s],0.411425
# COUNTERS - HDEEM: 
AVG Energy consumption [J] (Stats structure),45.706
MAX Energy consumption [J] (Stats structure),45.706
MIN Energy consumption [J] (Stats structure),45.706
SUM Energy consumption [J] (Stats structure),45.706
# CALLTREE;init_0;Main-PWSCF_0;run-PWSCF_0;run-PWSCF-electrons_function_1;electrons-electrons_scf_function_0
# Job info - HDEEM
JOB ID,17280380.7
Nodelist,taurusi5526
AVG Runtime of function [s],0.409624
MAX Runtime of function [s],0.409624
MIN Runtime of function [s],0.409624
# COUNTERS - HDEEM: 
AVG Energy consumption [J] (Stats structure),45.364
MAX Energy consumption [J] (Stats structure),45.364
MIN Energy consumption [J] (Stats structure),45.364
SUM Energy consumption [J] (Stats structure),45.364
