# CALLTREE;init_0;Main-PWSCF_0;run-PWSCF_0;run-PWSCF-electrons_function_1;electrons-electrons_scf_function_0;sum_band_function_0
# Job info - HDEEM
JOB ID,17281896.14
Nodelist,taurusi5610
AVG Runtime of function [s],0.89855
MAX Runtime of function [s],0.89855
MIN Runtime of function [s],0.89855
# COUNTERS - HDEEM: 
AVG Energy consumption [J] (Stats structure),169.074
MAX Energy consumption [J] (Stats structure),169.074
MIN Energy consumption [J] (Stats structure),169.074
SUM Energy consumption [J] (Stats structure),169.074
# CALLTREE;init_0;Main-PWSCF_0;run-PWSCF_0;run-PWSCF-electrons_function_1;electrons-electrons_scf_function_0;sum_band_function_1
# Job info - HDEEM
JOB ID,17281896.14
Nodelist,taurusi5610
AVG Runtime of function [s],0.877085
MAX Runtime of function [s],0.877085
MIN Runtime of function [s],0.877085
# COUNTERS - HDEEM: 
AVG Energy consumption [J] (Stats structure),165.955
MAX Energy consumption [J] (Stats structure),165.955
MIN Energy consumption [J] (Stats structure),165.955
SUM Energy consumption [J] (Stats structure),165.955
# CALLTREE;init_0;Main-PWSCF_0;run-PWSCF_0;run-PWSCF-electrons_function_1;electrons-electrons_scf_function_0;sum_band_function_2
# Job info - HDEEM
JOB ID,17281896.14
Nodelist,taurusi5610
AVG Runtime of function [s],0.896895
MAX Runtime of function [s],0.896895
MIN Runtime of function [s],0.896895
# COUNTERS - HDEEM: 
AVG Energy consumption [J] (Stats structure),168.782
MAX Energy consumption [J] (Stats structure),168.782
MIN Energy consumption [J] (Stats structure),168.782
SUM Energy consumption [J] (Stats structure),168.782
# CALLTREE;init_0;Main-PWSCF_0;run-PWSCF_0;run-PWSCF-electrons_function_1;electrons-electrons_scf_function_0;sum_band_function_3
# Job info - HDEEM
JOB ID,17281896.14
Nodelist,taurusi5610
AVG Runtime of function [s],0.899933
MAX Runtime of function [s],0.899933
MIN Runtime of function [s],0.899933
# COUNTERS - HDEEM: 
AVG Energy consumption [J] (Stats structure),169.178
MAX Energy consumption [J] (Stats structure),169.178
MIN Energy consumption [J] (Stats structure),169.178
SUM Energy consumption [J] (Stats structure),169.178
# CALLTREE;init_0;Main-PWSCF_0;run-PWSCF_0;run-PWSCF-electrons_function_1;electrons-electrons_scf_function_0;sum_band_function_4
# Job info - HDEEM
JOB ID,17281896.14
Nodelist,taurusi5610
AVG Runtime of function [s],0.904156
MAX Runtime of function [s],0.904156
MIN Runtime of function [s],0.904156
# COUNTERS - HDEEM: 
AVG Energy consumption [J] (Stats structure),169.966
MAX Energy consumption [J] (Stats structure),169.966
MIN Energy consumption [J] (Stats structure),169.966
SUM Energy consumption [J] (Stats structure),169.966
# CALLTREE;init_0;Main-PWSCF_0;run-PWSCF_0;run-PWSCF-electrons_function_1;electrons-electrons_scf_function_0;sum_band_function_5
# Job info - HDEEM
JOB ID,17281896.14
Nodelist,taurusi5610
AVG Runtime of function [s],0.881256
MAX Runtime of function [s],0.881256
MIN Runtime of function [s],0.881256
# COUNTERS - HDEEM: 
AVG Energy consumption [J] (Stats structure),166.536
MAX Energy consumption [J] (Stats structure),166.536
MIN Energy consumption [J] (Stats structure),166.536
SUM Energy consumption [J] (Stats structure),166.536
# CALLTREE;init_0;Main-PWSCF_0;run-PWSCF_0;run-PWSCF-electrons_function_1;electrons-electrons_scf_function_0;sum_band_function_6
# Job info - HDEEM
JOB ID,17281896.14
Nodelist,taurusi5610
AVG Runtime of function [s],0.892559
MAX Runtime of function [s],0.892559
MIN Runtime of function [s],0.892559
# COUNTERS - HDEEM: 
AVG Energy consumption [J] (Stats structure),168.371
MAX Energy consumption [J] (Stats structure),168.371
MIN Energy consumption [J] (Stats structure),168.371
SUM Energy consumption [J] (Stats structure),168.371
# CALLTREE;init_0;Main-PWSCF_0;run-PWSCF_0;run-PWSCF-electrons_function_1;electrons-electrons_scf_function_0;sum_band_function_7
# Job info - HDEEM
JOB ID,17281896.14
Nodelist,taurusi5610
AVG Runtime of function [s],0.889202
MAX Runtime of function [s],0.889202
MIN Runtime of function [s],0.889202
# COUNTERS - HDEEM: 
AVG Energy consumption [J] (Stats structure),167.732
MAX Energy consumption [J] (Stats structure),167.732
MIN Energy consumption [J] (Stats structure),167.732
SUM Energy consumption [J] (Stats structure),167.732
# CALLTREE;init_0;Main-PWSCF_0;run-PWSCF_0;run-PWSCF-electrons_function_1;electrons-electrons_scf_function_0;sum_band_function_8
# Job info - HDEEM
JOB ID,17281896.14
Nodelist,taurusi5610
AVG Runtime of function [s],0.892123
MAX Runtime of function [s],0.892123
MIN Runtime of function [s],0.892123
# COUNTERS - HDEEM: 
AVG Energy consumption [J] (Stats structure),168.184
MAX Energy consumption [J] (Stats structure),168.184
MIN Energy consumption [J] (Stats structure),168.184
SUM Energy consumption [J] (Stats structure),168.184
# CALLTREE;init_0;Main-PWSCF_0;run-PWSCF_0;run-PWSCF-electrons_function_1;electrons-electrons_scf_function_0;sum_band_function_9
# Job info - HDEEM
JOB ID,17281896.14
Nodelist,taurusi5610
AVG Runtime of function [s],0.891967
MAX Runtime of function [s],0.891967
MIN Runtime of function [s],0.891967
# COUNTERS - HDEEM: 
AVG Energy consumption [J] (Stats structure),168.168
MAX Energy consumption [J] (Stats structure),168.168
MIN Energy consumption [J] (Stats structure),168.168
SUM Energy consumption [J] (Stats structure),168.168
# CALLTREE;init_0;Main-PWSCF_0;run-PWSCF_0;run-PWSCF-electrons_function_1;electrons-electrons_scf_function_0;sum_band_function_10
# Job info - HDEEM
JOB ID,17281896.14
Nodelist,taurusi5610
AVG Runtime of function [s],0.890931
MAX Runtime of function [s],0.890931
MIN Runtime of function [s],0.890931
# COUNTERS - HDEEM: 
AVG Energy consumption [J] (Stats structure),168.015
MAX Energy consumption [J] (Stats structure),168.015
MIN Energy consumption [J] (Stats structure),168.015
SUM Energy consumption [J] (Stats structure),168.015
# CALLTREE;init_0;Main-PWSCF_0;run-PWSCF_0;run-PWSCF-electrons_function_1;electrons-electrons_scf_function_0;sum_band_function_11
# Job info - HDEEM
JOB ID,17281896.14
Nodelist,taurusi5610
AVG Runtime of function [s],0.875285
MAX Runtime of function [s],0.875285
MIN Runtime of function [s],0.875285
# COUNTERS - HDEEM: 
AVG Energy consumption [J] (Stats structure),165.824
MAX Energy consumption [J] (Stats structure),165.824
MIN Energy consumption [J] (Stats structure),165.824
SUM Energy consumption [J] (Stats structure),165.824
# CALLTREE;init_0;Main-PWSCF_0;run-PWSCF_0;run-PWSCF-electrons_function_1;electrons-electrons_scf_function_0;sum_band_function_12
# Job info - HDEEM
JOB ID,17281896.14
Nodelist,taurusi5610
AVG Runtime of function [s],0.850653
MAX Runtime of function [s],0.850653
MIN Runtime of function [s],0.850653
# COUNTERS - HDEEM: 
AVG Energy consumption [J] (Stats structure),161.625
MAX Energy consumption [J] (Stats structure),161.625
MIN Energy consumption [J] (Stats structure),161.625
SUM Energy consumption [J] (Stats structure),161.625
# CALLTREE;init_0;Main-PWSCF_0;run-PWSCF_0;run-PWSCF-electrons_function_1;electrons-electrons_scf_function_0;sum_band_function_13
# Job info - HDEEM
JOB ID,17281896.14
Nodelist,taurusi5610
AVG Runtime of function [s],0.850229
MAX Runtime of function [s],0.850229
MIN Runtime of function [s],0.850229
# COUNTERS - HDEEM: 
AVG Energy consumption [J] (Stats structure),161.689
MAX Energy consumption [J] (Stats structure),161.689
MIN Energy consumption [J] (Stats structure),161.689
SUM Energy consumption [J] (Stats structure),161.689
# CALLTREE;init_0;Main-PWSCF_0;run-PWSCF_0;run-PWSCF-electrons_function_1;electrons-electrons_scf_function_0;sum_band_function_14
# Job info - HDEEM
JOB ID,17281896.14
Nodelist,taurusi5610
AVG Runtime of function [s],0.871248
MAX Runtime of function [s],0.871248
MIN Runtime of function [s],0.871248
# COUNTERS - HDEEM: 
AVG Energy consumption [J] (Stats structure),164.968
MAX Energy consumption [J] (Stats structure),164.968
MIN Energy consumption [J] (Stats structure),164.968
SUM Energy consumption [J] (Stats structure),164.968
# CALLTREE;init_0;Main-PWSCF_0;run-PWSCF_0;run-PWSCF-electrons_function_1;electrons-electrons_scf_function_0;sum_band_function_15
# Job info - HDEEM
JOB ID,17281896.14
Nodelist,taurusi5610
AVG Runtime of function [s],0.86921
MAX Runtime of function [s],0.86921
MIN Runtime of function [s],0.86921
# COUNTERS - HDEEM: 
AVG Energy consumption [J] (Stats structure),164.809
MAX Energy consumption [J] (Stats structure),164.809
MIN Energy consumption [J] (Stats structure),164.809
SUM Energy consumption [J] (Stats structure),164.809
