# CALLTREE;init_0;Main-PWSCF_0;run-PWSCF_0;run-PWSCF-electrons_function_1;electrons-electrons_scf_function_0;sum_band_function_0
# Job info - HDEEM
JOB ID,17281896.15
Nodelist,taurusi5610
AVG Runtime of function [s],0.883366
MAX Runtime of function [s],0.883366
MIN Runtime of function [s],0.883366
# COUNTERS - HDEEM: 
AVG Energy consumption [J] (Stats structure),189.416
MAX Energy consumption [J] (Stats structure),189.416
MIN Energy consumption [J] (Stats structure),189.416
SUM Energy consumption [J] (Stats structure),189.416
# CALLTREE;init_0;Main-PWSCF_0;run-PWSCF_0;run-PWSCF-electrons_function_1;electrons-electrons_scf_function_0;sum_band_function_1
# Job info - HDEEM
JOB ID,17281896.15
Nodelist,taurusi5610
AVG Runtime of function [s],0.84855
MAX Runtime of function [s],0.84855
MIN Runtime of function [s],0.84855
# COUNTERS - HDEEM: 
AVG Energy consumption [J] (Stats structure),183.244
MAX Energy consumption [J] (Stats structure),183.244
MIN Energy consumption [J] (Stats structure),183.244
SUM Energy consumption [J] (Stats structure),183.244
# CALLTREE;init_0;Main-PWSCF_0;run-PWSCF_0;run-PWSCF-electrons_function_1;electrons-electrons_scf_function_0;sum_band_function_2
# Job info - HDEEM
JOB ID,17281896.15
Nodelist,taurusi5610
AVG Runtime of function [s],0.868853
MAX Runtime of function [s],0.868853
MIN Runtime of function [s],0.868853
# COUNTERS - HDEEM: 
AVG Energy consumption [J] (Stats structure),186.825
MAX Energy consumption [J] (Stats structure),186.825
MIN Energy consumption [J] (Stats structure),186.825
SUM Energy consumption [J] (Stats structure),186.825
# CALLTREE;init_0;Main-PWSCF_0;run-PWSCF_0;run-PWSCF-electrons_function_1;electrons-electrons_scf_function_0;sum_band_function_3
# Job info - HDEEM
JOB ID,17281896.15
Nodelist,taurusi5610
AVG Runtime of function [s],0.869985
MAX Runtime of function [s],0.869985
MIN Runtime of function [s],0.869985
# COUNTERS - HDEEM: 
AVG Energy consumption [J] (Stats structure),186.857
MAX Energy consumption [J] (Stats structure),186.857
MIN Energy consumption [J] (Stats structure),186.857
SUM Energy consumption [J] (Stats structure),186.857
# CALLTREE;init_0;Main-PWSCF_0;run-PWSCF_0;run-PWSCF-electrons_function_1;electrons-electrons_scf_function_0;sum_band_function_4
# Job info - HDEEM
JOB ID,17281896.15
Nodelist,taurusi5610
AVG Runtime of function [s],0.868797
MAX Runtime of function [s],0.868797
MIN Runtime of function [s],0.868797
# COUNTERS - HDEEM: 
AVG Energy consumption [J] (Stats structure),186.849
MAX Energy consumption [J] (Stats structure),186.849
MIN Energy consumption [J] (Stats structure),186.849
SUM Energy consumption [J] (Stats structure),186.849
# CALLTREE;init_0;Main-PWSCF_0;run-PWSCF_0;run-PWSCF-electrons_function_1;electrons-electrons_scf_function_0;sum_band_function_5
# Job info - HDEEM
JOB ID,17281896.15
Nodelist,taurusi5610
AVG Runtime of function [s],0.855797
MAX Runtime of function [s],0.855797
MIN Runtime of function [s],0.855797
# COUNTERS - HDEEM: 
AVG Energy consumption [J] (Stats structure),184.724
MAX Energy consumption [J] (Stats structure),184.724
MIN Energy consumption [J] (Stats structure),184.724
SUM Energy consumption [J] (Stats structure),184.724
# CALLTREE;init_0;Main-PWSCF_0;run-PWSCF_0;run-PWSCF-electrons_function_1;electrons-electrons_scf_function_0;sum_band_function_6
# Job info - HDEEM
JOB ID,17281896.15
Nodelist,taurusi5610
AVG Runtime of function [s],0.857848
MAX Runtime of function [s],0.857848
MIN Runtime of function [s],0.857848
# COUNTERS - HDEEM: 
AVG Energy consumption [J] (Stats structure),185.298
MAX Energy consumption [J] (Stats structure),185.298
MIN Energy consumption [J] (Stats structure),185.298
SUM Energy consumption [J] (Stats structure),185.298
# CALLTREE;init_0;Main-PWSCF_0;run-PWSCF_0;run-PWSCF-electrons_function_1;electrons-electrons_scf_function_0;sum_band_function_7
# Job info - HDEEM
JOB ID,17281896.15
Nodelist,taurusi5610
AVG Runtime of function [s],0.859512
MAX Runtime of function [s],0.859512
MIN Runtime of function [s],0.859512
# COUNTERS - HDEEM: 
AVG Energy consumption [J] (Stats structure),185.644
MAX Energy consumption [J] (Stats structure),185.644
MIN Energy consumption [J] (Stats structure),185.644
SUM Energy consumption [J] (Stats structure),185.644
# CALLTREE;init_0;Main-PWSCF_0;run-PWSCF_0;run-PWSCF-electrons_function_1;electrons-electrons_scf_function_0;sum_band_function_8
# Job info - HDEEM
JOB ID,17281896.15
Nodelist,taurusi5610
AVG Runtime of function [s],0.860162
MAX Runtime of function [s],0.860162
MIN Runtime of function [s],0.860162
# COUNTERS - HDEEM: 
AVG Energy consumption [J] (Stats structure),185.446
MAX Energy consumption [J] (Stats structure),185.446
MIN Energy consumption [J] (Stats structure),185.446
SUM Energy consumption [J] (Stats structure),185.446
# CALLTREE;init_0;Main-PWSCF_0;run-PWSCF_0;run-PWSCF-electrons_function_1;electrons-electrons_scf_function_0;sum_band_function_9
# Job info - HDEEM
JOB ID,17281896.15
Nodelist,taurusi5610
AVG Runtime of function [s],0.856634
MAX Runtime of function [s],0.856634
MIN Runtime of function [s],0.856634
# COUNTERS - HDEEM: 
AVG Energy consumption [J] (Stats structure),184.971
MAX Energy consumption [J] (Stats structure),184.971
MIN Energy consumption [J] (Stats structure),184.971
SUM Energy consumption [J] (Stats structure),184.971
# CALLTREE;init_0;Main-PWSCF_0;run-PWSCF_0;run-PWSCF-electrons_function_1;electrons-electrons_scf_function_0;sum_band_function_10
# Job info - HDEEM
JOB ID,17281896.15
Nodelist,taurusi5610
AVG Runtime of function [s],0.861449
MAX Runtime of function [s],0.861449
MIN Runtime of function [s],0.861449
# COUNTERS - HDEEM: 
AVG Energy consumption [J] (Stats structure),186.042
MAX Energy consumption [J] (Stats structure),186.042
MIN Energy consumption [J] (Stats structure),186.042
SUM Energy consumption [J] (Stats structure),186.042
# CALLTREE;init_0;Main-PWSCF_0;run-PWSCF_0;run-PWSCF-electrons_function_1;electrons-electrons_scf_function_0;sum_band_function_11
# Job info - HDEEM
JOB ID,17281896.15
Nodelist,taurusi5610
AVG Runtime of function [s],0.840247
MAX Runtime of function [s],0.840247
MIN Runtime of function [s],0.840247
# COUNTERS - HDEEM: 
AVG Energy consumption [J] (Stats structure),181.893
MAX Energy consumption [J] (Stats structure),181.893
MIN Energy consumption [J] (Stats structure),181.893
SUM Energy consumption [J] (Stats structure),181.893
# CALLTREE;init_0;Main-PWSCF_0;run-PWSCF_0;run-PWSCF-electrons_function_1;electrons-electrons_scf_function_0;sum_band_function_12
# Job info - HDEEM
JOB ID,17281896.15
Nodelist,taurusi5610
AVG Runtime of function [s],0.829708
MAX Runtime of function [s],0.829708
MIN Runtime of function [s],0.829708
# COUNTERS - HDEEM: 
AVG Energy consumption [J] (Stats structure),180.087
MAX Energy consumption [J] (Stats structure),180.087
MIN Energy consumption [J] (Stats structure),180.087
SUM Energy consumption [J] (Stats structure),180.087
# CALLTREE;init_0;Main-PWSCF_0;run-PWSCF_0;run-PWSCF-electrons_function_1;electrons-electrons_scf_function_0;sum_band_function_13
# Job info - HDEEM
JOB ID,17281896.15
Nodelist,taurusi5610
AVG Runtime of function [s],0.82442
MAX Runtime of function [s],0.82442
MIN Runtime of function [s],0.82442
# COUNTERS - HDEEM: 
AVG Energy consumption [J] (Stats structure),179.335
MAX Energy consumption [J] (Stats structure),179.335
MIN Energy consumption [J] (Stats structure),179.335
SUM Energy consumption [J] (Stats structure),179.335
# CALLTREE;init_0;Main-PWSCF_0;run-PWSCF_0;run-PWSCF-electrons_function_1;electrons-electrons_scf_function_0;sum_band_function_14
# Job info - HDEEM
JOB ID,17281896.15
Nodelist,taurusi5610
AVG Runtime of function [s],0.847735
MAX Runtime of function [s],0.847735
MIN Runtime of function [s],0.847735
# COUNTERS - HDEEM: 
AVG Energy consumption [J] (Stats structure),183.414
MAX Energy consumption [J] (Stats structure),183.414
MIN Energy consumption [J] (Stats structure),183.414
SUM Energy consumption [J] (Stats structure),183.414
# CALLTREE;init_0;Main-PWSCF_0;run-PWSCF_0;run-PWSCF-electrons_function_1;electrons-electrons_scf_function_0;sum_band_function_15
# Job info - HDEEM
JOB ID,17281896.15
Nodelist,taurusi5610
AVG Runtime of function [s],0.846598
MAX Runtime of function [s],0.846598
MIN Runtime of function [s],0.846598
# COUNTERS - HDEEM: 
AVG Energy consumption [J] (Stats structure),183.406
MAX Energy consumption [J] (Stats structure),183.406
MIN Energy consumption [J] (Stats structure),183.406
SUM Energy consumption [J] (Stats structure),183.406
