# CALLTREE;init_0;Main-PWSCF_0;run-PWSCF_0;run-PWSCF-electrons_function_1;electrons-electrons_scf_function_0;sum_band_function_0
# Job info - HDEEM
JOB ID,17281896.13
Nodelist,taurusi5610
AVG Runtime of function [s],0.811199
MAX Runtime of function [s],0.811199
MIN Runtime of function [s],0.811199
# COUNTERS - HDEEM: 
AVG Energy consumption [J] (Stats structure),161.307
MAX Energy consumption [J] (Stats structure),161.307
MIN Energy consumption [J] (Stats structure),161.307
SUM Energy consumption [J] (Stats structure),161.307
# CALLTREE;init_0;Main-PWSCF_0;run-PWSCF_0;run-PWSCF-electrons_function_1;electrons-electrons_scf_function_0;sum_band_function_1
# Job info - HDEEM
JOB ID,17281896.13
Nodelist,taurusi5610
AVG Runtime of function [s],0.779373
MAX Runtime of function [s],0.779373
MIN Runtime of function [s],0.779373
# COUNTERS - HDEEM: 
AVG Energy consumption [J] (Stats structure),156.325
MAX Energy consumption [J] (Stats structure),156.325
MIN Energy consumption [J] (Stats structure),156.325
SUM Energy consumption [J] (Stats structure),156.325
# CALLTREE;init_0;Main-PWSCF_0;run-PWSCF_0;run-PWSCF-electrons_function_1;electrons-electrons_scf_function_0;sum_band_function_2
# Job info - HDEEM
JOB ID,17281896.13
Nodelist,taurusi5610
AVG Runtime of function [s],0.801753
MAX Runtime of function [s],0.801753
MIN Runtime of function [s],0.801753
# COUNTERS - HDEEM: 
AVG Energy consumption [J] (Stats structure),160.017
MAX Energy consumption [J] (Stats structure),160.017
MIN Energy consumption [J] (Stats structure),160.017
SUM Energy consumption [J] (Stats structure),160.017
# CALLTREE;init_0;Main-PWSCF_0;run-PWSCF_0;run-PWSCF-electrons_function_1;electrons-electrons_scf_function_0;sum_band_function_3
# Job info - HDEEM
JOB ID,17281896.13
Nodelist,taurusi5610
AVG Runtime of function [s],0.803815
MAX Runtime of function [s],0.803815
MIN Runtime of function [s],0.803815
# COUNTERS - HDEEM: 
AVG Energy consumption [J] (Stats structure),160.231
MAX Energy consumption [J] (Stats structure),160.231
MIN Energy consumption [J] (Stats structure),160.231
SUM Energy consumption [J] (Stats structure),160.231
# CALLTREE;init_0;Main-PWSCF_0;run-PWSCF_0;run-PWSCF-electrons_function_1;electrons-electrons_scf_function_0;sum_band_function_4
# Job info - HDEEM
JOB ID,17281896.13
Nodelist,taurusi5610
AVG Runtime of function [s],0.801497
MAX Runtime of function [s],0.801497
MIN Runtime of function [s],0.801497
# COUNTERS - HDEEM: 
AVG Energy consumption [J] (Stats structure),159.877
MAX Energy consumption [J] (Stats structure),159.877
MIN Energy consumption [J] (Stats structure),159.877
SUM Energy consumption [J] (Stats structure),159.877
# CALLTREE;init_0;Main-PWSCF_0;run-PWSCF_0;run-PWSCF-electrons_function_1;electrons-electrons_scf_function_0;sum_band_function_5
# Job info - HDEEM
JOB ID,17281896.13
Nodelist,taurusi5610
AVG Runtime of function [s],0.791531
MAX Runtime of function [s],0.791531
MIN Runtime of function [s],0.791531
# COUNTERS - HDEEM: 
AVG Energy consumption [J] (Stats structure),158.361
MAX Energy consumption [J] (Stats structure),158.361
MIN Energy consumption [J] (Stats structure),158.361
SUM Energy consumption [J] (Stats structure),158.361
# CALLTREE;init_0;Main-PWSCF_0;run-PWSCF_0;run-PWSCF-electrons_function_1;electrons-electrons_scf_function_0;sum_band_function_6
# Job info - HDEEM
JOB ID,17281896.13
Nodelist,taurusi5610
AVG Runtime of function [s],0.793849
MAX Runtime of function [s],0.793849
MIN Runtime of function [s],0.793849
# COUNTERS - HDEEM: 
AVG Energy consumption [J] (Stats structure),158.729
MAX Energy consumption [J] (Stats structure),158.729
MIN Energy consumption [J] (Stats structure),158.729
SUM Energy consumption [J] (Stats structure),158.729
# CALLTREE;init_0;Main-PWSCF_0;run-PWSCF_0;run-PWSCF-electrons_function_1;electrons-electrons_scf_function_0;sum_band_function_7
# Job info - HDEEM
JOB ID,17281896.13
Nodelist,taurusi5610
AVG Runtime of function [s],0.792156
MAX Runtime of function [s],0.792156
MIN Runtime of function [s],0.792156
# COUNTERS - HDEEM: 
AVG Energy consumption [J] (Stats structure),158.535
MAX Energy consumption [J] (Stats structure),158.535
MIN Energy consumption [J] (Stats structure),158.535
SUM Energy consumption [J] (Stats structure),158.535
# CALLTREE;init_0;Main-PWSCF_0;run-PWSCF_0;run-PWSCF-electrons_function_1;electrons-electrons_scf_function_0;sum_band_function_8
# Job info - HDEEM
JOB ID,17281896.13
Nodelist,taurusi5610
AVG Runtime of function [s],0.797493
MAX Runtime of function [s],0.797493
MIN Runtime of function [s],0.797493
# COUNTERS - HDEEM: 
AVG Energy consumption [J] (Stats structure),159.556
MAX Energy consumption [J] (Stats structure),159.556
MIN Energy consumption [J] (Stats structure),159.556
SUM Energy consumption [J] (Stats structure),159.556
# CALLTREE;init_0;Main-PWSCF_0;run-PWSCF_0;run-PWSCF-electrons_function_1;electrons-electrons_scf_function_0;sum_band_function_9
# Job info - HDEEM
JOB ID,17281896.13
Nodelist,taurusi5610
AVG Runtime of function [s],0.794133
MAX Runtime of function [s],0.794133
MIN Runtime of function [s],0.794133
# COUNTERS - HDEEM: 
AVG Energy consumption [J] (Stats structure),158.898
MAX Energy consumption [J] (Stats structure),158.898
MIN Energy consumption [J] (Stats structure),158.898
SUM Energy consumption [J] (Stats structure),158.898
# CALLTREE;init_0;Main-PWSCF_0;run-PWSCF_0;run-PWSCF-electrons_function_1;electrons-electrons_scf_function_0;sum_band_function_10
# Job info - HDEEM
JOB ID,17281896.13
Nodelist,taurusi5610
AVG Runtime of function [s],0.792712
MAX Runtime of function [s],0.792712
MIN Runtime of function [s],0.792712
# COUNTERS - HDEEM: 
AVG Energy consumption [J] (Stats structure),158.529
MAX Energy consumption [J] (Stats structure),158.529
MIN Energy consumption [J] (Stats structure),158.529
SUM Energy consumption [J] (Stats structure),158.529
# CALLTREE;init_0;Main-PWSCF_0;run-PWSCF_0;run-PWSCF-electrons_function_1;electrons-electrons_scf_function_0;sum_band_function_11
# Job info - HDEEM
JOB ID,17281896.13
Nodelist,taurusi5610
AVG Runtime of function [s],0.770095
MAX Runtime of function [s],0.770095
MIN Runtime of function [s],0.770095
# COUNTERS - HDEEM: 
AVG Energy consumption [J] (Stats structure),154.87
MAX Energy consumption [J] (Stats structure),154.87
MIN Energy consumption [J] (Stats structure),154.87
SUM Energy consumption [J] (Stats structure),154.87
# CALLTREE;init_0;Main-PWSCF_0;run-PWSCF_0;run-PWSCF-electrons_function_1;electrons-electrons_scf_function_0;sum_band_function_12
# Job info - HDEEM
JOB ID,17281896.13
Nodelist,taurusi5610
AVG Runtime of function [s],0.761727
MAX Runtime of function [s],0.761727
MIN Runtime of function [s],0.761727
# COUNTERS - HDEEM: 
AVG Energy consumption [J] (Stats structure),153.536
MAX Energy consumption [J] (Stats structure),153.536
MIN Energy consumption [J] (Stats structure),153.536
SUM Energy consumption [J] (Stats structure),153.536
# CALLTREE;init_0;Main-PWSCF_0;run-PWSCF_0;run-PWSCF-electrons_function_1;electrons-electrons_scf_function_0;sum_band_function_13
# Job info - HDEEM
JOB ID,17281896.13
Nodelist,taurusi5610
AVG Runtime of function [s],0.755337
MAX Runtime of function [s],0.755337
MIN Runtime of function [s],0.755337
# COUNTERS - HDEEM: 
AVG Energy consumption [J] (Stats structure),152.711
MAX Energy consumption [J] (Stats structure),152.711
MIN Energy consumption [J] (Stats structure),152.711
SUM Energy consumption [J] (Stats structure),152.711
# CALLTREE;init_0;Main-PWSCF_0;run-PWSCF_0;run-PWSCF-electrons_function_1;electrons-electrons_scf_function_0;sum_band_function_14
# Job info - HDEEM
JOB ID,17281896.13
Nodelist,taurusi5610
AVG Runtime of function [s],0.77764
MAX Runtime of function [s],0.77764
MIN Runtime of function [s],0.77764
# COUNTERS - HDEEM: 
AVG Energy consumption [J] (Stats structure),156.179
MAX Energy consumption [J] (Stats structure),156.179
MIN Energy consumption [J] (Stats structure),156.179
SUM Energy consumption [J] (Stats structure),156.179
# CALLTREE;init_0;Main-PWSCF_0;run-PWSCF_0;run-PWSCF-electrons_function_1;electrons-electrons_scf_function_0;sum_band_function_15
# Job info - HDEEM
JOB ID,17281896.13
Nodelist,taurusi5610
AVG Runtime of function [s],0.778828
MAX Runtime of function [s],0.778828
MIN Runtime of function [s],0.778828
# COUNTERS - HDEEM: 
AVG Energy consumption [J] (Stats structure),156.878
MAX Energy consumption [J] (Stats structure),156.878
MIN Energy consumption [J] (Stats structure),156.878
SUM Energy consumption [J] (Stats structure),156.878
