# CALLTREE;init_0;Main-PWSCF_0;run-PWSCF_0;run-PWSCF-electrons_function_1;electrons-electrons_scf_function_0
# Job info - HDEEM
JOB ID,17281565.4
Nodelist,taurusi5540
AVG Runtime of function [s],0.0257132
MAX Runtime of function [s],0.0257132
MIN Runtime of function [s],0.0257132
# COUNTERS - HDEEM: 
AVG Energy consumption [J] (Stats structure),6.289
MAX Energy consumption [J] (Stats structure),6.289
MIN Energy consumption [J] (Stats structure),6.289
SUM Energy consumption [J] (Stats structure),6.289
# CALLTREE;init_0;Main-PWSCF_0;run-PWSCF_0;run-PWSCF-electrons_function_1;electrons-electrons_scf_function_0
# Job info - HDEEM
JOB ID,17281565.4
Nodelist,taurusi5540
AVG Runtime of function [s],0.0258996
MAX Runtime of function [s],0.0258996
MIN Runtime of function [s],0.0258996
# COUNTERS - HDEEM: 
AVG Energy consumption [J] (Stats structure),6.303
MAX Energy consumption [J] (Stats structure),6.303
MIN Energy consumption [J] (Stats structure),6.303
SUM Energy consumption [J] (Stats structure),6.303
# CALLTREE;init_0;Main-PWSCF_0;run-PWSCF_0;run-PWSCF-electrons_function_1;electrons-electrons_scf_function_0
# Job info - HDEEM
JOB ID,17281565.4
Nodelist,taurusi5540
AVG Runtime of function [s],0.0257293
MAX Runtime of function [s],0.0257293
MIN Runtime of function [s],0.0257293
# COUNTERS - HDEEM: 
AVG Energy consumption [J] (Stats structure),6.515
MAX Energy consumption [J] (Stats structure),6.515
MIN Energy consumption [J] (Stats structure),6.515
SUM Energy consumption [J] (Stats structure),6.515
# CALLTREE;init_0;Main-PWSCF_0;run-PWSCF_0;run-PWSCF-electrons_function_1;electrons-electrons_scf_function_0
# Job info - HDEEM
JOB ID,17281565.4
Nodelist,taurusi5540
AVG Runtime of function [s],0.0257903
MAX Runtime of function [s],0.0257903
MIN Runtime of function [s],0.0257903
# COUNTERS - HDEEM: 
AVG Energy consumption [J] (Stats structure),6.303
MAX Energy consumption [J] (Stats structure),6.303
MIN Energy consumption [J] (Stats structure),6.303
SUM Energy consumption [J] (Stats structure),6.303
# CALLTREE;init_0;Main-PWSCF_0;run-PWSCF_0;run-PWSCF-electrons_function_1;electrons-electrons_scf_function_0
# Job info - HDEEM
JOB ID,17281565.4
Nodelist,taurusi5540
AVG Runtime of function [s],0.0257768
MAX Runtime of function [s],0.0257768
MIN Runtime of function [s],0.0257768
# COUNTERS - HDEEM: 
AVG Energy consumption [J] (Stats structure),6.3
MAX Energy consumption [J] (Stats structure),6.3
MIN Energy consumption [J] (Stats structure),6.3
SUM Energy consumption [J] (Stats structure),6.3
# CALLTREE;init_0;Main-PWSCF_0;run-PWSCF_0;run-PWSCF-electrons_function_1;electrons-electrons_scf_function_0
# Job info - HDEEM
JOB ID,17281565.4
Nodelist,taurusi5540
AVG Runtime of function [s],0.0260406
MAX Runtime of function [s],0.0260406
MIN Runtime of function [s],0.0260406
# COUNTERS - HDEEM: 
AVG Energy consumption [J] (Stats structure),6.306
MAX Energy consumption [J] (Stats structure),6.306
MIN Energy consumption [J] (Stats structure),6.306
SUM Energy consumption [J] (Stats structure),6.306
# CALLTREE;init_0;Main-PWSCF_0;run-PWSCF_0;run-PWSCF-electrons_function_1;electrons-electrons_scf_function_0
# Job info - HDEEM
JOB ID,17281565.4
Nodelist,taurusi5540
AVG Runtime of function [s],0.025954
MAX Runtime of function [s],0.025954
MIN Runtime of function [s],0.025954
# COUNTERS - HDEEM: 
AVG Energy consumption [J] (Stats structure),6.318
MAX Energy consumption [J] (Stats structure),6.318
MIN Energy consumption [J] (Stats structure),6.318
SUM Energy consumption [J] (Stats structure),6.318
# CALLTREE;init_0;Main-PWSCF_0;run-PWSCF_0;run-PWSCF-electrons_function_1;electrons-electrons_scf_function_0
# Job info - HDEEM
JOB ID,17281565.4
Nodelist,taurusi5540
AVG Runtime of function [s],0.0260431
MAX Runtime of function [s],0.0260431
MIN Runtime of function [s],0.0260431
# COUNTERS - HDEEM: 
AVG Energy consumption [J] (Stats structure),6.311
MAX Energy consumption [J] (Stats structure),6.311
MIN Energy consumption [J] (Stats structure),6.311
SUM Energy consumption [J] (Stats structure),6.311
# CALLTREE;init_0;Main-PWSCF_0;run-PWSCF_0;run-PWSCF-electrons_function_1;electrons-electrons_scf_function_0
# Job info - HDEEM
JOB ID,17281565.4
Nodelist,taurusi5540
AVG Runtime of function [s],0.0294535
MAX Runtime of function [s],0.0294535
MIN Runtime of function [s],0.0294535
# COUNTERS - HDEEM: 
AVG Energy consumption [J] (Stats structure),7.927
MAX Energy consumption [J] (Stats structure),7.927
MIN Energy consumption [J] (Stats structure),7.927
SUM Energy consumption [J] (Stats structure),7.927
# CALLTREE;init_0;Main-PWSCF_0;run-PWSCF_0;run-PWSCF-electrons_function_1;electrons-electrons_scf_function_0
# Job info - HDEEM
JOB ID,17281565.4
Nodelist,taurusi5540
AVG Runtime of function [s],0.025589
MAX Runtime of function [s],0.025589
MIN Runtime of function [s],0.025589
# COUNTERS - HDEEM: 
AVG Energy consumption [J] (Stats structure),6.09
MAX Energy consumption [J] (Stats structure),6.09
MIN Energy consumption [J] (Stats structure),6.09
SUM Energy consumption [J] (Stats structure),6.09
# CALLTREE;init_0;Main-PWSCF_0;run-PWSCF_0;run-PWSCF-electrons_function_1;electrons-electrons_scf_function_0
# Job info - HDEEM
JOB ID,17281565.4
Nodelist,taurusi5540
AVG Runtime of function [s],0.0257535
MAX Runtime of function [s],0.0257535
MIN Runtime of function [s],0.0257535
# COUNTERS - HDEEM: 
AVG Energy consumption [J] (Stats structure),6.295
MAX Energy consumption [J] (Stats structure),6.295
MIN Energy consumption [J] (Stats structure),6.295
SUM Energy consumption [J] (Stats structure),6.295
# CALLTREE;init_0;Main-PWSCF_0;run-PWSCF_0;run-PWSCF-electrons_function_1;electrons-electrons_scf_function_0
# Job info - HDEEM
JOB ID,17281565.4
Nodelist,taurusi5540
AVG Runtime of function [s],0.0256301
MAX Runtime of function [s],0.0256301
MIN Runtime of function [s],0.0256301
# COUNTERS - HDEEM: 
AVG Energy consumption [J] (Stats structure),6.299
MAX Energy consumption [J] (Stats structure),6.299
MIN Energy consumption [J] (Stats structure),6.299
SUM Energy consumption [J] (Stats structure),6.299
# CALLTREE;init_0;Main-PWSCF_0;run-PWSCF_0;run-PWSCF-electrons_function_1;electrons-electrons_scf_function_0
# Job info - HDEEM
JOB ID,17281565.4
Nodelist,taurusi5540
AVG Runtime of function [s],0.0324445
MAX Runtime of function [s],0.0324445
MIN Runtime of function [s],0.0324445
# COUNTERS - HDEEM: 
AVG Energy consumption [J] (Stats structure),7.727
MAX Energy consumption [J] (Stats structure),7.727
MIN Energy consumption [J] (Stats structure),7.727
SUM Energy consumption [J] (Stats structure),7.727
# CALLTREE;init_0;Main-PWSCF_0;run-PWSCF_0;run-PWSCF-electrons_function_1;electrons-electrons_scf_function_0
# Job info - HDEEM
JOB ID,17281565.4
Nodelist,taurusi5540
AVG Runtime of function [s],0.025603
MAX Runtime of function [s],0.025603
MIN Runtime of function [s],0.025603
# COUNTERS - HDEEM: 
AVG Energy consumption [J] (Stats structure),6.085
MAX Energy consumption [J] (Stats structure),6.085
MIN Energy consumption [J] (Stats structure),6.085
SUM Energy consumption [J] (Stats structure),6.085
