# CALLTREE;init_0;Main-PWSCF_0;run-PWSCF_0;run-PWSCF-electrons_function_1;electrons-electrons_scf_function_0
# Job info - HDEEM
JOB ID,17281565.5
Nodelist,taurusi5540
AVG Runtime of function [s],0.0278474
MAX Runtime of function [s],0.0278474
MIN Runtime of function [s],0.0278474
# COUNTERS - HDEEM: 
AVG Energy consumption [J] (Stats structure),7.492
MAX Energy consumption [J] (Stats structure),7.492
MIN Energy consumption [J] (Stats structure),7.492
SUM Energy consumption [J] (Stats structure),7.492
# CALLTREE;init_0;Main-PWSCF_0;run-PWSCF_0;run-PWSCF-electrons_function_1;electrons-electrons_scf_function_0
# Job info - HDEEM
JOB ID,17281565.5
Nodelist,taurusi5540
AVG Runtime of function [s],0.0243276
MAX Runtime of function [s],0.0243276
MIN Runtime of function [s],0.0243276
# COUNTERS - HDEEM: 
AVG Energy consumption [J] (Stats structure),6.203
MAX Energy consumption [J] (Stats structure),6.203
MIN Energy consumption [J] (Stats structure),6.203
SUM Energy consumption [J] (Stats structure),6.203
# CALLTREE;init_0;Main-PWSCF_0;run-PWSCF_0;run-PWSCF-electrons_function_1;electrons-electrons_scf_function_0
# Job info - HDEEM
JOB ID,17281565.5
Nodelist,taurusi5540
AVG Runtime of function [s],0.0243674
MAX Runtime of function [s],0.0243674
MIN Runtime of function [s],0.0243674
# COUNTERS - HDEEM: 
AVG Energy consumption [J] (Stats structure),6.2
MAX Energy consumption [J] (Stats structure),6.2
MIN Energy consumption [J] (Stats structure),6.2
SUM Energy consumption [J] (Stats structure),6.2
# CALLTREE;init_0;Main-PWSCF_0;run-PWSCF_0;run-PWSCF-electrons_function_1;electrons-electrons_scf_function_0
# Job info - HDEEM
JOB ID,17281565.5
Nodelist,taurusi5540
AVG Runtime of function [s],0.0244592
MAX Runtime of function [s],0.0244592
MIN Runtime of function [s],0.0244592
# COUNTERS - HDEEM: 
AVG Energy consumption [J] (Stats structure),6.205
MAX Energy consumption [J] (Stats structure),6.205
MIN Energy consumption [J] (Stats structure),6.205
SUM Energy consumption [J] (Stats structure),6.205
# CALLTREE;init_0;Main-PWSCF_0;run-PWSCF_0;run-PWSCF-electrons_function_1;electrons-electrons_scf_function_0
# Job info - HDEEM
JOB ID,17281565.5
Nodelist,taurusi5540
AVG Runtime of function [s],0.0244068
MAX Runtime of function [s],0.0244068
MIN Runtime of function [s],0.0244068
# COUNTERS - HDEEM: 
AVG Energy consumption [J] (Stats structure),6.423
MAX Energy consumption [J] (Stats structure),6.423
MIN Energy consumption [J] (Stats structure),6.423
SUM Energy consumption [J] (Stats structure),6.423
# CALLTREE;init_0;Main-PWSCF_0;run-PWSCF_0;run-PWSCF-electrons_function_1;electrons-electrons_scf_function_0
# Job info - HDEEM
JOB ID,17281565.5
Nodelist,taurusi5540
AVG Runtime of function [s],0.0243523
MAX Runtime of function [s],0.0243523
MIN Runtime of function [s],0.0243523
# COUNTERS - HDEEM: 
AVG Energy consumption [J] (Stats structure),6.423
MAX Energy consumption [J] (Stats structure),6.423
MIN Energy consumption [J] (Stats structure),6.423
SUM Energy consumption [J] (Stats structure),6.423
# CALLTREE;init_0;Main-PWSCF_0;run-PWSCF_0;run-PWSCF-electrons_function_1;electrons-electrons_scf_function_0
# Job info - HDEEM
JOB ID,17281565.5
Nodelist,taurusi5540
AVG Runtime of function [s],0.0243377
MAX Runtime of function [s],0.0243377
MIN Runtime of function [s],0.0243377
# COUNTERS - HDEEM: 
AVG Energy consumption [J] (Stats structure),6.422
MAX Energy consumption [J] (Stats structure),6.422
MIN Energy consumption [J] (Stats structure),6.422
SUM Energy consumption [J] (Stats structure),6.422
# CALLTREE;init_0;Main-PWSCF_0;run-PWSCF_0;run-PWSCF-electrons_function_1;electrons-electrons_scf_function_0
# Job info - HDEEM
JOB ID,17281565.5
Nodelist,taurusi5540
AVG Runtime of function [s],0.0246941
MAX Runtime of function [s],0.0246941
MIN Runtime of function [s],0.0246941
# COUNTERS - HDEEM: 
AVG Energy consumption [J] (Stats structure),6.421
MAX Energy consumption [J] (Stats structure),6.421
MIN Energy consumption [J] (Stats structure),6.421
SUM Energy consumption [J] (Stats structure),6.421
# CALLTREE;init_0;Main-PWSCF_0;run-PWSCF_0;run-PWSCF-electrons_function_1;electrons-electrons_scf_function_0
# Job info - HDEEM
JOB ID,17281565.5
Nodelist,taurusi5540
AVG Runtime of function [s],0.0243842
MAX Runtime of function [s],0.0243842
MIN Runtime of function [s],0.0243842
# COUNTERS - HDEEM: 
AVG Energy consumption [J] (Stats structure),6.427
MAX Energy consumption [J] (Stats structure),6.427
MIN Energy consumption [J] (Stats structure),6.427
SUM Energy consumption [J] (Stats structure),6.427
# CALLTREE;init_0;Main-PWSCF_0;run-PWSCF_0;run-PWSCF-electrons_function_1;electrons-electrons_scf_function_0
# Job info - HDEEM
JOB ID,17281565.5
Nodelist,taurusi5540
AVG Runtime of function [s],0.0244057
MAX Runtime of function [s],0.0244057
MIN Runtime of function [s],0.0244057
# COUNTERS - HDEEM: 
AVG Energy consumption [J] (Stats structure),6.417
MAX Energy consumption [J] (Stats structure),6.417
MIN Energy consumption [J] (Stats structure),6.417
SUM Energy consumption [J] (Stats structure),6.417
# CALLTREE;init_0;Main-PWSCF_0;run-PWSCF_0;run-PWSCF-electrons_function_1;electrons-electrons_scf_function_0
# Job info - HDEEM
JOB ID,17281565.5
Nodelist,taurusi5540
AVG Runtime of function [s],0.0244177
MAX Runtime of function [s],0.0244177
MIN Runtime of function [s],0.0244177
# COUNTERS - HDEEM: 
AVG Energy consumption [J] (Stats structure),6.429
MAX Energy consumption [J] (Stats structure),6.429
MIN Energy consumption [J] (Stats structure),6.429
SUM Energy consumption [J] (Stats structure),6.429
# CALLTREE;init_0;Main-PWSCF_0;run-PWSCF_0;run-PWSCF-electrons_function_1;electrons-electrons_scf_function_0
# Job info - HDEEM
JOB ID,17281565.5
Nodelist,taurusi5540
AVG Runtime of function [s],0.024427
MAX Runtime of function [s],0.024427
MIN Runtime of function [s],0.024427
# COUNTERS - HDEEM: 
AVG Energy consumption [J] (Stats structure),6.209
MAX Energy consumption [J] (Stats structure),6.209
MIN Energy consumption [J] (Stats structure),6.209
SUM Energy consumption [J] (Stats structure),6.209
# CALLTREE;init_0;Main-PWSCF_0;run-PWSCF_0;run-PWSCF-electrons_function_1;electrons-electrons_scf_function_0
# Job info - HDEEM
JOB ID,17281565.5
Nodelist,taurusi5540
AVG Runtime of function [s],0.0246828
MAX Runtime of function [s],0.0246828
MIN Runtime of function [s],0.0246828
# COUNTERS - HDEEM: 
AVG Energy consumption [J] (Stats structure),6.197
MAX Energy consumption [J] (Stats structure),6.197
MIN Energy consumption [J] (Stats structure),6.197
SUM Energy consumption [J] (Stats structure),6.197
# CALLTREE;init_0;Main-PWSCF_0;run-PWSCF_0;run-PWSCF-electrons_function_1;electrons-electrons_scf_function_0
# Job info - HDEEM
JOB ID,17281565.5
Nodelist,taurusi5540
AVG Runtime of function [s],0.0242788
MAX Runtime of function [s],0.0242788
MIN Runtime of function [s],0.0242788
# COUNTERS - HDEEM: 
AVG Energy consumption [J] (Stats structure),6.425
MAX Energy consumption [J] (Stats structure),6.425
MIN Energy consumption [J] (Stats structure),6.425
SUM Energy consumption [J] (Stats structure),6.425
