# CALLTREE;init_0;Main-PWSCF_0;run-PWSCF_0;run-PWSCF-electrons_function_1;electrons-electrons_scf_function_0
# Job info - HDEEM
JOB ID,17281565.3
Nodelist,taurusi5540
AVG Runtime of function [s],0.0245166
MAX Runtime of function [s],0.0245166
MIN Runtime of function [s],0.0245166
# COUNTERS - HDEEM: 
AVG Energy consumption [J] (Stats structure),6.29
MAX Energy consumption [J] (Stats structure),6.29
MIN Energy consumption [J] (Stats structure),6.29
SUM Energy consumption [J] (Stats structure),6.29
# CALLTREE;init_0;Main-PWSCF_0;run-PWSCF_0;run-PWSCF-electrons_function_1;electrons-electrons_scf_function_0
# Job info - HDEEM
JOB ID,17281565.3
Nodelist,taurusi5540
AVG Runtime of function [s],0.0244243
MAX Runtime of function [s],0.0244243
MIN Runtime of function [s],0.0244243
# COUNTERS - HDEEM: 
AVG Energy consumption [J] (Stats structure),6.066
MAX Energy consumption [J] (Stats structure),6.066
MIN Energy consumption [J] (Stats structure),6.066
SUM Energy consumption [J] (Stats structure),6.066
# CALLTREE;init_0;Main-PWSCF_0;run-PWSCF_0;run-PWSCF-electrons_function_1;electrons-electrons_scf_function_0
# Job info - HDEEM
JOB ID,17281565.3
Nodelist,taurusi5540
AVG Runtime of function [s],0.0242038
MAX Runtime of function [s],0.0242038
MIN Runtime of function [s],0.0242038
# COUNTERS - HDEEM: 
AVG Energy consumption [J] (Stats structure),6.066
MAX Energy consumption [J] (Stats structure),6.066
MIN Energy consumption [J] (Stats structure),6.066
SUM Energy consumption [J] (Stats structure),6.066
# CALLTREE;init_0;Main-PWSCF_0;run-PWSCF_0;run-PWSCF-electrons_function_1;electrons-electrons_scf_function_0
# Job info - HDEEM
JOB ID,17281565.3
Nodelist,taurusi5540
AVG Runtime of function [s],0.0241942
MAX Runtime of function [s],0.0241942
MIN Runtime of function [s],0.0241942
# COUNTERS - HDEEM: 
AVG Energy consumption [J] (Stats structure),6.284
MAX Energy consumption [J] (Stats structure),6.284
MIN Energy consumption [J] (Stats structure),6.284
SUM Energy consumption [J] (Stats structure),6.284
# CALLTREE;init_0;Main-PWSCF_0;run-PWSCF_0;run-PWSCF-electrons_function_1;electrons-electrons_scf_function_0
# Job info - HDEEM
JOB ID,17281565.3
Nodelist,taurusi5540
AVG Runtime of function [s],0.0241198
MAX Runtime of function [s],0.0241198
MIN Runtime of function [s],0.0241198
# COUNTERS - HDEEM: 
AVG Energy consumption [J] (Stats structure),6.073
MAX Energy consumption [J] (Stats structure),6.073
MIN Energy consumption [J] (Stats structure),6.073
SUM Energy consumption [J] (Stats structure),6.073
# CALLTREE;init_0;Main-PWSCF_0;run-PWSCF_0;run-PWSCF-electrons_function_1;electrons-electrons_scf_function_0
# Job info - HDEEM
JOB ID,17281565.3
Nodelist,taurusi5540
AVG Runtime of function [s],0.024205
MAX Runtime of function [s],0.024205
MIN Runtime of function [s],0.024205
# COUNTERS - HDEEM: 
AVG Energy consumption [J] (Stats structure),6.287
MAX Energy consumption [J] (Stats structure),6.287
MIN Energy consumption [J] (Stats structure),6.287
SUM Energy consumption [J] (Stats structure),6.287
# CALLTREE;init_0;Main-PWSCF_0;run-PWSCF_0;run-PWSCF-electrons_function_1;electrons-electrons_scf_function_0
# Job info - HDEEM
JOB ID,17281565.3
Nodelist,taurusi5540
AVG Runtime of function [s],0.024386
MAX Runtime of function [s],0.024386
MIN Runtime of function [s],0.024386
# COUNTERS - HDEEM: 
AVG Energy consumption [J] (Stats structure),6.295
MAX Energy consumption [J] (Stats structure),6.295
MIN Energy consumption [J] (Stats structure),6.295
SUM Energy consumption [J] (Stats structure),6.295
# CALLTREE;init_0;Main-PWSCF_0;run-PWSCF_0;run-PWSCF-electrons_function_1;electrons-electrons_scf_function_0
# Job info - HDEEM
JOB ID,17281565.3
Nodelist,taurusi5540
AVG Runtime of function [s],0.024374
MAX Runtime of function [s],0.024374
MIN Runtime of function [s],0.024374
# COUNTERS - HDEEM: 
AVG Energy consumption [J] (Stats structure),6.292
MAX Energy consumption [J] (Stats structure),6.292
MIN Energy consumption [J] (Stats structure),6.292
SUM Energy consumption [J] (Stats structure),6.292
# CALLTREE;init_0;Main-PWSCF_0;run-PWSCF_0;run-PWSCF-electrons_function_1;electrons-electrons_scf_function_0
# Job info - HDEEM
JOB ID,17281565.3
Nodelist,taurusi5540
AVG Runtime of function [s],0.024182
MAX Runtime of function [s],0.024182
MIN Runtime of function [s],0.024182
# COUNTERS - HDEEM: 
AVG Energy consumption [J] (Stats structure),6.062
MAX Energy consumption [J] (Stats structure),6.062
MIN Energy consumption [J] (Stats structure),6.062
SUM Energy consumption [J] (Stats structure),6.062
# CALLTREE;init_0;Main-PWSCF_0;run-PWSCF_0;run-PWSCF-electrons_function_1;electrons-electrons_scf_function_0
# Job info - HDEEM
JOB ID,17281565.3
Nodelist,taurusi5540
AVG Runtime of function [s],0.0239459
MAX Runtime of function [s],0.0239459
MIN Runtime of function [s],0.0239459
# COUNTERS - HDEEM: 
AVG Energy consumption [J] (Stats structure),6.063
MAX Energy consumption [J] (Stats structure),6.063
MIN Energy consumption [J] (Stats structure),6.063
SUM Energy consumption [J] (Stats structure),6.063
# CALLTREE;init_0;Main-PWSCF_0;run-PWSCF_0;run-PWSCF-electrons_function_1;electrons-electrons_scf_function_0
# Job info - HDEEM
JOB ID,17281565.3
Nodelist,taurusi5540
AVG Runtime of function [s],0.0244701
MAX Runtime of function [s],0.0244701
MIN Runtime of function [s],0.0244701
# COUNTERS - HDEEM: 
AVG Energy consumption [J] (Stats structure),6.287
MAX Energy consumption [J] (Stats structure),6.287
MIN Energy consumption [J] (Stats structure),6.287
SUM Energy consumption [J] (Stats structure),6.287
# CALLTREE;init_0;Main-PWSCF_0;run-PWSCF_0;run-PWSCF-electrons_function_1;electrons-electrons_scf_function_0
# Job info - HDEEM
JOB ID,17281565.3
Nodelist,taurusi5540
AVG Runtime of function [s],0.0241273
MAX Runtime of function [s],0.0241273
MIN Runtime of function [s],0.0241273
# COUNTERS - HDEEM: 
AVG Energy consumption [J] (Stats structure),6.293
MAX Energy consumption [J] (Stats structure),6.293
MIN Energy consumption [J] (Stats structure),6.293
SUM Energy consumption [J] (Stats structure),6.293
# CALLTREE;init_0;Main-PWSCF_0;run-PWSCF_0;run-PWSCF-electrons_function_1;electrons-electrons_scf_function_0
# Job info - HDEEM
JOB ID,17281565.3
Nodelist,taurusi5540
AVG Runtime of function [s],0.0243927
MAX Runtime of function [s],0.0243927
MIN Runtime of function [s],0.0243927
# COUNTERS - HDEEM: 
AVG Energy consumption [J] (Stats structure),6.291
MAX Energy consumption [J] (Stats structure),6.291
MIN Energy consumption [J] (Stats structure),6.291
SUM Energy consumption [J] (Stats structure),6.291
# CALLTREE;init_0;Main-PWSCF_0;run-PWSCF_0;run-PWSCF-electrons_function_1;electrons-electrons_scf_function_0
# Job info - HDEEM
JOB ID,17281565.3
Nodelist,taurusi5540
AVG Runtime of function [s],0.0240104
MAX Runtime of function [s],0.0240104
MIN Runtime of function [s],0.0240104
# COUNTERS - HDEEM: 
AVG Energy consumption [J] (Stats structure),6.064
MAX Energy consumption [J] (Stats structure),6.064
MIN Energy consumption [J] (Stats structure),6.064
SUM Energy consumption [J] (Stats structure),6.064
