# CALLTREE;init_0;Main-PWSCF_0;run-PWSCF_0;run-PWSCF-electrons_function_1;electrons-electrons_scf_function_0
# Job info - HDEEM
JOB ID,17280380.11
Nodelist,taurusi5526
AVG Runtime of function [s],0.0801746
MAX Runtime of function [s],0.0801746
MIN Runtime of function [s],0.0801746
# COUNTERS - HDEEM: 
AVG Energy consumption [J] (Stats structure),9.839
MAX Energy consumption [J] (Stats structure),9.839
MIN Energy consumption [J] (Stats structure),9.839
SUM Energy consumption [J] (Stats structure),9.839
# CALLTREE;init_0;Main-PWSCF_0;run-PWSCF_0;run-PWSCF-electrons_function_1;electrons-electrons_scf_function_0
# Job info - HDEEM
JOB ID,17280380.11
Nodelist,taurusi5526
AVG Runtime of function [s],0.0805638
MAX Runtime of function [s],0.0805638
MIN Runtime of function [s],0.0805638
# COUNTERS - HDEEM: 
AVG Energy consumption [J] (Stats structure),10.077
MAX Energy consumption [J] (Stats structure),10.077
MIN Energy consumption [J] (Stats structure),10.077
SUM Energy consumption [J] (Stats structure),10.077
# CALLTREE;init_0;Main-PWSCF_0;run-PWSCF_0;run-PWSCF-electrons_function_1;electrons-electrons_scf_function_0
# Job info - HDEEM
JOB ID,17280380.11
Nodelist,taurusi5526
AVG Runtime of function [s],0.0760757
MAX Runtime of function [s],0.0760757
MIN Runtime of function [s],0.0760757
# COUNTERS - HDEEM: 
AVG Energy consumption [J] (Stats structure),9.376
MAX Energy consumption [J] (Stats structure),9.376
MIN Energy consumption [J] (Stats structure),9.376
SUM Energy consumption [J] (Stats structure),9.376
# CALLTREE;init_0;Main-PWSCF_0;run-PWSCF_0;run-PWSCF-electrons_function_1;electrons-electrons_scf_function_0
# Job info - HDEEM
JOB ID,17280380.11
Nodelist,taurusi5526
AVG Runtime of function [s],0.0760841
MAX Runtime of function [s],0.0760841
MIN Runtime of function [s],0.0760841
# COUNTERS - HDEEM: 
AVG Energy consumption [J] (Stats structure),9.373
MAX Energy consumption [J] (Stats structure),9.373
MIN Energy consumption [J] (Stats structure),9.373
SUM Energy consumption [J] (Stats structure),9.373
# CALLTREE;init_0;Main-PWSCF_0;run-PWSCF_0;run-PWSCF-electrons_function_1;electrons-electrons_scf_function_0
# Job info - HDEEM
JOB ID,17280380.11
Nodelist,taurusi5526
AVG Runtime of function [s],0.0744124
MAX Runtime of function [s],0.0744124
MIN Runtime of function [s],0.0744124
# COUNTERS - HDEEM: 
AVG Energy consumption [J] (Stats structure),9.267
MAX Energy consumption [J] (Stats structure),9.267
MIN Energy consumption [J] (Stats structure),9.267
SUM Energy consumption [J] (Stats structure),9.267
# CALLTREE;init_0;Main-PWSCF_0;run-PWSCF_0;run-PWSCF-electrons_function_1;electrons-electrons_scf_function_0
# Job info - HDEEM
JOB ID,17280380.11
Nodelist,taurusi5526
AVG Runtime of function [s],0.0791102
MAX Runtime of function [s],0.0791102
MIN Runtime of function [s],0.0791102
# COUNTERS - HDEEM: 
AVG Energy consumption [J] (Stats structure),9.735
MAX Energy consumption [J] (Stats structure),9.735
MIN Energy consumption [J] (Stats structure),9.735
SUM Energy consumption [J] (Stats structure),9.735
# CALLTREE;init_0;Main-PWSCF_0;run-PWSCF_0;run-PWSCF-electrons_function_1;electrons-electrons_scf_function_0
# Job info - HDEEM
JOB ID,17280380.11
Nodelist,taurusi5526
AVG Runtime of function [s],0.0784831
MAX Runtime of function [s],0.0784831
MIN Runtime of function [s],0.0784831
# COUNTERS - HDEEM: 
AVG Energy consumption [J] (Stats structure),9.745
MAX Energy consumption [J] (Stats structure),9.745
MIN Energy consumption [J] (Stats structure),9.745
SUM Energy consumption [J] (Stats structure),9.745
# CALLTREE;init_0;Main-PWSCF_0;run-PWSCF_0;run-PWSCF-electrons_function_1;electrons-electrons_scf_function_0
# Job info - HDEEM
JOB ID,17280380.11
Nodelist,taurusi5526
AVG Runtime of function [s],0.0832208
MAX Runtime of function [s],0.0832208
MIN Runtime of function [s],0.0832208
# COUNTERS - HDEEM: 
AVG Energy consumption [J] (Stats structure),10.326
MAX Energy consumption [J] (Stats structure),10.326
MIN Energy consumption [J] (Stats structure),10.326
SUM Energy consumption [J] (Stats structure),10.326
