# CALLTREE;init_0;Main-PWSCF_0;run-PWSCF_0;run-PWSCF-electrons_function_1;electrons-electrons_scf_function_0
# Job info - HDEEM
JOB ID,17280380.2
Nodelist,taurusi5526
AVG Runtime of function [s],0.0632523
MAX Runtime of function [s],0.0632523
MIN Runtime of function [s],0.0632523
# COUNTERS - HDEEM: 
AVG Energy consumption [J] (Stats structure),7.408
MAX Energy consumption [J] (Stats structure),7.408
MIN Energy consumption [J] (Stats structure),7.408
SUM Energy consumption [J] (Stats structure),7.408
# CALLTREE;init_0;Main-PWSCF_0;run-PWSCF_0;run-PWSCF-electrons_function_1;electrons-electrons_scf_function_0
# Job info - HDEEM
JOB ID,17280380.2
Nodelist,taurusi5526
AVG Runtime of function [s],0.0610247
MAX Runtime of function [s],0.0610247
MIN Runtime of function [s],0.0610247
# COUNTERS - HDEEM: 
AVG Energy consumption [J] (Stats structure),7.194
MAX Energy consumption [J] (Stats structure),7.194
MIN Energy consumption [J] (Stats structure),7.194
SUM Energy consumption [J] (Stats structure),7.194
# CALLTREE;init_0;Main-PWSCF_0;run-PWSCF_0;run-PWSCF-electrons_function_1;electrons-electrons_scf_function_0
# Job info - HDEEM
JOB ID,17280380.2
Nodelist,taurusi5526
AVG Runtime of function [s],0.0600274
MAX Runtime of function [s],0.0600274
MIN Runtime of function [s],0.0600274
# COUNTERS - HDEEM: 
AVG Energy consumption [J] (Stats structure),7.095
MAX Energy consumption [J] (Stats structure),7.095
MIN Energy consumption [J] (Stats structure),7.095
SUM Energy consumption [J] (Stats structure),7.095
# CALLTREE;init_0;Main-PWSCF_0;run-PWSCF_0;run-PWSCF-electrons_function_1;electrons-electrons_scf_function_0
# Job info - HDEEM
JOB ID,17280380.2
Nodelist,taurusi5526
AVG Runtime of function [s],0.0600623
MAX Runtime of function [s],0.0600623
MIN Runtime of function [s],0.0600623
# COUNTERS - HDEEM: 
AVG Energy consumption [J] (Stats structure),7.093
MAX Energy consumption [J] (Stats structure),7.093
MIN Energy consumption [J] (Stats structure),7.093
SUM Energy consumption [J] (Stats structure),7.093
# CALLTREE;init_0;Main-PWSCF_0;run-PWSCF_0;run-PWSCF-electrons_function_1;electrons-electrons_scf_function_0
# Job info - HDEEM
JOB ID,17280380.2
Nodelist,taurusi5526
AVG Runtime of function [s],0.0589246
MAX Runtime of function [s],0.0589246
MIN Runtime of function [s],0.0589246
# COUNTERS - HDEEM: 
AVG Energy consumption [J] (Stats structure),6.991
MAX Energy consumption [J] (Stats structure),6.991
MIN Energy consumption [J] (Stats structure),6.991
SUM Energy consumption [J] (Stats structure),6.991
# CALLTREE;init_0;Main-PWSCF_0;run-PWSCF_0;run-PWSCF-electrons_function_1;electrons-electrons_scf_function_0
# Job info - HDEEM
JOB ID,17280380.2
Nodelist,taurusi5526
AVG Runtime of function [s],0.0624749
MAX Runtime of function [s],0.0624749
MIN Runtime of function [s],0.0624749
# COUNTERS - HDEEM: 
AVG Energy consumption [J] (Stats structure),7.321
MAX Energy consumption [J] (Stats structure),7.321
MIN Energy consumption [J] (Stats structure),7.321
SUM Energy consumption [J] (Stats structure),7.321
# CALLTREE;init_0;Main-PWSCF_0;run-PWSCF_0;run-PWSCF-electrons_function_1;electrons-electrons_scf_function_0
# Job info - HDEEM
JOB ID,17280380.2
Nodelist,taurusi5526
AVG Runtime of function [s],0.0615615
MAX Runtime of function [s],0.0615615
MIN Runtime of function [s],0.0615615
# COUNTERS - HDEEM: 
AVG Energy consumption [J] (Stats structure),7.33
MAX Energy consumption [J] (Stats structure),7.33
MIN Energy consumption [J] (Stats structure),7.33
SUM Energy consumption [J] (Stats structure),7.33
# CALLTREE;init_0;Main-PWSCF_0;run-PWSCF_0;run-PWSCF-electrons_function_1;electrons-electrons_scf_function_0
# Job info - HDEEM
JOB ID,17280380.2
Nodelist,taurusi5526
AVG Runtime of function [s],0.0657141
MAX Runtime of function [s],0.0657141
MIN Runtime of function [s],0.0657141
# COUNTERS - HDEEM: 
AVG Energy consumption [J] (Stats structure),7.77
MAX Energy consumption [J] (Stats structure),7.77
MIN Energy consumption [J] (Stats structure),7.77
SUM Energy consumption [J] (Stats structure),7.77
