# CALLTREE;init_0;Main-PWSCF_0;run-PWSCF_0;run-PWSCF-electrons_function_1;electrons-electrons_scf_function_0
# Job info - HDEEM
JOB ID,17280379.0
Nodelist,taurusi5525
AVG Runtime of function [s],36.7608
MAX Runtime of function [s],36.7608
MIN Runtime of function [s],36.7608
# COUNTERS - HDEEM: 
AVG Energy consumption [J] (Stats structure),5036.94
MAX Energy consumption [J] (Stats structure),5036.94
MIN Energy consumption [J] (Stats structure),5036.94
SUM Energy consumption [J] (Stats structure),5036.94
# CALLTREE;init_0;Main-PWSCF_0;run-PWSCF_0;run-PWSCF-electrons_function_1;electrons-electrons_scf_function_0
# Job info - HDEEM
JOB ID,17280379.0
Nodelist,taurusi5525
AVG Runtime of function [s],36.6582
MAX Runtime of function [s],36.6582
MIN Runtime of function [s],36.6582
# COUNTERS - HDEEM: 
AVG Energy consumption [J] (Stats structure),5043.14
MAX Energy consumption [J] (Stats structure),5043.14
MIN Energy consumption [J] (Stats structure),5043.14
SUM Energy consumption [J] (Stats structure),5043.14
# CALLTREE;init_0;Main-PWSCF_0;run-PWSCF_0;run-PWSCF-electrons_function_1;electrons-electrons_scf_function_0
# Job info - HDEEM
JOB ID,17280379.0
Nodelist,taurusi5525
AVG Runtime of function [s],36.6502
MAX Runtime of function [s],36.6502
MIN Runtime of function [s],36.6502
# COUNTERS - HDEEM: 
AVG Energy consumption [J] (Stats structure),5040.87
MAX Energy consumption [J] (Stats structure),5040.87
MIN Energy consumption [J] (Stats structure),5040.87
SUM Energy consumption [J] (Stats structure),5040.87
# CALLTREE;init_0;Main-PWSCF_0;run-PWSCF_0;run-PWSCF-electrons_function_1;electrons-electrons_scf_function_0
# Job info - HDEEM
JOB ID,17280379.0
Nodelist,taurusi5525
AVG Runtime of function [s],36.7322
MAX Runtime of function [s],36.7322
MIN Runtime of function [s],36.7322
# COUNTERS - HDEEM: 
AVG Energy consumption [J] (Stats structure),5052.47
MAX Energy consumption [J] (Stats structure),5052.47
MIN Energy consumption [J] (Stats structure),5052.47
SUM Energy consumption [J] (Stats structure),5052.47
# CALLTREE;init_0;Main-PWSCF_0;run-PWSCF_0;run-PWSCF-electrons_function_1;electrons-electrons_scf_function_0
# Job info - HDEEM
JOB ID,17280379.0
Nodelist,taurusi5525
AVG Runtime of function [s],36.8827
MAX Runtime of function [s],36.8827
MIN Runtime of function [s],36.8827
# COUNTERS - HDEEM: 
AVG Energy consumption [J] (Stats structure),5072.76
MAX Energy consumption [J] (Stats structure),5072.76
MIN Energy consumption [J] (Stats structure),5072.76
SUM Energy consumption [J] (Stats structure),5072.76
# CALLTREE;init_0;Main-PWSCF_0;run-PWSCF_0;run-PWSCF-electrons_function_1;electrons-electrons_scf_function_0
# Job info - HDEEM
JOB ID,17280379.0
Nodelist,taurusi5525
AVG Runtime of function [s],36.7398
MAX Runtime of function [s],36.7398
MIN Runtime of function [s],36.7398
# COUNTERS - HDEEM: 
AVG Energy consumption [J] (Stats structure),5038.15
MAX Energy consumption [J] (Stats structure),5038.15
MIN Energy consumption [J] (Stats structure),5038.15
SUM Energy consumption [J] (Stats structure),5038.15
# CALLTREE;init_0;Main-PWSCF_0;run-PWSCF_0;run-PWSCF-electrons_function_1;electrons-electrons_scf_function_0
# Job info - HDEEM
JOB ID,17280379.0
Nodelist,taurusi5525
AVG Runtime of function [s],36.779
MAX Runtime of function [s],36.779
MIN Runtime of function [s],36.779
# COUNTERS - HDEEM: 
AVG Energy consumption [J] (Stats structure),5057.89
MAX Energy consumption [J] (Stats structure),5057.89
MIN Energy consumption [J] (Stats structure),5057.89
SUM Energy consumption [J] (Stats structure),5057.89
# CALLTREE;init_0;Main-PWSCF_0;run-PWSCF_0;run-PWSCF-electrons_function_1;electrons-electrons_scf_function_0
# Job info - HDEEM
JOB ID,17280379.0
Nodelist,taurusi5525
AVG Runtime of function [s],36.7903
MAX Runtime of function [s],36.7903
MIN Runtime of function [s],36.7903
# COUNTERS - HDEEM: 
AVG Energy consumption [J] (Stats structure),5040.55
MAX Energy consumption [J] (Stats structure),5040.55
MIN Energy consumption [J] (Stats structure),5040.55
SUM Energy consumption [J] (Stats structure),5040.55
# CALLTREE;init_0;Main-PWSCF_0;run-PWSCF_0;run-PWSCF-electrons_function_1;electrons-electrons_scf_function_0
# Job info - HDEEM
JOB ID,17280379.0
Nodelist,taurusi5525
AVG Runtime of function [s],36.7435
MAX Runtime of function [s],36.7435
MIN Runtime of function [s],36.7435
# COUNTERS - HDEEM: 
AVG Energy consumption [J] (Stats structure),5036.24
MAX Energy consumption [J] (Stats structure),5036.24
MIN Energy consumption [J] (Stats structure),5036.24
SUM Energy consumption [J] (Stats structure),5036.24
# CALLTREE;init_0;Main-PWSCF_0;run-PWSCF_0;run-PWSCF-electrons_function_1;electrons-electrons_scf_function_0
# Job info - HDEEM
JOB ID,17280379.0
Nodelist,taurusi5525
AVG Runtime of function [s],36.8078
MAX Runtime of function [s],36.8078
MIN Runtime of function [s],36.8078
# COUNTERS - HDEEM: 
AVG Energy consumption [J] (Stats structure),5044.29
MAX Energy consumption [J] (Stats structure),5044.29
MIN Energy consumption [J] (Stats structure),5044.29
SUM Energy consumption [J] (Stats structure),5044.29
# CALLTREE;init_0;Main-PWSCF_0;run-PWSCF_0;run-PWSCF-electrons_function_1;electrons-electrons_scf_function_0
# Job info - HDEEM
JOB ID,17280379.0
Nodelist,taurusi5525
AVG Runtime of function [s],36.7197
MAX Runtime of function [s],36.7197
MIN Runtime of function [s],36.7197
# COUNTERS - HDEEM: 
AVG Energy consumption [J] (Stats structure),5025.98
MAX Energy consumption [J] (Stats structure),5025.98
MIN Energy consumption [J] (Stats structure),5025.98
SUM Energy consumption [J] (Stats structure),5025.98
# CALLTREE;init_0;Main-PWSCF_0;run-PWSCF_0;run-PWSCF-electrons_function_1;electrons-electrons_scf_function_0
# Job info - HDEEM
JOB ID,17280379.0
Nodelist,taurusi5525
AVG Runtime of function [s],36.8468
MAX Runtime of function [s],36.8468
MIN Runtime of function [s],36.8468
# COUNTERS - HDEEM: 
AVG Energy consumption [J] (Stats structure),5055.8
MAX Energy consumption [J] (Stats structure),5055.8
MIN Energy consumption [J] (Stats structure),5055.8
SUM Energy consumption [J] (Stats structure),5055.8
# CALLTREE;init_0;Main-PWSCF_0;run-PWSCF_0;run-PWSCF-electrons_function_1;electrons-electrons_scf_function_0
# Job info - HDEEM
JOB ID,17280379.0
Nodelist,taurusi5525
AVG Runtime of function [s],36.7262
MAX Runtime of function [s],36.7262
MIN Runtime of function [s],36.7262
# COUNTERS - HDEEM: 
AVG Energy consumption [J] (Stats structure),5049.21
MAX Energy consumption [J] (Stats structure),5049.21
MIN Energy consumption [J] (Stats structure),5049.21
SUM Energy consumption [J] (Stats structure),5049.21
# CALLTREE;init_0;Main-PWSCF_0;run-PWSCF_0;run-PWSCF-electrons_function_1;electrons-electrons_scf_function_0
# Job info - HDEEM
JOB ID,17280379.0
Nodelist,taurusi5525
AVG Runtime of function [s],36.6621
MAX Runtime of function [s],36.6621
MIN Runtime of function [s],36.6621
# COUNTERS - HDEEM: 
AVG Energy consumption [J] (Stats structure),5047.09
MAX Energy consumption [J] (Stats structure),5047.09
MIN Energy consumption [J] (Stats structure),5047.09
SUM Energy consumption [J] (Stats structure),5047.09
# CALLTREE;init_0;Main-PWSCF_0;run-PWSCF_0;run-PWSCF-electrons_function_1;electrons-electrons_scf_function_0
# Job info - HDEEM
JOB ID,17280379.0
Nodelist,taurusi5525
AVG Runtime of function [s],36.7055
MAX Runtime of function [s],36.7055
MIN Runtime of function [s],36.7055
# COUNTERS - HDEEM: 
AVG Energy consumption [J] (Stats structure),5047.64
MAX Energy consumption [J] (Stats structure),5047.64
MIN Energy consumption [J] (Stats structure),5047.64
SUM Energy consumption [J] (Stats structure),5047.64
