# CALLTREE;init_0;Main-PWSCF_0;run-PWSCF_0;run-PWSCF-electrons_function_1;electrons-electrons_scf_function_0
# Job info - HDEEM
JOB ID,17281868.0
Nodelist,taurusi5546
AVG Runtime of function [s],1.54677
MAX Runtime of function [s],1.54677
MIN Runtime of function [s],1.54677
# COUNTERS - HDEEM: 
AVG Energy consumption [J] (Stats structure),464.68
MAX Energy consumption [J] (Stats structure),464.68
MIN Energy consumption [J] (Stats structure),464.68
SUM Energy consumption [J] (Stats structure),464.68
# CALLTREE;init_0;Main-PWSCF_0;run-PWSCF_0;run-PWSCF-electrons_function_1;electrons-electrons_scf_function_0
# Job info - HDEEM
JOB ID,17281868.0
Nodelist,taurusi5546
AVG Runtime of function [s],1.51632
MAX Runtime of function [s],1.51632
MIN Runtime of function [s],1.51632
# COUNTERS - HDEEM: 
AVG Energy consumption [J] (Stats structure),460.028
MAX Energy consumption [J] (Stats structure),460.028
MIN Energy consumption [J] (Stats structure),460.028
SUM Energy consumption [J] (Stats structure),460.028
# CALLTREE;init_0;Main-PWSCF_0;run-PWSCF_0;run-PWSCF-electrons_function_1;electrons-electrons_scf_function_0
# Job info - HDEEM
JOB ID,17281868.0
Nodelist,taurusi5546
AVG Runtime of function [s],1.51678
MAX Runtime of function [s],1.51678
MIN Runtime of function [s],1.51678
# COUNTERS - HDEEM: 
AVG Energy consumption [J] (Stats structure),460.868
MAX Energy consumption [J] (Stats structure),460.868
MIN Energy consumption [J] (Stats structure),460.868
SUM Energy consumption [J] (Stats structure),460.868
# CALLTREE;init_0;Main-PWSCF_0;run-PWSCF_0;run-PWSCF-electrons_function_1;electrons-electrons_scf_function_0
# Job info - HDEEM
JOB ID,17281868.0
Nodelist,taurusi5546
AVG Runtime of function [s],1.51657
MAX Runtime of function [s],1.51657
MIN Runtime of function [s],1.51657
# COUNTERS - HDEEM: 
AVG Energy consumption [J] (Stats structure),460.791
MAX Energy consumption [J] (Stats structure),460.791
MIN Energy consumption [J] (Stats structure),460.791
SUM Energy consumption [J] (Stats structure),460.791
# CALLTREE;init_0;Main-PWSCF_0;run-PWSCF_0;run-PWSCF-electrons_function_1;electrons-electrons_scf_function_0
# Job info - HDEEM
JOB ID,17281868.0
Nodelist,taurusi5546
AVG Runtime of function [s],1.5143
MAX Runtime of function [s],1.5143
MIN Runtime of function [s],1.5143
# COUNTERS - HDEEM: 
AVG Energy consumption [J] (Stats structure),461.47
MAX Energy consumption [J] (Stats structure),461.47
MIN Energy consumption [J] (Stats structure),461.47
SUM Energy consumption [J] (Stats structure),461.47
# CALLTREE;init_0;Main-PWSCF_0;run-PWSCF_0;run-PWSCF-electrons_function_1;electrons-electrons_scf_function_0
# Job info - HDEEM
JOB ID,17281868.0
Nodelist,taurusi5546
AVG Runtime of function [s],1.51323
MAX Runtime of function [s],1.51323
MIN Runtime of function [s],1.51323
# COUNTERS - HDEEM: 
AVG Energy consumption [J] (Stats structure),461.776
MAX Energy consumption [J] (Stats structure),461.776
MIN Energy consumption [J] (Stats structure),461.776
SUM Energy consumption [J] (Stats structure),461.776
# CALLTREE;init_0;Main-PWSCF_0;run-PWSCF_0;run-PWSCF-electrons_function_1;electrons-electrons_scf_function_0
# Job info - HDEEM
JOB ID,17281868.0
Nodelist,taurusi5546
AVG Runtime of function [s],1.51545
MAX Runtime of function [s],1.51545
MIN Runtime of function [s],1.51545
# COUNTERS - HDEEM: 
AVG Energy consumption [J] (Stats structure),463.157
MAX Energy consumption [J] (Stats structure),463.157
MIN Energy consumption [J] (Stats structure),463.157
SUM Energy consumption [J] (Stats structure),463.157
# CALLTREE;init_0;Main-PWSCF_0;run-PWSCF_0;run-PWSCF-electrons_function_1;electrons-electrons_scf_function_0
# Job info - HDEEM
JOB ID,17281868.0
Nodelist,taurusi5546
AVG Runtime of function [s],1.51598
MAX Runtime of function [s],1.51598
MIN Runtime of function [s],1.51598
# COUNTERS - HDEEM: 
AVG Energy consumption [J] (Stats structure),463.733
MAX Energy consumption [J] (Stats structure),463.733
MIN Energy consumption [J] (Stats structure),463.733
SUM Energy consumption [J] (Stats structure),463.733
# CALLTREE;init_0;Main-PWSCF_0;run-PWSCF_0;run-PWSCF-electrons_function_1;electrons-electrons_scf_function_0
# Job info - HDEEM
JOB ID,17281868.0
Nodelist,taurusi5546
AVG Runtime of function [s],1.51746
MAX Runtime of function [s],1.51746
MIN Runtime of function [s],1.51746
# COUNTERS - HDEEM: 
AVG Energy consumption [J] (Stats structure),464.478
MAX Energy consumption [J] (Stats structure),464.478
MIN Energy consumption [J] (Stats structure),464.478
SUM Energy consumption [J] (Stats structure),464.478
# CALLTREE;init_0;Main-PWSCF_0;run-PWSCF_0;run-PWSCF-electrons_function_1;electrons-electrons_scf_function_0
# Job info - HDEEM
JOB ID,17281868.0
Nodelist,taurusi5546
AVG Runtime of function [s],1.52759
MAX Runtime of function [s],1.52759
MIN Runtime of function [s],1.52759
# COUNTERS - HDEEM: 
AVG Energy consumption [J] (Stats structure),466.692
MAX Energy consumption [J] (Stats structure),466.692
MIN Energy consumption [J] (Stats structure),466.692
SUM Energy consumption [J] (Stats structure),466.692
# CALLTREE;init_0;Main-PWSCF_0;run-PWSCF_0;run-PWSCF-electrons_function_1;electrons-electrons_scf_function_0
# Job info - HDEEM
JOB ID,17281868.0
Nodelist,taurusi5546
AVG Runtime of function [s],1.51643
MAX Runtime of function [s],1.51643
MIN Runtime of function [s],1.51643
# COUNTERS - HDEEM: 
AVG Energy consumption [J] (Stats structure),464.149
MAX Energy consumption [J] (Stats structure),464.149
MIN Energy consumption [J] (Stats structure),464.149
SUM Energy consumption [J] (Stats structure),464.149
# CALLTREE;init_0;Main-PWSCF_0;run-PWSCF_0;run-PWSCF-electrons_function_1;electrons-electrons_scf_function_0
# Job info - HDEEM
JOB ID,17281868.0
Nodelist,taurusi5546
AVG Runtime of function [s],1.50542
MAX Runtime of function [s],1.50542
MIN Runtime of function [s],1.50542
# COUNTERS - HDEEM: 
AVG Energy consumption [J] (Stats structure),462.015
MAX Energy consumption [J] (Stats structure),462.015
MIN Energy consumption [J] (Stats structure),462.015
SUM Energy consumption [J] (Stats structure),462.015
# CALLTREE;init_0;Main-PWSCF_0;run-PWSCF_0;run-PWSCF-electrons_function_1;electrons-electrons_scf_function_0
# Job info - HDEEM
JOB ID,17281868.0
Nodelist,taurusi5546
AVG Runtime of function [s],1.49839
MAX Runtime of function [s],1.49839
MIN Runtime of function [s],1.49839
# COUNTERS - HDEEM: 
AVG Energy consumption [J] (Stats structure),460.572
MAX Energy consumption [J] (Stats structure),460.572
MIN Energy consumption [J] (Stats structure),460.572
SUM Energy consumption [J] (Stats structure),460.572
# CALLTREE;init_0;Main-PWSCF_0;run-PWSCF_0;run-PWSCF-electrons_function_1;electrons-electrons_scf_function_0
# Job info - HDEEM
JOB ID,17281868.0
Nodelist,taurusi5546
AVG Runtime of function [s],1.50029
MAX Runtime of function [s],1.50029
MIN Runtime of function [s],1.50029
# COUNTERS - HDEEM: 
AVG Energy consumption [J] (Stats structure),461.186
MAX Energy consumption [J] (Stats structure),461.186
MIN Energy consumption [J] (Stats structure),461.186
SUM Energy consumption [J] (Stats structure),461.186
# CALLTREE;init_0;Main-PWSCF_0;run-PWSCF_0;run-PWSCF-electrons_function_1;electrons-electrons_scf_function_0
# Job info - HDEEM
JOB ID,17281868.0
Nodelist,taurusi5546
AVG Runtime of function [s],1.5081
MAX Runtime of function [s],1.5081
MIN Runtime of function [s],1.5081
# COUNTERS - HDEEM: 
AVG Energy consumption [J] (Stats structure),463.393
MAX Energy consumption [J] (Stats structure),463.393
MIN Energy consumption [J] (Stats structure),463.393
SUM Energy consumption [J] (Stats structure),463.393
# CALLTREE;init_0;Main-PWSCF_0;run-PWSCF_0;run-PWSCF-electrons_function_1;electrons-electrons_scf_function_0
# Job info - HDEEM
JOB ID,17281868.0
Nodelist,taurusi5546
AVG Runtime of function [s],1.51255
MAX Runtime of function [s],1.51255
MIN Runtime of function [s],1.51255
# COUNTERS - HDEEM: 
AVG Energy consumption [J] (Stats structure),464.418
MAX Energy consumption [J] (Stats structure),464.418
MIN Energy consumption [J] (Stats structure),464.418
SUM Energy consumption [J] (Stats structure),464.418
# CALLTREE;init_1;Main-PWSCF_0;run-PWSCF_0;run-PWSCF-electrons_function_1;electrons-electrons_scf_function_0
# Job info - HDEEM
JOB ID,17281869.0
Nodelist,taurusi5546
AVG Runtime of function [s],1.76092
MAX Runtime of function [s],1.76092
MIN Runtime of function [s],1.76092
# COUNTERS - HDEEM: 
AVG Energy consumption [J] (Stats structure),499.656
MAX Energy consumption [J] (Stats structure),499.656
MIN Energy consumption [J] (Stats structure),499.656
SUM Energy consumption [J] (Stats structure),499.656
# CALLTREE;init_1;Main-PWSCF_0;run-PWSCF_0;run-PWSCF-electrons_function_1;electrons-electrons_scf_function_0
# Job info - HDEEM
JOB ID,17281869.0
Nodelist,taurusi5546
AVG Runtime of function [s],1.51771
MAX Runtime of function [s],1.51771
MIN Runtime of function [s],1.51771
# COUNTERS - HDEEM: 
AVG Energy consumption [J] (Stats structure),462.896
MAX Energy consumption [J] (Stats structure),462.896
MIN Energy consumption [J] (Stats structure),462.896
SUM Energy consumption [J] (Stats structure),462.896
# CALLTREE;init_1;Main-PWSCF_0;run-PWSCF_0;run-PWSCF-electrons_function_1;electrons-electrons_scf_function_0
# Job info - HDEEM
JOB ID,17281869.0
Nodelist,taurusi5546
AVG Runtime of function [s],1.51773
MAX Runtime of function [s],1.51773
MIN Runtime of function [s],1.51773
# COUNTERS - HDEEM: 
AVG Energy consumption [J] (Stats structure),463.911
MAX Energy consumption [J] (Stats structure),463.911
MIN Energy consumption [J] (Stats structure),463.911
SUM Energy consumption [J] (Stats structure),463.911
# CALLTREE;init_1;Main-PWSCF_0;run-PWSCF_0;run-PWSCF-electrons_function_1;electrons-electrons_scf_function_0
# Job info - HDEEM
JOB ID,17281869.0
Nodelist,taurusi5546
AVG Runtime of function [s],1.51964
MAX Runtime of function [s],1.51964
MIN Runtime of function [s],1.51964
# COUNTERS - HDEEM: 
AVG Energy consumption [J] (Stats structure),462.863
MAX Energy consumption [J] (Stats structure),462.863
MIN Energy consumption [J] (Stats structure),462.863
SUM Energy consumption [J] (Stats structure),462.863
# CALLTREE;init_1;Main-PWSCF_0;run-PWSCF_0;run-PWSCF-electrons_function_1;electrons-electrons_scf_function_0
# Job info - HDEEM
JOB ID,17281869.0
Nodelist,taurusi5546
AVG Runtime of function [s],1.52168
MAX Runtime of function [s],1.52168
MIN Runtime of function [s],1.52168
# COUNTERS - HDEEM: 
AVG Energy consumption [J] (Stats structure),464.635
MAX Energy consumption [J] (Stats structure),464.635
MIN Energy consumption [J] (Stats structure),464.635
SUM Energy consumption [J] (Stats structure),464.635
# CALLTREE;init_1;Main-PWSCF_0;run-PWSCF_0;run-PWSCF-electrons_function_1;electrons-electrons_scf_function_0
# Job info - HDEEM
JOB ID,17281869.0
Nodelist,taurusi5546
AVG Runtime of function [s],1.51489
MAX Runtime of function [s],1.51489
MIN Runtime of function [s],1.51489
# COUNTERS - HDEEM: 
AVG Energy consumption [J] (Stats structure),463.455
MAX Energy consumption [J] (Stats structure),463.455
MIN Energy consumption [J] (Stats structure),463.455
SUM Energy consumption [J] (Stats structure),463.455
# CALLTREE;init_1;Main-PWSCF_0;run-PWSCF_0;run-PWSCF-electrons_function_1;electrons-electrons_scf_function_0
# Job info - HDEEM
JOB ID,17281869.0
Nodelist,taurusi5546
AVG Runtime of function [s],1.51903
MAX Runtime of function [s],1.51903
MIN Runtime of function [s],1.51903
# COUNTERS - HDEEM: 
AVG Energy consumption [J] (Stats structure),464.747
MAX Energy consumption [J] (Stats structure),464.747
MIN Energy consumption [J] (Stats structure),464.747
SUM Energy consumption [J] (Stats structure),464.747
# CALLTREE;init_1;Main-PWSCF_0;run-PWSCF_0;run-PWSCF-electrons_function_1;electrons-electrons_scf_function_0
# Job info - HDEEM
JOB ID,17281869.0
Nodelist,taurusi5546
AVG Runtime of function [s],1.51823
MAX Runtime of function [s],1.51823
MIN Runtime of function [s],1.51823
# COUNTERS - HDEEM: 
AVG Energy consumption [J] (Stats structure),465.091
MAX Energy consumption [J] (Stats structure),465.091
MIN Energy consumption [J] (Stats structure),465.091
SUM Energy consumption [J] (Stats structure),465.091
# CALLTREE;init_1;Main-PWSCF_0;run-PWSCF_0;run-PWSCF-electrons_function_1;electrons-electrons_scf_function_0
# Job info - HDEEM
JOB ID,17281869.0
Nodelist,taurusi5546
AVG Runtime of function [s],1.52299
MAX Runtime of function [s],1.52299
MIN Runtime of function [s],1.52299
# COUNTERS - HDEEM: 
AVG Energy consumption [J] (Stats structure),466.126
MAX Energy consumption [J] (Stats structure),466.126
MIN Energy consumption [J] (Stats structure),466.126
SUM Energy consumption [J] (Stats structure),466.126
# CALLTREE;init_1;Main-PWSCF_0;run-PWSCF_0;run-PWSCF-electrons_function_1;electrons-electrons_scf_function_0
# Job info - HDEEM
JOB ID,17281869.0
Nodelist,taurusi5546
AVG Runtime of function [s],1.51808
MAX Runtime of function [s],1.51808
MIN Runtime of function [s],1.51808
# COUNTERS - HDEEM: 
AVG Energy consumption [J] (Stats structure),465.146
MAX Energy consumption [J] (Stats structure),465.146
MIN Energy consumption [J] (Stats structure),465.146
SUM Energy consumption [J] (Stats structure),465.146
# CALLTREE;init_1;Main-PWSCF_0;run-PWSCF_0;run-PWSCF-electrons_function_1;electrons-electrons_scf_function_0
# Job info - HDEEM
JOB ID,17281869.0
Nodelist,taurusi5546
AVG Runtime of function [s],1.51896
MAX Runtime of function [s],1.51896
MIN Runtime of function [s],1.51896
# COUNTERS - HDEEM: 
AVG Energy consumption [J] (Stats structure),466.102
MAX Energy consumption [J] (Stats structure),466.102
MIN Energy consumption [J] (Stats structure),466.102
SUM Energy consumption [J] (Stats structure),466.102
# CALLTREE;init_1;Main-PWSCF_0;run-PWSCF_0;run-PWSCF-electrons_function_1;electrons-electrons_scf_function_0
# Job info - HDEEM
JOB ID,17281869.0
Nodelist,taurusi5546
AVG Runtime of function [s],1.50613
MAX Runtime of function [s],1.50613
MIN Runtime of function [s],1.50613
# COUNTERS - HDEEM: 
AVG Energy consumption [J] (Stats structure),462.923
MAX Energy consumption [J] (Stats structure),462.923
MIN Energy consumption [J] (Stats structure),462.923
SUM Energy consumption [J] (Stats structure),462.923
# CALLTREE;init_1;Main-PWSCF_0;run-PWSCF_0;run-PWSCF-electrons_function_1;electrons-electrons_scf_function_0
# Job info - HDEEM
JOB ID,17281869.0
Nodelist,taurusi5546
AVG Runtime of function [s],1.50245
MAX Runtime of function [s],1.50245
MIN Runtime of function [s],1.50245
# COUNTERS - HDEEM: 
AVG Energy consumption [J] (Stats structure),461.962
MAX Energy consumption [J] (Stats structure),461.962
MIN Energy consumption [J] (Stats structure),461.962
SUM Energy consumption [J] (Stats structure),461.962
# CALLTREE;init_1;Main-PWSCF_0;run-PWSCF_0;run-PWSCF-electrons_function_1;electrons-electrons_scf_function_0
# Job info - HDEEM
JOB ID,17281869.0
Nodelist,taurusi5546
AVG Runtime of function [s],1.49868
MAX Runtime of function [s],1.49868
MIN Runtime of function [s],1.49868
# COUNTERS - HDEEM: 
AVG Energy consumption [J] (Stats structure),461.298
MAX Energy consumption [J] (Stats structure),461.298
MIN Energy consumption [J] (Stats structure),461.298
SUM Energy consumption [J] (Stats structure),461.298
# CALLTREE;init_1;Main-PWSCF_0;run-PWSCF_0;run-PWSCF-electrons_function_1;electrons-electrons_scf_function_0
# Job info - HDEEM
JOB ID,17281869.0
Nodelist,taurusi5546
AVG Runtime of function [s],1.50715
MAX Runtime of function [s],1.50715
MIN Runtime of function [s],1.50715
# COUNTERS - HDEEM: 
AVG Energy consumption [J] (Stats structure),463.432
MAX Energy consumption [J] (Stats structure),463.432
MIN Energy consumption [J] (Stats structure),463.432
SUM Energy consumption [J] (Stats structure),463.432
# CALLTREE;init_1;Main-PWSCF_0;run-PWSCF_0;run-PWSCF-electrons_function_1;electrons-electrons_scf_function_0
# Job info - HDEEM
JOB ID,17281869.0
Nodelist,taurusi5546
AVG Runtime of function [s],1.51341
MAX Runtime of function [s],1.51341
MIN Runtime of function [s],1.51341
# COUNTERS - HDEEM: 
AVG Energy consumption [J] (Stats structure),464.873
MAX Energy consumption [J] (Stats structure),464.873
MIN Energy consumption [J] (Stats structure),464.873
SUM Energy consumption [J] (Stats structure),464.873
