# CALLTREE;init_0;Main-PWSCF_0;run-PWSCF_0;run-PWSCF-electrons_function_1;electrons-electrons_scf_function_0
# Job info - HDEEM
JOB ID,17281565.9
Nodelist,taurusi5540
AVG Runtime of function [s],0.000418989
MAX Runtime of function [s],0.000418989
MIN Runtime of function [s],0.000418989
# COUNTERS - HDEEM: 
AVG Energy consumption [J] (Stats structure),0.738
MAX Energy consumption [J] (Stats structure),0.738
MIN Energy consumption [J] (Stats structure),0.738
SUM Energy consumption [J] (Stats structure),0.738
# CALLTREE;init_0;Main-PWSCF_0;run-PWSCF_0;run-PWSCF-electrons_function_1;electrons-electrons_scf_function_0
# Job info - HDEEM
JOB ID,17281565.9
Nodelist,taurusi5540
AVG Runtime of function [s],0.0468477
MAX Runtime of function [s],0.0468477
MIN Runtime of function [s],0.0468477
# COUNTERS - HDEEM: 
AVG Energy consumption [J] (Stats structure),9.551
MAX Energy consumption [J] (Stats structure),9.551
MIN Energy consumption [J] (Stats structure),9.551
SUM Energy consumption [J] (Stats structure),9.551
# CALLTREE;init_0;Main-PWSCF_0;run-PWSCF_0;run-PWSCF-electrons_function_1;electrons-electrons_scf_function_0
# Job info - HDEEM
JOB ID,17281565.9
Nodelist,taurusi5540
AVG Runtime of function [s],0.0437276
MAX Runtime of function [s],0.0437276
MIN Runtime of function [s],0.0437276
# COUNTERS - HDEEM: 
AVG Energy consumption [J] (Stats structure),9.119
MAX Energy consumption [J] (Stats structure),9.119
MIN Energy consumption [J] (Stats structure),9.119
SUM Energy consumption [J] (Stats structure),9.119
# CALLTREE;init_0;Main-PWSCF_0;run-PWSCF_0;run-PWSCF-electrons_function_1;electrons-electrons_scf_function_0
# Job info - HDEEM
JOB ID,17281565.9
Nodelist,taurusi5540
AVG Runtime of function [s],0.042765
MAX Runtime of function [s],0.042765
MIN Runtime of function [s],0.042765
# COUNTERS - HDEEM: 
AVG Energy consumption [J] (Stats structure),8.94
MAX Energy consumption [J] (Stats structure),8.94
MIN Energy consumption [J] (Stats structure),8.94
SUM Energy consumption [J] (Stats structure),8.94
# CALLTREE;init_0;Main-PWSCF_0;run-PWSCF_0;run-PWSCF-electrons_function_1;electrons-electrons_scf_function_0
# Job info - HDEEM
JOB ID,17281565.9
Nodelist,taurusi5540
AVG Runtime of function [s],0.043652
MAX Runtime of function [s],0.043652
MIN Runtime of function [s],0.043652
# COUNTERS - HDEEM: 
AVG Energy consumption [J] (Stats structure),9.149
MAX Energy consumption [J] (Stats structure),9.149
MIN Energy consumption [J] (Stats structure),9.149
SUM Energy consumption [J] (Stats structure),9.149
# CALLTREE;init_0;Main-PWSCF_0;run-PWSCF_0;run-PWSCF-electrons_function_1;electrons-electrons_scf_function_0
# Job info - HDEEM
JOB ID,17281565.9
Nodelist,taurusi5540
AVG Runtime of function [s],0.0445546
MAX Runtime of function [s],0.0445546
MIN Runtime of function [s],0.0445546
# COUNTERS - HDEEM: 
AVG Energy consumption [J] (Stats structure),9.364
MAX Energy consumption [J] (Stats structure),9.364
MIN Energy consumption [J] (Stats structure),9.364
SUM Energy consumption [J] (Stats structure),9.364
# CALLTREE;init_0;Main-PWSCF_0;run-PWSCF_0;run-PWSCF-electrons_function_1;electrons-electrons_scf_function_0
# Job info - HDEEM
JOB ID,17281565.9
Nodelist,taurusi5540
AVG Runtime of function [s],0.0455295
MAX Runtime of function [s],0.0455295
MIN Runtime of function [s],0.0455295
# COUNTERS - HDEEM: 
AVG Energy consumption [J] (Stats structure),9.57
MAX Energy consumption [J] (Stats structure),9.57
MIN Energy consumption [J] (Stats structure),9.57
SUM Energy consumption [J] (Stats structure),9.57
# CALLTREE;init_0;Main-PWSCF_0;run-PWSCF_0;run-PWSCF-electrons_function_1;electrons-electrons_scf_function_0
# Job info - HDEEM
JOB ID,17281565.9
Nodelist,taurusi5540
AVG Runtime of function [s],0.0460867
MAX Runtime of function [s],0.0460867
MIN Runtime of function [s],0.0460867
# COUNTERS - HDEEM: 
AVG Energy consumption [J] (Stats structure),9.586
MAX Energy consumption [J] (Stats structure),9.586
MIN Energy consumption [J] (Stats structure),9.586
SUM Energy consumption [J] (Stats structure),9.586
# CALLTREE;init_0;Main-PWSCF_0;run-PWSCF_0;run-PWSCF-electrons_function_1;electrons-electrons_scf_function_0
# Job info - HDEEM
JOB ID,17281565.9
Nodelist,taurusi5540
AVG Runtime of function [s],0.0473403
MAX Runtime of function [s],0.0473403
MIN Runtime of function [s],0.0473403
# COUNTERS - HDEEM: 
AVG Energy consumption [J] (Stats structure),9.798
MAX Energy consumption [J] (Stats structure),9.798
MIN Energy consumption [J] (Stats structure),9.798
SUM Energy consumption [J] (Stats structure),9.798
# CALLTREE;init_0;Main-PWSCF_0;run-PWSCF_0;run-PWSCF-electrons_function_1;electrons-electrons_scf_function_0
# Job info - HDEEM
JOB ID,17281565.9
Nodelist,taurusi5540
AVG Runtime of function [s],0.0478741
MAX Runtime of function [s],0.0478741
MIN Runtime of function [s],0.0478741
# COUNTERS - HDEEM: 
AVG Energy consumption [J] (Stats structure),10.015
MAX Energy consumption [J] (Stats structure),10.015
MIN Energy consumption [J] (Stats structure),10.015
SUM Energy consumption [J] (Stats structure),10.015
# CALLTREE;init_0;Main-PWSCF_0;run-PWSCF_0;run-PWSCF-electrons_function_1;electrons-electrons_scf_function_0
# Job info - HDEEM
JOB ID,17281565.9
Nodelist,taurusi5540
AVG Runtime of function [s],0.0478277
MAX Runtime of function [s],0.0478277
MIN Runtime of function [s],0.0478277
# COUNTERS - HDEEM: 
AVG Energy consumption [J] (Stats structure),10.009
MAX Energy consumption [J] (Stats structure),10.009
MIN Energy consumption [J] (Stats structure),10.009
SUM Energy consumption [J] (Stats structure),10.009
# CALLTREE;init_0;Main-PWSCF_0;run-PWSCF_0;run-PWSCF-electrons_function_1;electrons-electrons_scf_function_0
# Job info - HDEEM
JOB ID,17281565.9
Nodelist,taurusi5540
AVG Runtime of function [s],0.047788
MAX Runtime of function [s],0.047788
MIN Runtime of function [s],0.047788
# COUNTERS - HDEEM: 
AVG Energy consumption [J] (Stats structure),10.203
MAX Energy consumption [J] (Stats structure),10.203
MIN Energy consumption [J] (Stats structure),10.203
SUM Energy consumption [J] (Stats structure),10.203
# CALLTREE;init_0;Main-PWSCF_0;run-PWSCF_0;run-PWSCF-electrons_function_1;electrons-electrons_scf_function_0
# Job info - HDEEM
JOB ID,17281565.9
Nodelist,taurusi5540
AVG Runtime of function [s],0.0484584
MAX Runtime of function [s],0.0484584
MIN Runtime of function [s],0.0484584
# COUNTERS - HDEEM: 
AVG Energy consumption [J] (Stats structure),10.2
MAX Energy consumption [J] (Stats structure),10.2
MIN Energy consumption [J] (Stats structure),10.2
SUM Energy consumption [J] (Stats structure),10.2
# CALLTREE;init_0;Main-PWSCF_0;run-PWSCF_0;run-PWSCF-electrons_function_1;electrons-electrons_scf_function_0
# Job info - HDEEM
JOB ID,17281565.9
Nodelist,taurusi5540
AVG Runtime of function [s],0.0481586
MAX Runtime of function [s],0.0481586
MIN Runtime of function [s],0.0481586
# COUNTERS - HDEEM: 
AVG Energy consumption [J] (Stats structure),9.993
MAX Energy consumption [J] (Stats structure),9.993
MIN Energy consumption [J] (Stats structure),9.993
SUM Energy consumption [J] (Stats structure),9.993
# CALLTREE;init_0;Main-PWSCF_0;run-PWSCF_0;run-PWSCF-electrons_function_1;electrons-electrons_scf_function_0
# Job info - HDEEM
JOB ID,17281565.9
Nodelist,taurusi5540
AVG Runtime of function [s],0.0480998
MAX Runtime of function [s],0.0480998
MIN Runtime of function [s],0.0480998
# COUNTERS - HDEEM: 
AVG Energy consumption [J] (Stats structure),9.991
MAX Energy consumption [J] (Stats structure),9.991
MIN Energy consumption [J] (Stats structure),9.991
SUM Energy consumption [J] (Stats structure),9.991
# CALLTREE;init_0;Main-PWSCF_0;run-PWSCF_0;run-PWSCF-electrons_function_1;electrons-electrons_scf_function_0
# Job info - HDEEM
JOB ID,17281565.9
Nodelist,taurusi5540
AVG Runtime of function [s],0.000300495
MAX Runtime of function [s],0.000300495
MIN Runtime of function [s],0.000300495
# COUNTERS - HDEEM: 
AVG Energy consumption [J] (Stats structure),0.74
MAX Energy consumption [J] (Stats structure),0.74
MIN Energy consumption [J] (Stats structure),0.74
SUM Energy consumption [J] (Stats structure),0.74
