# CALLTREE;init_0;Main-PWSCF_0;run-PWSCF_0;run-PWSCF-electrons_function_1;electrons-electrons_scf_function_0
# Job info - HDEEM
JOB ID,17280379.17
Nodelist,taurusi5525
AVG Runtime of function [s],0.579247
MAX Runtime of function [s],0.579247
MIN Runtime of function [s],0.579247
# COUNTERS - HDEEM: 
AVG Energy consumption [J] (Stats structure),65.775
MAX Energy consumption [J] (Stats structure),65.775
MIN Energy consumption [J] (Stats structure),65.775
SUM Energy consumption [J] (Stats structure),65.775
