# CALLTREE;init_0;Main-PWSCF_0;run-PWSCF_0;run-PWSCF-electrons_function_1;electrons-electrons_scf_function_0
# Job info - HDEEM
JOB ID,17280379.9
Nodelist,taurusi5525
AVG Runtime of function [s],0.440132
MAX Runtime of function [s],0.440132
MIN Runtime of function [s],0.440132
# COUNTERS - HDEEM: 
AVG Energy consumption [J] (Stats structure),45.862
MAX Energy consumption [J] (Stats structure),45.862
MIN Energy consumption [J] (Stats structure),45.862
SUM Energy consumption [J] (Stats structure),45.862
