Module readex/ci_readex_intelmpi2017.2.174_intel2017.2.174, glib/2.50.1, mkl/2017, FFTW/3.3.7-intel-2017b and 17 dependencies unloaded.
Module pdt/3.18.1 loaded.
Module FFTW/3.3.7-intel-2017b and 9 dependencies loaded.
Module mkl/2017 loaded.
Module glib/2.50.1 loaded.
Module intelmpi/2017.2.174 loaded.

The following have been reloaded with a version change:
  1) intel/2017b => intel/2018.1.163

Module intel/2017b and 8 dependencies unloaded.
Module intel/2018.1.163 loaded.

Currently Loaded Modules:
  1) modenv/both            (S)   4) mkl/2017              7) intel/2018.1.163
  2) pdt/3.18.1                   5) glib/2.50.1
  3) FFTW/3.3.7-intel-2017b       6) intelmpi/2017.2.174

  Where:
   S:  Module is Sticky, requires --force to unload or purge

 


The following have been reloaded with a version change:
  1) intel/2018.1.163 => intel/2017.2.174

Module readex/ci_readex_intelmpi2017.2.174_intel2017.2.174 and 15 dependencies loaded.

     Program PWSCF v.6.1 (svn rev. 13369) starts on 27Jun2018 at 12:53:55 

     This program is part of the open-source Quantum ESPRESSO suite
     for quantum simulation of materials; please cite
         "P. Giannozzi et al., J. Phys.:Condens. Matter 21 395502 (2009);
          URL http://www.quantum-espresso.org", 
     in publications or presentations arising from this work. More details at
     http://www.quantum-espresso.org/quote

     Parallel version (MPI & OpenMP), running on      24 processor cores
     Number of MPI processes:                24
     Threads/MPI process:                     1
     R & G space division:  proc/nbgrp/npool/nimage =      24
     Waiting for input...
     Reading input from standard input

     Current dimensions of program PWSCF are:
     Max number of different atomic species (ntypx) = 10
     Max number of k-points (npk) =  40000
     Max angular momentum in pseudopotentials (lmaxx) =  3
               file Zn.pbe-dn-kjpaw_psl.0.2.2.upf: wavefunction(s)  4S 3D renormalized
               file O.pbe-n-kjpaw_psl.0.1.upf: wavefunction(s)  2P renormalized

     Subspace diagonalization in iterative solution of the eigenvalue problem:
     a serial algorithm will be used

 
     Parallelization info
     --------------------
     sticks:   dense  smooth     PW     G-vecs:    dense   smooth      PW
     Min         107      43     13                 7141     1809     307
     Max         108      44     14                 7152     1816     314
     Sum        2587    1039    313               171561    43461    7415
 

     Title: 
     ZnO                                                                        


     bravais-lattice index     =            4
     lattice parameter (alat)  =       6.1416  a.u.
     unit-cell volume          =     321.4357 (a.u.)^3
     number of atoms/cell      =            4
     number of atomic types    =            2
     number of electrons       =        36.00
     number of Kohn-Sham states=           25
     kinetic-energy cutoff     =     100.0000  Ry
     charge density cutoff     =    1000.0000  Ry
     convergence threshold     =      1.0E-08
     mixing beta               =       0.6000
     number of iterations used =            8  plain     mixing
     Exchange-correlation      =  SLA  PW   PBX  PBC ( 1  4  3  4 0 0)

     celldm(1)=   6.141610  celldm(2)=   0.000000  celldm(3)=   1.602200
     celldm(4)=   0.000000  celldm(5)=   0.000000  celldm(6)=   0.000000

     crystal axes: (cart. coord. in units of alat)
               a(1) = (   1.000000   0.000000   0.000000 )  
               a(2) = (  -0.500000   0.866025   0.000000 )  
               a(3) = (   0.000000   0.000000   1.602200 )  

     reciprocal axes: (cart. coord. in units 2 pi/alat)
               b(1) = (  1.000000  0.577350  0.000000 )  
               b(2) = (  0.000000  1.154701  0.000000 )  
               b(3) = (  0.000000  0.000000  0.624142 )  


     PseudoPot. # 1 for Zn read from file:
     ./Zn.pbe-dn-kjpaw_psl.0.2.2.upf
     MD5 check sum: 484305e79b478695887b90c80f9f201c
     Pseudo is Projector augmented-wave + core cor, Zval = 12.0
     Generated using "atomic" code by A. Dal Corso  v.5.0.99 svn rev. 10869
     Shape of augmentation charge: PSQ
     Using radial grid of 1201 points,  6 beta functions with: 
                l(1) =   0
                l(2) =   0
                l(3) =   1
                l(4) =   1
                l(5) =   2
                l(6) =   2
     Q(r) pseudized with 0 coefficients 


     PseudoPot. # 2 for  O read from file:
     ./O.pbe-n-kjpaw_psl.0.1.upf
     MD5 check sum: 3f94a2996a3169367d6eb21d9b593f20
     Pseudo is Projector augmented-wave + core cor, Zval =  6.0
     Generated using "atomic" code by A. Dal Corso  v.5.0.99 svn rev. 10869
     Shape of augmentation charge: BESSEL
     Using radial grid of 1095 points,  4 beta functions with: 
                l(1) =   0
                l(2) =   0
                l(3) =   1
                l(4) =   1
     Q(r) pseudized with 0 coefficients 


     atomic species   valence    mass     pseudopotential
        Zn            12.00    65.00000     Zn( 1.00)
        O              6.00    16.00000      O( 1.00)

     No symmetry found



   Cartesian axes

     site n.     atom                  positions (alat units)
         1           Zn  tau(   1) = (  -0.0000000   0.5773503   0.0000000  )
         2           O   tau(   2) = (  -0.0000000   0.5773503   0.6115597  )
         3           Zn  tau(   3) = (   0.5000000   0.2886751   0.8011000  )
         4           O   tau(   4) = (   0.5000000   0.2886751   1.4126597  )

     number of k points=    36  Methfessel-Paxton smearing, width (Ry)=  0.0020
                       cart. coord. in units 2pi/alat
        k(    1) = (   0.0000000   0.0000000   0.0000000), wk =   0.0312500
        k(    2) = (   0.0000000   0.0000000   0.1560355), wk =   0.0625000
        k(    3) = (   0.0000000   0.0000000  -0.3120709), wk =   0.0312500
        k(    4) = (   0.0000000   0.2886751   0.0000000), wk =   0.0625000
        k(    5) = (   0.0000000   0.2886751   0.1560355), wk =   0.0625000
        k(    6) = (   0.0000000   0.2886751  -0.3120709), wk =   0.0625000
        k(    7) = (   0.0000000   0.2886751  -0.1560355), wk =   0.0625000
        k(    8) = (   0.0000000  -0.5773503   0.0000000), wk =   0.0312500
        k(    9) = (   0.0000000  -0.5773503   0.1560355), wk =   0.0625000
        k(   10) = (   0.0000000  -0.5773503  -0.3120709), wk =   0.0312500
        k(   11) = (   0.2500000   0.1443376   0.0000000), wk =   0.0625000
        k(   12) = (   0.2500000   0.1443376   0.1560355), wk =   0.0625000
        k(   13) = (   0.2500000   0.1443376  -0.3120709), wk =   0.0625000
        k(   14) = (   0.2500000   0.1443376  -0.1560355), wk =   0.0625000
        k(   15) = (   0.2500000   0.4330127   0.0000000), wk =   0.0625000
        k(   16) = (   0.2500000   0.4330127   0.1560355), wk =   0.0625000
        k(   17) = (   0.2500000   0.4330127  -0.3120709), wk =   0.0625000
        k(   18) = (   0.2500000   0.4330127  -0.1560355), wk =   0.0625000
        k(   19) = (   0.2500000  -0.4330127   0.0000000), wk =   0.0625000
        k(   20) = (   0.2500000  -0.4330127   0.1560355), wk =   0.0625000
        k(   21) = (   0.2500000  -0.4330127  -0.3120709), wk =   0.0625000
        k(   22) = (   0.2500000  -0.4330127  -0.1560355), wk =   0.0625000
        k(   23) = (   0.2500000  -0.1443376   0.0000000), wk =   0.0625000
        k(   24) = (   0.2500000  -0.1443376   0.1560355), wk =   0.0625000
        k(   25) = (   0.2500000  -0.1443376  -0.3120709), wk =   0.0625000
        k(   26) = (   0.2500000  -0.1443376  -0.1560355), wk =   0.0625000
        k(   27) = (  -0.5000000  -0.2886751   0.0000000), wk =   0.0312500
        k(   28) = (  -0.5000000  -0.2886751   0.1560355), wk =   0.0625000
        k(   29) = (  -0.5000000  -0.2886751  -0.3120709), wk =   0.0312500
        k(   30) = (  -0.5000000   0.0000000   0.0000000), wk =   0.0625000
        k(   31) = (  -0.5000000   0.0000000   0.1560355), wk =   0.0625000
        k(   32) = (  -0.5000000   0.0000000  -0.3120709), wk =   0.0625000
        k(   33) = (  -0.5000000   0.0000000  -0.1560355), wk =   0.0625000
        k(   34) = (  -0.5000000  -0.8660254   0.0000000), wk =   0.0312500
        k(   35) = (  -0.5000000  -0.8660254   0.1560355), wk =   0.0625000
        k(   36) = (  -0.5000000  -0.8660254  -0.3120709), wk =   0.0312500

     Dense  grid:   171561 G-vectors     FFT dimensions: (  64,  64, 100)

     Smooth grid:    43461 G-vectors     FFT dimensions: (  40,  40,  64)

     Estimated max dynamical RAM per process >       8.72MB

     Estimated total allocated dynamical RAM >     209.36MB

     Check: negative/imaginary core charge=   -0.000009    0.000000

     Initial potential from superposition of free atoms

     starting charge   35.99972, renormalised to   36.00000
     Starting wfc are   26 atomic wfcs
     Checking if some PAW data can be deallocated... 

     total cpu time spent up to now is        2.6 secs

     per-process dynamical memory:    19.4 Mb

     Self-consistent Calculation

     iteration #  1     ecut=   100.00 Ry     beta=0.60
     Davidson diagonalization with overlap
     ethr =  1.00E-02,  avg # of iterations =  3.5

     total cpu time spent up to now is        3.8 secs

     total energy              =    -570.74371880 Ry
     Harris-Foulkes estimate   =    -571.37521560 Ry
     estimated scf accuracy    <       0.86170856 Ry

     iteration #  2     ecut=   100.00 Ry     beta=0.60
     Davidson diagonalization with overlap
     ethr =  2.39E-03,  avg # of iterations =  2.9

     total cpu time spent up to now is        5.0 secs

     total energy              =    -570.97141504 Ry
     Harris-Foulkes estimate   =    -571.35766373 Ry
     estimated scf accuracy    <       0.83978439 Ry

     iteration #  3     ecut=   100.00 Ry     beta=0.60
     Davidson diagonalization with overlap
     ethr =  2.33E-03,  avg # of iterations =  2.0

     total cpu time spent up to now is        6.0 secs

     total energy              =    -571.13577423 Ry
     Harris-Foulkes estimate   =    -571.13755201 Ry
     estimated scf accuracy    <       0.00638026 Ry

     iteration #  4     ecut=   100.00 Ry     beta=0.60
     Davidson diagonalization with overlap
     ethr =  1.77E-05,  avg # of iterations =  3.3

     total cpu time spent up to now is        7.3 secs

     total energy              =    -571.13740417 Ry
     Harris-Foulkes estimate   =    -571.13781764 Ry
     estimated scf accuracy    <       0.00104133 Ry

     iteration #  5     ecut=   100.00 Ry     beta=0.60
     Davidson diagonalization with overlap
     ethr =  2.89E-06,  avg # of iterations =  2.2

     total cpu time spent up to now is        8.4 secs

     total energy              =    -571.13758818 Ry
     Harris-Foulkes estimate   =    -571.13760021 Ry
     estimated scf accuracy    <       0.00002795 Ry

     iteration #  6     ecut=   100.00 Ry     beta=0.60
     Davidson diagonalization with overlap
     ethr =  7.76E-08,  avg # of iterations =  2.0

     total cpu time spent up to now is        9.4 secs

     total energy              =    -571.13759248 Ry
     Harris-Foulkes estimate   =    -571.13759170 Ry
     estimated scf accuracy    <       0.00000121 Ry

     iteration #  7     ecut=   100.00 Ry     beta=0.60
     Davidson diagonalization with overlap
     ethr =  3.35E-09,  avg # of iterations =  2.0

     total cpu time spent up to now is       10.5 secs

     total energy              =    -571.13759271 Ry
     Harris-Foulkes estimate   =    -571.13759308 Ry
     estimated scf accuracy    <       0.00000124 Ry

     iteration #  8     ecut=   100.00 Ry     beta=0.60
     Davidson diagonalization with overlap
     ethr =  3.35E-09,  avg # of iterations =  1.8

     total cpu time spent up to now is       11.5 secs

     total energy              =    -571.13759293 Ry
     Harris-Foulkes estimate   =    -571.13759293 Ry
     estimated scf accuracy    <       0.00000002 Ry

     End of self-consistent calculation

     convergence NOT achieved after   8 iterations: stopping

     Writing output data file ZnO.save
 
     init_run     :      0.63s CPU      0.84s WALL (       1 calls)
     electrons    :      8.55s CPU      9.11s WALL (       1 calls)

     Called by init_run:
     wfcinit      :      0.30s CPU      0.35s WALL (       1 calls)
     potinit      :      0.11s CPU      0.16s WALL (       1 calls)

     Called by electrons:
     c_bands      :      6.61s CPU      6.72s WALL (       8 calls)
     sum_band     :      1.21s CPU      1.33s WALL (       8 calls)
     v_of_rho     :      0.12s CPU      0.13s WALL (       9 calls)
     newd         :      0.20s CPU      0.33s WALL (       9 calls)
     PAW_pot      :      0.45s CPU      0.48s WALL (       9 calls)
     mix_rho      :      0.01s CPU      0.02s WALL (       8 calls)

     Called by c_bands:
     init_us_2    :      0.01s CPU      0.06s WALL (     612 calls)
     cegterg      :      6.42s CPU      6.43s WALL (     288 calls)

     Called by sum_band:
     sum_band:bec :      0.00s CPU      0.00s WALL (     288 calls)
     addusdens    :      0.19s CPU      0.30s WALL (       8 calls)

     Called by *egterg:
     h_psi        :      4.97s CPU      4.98s WALL (    1036 calls)
     s_psi        :      0.01s CPU      0.08s WALL (    1036 calls)
     g_psi        :      0.00s CPU      0.02s WALL (     712 calls)
     cdiaghg      :      1.09s CPU      1.14s WALL (    1000 calls)

     Called by h_psi:
     h_psi:pot    :      4.97s CPU      4.96s WALL (    1036 calls)
     h_psi:calbec :      0.50s CPU      0.12s WALL (    1036 calls)
     vloc_psi     :      4.46s CPU      4.76s WALL (    1036 calls)
     add_vuspsi   :      0.00s CPU      0.08s WALL (    1036 calls)

     General routines
     calbec       :      0.63s CPU      0.16s WALL (    1324 calls)
     fft          :      0.11s CPU      0.12s WALL (     142 calls)
     ffts         :      0.00s CPU      0.00s WALL (      17 calls)
     fftw         :      4.88s CPU      5.14s WALL (   43686 calls)
     interpolate  :      0.01s CPU      0.02s WALL (      17 calls)
     davcio       :      0.00s CPU      0.00s WALL (      52 calls)
 
     Parallel routines
     fft_scatter  :      1.97s CPU      1.55s WALL (   43845 calls)
 
     PWSCF        :    10.16s CPU        12.83s WALL

 
   This run was terminated on:  12:54: 8  27Jun2018            

=------------------------------------------------------------------------------=
   JOB DONE.
=------------------------------------------------------------------------------=
2
2
2
2
2
2
2
2
2
2
2
2
2
2
2
2
2
2
2
2
2
2
2
2
