# CALLTREE;init_0;Main-PWSCF_0;run-PWSCF_0;run-PWSCF-electrons_function_1;electrons-electrons_scf_function_0
# Job info - HDEEM
JOB ID,17281896.18
Nodelist,taurusi5610
AVG Runtime of function [s],17.2957
MAX Runtime of function [s],17.2957
MIN Runtime of function [s],17.2957
# COUNTERS - HDEEM: 
AVG Energy consumption [J] (Stats structure),3037.46
MAX Energy consumption [J] (Stats structure),3037.46
MIN Energy consumption [J] (Stats structure),3037.46
SUM Energy consumption [J] (Stats structure),3037.46
# CALLTREE;init_0;Main-PWSCF_0;run-PWSCF_0;run-PWSCF-electrons_function_1;electrons-electrons_scf_function_0
# Job info - HDEEM
JOB ID,17281896.18
Nodelist,taurusi5610
AVG Runtime of function [s],10.6997
MAX Runtime of function [s],10.6997
MIN Runtime of function [s],10.6997
# COUNTERS - HDEEM: 
AVG Energy consumption [J] (Stats structure),1889.05
MAX Energy consumption [J] (Stats structure),1889.05
MIN Energy consumption [J] (Stats structure),1889.05
SUM Energy consumption [J] (Stats structure),1889.05
# CALLTREE;init_0;Main-PWSCF_0;run-PWSCF_0;run-PWSCF-electrons_function_1;electrons-electrons_scf_function_0
# Job info - HDEEM
JOB ID,17281896.18
Nodelist,taurusi5610
AVG Runtime of function [s],10.1633
MAX Runtime of function [s],10.1633
MIN Runtime of function [s],10.1633
# COUNTERS - HDEEM: 
AVG Energy consumption [J] (Stats structure),1804.19
MAX Energy consumption [J] (Stats structure),1804.19
MIN Energy consumption [J] (Stats structure),1804.19
SUM Energy consumption [J] (Stats structure),1804.19
# CALLTREE;init_0;Main-PWSCF_0;run-PWSCF_0;run-PWSCF-electrons_function_1;electrons-electrons_scf_function_0
# Job info - HDEEM
JOB ID,17281896.18
Nodelist,taurusi5610
AVG Runtime of function [s],26.8488
MAX Runtime of function [s],26.8488
MIN Runtime of function [s],26.8488
# COUNTERS - HDEEM: 
AVG Energy consumption [J] (Stats structure),4522.65
MAX Energy consumption [J] (Stats structure),4522.65
MIN Energy consumption [J] (Stats structure),4522.65
SUM Energy consumption [J] (Stats structure),4522.65
# CALLTREE;init_0;Main-PWSCF_0;run-PWSCF_0;run-PWSCF-electrons_function_1;electrons-electrons_scf_function_0
# Job info - HDEEM
JOB ID,17281896.18
Nodelist,taurusi5610
AVG Runtime of function [s],24.7208
MAX Runtime of function [s],24.7208
MIN Runtime of function [s],24.7208
# COUNTERS - HDEEM: 
AVG Energy consumption [J] (Stats structure),4202.73
MAX Energy consumption [J] (Stats structure),4202.73
MIN Energy consumption [J] (Stats structure),4202.73
SUM Energy consumption [J] (Stats structure),4202.73
# CALLTREE;init_0;Main-PWSCF_0;run-PWSCF_0;run-PWSCF-electrons_function_1;electrons-electrons_scf_function_0
# Job info - HDEEM
JOB ID,17281896.18
Nodelist,taurusi5610
AVG Runtime of function [s],19.3741
MAX Runtime of function [s],19.3741
MIN Runtime of function [s],19.3741
# COUNTERS - HDEEM: 
AVG Energy consumption [J] (Stats structure),3307.29
MAX Energy consumption [J] (Stats structure),3307.29
MIN Energy consumption [J] (Stats structure),3307.29
SUM Energy consumption [J] (Stats structure),3307.29
# CALLTREE;init_0;Main-PWSCF_0;run-PWSCF_0;run-PWSCF-electrons_function_1;electrons-electrons_scf_function_0
# Job info - HDEEM
JOB ID,17281896.18
Nodelist,taurusi5610
AVG Runtime of function [s],14.3167
MAX Runtime of function [s],14.3167
MIN Runtime of function [s],14.3167
# COUNTERS - HDEEM: 
AVG Energy consumption [J] (Stats structure),2509.63
MAX Energy consumption [J] (Stats structure),2509.63
MIN Energy consumption [J] (Stats structure),2509.63
SUM Energy consumption [J] (Stats structure),2509.63
# CALLTREE;init_0;Main-PWSCF_0;run-PWSCF_0;run-PWSCF-electrons_function_1;electrons-electrons_scf_function_0
# Job info - HDEEM
JOB ID,17281896.18
Nodelist,taurusi5610
AVG Runtime of function [s],15.8163
MAX Runtime of function [s],15.8163
MIN Runtime of function [s],15.8163
# COUNTERS - HDEEM: 
AVG Energy consumption [J] (Stats structure),2781.1
MAX Energy consumption [J] (Stats structure),2781.1
MIN Energy consumption [J] (Stats structure),2781.1
SUM Energy consumption [J] (Stats structure),2781.1
# CALLTREE;init_0;Main-PWSCF_0;run-PWSCF_0;run-PWSCF-electrons_function_1;electrons-electrons_scf_function_0
# Job info - HDEEM
JOB ID,17281896.18
Nodelist,taurusi5610
AVG Runtime of function [s],15.7174
MAX Runtime of function [s],15.7174
MIN Runtime of function [s],15.7174
# COUNTERS - HDEEM: 
AVG Energy consumption [J] (Stats structure),2765.98
MAX Energy consumption [J] (Stats structure),2765.98
MIN Energy consumption [J] (Stats structure),2765.98
SUM Energy consumption [J] (Stats structure),2765.98
# CALLTREE;init_0;Main-PWSCF_0;run-PWSCF_0;run-PWSCF-electrons_function_1;electrons-electrons_scf_function_0
# Job info - HDEEM
JOB ID,17281896.18
Nodelist,taurusi5610
AVG Runtime of function [s],15.1235
MAX Runtime of function [s],15.1235
MIN Runtime of function [s],15.1235
# COUNTERS - HDEEM: 
AVG Energy consumption [J] (Stats structure),2662
MAX Energy consumption [J] (Stats structure),2662
MIN Energy consumption [J] (Stats structure),2662
SUM Energy consumption [J] (Stats structure),2662
# CALLTREE;init_0;Main-PWSCF_0;run-PWSCF_0;run-PWSCF-electrons_function_1;electrons-electrons_scf_function_0
# Job info - HDEEM
JOB ID,17281896.18
Nodelist,taurusi5610
AVG Runtime of function [s],15.1528
MAX Runtime of function [s],15.1528
MIN Runtime of function [s],15.1528
# COUNTERS - HDEEM: 
AVG Energy consumption [J] (Stats structure),2659.75
MAX Energy consumption [J] (Stats structure),2659.75
MIN Energy consumption [J] (Stats structure),2659.75
SUM Energy consumption [J] (Stats structure),2659.75
# CALLTREE;init_0;Main-PWSCF_0;run-PWSCF_0;run-PWSCF-electrons_function_1;electrons-electrons_scf_function_0
# Job info - HDEEM
JOB ID,17281896.18
Nodelist,taurusi5610
AVG Runtime of function [s],12.7947
MAX Runtime of function [s],12.7947
MIN Runtime of function [s],12.7947
# COUNTERS - HDEEM: 
AVG Energy consumption [J] (Stats structure),2246.06
MAX Energy consumption [J] (Stats structure),2246.06
MIN Energy consumption [J] (Stats structure),2246.06
SUM Energy consumption [J] (Stats structure),2246.06
# CALLTREE;init_0;Main-PWSCF_0;run-PWSCF_0;run-PWSCF-electrons_function_1;electrons-electrons_scf_function_0
# Job info - HDEEM
JOB ID,17281896.18
Nodelist,taurusi5610
AVG Runtime of function [s],16.1093
MAX Runtime of function [s],16.1093
MIN Runtime of function [s],16.1093
# COUNTERS - HDEEM: 
AVG Energy consumption [J] (Stats structure),2837.59
MAX Energy consumption [J] (Stats structure),2837.59
MIN Energy consumption [J] (Stats structure),2837.59
SUM Energy consumption [J] (Stats structure),2837.59
# CALLTREE;init_0;Main-PWSCF_0;run-PWSCF_0;run-PWSCF-electrons_function_1;electrons-electrons_scf_function_0
# Job info - HDEEM
JOB ID,17281896.18
Nodelist,taurusi5610
AVG Runtime of function [s],15.1722
MAX Runtime of function [s],15.1722
MIN Runtime of function [s],15.1722
# COUNTERS - HDEEM: 
AVG Energy consumption [J] (Stats structure),2676.6
MAX Energy consumption [J] (Stats structure),2676.6
MIN Energy consumption [J] (Stats structure),2676.6
SUM Energy consumption [J] (Stats structure),2676.6
# CALLTREE;init_0;Main-PWSCF_0;run-PWSCF_0;run-PWSCF-electrons_function_1;electrons-electrons_scf_function_0
# Job info - HDEEM
JOB ID,17281896.18
Nodelist,taurusi5610
AVG Runtime of function [s],10.3398
MAX Runtime of function [s],10.3398
MIN Runtime of function [s],10.3398
# COUNTERS - HDEEM: 
AVG Energy consumption [J] (Stats structure),1833.07
MAX Energy consumption [J] (Stats structure),1833.07
MIN Energy consumption [J] (Stats structure),1833.07
SUM Energy consumption [J] (Stats structure),1833.07
# CALLTREE;init_0;Main-PWSCF_0;run-PWSCF_0;run-PWSCF-electrons_function_1;electrons-electrons_scf_function_0
# Job info - HDEEM
JOB ID,17281896.18
Nodelist,taurusi5610
AVG Runtime of function [s],10.1246
MAX Runtime of function [s],10.1246
MIN Runtime of function [s],10.1246
# COUNTERS - HDEEM: 
AVG Energy consumption [J] (Stats structure),1798.85
MAX Energy consumption [J] (Stats structure),1798.85
MIN Energy consumption [J] (Stats structure),1798.85
SUM Energy consumption [J] (Stats structure),1798.85
