# CALLTREE;init_0;Main-PWSCF_0;run-PWSCF_0;run-PWSCF-electrons_function_1;electrons-electrons_scf_function_0
# Job info - HDEEM
JOB ID,17281896.11
Nodelist,taurusi5610
AVG Runtime of function [s],13.4529
MAX Runtime of function [s],13.4529
MIN Runtime of function [s],13.4529
# COUNTERS - HDEEM: 
AVG Energy consumption [J] (Stats structure),2950.78
MAX Energy consumption [J] (Stats structure),2950.78
MIN Energy consumption [J] (Stats structure),2950.78
SUM Energy consumption [J] (Stats structure),2950.78
# CALLTREE;init_0;Main-PWSCF_0;run-PWSCF_0;run-PWSCF-electrons_function_1;electrons-electrons_scf_function_0
# Job info - HDEEM
JOB ID,17281896.11
Nodelist,taurusi5610
AVG Runtime of function [s],8.3973
MAX Runtime of function [s],8.3973
MIN Runtime of function [s],8.3973
# COUNTERS - HDEEM: 
AVG Energy consumption [J] (Stats structure),1850.74
MAX Energy consumption [J] (Stats structure),1850.74
MIN Energy consumption [J] (Stats structure),1850.74
SUM Energy consumption [J] (Stats structure),1850.74
# CALLTREE;init_0;Main-PWSCF_0;run-PWSCF_0;run-PWSCF-electrons_function_1;electrons-electrons_scf_function_0
# Job info - HDEEM
JOB ID,17281896.11
Nodelist,taurusi5610
AVG Runtime of function [s],7.93637
MAX Runtime of function [s],7.93637
MIN Runtime of function [s],7.93637
# COUNTERS - HDEEM: 
AVG Energy consumption [J] (Stats structure),1764.05
MAX Energy consumption [J] (Stats structure),1764.05
MIN Energy consumption [J] (Stats structure),1764.05
SUM Energy consumption [J] (Stats structure),1764.05
# CALLTREE;init_0;Main-PWSCF_0;run-PWSCF_0;run-PWSCF-electrons_function_1;electrons-electrons_scf_function_0
# Job info - HDEEM
JOB ID,17281896.11
Nodelist,taurusi5610
AVG Runtime of function [s],21.2789
MAX Runtime of function [s],21.2789
MIN Runtime of function [s],21.2789
# COUNTERS - HDEEM: 
AVG Energy consumption [J] (Stats structure),4411.05
MAX Energy consumption [J] (Stats structure),4411.05
MIN Energy consumption [J] (Stats structure),4411.05
SUM Energy consumption [J] (Stats structure),4411.05
# CALLTREE;init_0;Main-PWSCF_0;run-PWSCF_0;run-PWSCF-electrons_function_1;electrons-electrons_scf_function_0
# Job info - HDEEM
JOB ID,17281896.11
Nodelist,taurusi5610
AVG Runtime of function [s],19.4934
MAX Runtime of function [s],19.4934
MIN Runtime of function [s],19.4934
# COUNTERS - HDEEM: 
AVG Energy consumption [J] (Stats structure),4091.81
MAX Energy consumption [J] (Stats structure),4091.81
MIN Energy consumption [J] (Stats structure),4091.81
SUM Energy consumption [J] (Stats structure),4091.81
# CALLTREE;init_0;Main-PWSCF_0;run-PWSCF_0;run-PWSCF-electrons_function_1;electrons-electrons_scf_function_0
# Job info - HDEEM
JOB ID,17281896.11
Nodelist,taurusi5610
AVG Runtime of function [s],15.3583
MAX Runtime of function [s],15.3583
MIN Runtime of function [s],15.3583
# COUNTERS - HDEEM: 
AVG Energy consumption [J] (Stats structure),3238.62
MAX Energy consumption [J] (Stats structure),3238.62
MIN Energy consumption [J] (Stats structure),3238.62
SUM Energy consumption [J] (Stats structure),3238.62
# CALLTREE;init_0;Main-PWSCF_0;run-PWSCF_0;run-PWSCF-electrons_function_1;electrons-electrons_scf_function_0
# Job info - HDEEM
JOB ID,17281896.11
Nodelist,taurusi5610
AVG Runtime of function [s],11.2363
MAX Runtime of function [s],11.2363
MIN Runtime of function [s],11.2363
# COUNTERS - HDEEM: 
AVG Energy consumption [J] (Stats structure),2455.45
MAX Energy consumption [J] (Stats structure),2455.45
MIN Energy consumption [J] (Stats structure),2455.45
SUM Energy consumption [J] (Stats structure),2455.45
# CALLTREE;init_0;Main-PWSCF_0;run-PWSCF_0;run-PWSCF-electrons_function_1;electrons-electrons_scf_function_0
# Job info - HDEEM
JOB ID,17281896.11
Nodelist,taurusi5610
AVG Runtime of function [s],12.3627
MAX Runtime of function [s],12.3627
MIN Runtime of function [s],12.3627
# COUNTERS - HDEEM: 
AVG Energy consumption [J] (Stats structure),2713.01
MAX Energy consumption [J] (Stats structure),2713.01
MIN Energy consumption [J] (Stats structure),2713.01
SUM Energy consumption [J] (Stats structure),2713.01
# CALLTREE;init_0;Main-PWSCF_0;run-PWSCF_0;run-PWSCF-electrons_function_1;electrons-electrons_scf_function_0
# Job info - HDEEM
JOB ID,17281896.11
Nodelist,taurusi5610
AVG Runtime of function [s],12.3277
MAX Runtime of function [s],12.3277
MIN Runtime of function [s],12.3277
# COUNTERS - HDEEM: 
AVG Energy consumption [J] (Stats structure),2706.23
MAX Energy consumption [J] (Stats structure),2706.23
MIN Energy consumption [J] (Stats structure),2706.23
SUM Energy consumption [J] (Stats structure),2706.23
# CALLTREE;init_0;Main-PWSCF_0;run-PWSCF_0;run-PWSCF-electrons_function_1;electrons-electrons_scf_function_0
# Job info - HDEEM
JOB ID,17281896.11
Nodelist,taurusi5610
AVG Runtime of function [s],11.9499
MAX Runtime of function [s],11.9499
MIN Runtime of function [s],11.9499
# COUNTERS - HDEEM: 
AVG Energy consumption [J] (Stats structure),2621.79
MAX Energy consumption [J] (Stats structure),2621.79
MIN Energy consumption [J] (Stats structure),2621.79
SUM Energy consumption [J] (Stats structure),2621.79
# CALLTREE;init_0;Main-PWSCF_0;run-PWSCF_0;run-PWSCF-electrons_function_1;electrons-electrons_scf_function_0
# Job info - HDEEM
JOB ID,17281896.11
Nodelist,taurusi5610
AVG Runtime of function [s],11.8221
MAX Runtime of function [s],11.8221
MIN Runtime of function [s],11.8221
# COUNTERS - HDEEM: 
AVG Energy consumption [J] (Stats structure),2590.1
MAX Energy consumption [J] (Stats structure),2590.1
MIN Energy consumption [J] (Stats structure),2590.1
SUM Energy consumption [J] (Stats structure),2590.1
# CALLTREE;init_0;Main-PWSCF_0;run-PWSCF_0;run-PWSCF-electrons_function_1;electrons-electrons_scf_function_0
# Job info - HDEEM
JOB ID,17281896.11
Nodelist,taurusi5610
AVG Runtime of function [s],10.0469
MAX Runtime of function [s],10.0469
MIN Runtime of function [s],10.0469
# COUNTERS - HDEEM: 
AVG Energy consumption [J] (Stats structure),2197.5
MAX Energy consumption [J] (Stats structure),2197.5
MIN Energy consumption [J] (Stats structure),2197.5
SUM Energy consumption [J] (Stats structure),2197.5
# CALLTREE;init_0;Main-PWSCF_0;run-PWSCF_0;run-PWSCF-electrons_function_1;electrons-electrons_scf_function_0
# Job info - HDEEM
JOB ID,17281896.11
Nodelist,taurusi5610
AVG Runtime of function [s],12.6666
MAX Runtime of function [s],12.6666
MIN Runtime of function [s],12.6666
# COUNTERS - HDEEM: 
AVG Energy consumption [J] (Stats structure),2782.12
MAX Energy consumption [J] (Stats structure),2782.12
MIN Energy consumption [J] (Stats structure),2782.12
SUM Energy consumption [J] (Stats structure),2782.12
# CALLTREE;init_0;Main-PWSCF_0;run-PWSCF_0;run-PWSCF-electrons_function_1;electrons-electrons_scf_function_0
# Job info - HDEEM
JOB ID,17281896.11
Nodelist,taurusi5610
AVG Runtime of function [s],11.8461
MAX Runtime of function [s],11.8461
MIN Runtime of function [s],11.8461
# COUNTERS - HDEEM: 
AVG Energy consumption [J] (Stats structure),2611.22
MAX Energy consumption [J] (Stats structure),2611.22
MIN Energy consumption [J] (Stats structure),2611.22
SUM Energy consumption [J] (Stats structure),2611.22
# CALLTREE;init_0;Main-PWSCF_0;run-PWSCF_0;run-PWSCF-electrons_function_1;electrons-electrons_scf_function_0
# Job info - HDEEM
JOB ID,17281896.11
Nodelist,taurusi5610
AVG Runtime of function [s],8.09095
MAX Runtime of function [s],8.09095
MIN Runtime of function [s],8.09095
# COUNTERS - HDEEM: 
AVG Energy consumption [J] (Stats structure),1794
MAX Energy consumption [J] (Stats structure),1794
MIN Energy consumption [J] (Stats structure),1794
SUM Energy consumption [J] (Stats structure),1794
# CALLTREE;init_0;Main-PWSCF_0;run-PWSCF_0;run-PWSCF-electrons_function_1;electrons-electrons_scf_function_0
# Job info - HDEEM
JOB ID,17281896.11
Nodelist,taurusi5610
AVG Runtime of function [s],7.89696
MAX Runtime of function [s],7.89696
MIN Runtime of function [s],7.89696
# COUNTERS - HDEEM: 
AVG Energy consumption [J] (Stats structure),1756.8
MAX Energy consumption [J] (Stats structure),1756.8
MIN Energy consumption [J] (Stats structure),1756.8
SUM Energy consumption [J] (Stats structure),1756.8
