# CALLTREE;init_0;Main-PWSCF_0;run-PWSCF_0;run-PWSCF-electrons_function_1;electrons-electrons_scf_function_0
# Job info - HDEEM
JOB ID,17281896.16
Nodelist,taurusi5610
AVG Runtime of function [s],16.9001
MAX Runtime of function [s],16.9001
MIN Runtime of function [s],16.9001
# COUNTERS - HDEEM: 
AVG Energy consumption [J] (Stats structure),3298.82
MAX Energy consumption [J] (Stats structure),3298.82
MIN Energy consumption [J] (Stats structure),3298.82
SUM Energy consumption [J] (Stats structure),3298.82
# CALLTREE;init_0;Main-PWSCF_0;run-PWSCF_0;run-PWSCF-electrons_function_1;electrons-electrons_scf_function_0
# Job info - HDEEM
JOB ID,17281896.16
Nodelist,taurusi5610
AVG Runtime of function [s],10.4637
MAX Runtime of function [s],10.4637
MIN Runtime of function [s],10.4637
# COUNTERS - HDEEM: 
AVG Energy consumption [J] (Stats structure),2053.49
MAX Energy consumption [J] (Stats structure),2053.49
MIN Energy consumption [J] (Stats structure),2053.49
SUM Energy consumption [J] (Stats structure),2053.49
# CALLTREE;init_0;Main-PWSCF_0;run-PWSCF_0;run-PWSCF-electrons_function_1;electrons-electrons_scf_function_0
# Job info - HDEEM
JOB ID,17281896.16
Nodelist,taurusi5610
AVG Runtime of function [s],9.9565
MAX Runtime of function [s],9.9565
MIN Runtime of function [s],9.9565
# COUNTERS - HDEEM: 
AVG Energy consumption [J] (Stats structure),1964.81
MAX Energy consumption [J] (Stats structure),1964.81
MIN Energy consumption [J] (Stats structure),1964.81
SUM Energy consumption [J] (Stats structure),1964.81
# CALLTREE;init_0;Main-PWSCF_0;run-PWSCF_0;run-PWSCF-electrons_function_1;electrons-electrons_scf_function_0
# Job info - HDEEM
JOB ID,17281896.16
Nodelist,taurusi5610
AVG Runtime of function [s],26.2806
MAX Runtime of function [s],26.2806
MIN Runtime of function [s],26.2806
# COUNTERS - HDEEM: 
AVG Energy consumption [J] (Stats structure),4915.65
MAX Energy consumption [J] (Stats structure),4915.65
MIN Energy consumption [J] (Stats structure),4915.65
SUM Energy consumption [J] (Stats structure),4915.65
# CALLTREE;init_0;Main-PWSCF_0;run-PWSCF_0;run-PWSCF-electrons_function_1;electrons-electrons_scf_function_0
# Job info - HDEEM
JOB ID,17281896.16
Nodelist,taurusi5610
AVG Runtime of function [s],24.1469
MAX Runtime of function [s],24.1469
MIN Runtime of function [s],24.1469
# COUNTERS - HDEEM: 
AVG Energy consumption [J] (Stats structure),4559.9
MAX Energy consumption [J] (Stats structure),4559.9
MIN Energy consumption [J] (Stats structure),4559.9
SUM Energy consumption [J] (Stats structure),4559.9
# CALLTREE;init_0;Main-PWSCF_0;run-PWSCF_0;run-PWSCF-electrons_function_1;electrons-electrons_scf_function_0
# Job info - HDEEM
JOB ID,17281896.16
Nodelist,taurusi5610
AVG Runtime of function [s],19.013
MAX Runtime of function [s],19.013
MIN Runtime of function [s],19.013
# COUNTERS - HDEEM: 
AVG Energy consumption [J] (Stats structure),3604
MAX Energy consumption [J] (Stats structure),3604
MIN Energy consumption [J] (Stats structure),3604
SUM Energy consumption [J] (Stats structure),3604
# CALLTREE;init_0;Main-PWSCF_0;run-PWSCF_0;run-PWSCF-electrons_function_1;electrons-electrons_scf_function_0
# Job info - HDEEM
JOB ID,17281896.16
Nodelist,taurusi5610
AVG Runtime of function [s],14.0035
MAX Runtime of function [s],14.0035
MIN Runtime of function [s],14.0035
# COUNTERS - HDEEM: 
AVG Energy consumption [J] (Stats structure),2728.07
MAX Energy consumption [J] (Stats structure),2728.07
MIN Energy consumption [J] (Stats structure),2728.07
SUM Energy consumption [J] (Stats structure),2728.07
# CALLTREE;init_0;Main-PWSCF_0;run-PWSCF_0;run-PWSCF-electrons_function_1;electrons-electrons_scf_function_0
# Job info - HDEEM
JOB ID,17281896.16
Nodelist,taurusi5610
AVG Runtime of function [s],15.4053
MAX Runtime of function [s],15.4053
MIN Runtime of function [s],15.4053
# COUNTERS - HDEEM: 
AVG Energy consumption [J] (Stats structure),3011.95
MAX Energy consumption [J] (Stats structure),3011.95
MIN Energy consumption [J] (Stats structure),3011.95
SUM Energy consumption [J] (Stats structure),3011.95
# CALLTREE;init_0;Main-PWSCF_0;run-PWSCF_0;run-PWSCF-electrons_function_1;electrons-electrons_scf_function_0
# Job info - HDEEM
JOB ID,17281896.16
Nodelist,taurusi5610
AVG Runtime of function [s],15.4081
MAX Runtime of function [s],15.4081
MIN Runtime of function [s],15.4081
# COUNTERS - HDEEM: 
AVG Energy consumption [J] (Stats structure),3011.66
MAX Energy consumption [J] (Stats structure),3011.66
MIN Energy consumption [J] (Stats structure),3011.66
SUM Energy consumption [J] (Stats structure),3011.66
# CALLTREE;init_0;Main-PWSCF_0;run-PWSCF_0;run-PWSCF-electrons_function_1;electrons-electrons_scf_function_0
# Job info - HDEEM
JOB ID,17281896.16
Nodelist,taurusi5610
AVG Runtime of function [s],14.7758
MAX Runtime of function [s],14.7758
MIN Runtime of function [s],14.7758
# COUNTERS - HDEEM: 
AVG Energy consumption [J] (Stats structure),2890.9
MAX Energy consumption [J] (Stats structure),2890.9
MIN Energy consumption [J] (Stats structure),2890.9
SUM Energy consumption [J] (Stats structure),2890.9
# CALLTREE;init_0;Main-PWSCF_0;run-PWSCF_0;run-PWSCF-electrons_function_1;electrons-electrons_scf_function_0
# Job info - HDEEM
JOB ID,17281896.16
Nodelist,taurusi5610
AVG Runtime of function [s],14.7427
MAX Runtime of function [s],14.7427
MIN Runtime of function [s],14.7427
# COUNTERS - HDEEM: 
AVG Energy consumption [J] (Stats structure),2878.22
MAX Energy consumption [J] (Stats structure),2878.22
MIN Energy consumption [J] (Stats structure),2878.22
SUM Energy consumption [J] (Stats structure),2878.22
# CALLTREE;init_0;Main-PWSCF_0;run-PWSCF_0;run-PWSCF-electrons_function_1;electrons-electrons_scf_function_0
# Job info - HDEEM
JOB ID,17281896.16
Nodelist,taurusi5610
AVG Runtime of function [s],12.5283
MAX Runtime of function [s],12.5283
MIN Runtime of function [s],12.5283
# COUNTERS - HDEEM: 
AVG Energy consumption [J] (Stats structure),2442.47
MAX Energy consumption [J] (Stats structure),2442.47
MIN Energy consumption [J] (Stats structure),2442.47
SUM Energy consumption [J] (Stats structure),2442.47
# CALLTREE;init_0;Main-PWSCF_0;run-PWSCF_0;run-PWSCF-electrons_function_1;electrons-electrons_scf_function_0
# Job info - HDEEM
JOB ID,17281896.16
Nodelist,taurusi5610
AVG Runtime of function [s],15.7874
MAX Runtime of function [s],15.7874
MIN Runtime of function [s],15.7874
# COUNTERS - HDEEM: 
AVG Energy consumption [J] (Stats structure),3089.28
MAX Energy consumption [J] (Stats structure),3089.28
MIN Energy consumption [J] (Stats structure),3089.28
SUM Energy consumption [J] (Stats structure),3089.28
# CALLTREE;init_0;Main-PWSCF_0;run-PWSCF_0;run-PWSCF-electrons_function_1;electrons-electrons_scf_function_0
# Job info - HDEEM
JOB ID,17281896.16
Nodelist,taurusi5610
AVG Runtime of function [s],14.7724
MAX Runtime of function [s],14.7724
MIN Runtime of function [s],14.7724
# COUNTERS - HDEEM: 
AVG Energy consumption [J] (Stats structure),2898.98
MAX Energy consumption [J] (Stats structure),2898.98
MIN Energy consumption [J] (Stats structure),2898.98
SUM Energy consumption [J] (Stats structure),2898.98
# CALLTREE;init_0;Main-PWSCF_0;run-PWSCF_0;run-PWSCF-electrons_function_1;electrons-electrons_scf_function_0
# Job info - HDEEM
JOB ID,17281896.16
Nodelist,taurusi5610
AVG Runtime of function [s],10.1344
MAX Runtime of function [s],10.1344
MIN Runtime of function [s],10.1344
# COUNTERS - HDEEM: 
AVG Energy consumption [J] (Stats structure),1996.17
MAX Energy consumption [J] (Stats structure),1996.17
MIN Energy consumption [J] (Stats structure),1996.17
SUM Energy consumption [J] (Stats structure),1996.17
# CALLTREE;init_0;Main-PWSCF_0;run-PWSCF_0;run-PWSCF-electrons_function_1;electrons-electrons_scf_function_0
# Job info - HDEEM
JOB ID,17281896.16
Nodelist,taurusi5610
AVG Runtime of function [s],9.95444
MAX Runtime of function [s],9.95444
MIN Runtime of function [s],9.95444
# COUNTERS - HDEEM: 
AVG Energy consumption [J] (Stats structure),1963.85
MAX Energy consumption [J] (Stats structure),1963.85
MIN Energy consumption [J] (Stats structure),1963.85
SUM Energy consumption [J] (Stats structure),1963.85
