# CALLTREE;init_0;Main-PWSCF_0;run-PWSCF_0
# Job info - HDEEM
JOB ID,17281565.3
Nodelist,taurusi5540
AVG Runtime of function [s],22.6247
MAX Runtime of function [s],22.6247
MIN Runtime of function [s],22.6247
# COUNTERS - HDEEM: 
AVG Energy consumption [J] (Stats structure),4987.61
MAX Energy consumption [J] (Stats structure),4987.61
MIN Energy consumption [J] (Stats structure),4987.61
SUM Energy consumption [J] (Stats structure),4987.61
# CALLTREE;init_0;Main-PWSCF_0;run-PWSCF_0
# Job info - HDEEM
JOB ID,17281565.3
Nodelist,taurusi5540
AVG Runtime of function [s],708.664
MAX Runtime of function [s],708.664
MIN Runtime of function [s],708.664
# COUNTERS - HDEEM: 
AVG Energy consumption [J] (Stats structure),155917
MAX Energy consumption [J] (Stats structure),155917
MIN Energy consumption [J] (Stats structure),155917
SUM Energy consumption [J] (Stats structure),155917
