# CALLTREE;init_0;Main-PWSCF_0;run-PWSCF_0
# Job info - HDEEM
JOB ID,17281565.14
Nodelist,taurusi5540
AVG Runtime of function [s],25.085
MAX Runtime of function [s],25.085
MIN Runtime of function [s],25.085
# COUNTERS - HDEEM: 
AVG Energy consumption [J] (Stats structure),4151.57
MAX Energy consumption [J] (Stats structure),4151.57
MIN Energy consumption [J] (Stats structure),4151.57
SUM Energy consumption [J] (Stats structure),4151.57
# CALLTREE;init_0;Main-PWSCF_0;run-PWSCF_0
# Job info - HDEEM
JOB ID,17281565.14
Nodelist,taurusi5540
AVG Runtime of function [s],788.281
MAX Runtime of function [s],788.281
MIN Runtime of function [s],788.281
# COUNTERS - HDEEM: 
AVG Energy consumption [J] (Stats structure),130189
MAX Energy consumption [J] (Stats structure),130189
MIN Energy consumption [J] (Stats structure),130189
SUM Energy consumption [J] (Stats structure),130189
