# CALLTREE;init_0;Main-PWSCF_0;run-PWSCF_0
# Job info - HDEEM
JOB ID,17281565.11
Nodelist,taurusi5540
AVG Runtime of function [s],24.3597
MAX Runtime of function [s],24.3597
MIN Runtime of function [s],24.3597
# COUNTERS - HDEEM: 
AVG Energy consumption [J] (Stats structure),4548.7
MAX Energy consumption [J] (Stats structure),4548.7
MIN Energy consumption [J] (Stats structure),4548.7
SUM Energy consumption [J] (Stats structure),4548.7
# CALLTREE;init_0;Main-PWSCF_0;run-PWSCF_0
# Job info - HDEEM
JOB ID,17281565.11
Nodelist,taurusi5540
AVG Runtime of function [s],763.686
MAX Runtime of function [s],763.686
MIN Runtime of function [s],763.686
# COUNTERS - HDEEM: 
AVG Energy consumption [J] (Stats structure),142282
MAX Energy consumption [J] (Stats structure),142282
MIN Energy consumption [J] (Stats structure),142282
SUM Energy consumption [J] (Stats structure),142282
