# CALLTREE;init_0;Main-PWSCF_0;run-PWSCF_0;run-PWSCF-electrons_function_1
# Job info - HDEEM
JOB ID,17280380.12
Nodelist,taurusi5526
AVG Runtime of function [s],625.011
MAX Runtime of function [s],625.011
MIN Runtime of function [s],625.011
# COUNTERS - HDEEM: 
AVG Energy consumption [J] (Stats structure),67817.7
MAX Energy consumption [J] (Stats structure),67817.7
MIN Energy consumption [J] (Stats structure),67817.7
SUM Energy consumption [J] (Stats structure),67817.7
