# CALLTREE;init_0;Main-PWSCF_0;run-PWSCF_0;run-PWSCF-electrons_function_1;electrons-electrons_scf_function_0;c_bands_function_0;diag_bands_k_function_0
# Job info - HDEEM
JOB ID,17281565.18
Nodelist,taurusi5540
AVG Runtime of function [s],11.8799
MAX Runtime of function [s],11.8799
MIN Runtime of function [s],11.8799
# COUNTERS - HDEEM: 
AVG Energy consumption [J] (Stats structure),1899.22
MAX Energy consumption [J] (Stats structure),1899.22
MIN Energy consumption [J] (Stats structure),1899.22
SUM Energy consumption [J] (Stats structure),1899.22
# CALLTREE;init_0;Main-PWSCF_0;run-PWSCF_0;run-PWSCF-electrons_function_1;electrons-electrons_scf_function_0;c_bands_function_0;diag_bands_k_function_1
# Job info - HDEEM
JOB ID,17281565.18
Nodelist,taurusi5540
AVG Runtime of function [s],12.2695
MAX Runtime of function [s],12.2695
MIN Runtime of function [s],12.2695
# COUNTERS - HDEEM: 
AVG Energy consumption [J] (Stats structure),1960.87
MAX Energy consumption [J] (Stats structure),1960.87
MIN Energy consumption [J] (Stats structure),1960.87
SUM Energy consumption [J] (Stats structure),1960.87
# CALLTREE;init_0;Main-PWSCF_0;run-PWSCF_0;run-PWSCF-electrons_function_1;electrons-electrons_scf_function_0;c_bands_function_0;diag_bands_k_function_2
# Job info - HDEEM
JOB ID,17281565.18
Nodelist,taurusi5540
AVG Runtime of function [s],12.4045
MAX Runtime of function [s],12.4045
MIN Runtime of function [s],12.4045
# COUNTERS - HDEEM: 
AVG Energy consumption [J] (Stats structure),1983.22
MAX Energy consumption [J] (Stats structure),1983.22
MIN Energy consumption [J] (Stats structure),1983.22
SUM Energy consumption [J] (Stats structure),1983.22
# CALLTREE;init_0;Main-PWSCF_0;run-PWSCF_0;run-PWSCF-electrons_function_1;electrons-electrons_scf_function_0;c_bands_function_0;diag_bands_k_function_3
# Job info - HDEEM
JOB ID,17281565.18
Nodelist,taurusi5540
AVG Runtime of function [s],12.3632
MAX Runtime of function [s],12.3632
MIN Runtime of function [s],12.3632
# COUNTERS - HDEEM: 
AVG Energy consumption [J] (Stats structure),1976.64
MAX Energy consumption [J] (Stats structure),1976.64
MIN Energy consumption [J] (Stats structure),1976.64
SUM Energy consumption [J] (Stats structure),1976.64
# CALLTREE;init_0;Main-PWSCF_0;run-PWSCF_0;run-PWSCF-electrons_function_1;electrons-electrons_scf_function_0;c_bands_function_1;diag_bands_k_function_0
# Job info - HDEEM
JOB ID,17281565.18
Nodelist,taurusi5540
AVG Runtime of function [s],7.9786
MAX Runtime of function [s],7.9786
MIN Runtime of function [s],7.9786
# COUNTERS - HDEEM: 
AVG Energy consumption [J] (Stats structure),1273.54
MAX Energy consumption [J] (Stats structure),1273.54
MIN Energy consumption [J] (Stats structure),1273.54
SUM Energy consumption [J] (Stats structure),1273.54
# CALLTREE;init_0;Main-PWSCF_0;run-PWSCF_0;run-PWSCF-electrons_function_1;electrons-electrons_scf_function_0;c_bands_function_1;diag_bands_k_function_1
# Job info - HDEEM
JOB ID,17281565.18
Nodelist,taurusi5540
AVG Runtime of function [s],8.07353
MAX Runtime of function [s],8.07353
MIN Runtime of function [s],8.07353
# COUNTERS - HDEEM: 
AVG Energy consumption [J] (Stats structure),1288.66
MAX Energy consumption [J] (Stats structure),1288.66
MIN Energy consumption [J] (Stats structure),1288.66
SUM Energy consumption [J] (Stats structure),1288.66
# CALLTREE;init_0;Main-PWSCF_0;run-PWSCF_0;run-PWSCF-electrons_function_1;electrons-electrons_scf_function_0;c_bands_function_1;diag_bands_k_function_2
# Job info - HDEEM
JOB ID,17281565.18
Nodelist,taurusi5540
AVG Runtime of function [s],7.64277
MAX Runtime of function [s],7.64277
MIN Runtime of function [s],7.64277
# COUNTERS - HDEEM: 
AVG Energy consumption [J] (Stats structure),1220.39
MAX Energy consumption [J] (Stats structure),1220.39
MIN Energy consumption [J] (Stats structure),1220.39
SUM Energy consumption [J] (Stats structure),1220.39
# CALLTREE;init_0;Main-PWSCF_0;run-PWSCF_0;run-PWSCF-electrons_function_1;electrons-electrons_scf_function_0;c_bands_function_1;diag_bands_k_function_3
# Job info - HDEEM
JOB ID,17281565.18
Nodelist,taurusi5540
AVG Runtime of function [s],7.62875
MAX Runtime of function [s],7.62875
MIN Runtime of function [s],7.62875
# COUNTERS - HDEEM: 
AVG Energy consumption [J] (Stats structure),1218.27
MAX Energy consumption [J] (Stats structure),1218.27
MIN Energy consumption [J] (Stats structure),1218.27
SUM Energy consumption [J] (Stats structure),1218.27
# CALLTREE;init_0;Main-PWSCF_0;run-PWSCF_0;run-PWSCF-electrons_function_1;electrons-electrons_scf_function_0;c_bands_function_2;diag_bands_k_function_0
# Job info - HDEEM
JOB ID,17281565.18
Nodelist,taurusi5540
AVG Runtime of function [s],7.73231
MAX Runtime of function [s],7.73231
MIN Runtime of function [s],7.73231
# COUNTERS - HDEEM: 
AVG Energy consumption [J] (Stats structure),1233.97
MAX Energy consumption [J] (Stats structure),1233.97
MIN Energy consumption [J] (Stats structure),1233.97
SUM Energy consumption [J] (Stats structure),1233.97
# CALLTREE;init_0;Main-PWSCF_0;run-PWSCF_0;run-PWSCF-electrons_function_1;electrons-electrons_scf_function_0;c_bands_function_2;diag_bands_k_function_1
# Job info - HDEEM
JOB ID,17281565.18
Nodelist,taurusi5540
AVG Runtime of function [s],7.65189
MAX Runtime of function [s],7.65189
MIN Runtime of function [s],7.65189
# COUNTERS - HDEEM: 
AVG Energy consumption [J] (Stats structure),1221.73
MAX Energy consumption [J] (Stats structure),1221.73
MIN Energy consumption [J] (Stats structure),1221.73
SUM Energy consumption [J] (Stats structure),1221.73
# CALLTREE;init_0;Main-PWSCF_0;run-PWSCF_0;run-PWSCF-electrons_function_1;electrons-electrons_scf_function_0;c_bands_function_2;diag_bands_k_function_2
# Job info - HDEEM
JOB ID,17281565.18
Nodelist,taurusi5540
AVG Runtime of function [s],7.61935
MAX Runtime of function [s],7.61935
MIN Runtime of function [s],7.61935
# COUNTERS - HDEEM: 
AVG Energy consumption [J] (Stats structure),1217.35
MAX Energy consumption [J] (Stats structure),1217.35
MIN Energy consumption [J] (Stats structure),1217.35
SUM Energy consumption [J] (Stats structure),1217.35
# CALLTREE;init_0;Main-PWSCF_0;run-PWSCF_0;run-PWSCF-electrons_function_1;electrons-electrons_scf_function_0;c_bands_function_2;diag_bands_k_function_3
# Job info - HDEEM
JOB ID,17281565.18
Nodelist,taurusi5540
AVG Runtime of function [s],7.65235
MAX Runtime of function [s],7.65235
MIN Runtime of function [s],7.65235
# COUNTERS - HDEEM: 
AVG Energy consumption [J] (Stats structure),1222.55
MAX Energy consumption [J] (Stats structure),1222.55
MIN Energy consumption [J] (Stats structure),1222.55
SUM Energy consumption [J] (Stats structure),1222.55
# CALLTREE;init_0;Main-PWSCF_0;run-PWSCF_0;run-PWSCF-electrons_function_1;electrons-electrons_scf_function_0;c_bands_function_3;diag_bands_k_function_0
# Job info - HDEEM
JOB ID,17281565.18
Nodelist,taurusi5540
AVG Runtime of function [s],12.7337
MAX Runtime of function [s],12.7337
MIN Runtime of function [s],12.7337
# COUNTERS - HDEEM: 
AVG Energy consumption [J] (Stats structure),2032.22
MAX Energy consumption [J] (Stats structure),2032.22
MIN Energy consumption [J] (Stats structure),2032.22
SUM Energy consumption [J] (Stats structure),2032.22
# CALLTREE;init_0;Main-PWSCF_0;run-PWSCF_0;run-PWSCF-electrons_function_1;electrons-electrons_scf_function_0;c_bands_function_3;diag_bands_k_function_1
# Job info - HDEEM
JOB ID,17281565.18
Nodelist,taurusi5540
AVG Runtime of function [s],15.0639
MAX Runtime of function [s],15.0639
MIN Runtime of function [s],15.0639
# COUNTERS - HDEEM: 
AVG Energy consumption [J] (Stats structure),2401.71
MAX Energy consumption [J] (Stats structure),2401.71
MIN Energy consumption [J] (Stats structure),2401.71
SUM Energy consumption [J] (Stats structure),2401.71
# CALLTREE;init_0;Main-PWSCF_0;run-PWSCF_0;run-PWSCF-electrons_function_1;electrons-electrons_scf_function_0;c_bands_function_3;diag_bands_k_function_2
# Job info - HDEEM
JOB ID,17281565.18
Nodelist,taurusi5540
AVG Runtime of function [s],16.5519
MAX Runtime of function [s],16.5519
MIN Runtime of function [s],16.5519
# COUNTERS - HDEEM: 
AVG Energy consumption [J] (Stats structure),2634.78
MAX Energy consumption [J] (Stats structure),2634.78
MIN Energy consumption [J] (Stats structure),2634.78
SUM Energy consumption [J] (Stats structure),2634.78
# CALLTREE;init_0;Main-PWSCF_0;run-PWSCF_0;run-PWSCF-electrons_function_1;electrons-electrons_scf_function_0;c_bands_function_3;diag_bands_k_function_3
# Job info - HDEEM
JOB ID,17281565.18
Nodelist,taurusi5540
AVG Runtime of function [s],15.561
MAX Runtime of function [s],15.561
MIN Runtime of function [s],15.561
# COUNTERS - HDEEM: 
AVG Energy consumption [J] (Stats structure),2479.89
MAX Energy consumption [J] (Stats structure),2479.89
MIN Energy consumption [J] (Stats structure),2479.89
SUM Energy consumption [J] (Stats structure),2479.89
# CALLTREE;init_0;Main-PWSCF_0;run-PWSCF_0;run-PWSCF-electrons_function_1;electrons-electrons_scf_function_0;c_bands_function_4;diag_bands_k_function_0
# Job info - HDEEM
JOB ID,17281565.18
Nodelist,taurusi5540
AVG Runtime of function [s],15.1062
MAX Runtime of function [s],15.1062
MIN Runtime of function [s],15.1062
# COUNTERS - HDEEM: 
AVG Energy consumption [J] (Stats structure),2408.74
MAX Energy consumption [J] (Stats structure),2408.74
MIN Energy consumption [J] (Stats structure),2408.74
SUM Energy consumption [J] (Stats structure),2408.74
# CALLTREE;init_0;Main-PWSCF_0;run-PWSCF_0;run-PWSCF-electrons_function_1;electrons-electrons_scf_function_0;c_bands_function_4;diag_bands_k_function_1
# Job info - HDEEM
JOB ID,17281565.18
Nodelist,taurusi5540
AVG Runtime of function [s],15.4356
MAX Runtime of function [s],15.4356
MIN Runtime of function [s],15.4356
# COUNTERS - HDEEM: 
AVG Energy consumption [J] (Stats structure),2459.46
MAX Energy consumption [J] (Stats structure),2459.46
MIN Energy consumption [J] (Stats structure),2459.46
SUM Energy consumption [J] (Stats structure),2459.46
# CALLTREE;init_0;Main-PWSCF_0;run-PWSCF_0;run-PWSCF-electrons_function_1;electrons-electrons_scf_function_0;c_bands_function_4;diag_bands_k_function_2
# Job info - HDEEM
JOB ID,17281565.18
Nodelist,taurusi5540
AVG Runtime of function [s],15.5997
MAX Runtime of function [s],15.5997
MIN Runtime of function [s],15.5997
# COUNTERS - HDEEM: 
AVG Energy consumption [J] (Stats structure),2487.07
MAX Energy consumption [J] (Stats structure),2487.07
MIN Energy consumption [J] (Stats structure),2487.07
SUM Energy consumption [J] (Stats structure),2487.07
# CALLTREE;init_0;Main-PWSCF_0;run-PWSCF_0;run-PWSCF-electrons_function_1;electrons-electrons_scf_function_0;c_bands_function_4;diag_bands_k_function_3
# Job info - HDEEM
JOB ID,17281565.18
Nodelist,taurusi5540
AVG Runtime of function [s],12.7429
MAX Runtime of function [s],12.7429
MIN Runtime of function [s],12.7429
# COUNTERS - HDEEM: 
AVG Energy consumption [J] (Stats structure),2037.01
MAX Energy consumption [J] (Stats structure),2037.01
MIN Energy consumption [J] (Stats structure),2037.01
SUM Energy consumption [J] (Stats structure),2037.01
# CALLTREE;init_0;Main-PWSCF_0;run-PWSCF_0;run-PWSCF-electrons_function_1;electrons-electrons_scf_function_0;c_bands_function_5;diag_bands_k_function_0
# Job info - HDEEM
JOB ID,17281565.18
Nodelist,taurusi5540
AVG Runtime of function [s],10.4607
MAX Runtime of function [s],10.4607
MIN Runtime of function [s],10.4607
# COUNTERS - HDEEM: 
AVG Energy consumption [J] (Stats structure),1669.64
MAX Energy consumption [J] (Stats structure),1669.64
MIN Energy consumption [J] (Stats structure),1669.64
SUM Energy consumption [J] (Stats structure),1669.64
# CALLTREE;init_0;Main-PWSCF_0;run-PWSCF_0;run-PWSCF-electrons_function_1;electrons-electrons_scf_function_0;c_bands_function_5;diag_bands_k_function_1
# Job info - HDEEM
JOB ID,17281565.18
Nodelist,taurusi5540
AVG Runtime of function [s],13.1758
MAX Runtime of function [s],13.1758
MIN Runtime of function [s],13.1758
# COUNTERS - HDEEM: 
AVG Energy consumption [J] (Stats structure),2098.55
MAX Energy consumption [J] (Stats structure),2098.55
MIN Energy consumption [J] (Stats structure),2098.55
SUM Energy consumption [J] (Stats structure),2098.55
# CALLTREE;init_0;Main-PWSCF_0;run-PWSCF_0;run-PWSCF-electrons_function_1;electrons-electrons_scf_function_0;c_bands_function_5;diag_bands_k_function_2
# Job info - HDEEM
JOB ID,17281565.18
Nodelist,taurusi5540
AVG Runtime of function [s],12.8695
MAX Runtime of function [s],12.8695
MIN Runtime of function [s],12.8695
# COUNTERS - HDEEM: 
AVG Energy consumption [J] (Stats structure),2050.62
MAX Energy consumption [J] (Stats structure),2050.62
MIN Energy consumption [J] (Stats structure),2050.62
SUM Energy consumption [J] (Stats structure),2050.62
# CALLTREE;init_0;Main-PWSCF_0;run-PWSCF_0;run-PWSCF-electrons_function_1;electrons-electrons_scf_function_0;c_bands_function_5;diag_bands_k_function_3
# Job info - HDEEM
JOB ID,17281565.18
Nodelist,taurusi5540
AVG Runtime of function [s],11.0112
MAX Runtime of function [s],11.0112
MIN Runtime of function [s],11.0112
# COUNTERS - HDEEM: 
AVG Energy consumption [J] (Stats structure),1757.89
MAX Energy consumption [J] (Stats structure),1757.89
MIN Energy consumption [J] (Stats structure),1757.89
SUM Energy consumption [J] (Stats structure),1757.89
# CALLTREE;init_0;Main-PWSCF_0;run-PWSCF_0;run-PWSCF-electrons_function_1;electrons-electrons_scf_function_0;c_bands_function_6;diag_bands_k_function_0
# Job info - HDEEM
JOB ID,17281565.18
Nodelist,taurusi5540
AVG Runtime of function [s],10.1161
MAX Runtime of function [s],10.1161
MIN Runtime of function [s],10.1161
# COUNTERS - HDEEM: 
AVG Energy consumption [J] (Stats structure),1615.05
MAX Energy consumption [J] (Stats structure),1615.05
MIN Energy consumption [J] (Stats structure),1615.05
SUM Energy consumption [J] (Stats structure),1615.05
# CALLTREE;init_0;Main-PWSCF_0;run-PWSCF_0;run-PWSCF-electrons_function_1;electrons-electrons_scf_function_0;c_bands_function_6;diag_bands_k_function_1
# Job info - HDEEM
JOB ID,17281565.18
Nodelist,taurusi5540
AVG Runtime of function [s],10.2703
MAX Runtime of function [s],10.2703
MIN Runtime of function [s],10.2703
# COUNTERS - HDEEM: 
AVG Energy consumption [J] (Stats structure),1640.1
MAX Energy consumption [J] (Stats structure),1640.1
MIN Energy consumption [J] (Stats structure),1640.1
SUM Energy consumption [J] (Stats structure),1640.1
# CALLTREE;init_0;Main-PWSCF_0;run-PWSCF_0;run-PWSCF-electrons_function_1;electrons-electrons_scf_function_0;c_bands_function_6;diag_bands_k_function_2
# Job info - HDEEM
JOB ID,17281565.18
Nodelist,taurusi5540
AVG Runtime of function [s],10.6488
MAX Runtime of function [s],10.6488
MIN Runtime of function [s],10.6488
# COUNTERS - HDEEM: 
AVG Energy consumption [J] (Stats structure),1701.23
MAX Energy consumption [J] (Stats structure),1701.23
MIN Energy consumption [J] (Stats structure),1701.23
SUM Energy consumption [J] (Stats structure),1701.23
# CALLTREE;init_0;Main-PWSCF_0;run-PWSCF_0;run-PWSCF-electrons_function_1;electrons-electrons_scf_function_0;c_bands_function_6;diag_bands_k_function_3
# Job info - HDEEM
JOB ID,17281565.18
Nodelist,taurusi5540
AVG Runtime of function [s],9.95126
MAX Runtime of function [s],9.95126
MIN Runtime of function [s],9.95126
# COUNTERS - HDEEM: 
AVG Energy consumption [J] (Stats structure),1590.4
MAX Energy consumption [J] (Stats structure),1590.4
MIN Energy consumption [J] (Stats structure),1590.4
SUM Energy consumption [J] (Stats structure),1590.4
# CALLTREE;init_0;Main-PWSCF_0;run-PWSCF_0;run-PWSCF-electrons_function_1;electrons-electrons_scf_function_0;c_bands_function_7;diag_bands_k_function_0
# Job info - HDEEM
JOB ID,17281565.18
Nodelist,taurusi5540
AVG Runtime of function [s],10.9763
MAX Runtime of function [s],10.9763
MIN Runtime of function [s],10.9763
# COUNTERS - HDEEM: 
AVG Energy consumption [J] (Stats structure),1756.35
MAX Energy consumption [J] (Stats structure),1756.35
MIN Energy consumption [J] (Stats structure),1756.35
SUM Energy consumption [J] (Stats structure),1756.35
# CALLTREE;init_0;Main-PWSCF_0;run-PWSCF_0;run-PWSCF-electrons_function_1;electrons-electrons_scf_function_0;c_bands_function_7;diag_bands_k_function_1
# Job info - HDEEM
JOB ID,17281565.18
Nodelist,taurusi5540
AVG Runtime of function [s],10.9271
MAX Runtime of function [s],10.9271
MIN Runtime of function [s],10.9271
# COUNTERS - HDEEM: 
AVG Energy consumption [J] (Stats structure),1748.39
MAX Energy consumption [J] (Stats structure),1748.39
MIN Energy consumption [J] (Stats structure),1748.39
SUM Energy consumption [J] (Stats structure),1748.39
# CALLTREE;init_0;Main-PWSCF_0;run-PWSCF_0;run-PWSCF-electrons_function_1;electrons-electrons_scf_function_0;c_bands_function_7;diag_bands_k_function_2
# Job info - HDEEM
JOB ID,17281565.18
Nodelist,taurusi5540
AVG Runtime of function [s],11.0461
MAX Runtime of function [s],11.0461
MIN Runtime of function [s],11.0461
# COUNTERS - HDEEM: 
AVG Energy consumption [J] (Stats structure),1767.94
MAX Energy consumption [J] (Stats structure),1767.94
MIN Energy consumption [J] (Stats structure),1767.94
SUM Energy consumption [J] (Stats structure),1767.94
# CALLTREE;init_0;Main-PWSCF_0;run-PWSCF_0;run-PWSCF-electrons_function_1;electrons-electrons_scf_function_0;c_bands_function_7;diag_bands_k_function_3
# Job info - HDEEM
JOB ID,17281565.18
Nodelist,taurusi5540
AVG Runtime of function [s],11.7705
MAX Runtime of function [s],11.7705
MIN Runtime of function [s],11.7705
# COUNTERS - HDEEM: 
AVG Energy consumption [J] (Stats structure),1884.23
MAX Energy consumption [J] (Stats structure),1884.23
MIN Energy consumption [J] (Stats structure),1884.23
SUM Energy consumption [J] (Stats structure),1884.23
# CALLTREE;init_0;Main-PWSCF_0;run-PWSCF_0;run-PWSCF-electrons_function_1;electrons-electrons_scf_function_0;c_bands_function_8;diag_bands_k_function_0
# Job info - HDEEM
JOB ID,17281565.18
Nodelist,taurusi5540
AVG Runtime of function [s],11.1196
MAX Runtime of function [s],11.1196
MIN Runtime of function [s],11.1196
# COUNTERS - HDEEM: 
AVG Energy consumption [J] (Stats structure),1779.34
MAX Energy consumption [J] (Stats structure),1779.34
MIN Energy consumption [J] (Stats structure),1779.34
SUM Energy consumption [J] (Stats structure),1779.34
# CALLTREE;init_0;Main-PWSCF_0;run-PWSCF_0;run-PWSCF-electrons_function_1;electrons-electrons_scf_function_0;c_bands_function_8;diag_bands_k_function_1
# Job info - HDEEM
JOB ID,17281565.18
Nodelist,taurusi5540
AVG Runtime of function [s],11.4109
MAX Runtime of function [s],11.4109
MIN Runtime of function [s],11.4109
# COUNTERS - HDEEM: 
AVG Energy consumption [J] (Stats structure),1825.81
MAX Energy consumption [J] (Stats structure),1825.81
MIN Energy consumption [J] (Stats structure),1825.81
SUM Energy consumption [J] (Stats structure),1825.81
# CALLTREE;init_0;Main-PWSCF_0;run-PWSCF_0;run-PWSCF-electrons_function_1;electrons-electrons_scf_function_0;c_bands_function_8;diag_bands_k_function_2
# Job info - HDEEM
JOB ID,17281565.18
Nodelist,taurusi5540
AVG Runtime of function [s],11.3699
MAX Runtime of function [s],11.3699
MIN Runtime of function [s],11.3699
# COUNTERS - HDEEM: 
AVG Energy consumption [J] (Stats structure),1819.94
MAX Energy consumption [J] (Stats structure),1819.94
MIN Energy consumption [J] (Stats structure),1819.94
SUM Energy consumption [J] (Stats structure),1819.94
# CALLTREE;init_0;Main-PWSCF_0;run-PWSCF_0;run-PWSCF-electrons_function_1;electrons-electrons_scf_function_0;c_bands_function_8;diag_bands_k_function_3
# Job info - HDEEM
JOB ID,17281565.18
Nodelist,taurusi5540
AVG Runtime of function [s],10.6971
MAX Runtime of function [s],10.6971
MIN Runtime of function [s],10.6971
# COUNTERS - HDEEM: 
AVG Energy consumption [J] (Stats structure),1712.73
MAX Energy consumption [J] (Stats structure),1712.73
MIN Energy consumption [J] (Stats structure),1712.73
SUM Energy consumption [J] (Stats structure),1712.73
# CALLTREE;init_0;Main-PWSCF_0;run-PWSCF_0;run-PWSCF-electrons_function_1;electrons-electrons_scf_function_0;c_bands_function_9;diag_bands_k_function_0
# Job info - HDEEM
JOB ID,17281565.18
Nodelist,taurusi5540
AVG Runtime of function [s],10.721
MAX Runtime of function [s],10.721
MIN Runtime of function [s],10.721
# COUNTERS - HDEEM: 
AVG Energy consumption [J] (Stats structure),1716.54
MAX Energy consumption [J] (Stats structure),1716.54
MIN Energy consumption [J] (Stats structure),1716.54
SUM Energy consumption [J] (Stats structure),1716.54
# CALLTREE;init_0;Main-PWSCF_0;run-PWSCF_0;run-PWSCF-electrons_function_1;electrons-electrons_scf_function_0;c_bands_function_9;diag_bands_k_function_1
# Job info - HDEEM
JOB ID,17281565.18
Nodelist,taurusi5540
AVG Runtime of function [s],10.7171
MAX Runtime of function [s],10.7171
MIN Runtime of function [s],10.7171
# COUNTERS - HDEEM: 
AVG Energy consumption [J] (Stats structure),1715.45
MAX Energy consumption [J] (Stats structure),1715.45
MIN Energy consumption [J] (Stats structure),1715.45
SUM Energy consumption [J] (Stats structure),1715.45
# CALLTREE;init_0;Main-PWSCF_0;run-PWSCF_0;run-PWSCF-electrons_function_1;electrons-electrons_scf_function_0;c_bands_function_9;diag_bands_k_function_2
# Job info - HDEEM
JOB ID,17281565.18
Nodelist,taurusi5540
AVG Runtime of function [s],10.6527
MAX Runtime of function [s],10.6527
MIN Runtime of function [s],10.6527
# COUNTERS - HDEEM: 
AVG Energy consumption [J] (Stats structure),1706.28
MAX Energy consumption [J] (Stats structure),1706.28
MIN Energy consumption [J] (Stats structure),1706.28
SUM Energy consumption [J] (Stats structure),1706.28
# CALLTREE;init_0;Main-PWSCF_0;run-PWSCF_0;run-PWSCF-electrons_function_1;electrons-electrons_scf_function_0;c_bands_function_9;diag_bands_k_function_3
# Job info - HDEEM
JOB ID,17281565.18
Nodelist,taurusi5540
AVG Runtime of function [s],10.5612
MAX Runtime of function [s],10.5612
MIN Runtime of function [s],10.5612
# COUNTERS - HDEEM: 
AVG Energy consumption [J] (Stats structure),1692.46
MAX Energy consumption [J] (Stats structure),1692.46
MIN Energy consumption [J] (Stats structure),1692.46
SUM Energy consumption [J] (Stats structure),1692.46
# CALLTREE;init_0;Main-PWSCF_0;run-PWSCF_0;run-PWSCF-electrons_function_1;electrons-electrons_scf_function_0;c_bands_function_10;diag_bands_k_function_0
# Job info - HDEEM
JOB ID,17281565.18
Nodelist,taurusi5540
AVG Runtime of function [s],10.7505
MAX Runtime of function [s],10.7505
MIN Runtime of function [s],10.7505
# COUNTERS - HDEEM: 
AVG Energy consumption [J] (Stats structure),1720.7
MAX Energy consumption [J] (Stats structure),1720.7
MIN Energy consumption [J] (Stats structure),1720.7
SUM Energy consumption [J] (Stats structure),1720.7
# CALLTREE;init_0;Main-PWSCF_0;run-PWSCF_0;run-PWSCF-electrons_function_1;electrons-electrons_scf_function_0;c_bands_function_10;diag_bands_k_function_1
# Job info - HDEEM
JOB ID,17281565.18
Nodelist,taurusi5540
AVG Runtime of function [s],10.5175
MAX Runtime of function [s],10.5175
MIN Runtime of function [s],10.5175
# COUNTERS - HDEEM: 
AVG Energy consumption [J] (Stats structure),1680.32
MAX Energy consumption [J] (Stats structure),1680.32
MIN Energy consumption [J] (Stats structure),1680.32
SUM Energy consumption [J] (Stats structure),1680.32
# CALLTREE;init_0;Main-PWSCF_0;run-PWSCF_0;run-PWSCF-electrons_function_1;electrons-electrons_scf_function_0;c_bands_function_10;diag_bands_k_function_2
# Job info - HDEEM
JOB ID,17281565.18
Nodelist,taurusi5540
AVG Runtime of function [s],10.9634
MAX Runtime of function [s],10.9634
MIN Runtime of function [s],10.9634
# COUNTERS - HDEEM: 
AVG Energy consumption [J] (Stats structure),1755.59
MAX Energy consumption [J] (Stats structure),1755.59
MIN Energy consumption [J] (Stats structure),1755.59
SUM Energy consumption [J] (Stats structure),1755.59
# CALLTREE;init_0;Main-PWSCF_0;run-PWSCF_0;run-PWSCF-electrons_function_1;electrons-electrons_scf_function_0;c_bands_function_10;diag_bands_k_function_3
# Job info - HDEEM
JOB ID,17281565.18
Nodelist,taurusi5540
AVG Runtime of function [s],10.4763
MAX Runtime of function [s],10.4763
MIN Runtime of function [s],10.4763
# COUNTERS - HDEEM: 
AVG Energy consumption [J] (Stats structure),1675.01
MAX Energy consumption [J] (Stats structure),1675.01
MIN Energy consumption [J] (Stats structure),1675.01
SUM Energy consumption [J] (Stats structure),1675.01
# CALLTREE;init_0;Main-PWSCF_0;run-PWSCF_0;run-PWSCF-electrons_function_1;electrons-electrons_scf_function_0;c_bands_function_11;diag_bands_k_function_0
# Job info - HDEEM
JOB ID,17281565.18
Nodelist,taurusi5540
AVG Runtime of function [s],9.25599
MAX Runtime of function [s],9.25599
MIN Runtime of function [s],9.25599
# COUNTERS - HDEEM: 
AVG Energy consumption [J] (Stats structure),1477.97
MAX Energy consumption [J] (Stats structure),1477.97
MIN Energy consumption [J] (Stats structure),1477.97
SUM Energy consumption [J] (Stats structure),1477.97
# CALLTREE;init_0;Main-PWSCF_0;run-PWSCF_0;run-PWSCF-electrons_function_1;electrons-electrons_scf_function_0;c_bands_function_11;diag_bands_k_function_1
# Job info - HDEEM
JOB ID,17281565.18
Nodelist,taurusi5540
AVG Runtime of function [s],9.24964
MAX Runtime of function [s],9.24964
MIN Runtime of function [s],9.24964
# COUNTERS - HDEEM: 
AVG Energy consumption [J] (Stats structure),1477.64
MAX Energy consumption [J] (Stats structure),1477.64
MIN Energy consumption [J] (Stats structure),1477.64
SUM Energy consumption [J] (Stats structure),1477.64
# CALLTREE;init_0;Main-PWSCF_0;run-PWSCF_0;run-PWSCF-electrons_function_1;electrons-electrons_scf_function_0;c_bands_function_11;diag_bands_k_function_2
# Job info - HDEEM
JOB ID,17281565.18
Nodelist,taurusi5540
AVG Runtime of function [s],9.09692
MAX Runtime of function [s],9.09692
MIN Runtime of function [s],9.09692
# COUNTERS - HDEEM: 
AVG Energy consumption [J] (Stats structure),1453.88
MAX Energy consumption [J] (Stats structure),1453.88
MIN Energy consumption [J] (Stats structure),1453.88
SUM Energy consumption [J] (Stats structure),1453.88
# CALLTREE;init_0;Main-PWSCF_0;run-PWSCF_0;run-PWSCF-electrons_function_1;electrons-electrons_scf_function_0;c_bands_function_11;diag_bands_k_function_3
# Job info - HDEEM
JOB ID,17281565.18
Nodelist,taurusi5540
AVG Runtime of function [s],9.01556
MAX Runtime of function [s],9.01556
MIN Runtime of function [s],9.01556
# COUNTERS - HDEEM: 
AVG Energy consumption [J] (Stats structure),1440.72
MAX Energy consumption [J] (Stats structure),1440.72
MIN Energy consumption [J] (Stats structure),1440.72
SUM Energy consumption [J] (Stats structure),1440.72
# CALLTREE;init_0;Main-PWSCF_0;run-PWSCF_0;run-PWSCF-electrons_function_1;electrons-electrons_scf_function_0;c_bands_function_12;diag_bands_k_function_0
# Job info - HDEEM
JOB ID,17281565.18
Nodelist,taurusi5540
AVG Runtime of function [s],11.8652
MAX Runtime of function [s],11.8652
MIN Runtime of function [s],11.8652
# COUNTERS - HDEEM: 
AVG Energy consumption [J] (Stats structure),1898.92
MAX Energy consumption [J] (Stats structure),1898.92
MIN Energy consumption [J] (Stats structure),1898.92
SUM Energy consumption [J] (Stats structure),1898.92
# CALLTREE;init_0;Main-PWSCF_0;run-PWSCF_0;run-PWSCF-electrons_function_1;electrons-electrons_scf_function_0;c_bands_function_12;diag_bands_k_function_1
# Job info - HDEEM
JOB ID,17281565.18
Nodelist,taurusi5540
AVG Runtime of function [s],11.3697
MAX Runtime of function [s],11.3697
MIN Runtime of function [s],11.3697
# COUNTERS - HDEEM: 
AVG Energy consumption [J] (Stats structure),1819.55
MAX Energy consumption [J] (Stats structure),1819.55
MIN Energy consumption [J] (Stats structure),1819.55
SUM Energy consumption [J] (Stats structure),1819.55
# CALLTREE;init_0;Main-PWSCF_0;run-PWSCF_0;run-PWSCF-electrons_function_1;electrons-electrons_scf_function_0;c_bands_function_12;diag_bands_k_function_2
# Job info - HDEEM
JOB ID,17281565.18
Nodelist,taurusi5540
AVG Runtime of function [s],11.1486
MAX Runtime of function [s],11.1486
MIN Runtime of function [s],11.1486
# COUNTERS - HDEEM: 
AVG Energy consumption [J] (Stats structure),1785.45
MAX Energy consumption [J] (Stats structure),1785.45
MIN Energy consumption [J] (Stats structure),1785.45
SUM Energy consumption [J] (Stats structure),1785.45
# CALLTREE;init_0;Main-PWSCF_0;run-PWSCF_0;run-PWSCF-electrons_function_1;electrons-electrons_scf_function_0;c_bands_function_12;diag_bands_k_function_3
# Job info - HDEEM
JOB ID,17281565.18
Nodelist,taurusi5540
AVG Runtime of function [s],11.6214
MAX Runtime of function [s],11.6214
MIN Runtime of function [s],11.6214
# COUNTERS - HDEEM: 
AVG Energy consumption [J] (Stats structure),1861.44
MAX Energy consumption [J] (Stats structure),1861.44
MIN Energy consumption [J] (Stats structure),1861.44
SUM Energy consumption [J] (Stats structure),1861.44
# CALLTREE;init_0;Main-PWSCF_0;run-PWSCF_0;run-PWSCF-electrons_function_1;electrons-electrons_scf_function_0;c_bands_function_13;diag_bands_k_function_0
# Job info - HDEEM
JOB ID,17281565.18
Nodelist,taurusi5540
AVG Runtime of function [s],10.2868
MAX Runtime of function [s],10.2868
MIN Runtime of function [s],10.2868
# COUNTERS - HDEEM: 
AVG Energy consumption [J] (Stats structure),1648.2
MAX Energy consumption [J] (Stats structure),1648.2
MIN Energy consumption [J] (Stats structure),1648.2
SUM Energy consumption [J] (Stats structure),1648.2
# CALLTREE;init_0;Main-PWSCF_0;run-PWSCF_0;run-PWSCF-electrons_function_1;electrons-electrons_scf_function_0;c_bands_function_13;diag_bands_k_function_1
# Job info - HDEEM
JOB ID,17281565.18
Nodelist,taurusi5540
AVG Runtime of function [s],11.0557
MAX Runtime of function [s],11.0557
MIN Runtime of function [s],11.0557
# COUNTERS - HDEEM: 
AVG Energy consumption [J] (Stats structure),1770.27
MAX Energy consumption [J] (Stats structure),1770.27
MIN Energy consumption [J] (Stats structure),1770.27
SUM Energy consumption [J] (Stats structure),1770.27
# CALLTREE;init_0;Main-PWSCF_0;run-PWSCF_0;run-PWSCF-electrons_function_1;electrons-electrons_scf_function_0;c_bands_function_13;diag_bands_k_function_2
# Job info - HDEEM
JOB ID,17281565.18
Nodelist,taurusi5540
AVG Runtime of function [s],11.1748
MAX Runtime of function [s],11.1748
MIN Runtime of function [s],11.1748
# COUNTERS - HDEEM: 
AVG Energy consumption [J] (Stats structure),1789.62
MAX Energy consumption [J] (Stats structure),1789.62
MIN Energy consumption [J] (Stats structure),1789.62
SUM Energy consumption [J] (Stats structure),1789.62
# CALLTREE;init_0;Main-PWSCF_0;run-PWSCF_0;run-PWSCF-electrons_function_1;electrons-electrons_scf_function_0;c_bands_function_13;diag_bands_k_function_3
# Job info - HDEEM
JOB ID,17281565.18
Nodelist,taurusi5540
AVG Runtime of function [s],10.852
MAX Runtime of function [s],10.852
MIN Runtime of function [s],10.852
# COUNTERS - HDEEM: 
AVG Energy consumption [J] (Stats structure),1738.3
MAX Energy consumption [J] (Stats structure),1738.3
MIN Energy consumption [J] (Stats structure),1738.3
SUM Energy consumption [J] (Stats structure),1738.3
# CALLTREE;init_0;Main-PWSCF_0;run-PWSCF_0;run-PWSCF-electrons_function_1;electrons-electrons_scf_function_0;c_bands_function_14;diag_bands_k_function_0
# Job info - HDEEM
JOB ID,17281565.18
Nodelist,taurusi5540
AVG Runtime of function [s],7.7011
MAX Runtime of function [s],7.7011
MIN Runtime of function [s],7.7011
# COUNTERS - HDEEM: 
AVG Energy consumption [J] (Stats structure),1230.9
MAX Energy consumption [J] (Stats structure),1230.9
MIN Energy consumption [J] (Stats structure),1230.9
SUM Energy consumption [J] (Stats structure),1230.9
# CALLTREE;init_0;Main-PWSCF_0;run-PWSCF_0;run-PWSCF-electrons_function_1;electrons-electrons_scf_function_0;c_bands_function_14;diag_bands_k_function_1
# Job info - HDEEM
JOB ID,17281565.18
Nodelist,taurusi5540
AVG Runtime of function [s],7.66629
MAX Runtime of function [s],7.66629
MIN Runtime of function [s],7.66629
# COUNTERS - HDEEM: 
AVG Energy consumption [J] (Stats structure),1225.24
MAX Energy consumption [J] (Stats structure),1225.24
MIN Energy consumption [J] (Stats structure),1225.24
SUM Energy consumption [J] (Stats structure),1225.24
# CALLTREE;init_0;Main-PWSCF_0;run-PWSCF_0;run-PWSCF-electrons_function_1;electrons-electrons_scf_function_0;c_bands_function_14;diag_bands_k_function_2
# Job info - HDEEM
JOB ID,17281565.18
Nodelist,taurusi5540
AVG Runtime of function [s],7.64412
MAX Runtime of function [s],7.64412
MIN Runtime of function [s],7.64412
# COUNTERS - HDEEM: 
AVG Energy consumption [J] (Stats structure),1222.6
MAX Energy consumption [J] (Stats structure),1222.6
MIN Energy consumption [J] (Stats structure),1222.6
SUM Energy consumption [J] (Stats structure),1222.6
# CALLTREE;init_0;Main-PWSCF_0;run-PWSCF_0;run-PWSCF-electrons_function_1;electrons-electrons_scf_function_0;c_bands_function_14;diag_bands_k_function_3
# Job info - HDEEM
JOB ID,17281565.18
Nodelist,taurusi5540
AVG Runtime of function [s],7.87955
MAX Runtime of function [s],7.87955
MIN Runtime of function [s],7.87955
# COUNTERS - HDEEM: 
AVG Energy consumption [J] (Stats structure),1260.94
MAX Energy consumption [J] (Stats structure),1260.94
MIN Energy consumption [J] (Stats structure),1260.94
SUM Energy consumption [J] (Stats structure),1260.94
# CALLTREE;init_0;Main-PWSCF_0;run-PWSCF_0;run-PWSCF-electrons_function_1;electrons-electrons_scf_function_0;c_bands_function_15;diag_bands_k_function_0
# Job info - HDEEM
JOB ID,17281565.18
Nodelist,taurusi5540
AVG Runtime of function [s],7.74488
MAX Runtime of function [s],7.74488
MIN Runtime of function [s],7.74488
# COUNTERS - HDEEM: 
AVG Energy consumption [J] (Stats structure),1237.49
MAX Energy consumption [J] (Stats structure),1237.49
MIN Energy consumption [J] (Stats structure),1237.49
SUM Energy consumption [J] (Stats structure),1237.49
# CALLTREE;init_0;Main-PWSCF_0;run-PWSCF_0;run-PWSCF-electrons_function_1;electrons-electrons_scf_function_0;c_bands_function_15;diag_bands_k_function_1
# Job info - HDEEM
JOB ID,17281565.18
Nodelist,taurusi5540
AVG Runtime of function [s],7.76227
MAX Runtime of function [s],7.76227
MIN Runtime of function [s],7.76227
# COUNTERS - HDEEM: 
AVG Energy consumption [J] (Stats structure),1240.05
MAX Energy consumption [J] (Stats structure),1240.05
MIN Energy consumption [J] (Stats structure),1240.05
SUM Energy consumption [J] (Stats structure),1240.05
# CALLTREE;init_0;Main-PWSCF_0;run-PWSCF_0;run-PWSCF-electrons_function_1;electrons-electrons_scf_function_0;c_bands_function_15;diag_bands_k_function_2
# Job info - HDEEM
JOB ID,17281565.18
Nodelist,taurusi5540
AVG Runtime of function [s],7.6184
MAX Runtime of function [s],7.6184
MIN Runtime of function [s],7.6184
# COUNTERS - HDEEM: 
AVG Energy consumption [J] (Stats structure),1218.71
MAX Energy consumption [J] (Stats structure),1218.71
MIN Energy consumption [J] (Stats structure),1218.71
SUM Energy consumption [J] (Stats structure),1218.71
# CALLTREE;init_0;Main-PWSCF_0;run-PWSCF_0;run-PWSCF-electrons_function_1;electrons-electrons_scf_function_0;c_bands_function_15;diag_bands_k_function_3
# Job info - HDEEM
JOB ID,17281565.18
Nodelist,taurusi5540
AVG Runtime of function [s],7.63712
MAX Runtime of function [s],7.63712
MIN Runtime of function [s],7.63712
# COUNTERS - HDEEM: 
AVG Energy consumption [J] (Stats structure),1221.44
MAX Energy consumption [J] (Stats structure),1221.44
MIN Energy consumption [J] (Stats structure),1221.44
SUM Energy consumption [J] (Stats structure),1221.44
