# CALLTREE;init_0;Main-PWSCF_0;run-PWSCF_0;run-PWSCF-electrons_function_1;electrons-electrons_scf_function_0;c_bands_function_0;diag_bands_k_function_0
# Job info - HDEEM
JOB ID,17281565.7
Nodelist,taurusi5540
AVG Runtime of function [s],10.33
MAX Runtime of function [s],10.33
MIN Runtime of function [s],10.33
# COUNTERS - HDEEM: 
AVG Energy consumption [J] (Stats structure),2073.76
MAX Energy consumption [J] (Stats structure),2073.76
MIN Energy consumption [J] (Stats structure),2073.76
SUM Energy consumption [J] (Stats structure),2073.76
# CALLTREE;init_0;Main-PWSCF_0;run-PWSCF_0;run-PWSCF-electrons_function_1;electrons-electrons_scf_function_0;c_bands_function_0;diag_bands_k_function_1
# Job info - HDEEM
JOB ID,17281565.7
Nodelist,taurusi5540
AVG Runtime of function [s],10.7066
MAX Runtime of function [s],10.7066
MIN Runtime of function [s],10.7066
# COUNTERS - HDEEM: 
AVG Energy consumption [J] (Stats structure),2148.02
MAX Energy consumption [J] (Stats structure),2148.02
MIN Energy consumption [J] (Stats structure),2148.02
SUM Energy consumption [J] (Stats structure),2148.02
# CALLTREE;init_0;Main-PWSCF_0;run-PWSCF_0;run-PWSCF-electrons_function_1;electrons-electrons_scf_function_0;c_bands_function_0;diag_bands_k_function_2
# Job info - HDEEM
JOB ID,17281565.7
Nodelist,taurusi5540
AVG Runtime of function [s],10.8047
MAX Runtime of function [s],10.8047
MIN Runtime of function [s],10.8047
# COUNTERS - HDEEM: 
AVG Energy consumption [J] (Stats structure),2168.7
MAX Energy consumption [J] (Stats structure),2168.7
MIN Energy consumption [J] (Stats structure),2168.7
SUM Energy consumption [J] (Stats structure),2168.7
# CALLTREE;init_0;Main-PWSCF_0;run-PWSCF_0;run-PWSCF-electrons_function_1;electrons-electrons_scf_function_0;c_bands_function_0;diag_bands_k_function_3
# Job info - HDEEM
JOB ID,17281565.7
Nodelist,taurusi5540
AVG Runtime of function [s],10.8009
MAX Runtime of function [s],10.8009
MIN Runtime of function [s],10.8009
# COUNTERS - HDEEM: 
AVG Energy consumption [J] (Stats structure),2167.73
MAX Energy consumption [J] (Stats structure),2167.73
MIN Energy consumption [J] (Stats structure),2167.73
SUM Energy consumption [J] (Stats structure),2167.73
# CALLTREE;init_0;Main-PWSCF_0;run-PWSCF_0;run-PWSCF-electrons_function_1;electrons-electrons_scf_function_0;c_bands_function_1;diag_bands_k_function_0
# Job info - HDEEM
JOB ID,17281565.7
Nodelist,taurusi5540
AVG Runtime of function [s],7.03579
MAX Runtime of function [s],7.03579
MIN Runtime of function [s],7.03579
# COUNTERS - HDEEM: 
AVG Energy consumption [J] (Stats structure),1408.07
MAX Energy consumption [J] (Stats structure),1408.07
MIN Energy consumption [J] (Stats structure),1408.07
SUM Energy consumption [J] (Stats structure),1408.07
# CALLTREE;init_0;Main-PWSCF_0;run-PWSCF_0;run-PWSCF-electrons_function_1;electrons-electrons_scf_function_0;c_bands_function_1;diag_bands_k_function_1
# Job info - HDEEM
JOB ID,17281565.7
Nodelist,taurusi5540
AVG Runtime of function [s],7.07611
MAX Runtime of function [s],7.07611
MIN Runtime of function [s],7.07611
# COUNTERS - HDEEM: 
AVG Energy consumption [J] (Stats structure),1416.12
MAX Energy consumption [J] (Stats structure),1416.12
MIN Energy consumption [J] (Stats structure),1416.12
SUM Energy consumption [J] (Stats structure),1416.12
# CALLTREE;init_0;Main-PWSCF_0;run-PWSCF_0;run-PWSCF-electrons_function_1;electrons-electrons_scf_function_0;c_bands_function_1;diag_bands_k_function_2
# Job info - HDEEM
JOB ID,17281565.7
Nodelist,taurusi5540
AVG Runtime of function [s],6.69342
MAX Runtime of function [s],6.69342
MIN Runtime of function [s],6.69342
# COUNTERS - HDEEM: 
AVG Energy consumption [J] (Stats structure),1340.49
MAX Energy consumption [J] (Stats structure),1340.49
MIN Energy consumption [J] (Stats structure),1340.49
SUM Energy consumption [J] (Stats structure),1340.49
# CALLTREE;init_0;Main-PWSCF_0;run-PWSCF_0;run-PWSCF-electrons_function_1;electrons-electrons_scf_function_0;c_bands_function_1;diag_bands_k_function_3
# Job info - HDEEM
JOB ID,17281565.7
Nodelist,taurusi5540
AVG Runtime of function [s],6.7265
MAX Runtime of function [s],6.7265
MIN Runtime of function [s],6.7265
# COUNTERS - HDEEM: 
AVG Energy consumption [J] (Stats structure),1347.1
MAX Energy consumption [J] (Stats structure),1347.1
MIN Energy consumption [J] (Stats structure),1347.1
SUM Energy consumption [J] (Stats structure),1347.1
# CALLTREE;init_0;Main-PWSCF_0;run-PWSCF_0;run-PWSCF-electrons_function_1;electrons-electrons_scf_function_0;c_bands_function_2;diag_bands_k_function_0
# Job info - HDEEM
JOB ID,17281565.7
Nodelist,taurusi5540
AVG Runtime of function [s],6.81277
MAX Runtime of function [s],6.81277
MIN Runtime of function [s],6.81277
# COUNTERS - HDEEM: 
AVG Energy consumption [J] (Stats structure),1363.25
MAX Energy consumption [J] (Stats structure),1363.25
MIN Energy consumption [J] (Stats structure),1363.25
SUM Energy consumption [J] (Stats structure),1363.25
# CALLTREE;init_0;Main-PWSCF_0;run-PWSCF_0;run-PWSCF-electrons_function_1;electrons-electrons_scf_function_0;c_bands_function_2;diag_bands_k_function_1
# Job info - HDEEM
JOB ID,17281565.7
Nodelist,taurusi5540
AVG Runtime of function [s],6.71751
MAX Runtime of function [s],6.71751
MIN Runtime of function [s],6.71751
# COUNTERS - HDEEM: 
AVG Energy consumption [J] (Stats structure),1345.34
MAX Energy consumption [J] (Stats structure),1345.34
MIN Energy consumption [J] (Stats structure),1345.34
SUM Energy consumption [J] (Stats structure),1345.34
# CALLTREE;init_0;Main-PWSCF_0;run-PWSCF_0;run-PWSCF-electrons_function_1;electrons-electrons_scf_function_0;c_bands_function_2;diag_bands_k_function_2
# Job info - HDEEM
JOB ID,17281565.7
Nodelist,taurusi5540
AVG Runtime of function [s],6.8148
MAX Runtime of function [s],6.8148
MIN Runtime of function [s],6.8148
# COUNTERS - HDEEM: 
AVG Energy consumption [J] (Stats structure),1364.39
MAX Energy consumption [J] (Stats structure),1364.39
MIN Energy consumption [J] (Stats structure),1364.39
SUM Energy consumption [J] (Stats structure),1364.39
# CALLTREE;init_0;Main-PWSCF_0;run-PWSCF_0;run-PWSCF-electrons_function_1;electrons-electrons_scf_function_0;c_bands_function_2;diag_bands_k_function_3
# Job info - HDEEM
JOB ID,17281565.7
Nodelist,taurusi5540
AVG Runtime of function [s],6.84398
MAX Runtime of function [s],6.84398
MIN Runtime of function [s],6.84398
# COUNTERS - HDEEM: 
AVG Energy consumption [J] (Stats structure),1369.46
MAX Energy consumption [J] (Stats structure),1369.46
MIN Energy consumption [J] (Stats structure),1369.46
SUM Energy consumption [J] (Stats structure),1369.46
# CALLTREE;init_0;Main-PWSCF_0;run-PWSCF_0;run-PWSCF-electrons_function_1;electrons-electrons_scf_function_0;c_bands_function_3;diag_bands_k_function_0
# Job info - HDEEM
JOB ID,17281565.7
Nodelist,taurusi5540
AVG Runtime of function [s],10.8846
MAX Runtime of function [s],10.8846
MIN Runtime of function [s],10.8846
# COUNTERS - HDEEM: 
AVG Energy consumption [J] (Stats structure),2179.59
MAX Energy consumption [J] (Stats structure),2179.59
MIN Energy consumption [J] (Stats structure),2179.59
SUM Energy consumption [J] (Stats structure),2179.59
# CALLTREE;init_0;Main-PWSCF_0;run-PWSCF_0;run-PWSCF-electrons_function_1;electrons-electrons_scf_function_0;c_bands_function_3;diag_bands_k_function_1
# Job info - HDEEM
JOB ID,17281565.7
Nodelist,taurusi5540
AVG Runtime of function [s],12.8769
MAX Runtime of function [s],12.8769
MIN Runtime of function [s],12.8769
# COUNTERS - HDEEM: 
AVG Energy consumption [J] (Stats structure),2576.21
MAX Energy consumption [J] (Stats structure),2576.21
MIN Energy consumption [J] (Stats structure),2576.21
SUM Energy consumption [J] (Stats structure),2576.21
# CALLTREE;init_0;Main-PWSCF_0;run-PWSCF_0;run-PWSCF-electrons_function_1;electrons-electrons_scf_function_0;c_bands_function_3;diag_bands_k_function_2
# Job info - HDEEM
JOB ID,17281565.7
Nodelist,taurusi5540
AVG Runtime of function [s],13.9017
MAX Runtime of function [s],13.9017
MIN Runtime of function [s],13.9017
# COUNTERS - HDEEM: 
AVG Energy consumption [J] (Stats structure),2777.98
MAX Energy consumption [J] (Stats structure),2777.98
MIN Energy consumption [J] (Stats structure),2777.98
SUM Energy consumption [J] (Stats structure),2777.98
# CALLTREE;init_0;Main-PWSCF_0;run-PWSCF_0;run-PWSCF-electrons_function_1;electrons-electrons_scf_function_0;c_bands_function_3;diag_bands_k_function_3
# Job info - HDEEM
JOB ID,17281565.7
Nodelist,taurusi5540
AVG Runtime of function [s],13.1514
MAX Runtime of function [s],13.1514
MIN Runtime of function [s],13.1514
# COUNTERS - HDEEM: 
AVG Energy consumption [J] (Stats structure),2631.36
MAX Energy consumption [J] (Stats structure),2631.36
MIN Energy consumption [J] (Stats structure),2631.36
SUM Energy consumption [J] (Stats structure),2631.36
# CALLTREE;init_0;Main-PWSCF_0;run-PWSCF_0;run-PWSCF-electrons_function_1;electrons-electrons_scf_function_0;c_bands_function_4;diag_bands_k_function_0
# Job info - HDEEM
JOB ID,17281565.7
Nodelist,taurusi5540
AVG Runtime of function [s],12.8368
MAX Runtime of function [s],12.8368
MIN Runtime of function [s],12.8368
# COUNTERS - HDEEM: 
AVG Energy consumption [J] (Stats structure),2569.42
MAX Energy consumption [J] (Stats structure),2569.42
MIN Energy consumption [J] (Stats structure),2569.42
SUM Energy consumption [J] (Stats structure),2569.42
# CALLTREE;init_0;Main-PWSCF_0;run-PWSCF_0;run-PWSCF-electrons_function_1;electrons-electrons_scf_function_0;c_bands_function_4;diag_bands_k_function_1
# Job info - HDEEM
JOB ID,17281565.7
Nodelist,taurusi5540
AVG Runtime of function [s],13.0186
MAX Runtime of function [s],13.0186
MIN Runtime of function [s],13.0186
# COUNTERS - HDEEM: 
AVG Energy consumption [J] (Stats structure),2604.71
MAX Energy consumption [J] (Stats structure),2604.71
MIN Energy consumption [J] (Stats structure),2604.71
SUM Energy consumption [J] (Stats structure),2604.71
# CALLTREE;init_0;Main-PWSCF_0;run-PWSCF_0;run-PWSCF-electrons_function_1;electrons-electrons_scf_function_0;c_bands_function_4;diag_bands_k_function_2
# Job info - HDEEM
JOB ID,17281565.7
Nodelist,taurusi5540
AVG Runtime of function [s],13.2237
MAX Runtime of function [s],13.2237
MIN Runtime of function [s],13.2237
# COUNTERS - HDEEM: 
AVG Energy consumption [J] (Stats structure),2646.29
MAX Energy consumption [J] (Stats structure),2646.29
MIN Energy consumption [J] (Stats structure),2646.29
SUM Energy consumption [J] (Stats structure),2646.29
# CALLTREE;init_0;Main-PWSCF_0;run-PWSCF_0;run-PWSCF-electrons_function_1;electrons-electrons_scf_function_0;c_bands_function_4;diag_bands_k_function_3
# Job info - HDEEM
JOB ID,17281565.7
Nodelist,taurusi5540
AVG Runtime of function [s],11.0245
MAX Runtime of function [s],11.0245
MIN Runtime of function [s],11.0245
# COUNTERS - HDEEM: 
AVG Energy consumption [J] (Stats structure),2210.47
MAX Energy consumption [J] (Stats structure),2210.47
MIN Energy consumption [J] (Stats structure),2210.47
SUM Energy consumption [J] (Stats structure),2210.47
# CALLTREE;init_0;Main-PWSCF_0;run-PWSCF_0;run-PWSCF-electrons_function_1;electrons-electrons_scf_function_0;c_bands_function_5;diag_bands_k_function_0
# Job info - HDEEM
JOB ID,17281565.7
Nodelist,taurusi5540
AVG Runtime of function [s],9.12453
MAX Runtime of function [s],9.12453
MIN Runtime of function [s],9.12453
# COUNTERS - HDEEM: 
AVG Energy consumption [J] (Stats structure),1825.9
MAX Energy consumption [J] (Stats structure),1825.9
MIN Energy consumption [J] (Stats structure),1825.9
SUM Energy consumption [J] (Stats structure),1825.9
# CALLTREE;init_0;Main-PWSCF_0;run-PWSCF_0;run-PWSCF-electrons_function_1;electrons-electrons_scf_function_0;c_bands_function_5;diag_bands_k_function_1
# Job info - HDEEM
JOB ID,17281565.7
Nodelist,taurusi5540
AVG Runtime of function [s],11.2065
MAX Runtime of function [s],11.2065
MIN Runtime of function [s],11.2065
# COUNTERS - HDEEM: 
AVG Energy consumption [J] (Stats structure),2240.45
MAX Energy consumption [J] (Stats structure),2240.45
MIN Energy consumption [J] (Stats structure),2240.45
SUM Energy consumption [J] (Stats structure),2240.45
# CALLTREE;init_0;Main-PWSCF_0;run-PWSCF_0;run-PWSCF-electrons_function_1;electrons-electrons_scf_function_0;c_bands_function_5;diag_bands_k_function_2
# Job info - HDEEM
JOB ID,17281565.7
Nodelist,taurusi5540
AVG Runtime of function [s],11.391
MAX Runtime of function [s],11.391
MIN Runtime of function [s],11.391
# COUNTERS - HDEEM: 
AVG Energy consumption [J] (Stats structure),2274.18
MAX Energy consumption [J] (Stats structure),2274.18
MIN Energy consumption [J] (Stats structure),2274.18
SUM Energy consumption [J] (Stats structure),2274.18
# CALLTREE;init_0;Main-PWSCF_0;run-PWSCF_0;run-PWSCF-electrons_function_1;electrons-electrons_scf_function_0;c_bands_function_5;diag_bands_k_function_3
# Job info - HDEEM
JOB ID,17281565.7
Nodelist,taurusi5540
AVG Runtime of function [s],9.58406
MAX Runtime of function [s],9.58406
MIN Runtime of function [s],9.58406
# COUNTERS - HDEEM: 
AVG Energy consumption [J] (Stats structure),1918.14
MAX Energy consumption [J] (Stats structure),1918.14
MIN Energy consumption [J] (Stats structure),1918.14
SUM Energy consumption [J] (Stats structure),1918.14
# CALLTREE;init_0;Main-PWSCF_0;run-PWSCF_0;run-PWSCF-electrons_function_1;electrons-electrons_scf_function_0;c_bands_function_6;diag_bands_k_function_0
# Job info - HDEEM
JOB ID,17281565.7
Nodelist,taurusi5540
AVG Runtime of function [s],8.82234
MAX Runtime of function [s],8.82234
MIN Runtime of function [s],8.82234
# COUNTERS - HDEEM: 
AVG Energy consumption [J] (Stats structure),1765.6
MAX Energy consumption [J] (Stats structure),1765.6
MIN Energy consumption [J] (Stats structure),1765.6
SUM Energy consumption [J] (Stats structure),1765.6
# CALLTREE;init_0;Main-PWSCF_0;run-PWSCF_0;run-PWSCF-electrons_function_1;electrons-electrons_scf_function_0;c_bands_function_6;diag_bands_k_function_1
# Job info - HDEEM
JOB ID,17281565.7
Nodelist,taurusi5540
AVG Runtime of function [s],8.96181
MAX Runtime of function [s],8.96181
MIN Runtime of function [s],8.96181
# COUNTERS - HDEEM: 
AVG Energy consumption [J] (Stats structure),1794
MAX Energy consumption [J] (Stats structure),1794
MIN Energy consumption [J] (Stats structure),1794
SUM Energy consumption [J] (Stats structure),1794
# CALLTREE;init_0;Main-PWSCF_0;run-PWSCF_0;run-PWSCF-electrons_function_1;electrons-electrons_scf_function_0;c_bands_function_6;diag_bands_k_function_2
# Job info - HDEEM
JOB ID,17281565.7
Nodelist,taurusi5540
AVG Runtime of function [s],9.03569
MAX Runtime of function [s],9.03569
MIN Runtime of function [s],9.03569
# COUNTERS - HDEEM: 
AVG Energy consumption [J] (Stats structure),1809.44
MAX Energy consumption [J] (Stats structure),1809.44
MIN Energy consumption [J] (Stats structure),1809.44
SUM Energy consumption [J] (Stats structure),1809.44
# CALLTREE;init_0;Main-PWSCF_0;run-PWSCF_0;run-PWSCF-electrons_function_1;electrons-electrons_scf_function_0;c_bands_function_6;diag_bands_k_function_3
# Job info - HDEEM
JOB ID,17281565.7
Nodelist,taurusi5540
AVG Runtime of function [s],8.739
MAX Runtime of function [s],8.739
MIN Runtime of function [s],8.739
# COUNTERS - HDEEM: 
AVG Energy consumption [J] (Stats structure),1750.7
MAX Energy consumption [J] (Stats structure),1750.7
MIN Energy consumption [J] (Stats structure),1750.7
SUM Energy consumption [J] (Stats structure),1750.7
# CALLTREE;init_0;Main-PWSCF_0;run-PWSCF_0;run-PWSCF-electrons_function_1;electrons-electrons_scf_function_0;c_bands_function_7;diag_bands_k_function_0
# Job info - HDEEM
JOB ID,17281565.7
Nodelist,taurusi5540
AVG Runtime of function [s],9.62738
MAX Runtime of function [s],9.62738
MIN Runtime of function [s],9.62738
# COUNTERS - HDEEM: 
AVG Energy consumption [J] (Stats structure),1930.38
MAX Energy consumption [J] (Stats structure),1930.38
MIN Energy consumption [J] (Stats structure),1930.38
SUM Energy consumption [J] (Stats structure),1930.38
# CALLTREE;init_0;Main-PWSCF_0;run-PWSCF_0;run-PWSCF-electrons_function_1;electrons-electrons_scf_function_0;c_bands_function_7;diag_bands_k_function_1
# Job info - HDEEM
JOB ID,17281565.7
Nodelist,taurusi5540
AVG Runtime of function [s],9.52246
MAX Runtime of function [s],9.52246
MIN Runtime of function [s],9.52246
# COUNTERS - HDEEM: 
AVG Energy consumption [J] (Stats structure),1910.04
MAX Energy consumption [J] (Stats structure),1910.04
MIN Energy consumption [J] (Stats structure),1910.04
SUM Energy consumption [J] (Stats structure),1910.04
# CALLTREE;init_0;Main-PWSCF_0;run-PWSCF_0;run-PWSCF-electrons_function_1;electrons-electrons_scf_function_0;c_bands_function_7;diag_bands_k_function_2
# Job info - HDEEM
JOB ID,17281565.7
Nodelist,taurusi5540
AVG Runtime of function [s],9.64238
MAX Runtime of function [s],9.64238
MIN Runtime of function [s],9.64238
# COUNTERS - HDEEM: 
AVG Energy consumption [J] (Stats structure),1934.91
MAX Energy consumption [J] (Stats structure),1934.91
MIN Energy consumption [J] (Stats structure),1934.91
SUM Energy consumption [J] (Stats structure),1934.91
# CALLTREE;init_0;Main-PWSCF_0;run-PWSCF_0;run-PWSCF-electrons_function_1;electrons-electrons_scf_function_0;c_bands_function_7;diag_bands_k_function_3
# Job info - HDEEM
JOB ID,17281565.7
Nodelist,taurusi5540
AVG Runtime of function [s],10.254
MAX Runtime of function [s],10.254
MIN Runtime of function [s],10.254
# COUNTERS - HDEEM: 
AVG Energy consumption [J] (Stats structure),2057.12
MAX Energy consumption [J] (Stats structure),2057.12
MIN Energy consumption [J] (Stats structure),2057.12
SUM Energy consumption [J] (Stats structure),2057.12
# CALLTREE;init_0;Main-PWSCF_0;run-PWSCF_0;run-PWSCF-electrons_function_1;electrons-electrons_scf_function_0;c_bands_function_8;diag_bands_k_function_0
# Job info - HDEEM
JOB ID,17281565.7
Nodelist,taurusi5540
AVG Runtime of function [s],9.6889
MAX Runtime of function [s],9.6889
MIN Runtime of function [s],9.6889
# COUNTERS - HDEEM: 
AVG Energy consumption [J] (Stats structure),1944.25
MAX Energy consumption [J] (Stats structure),1944.25
MIN Energy consumption [J] (Stats structure),1944.25
SUM Energy consumption [J] (Stats structure),1944.25
# CALLTREE;init_0;Main-PWSCF_0;run-PWSCF_0;run-PWSCF-electrons_function_1;electrons-electrons_scf_function_0;c_bands_function_8;diag_bands_k_function_1
# Job info - HDEEM
JOB ID,17281565.7
Nodelist,taurusi5540
AVG Runtime of function [s],9.95005
MAX Runtime of function [s],9.95005
MIN Runtime of function [s],9.95005
# COUNTERS - HDEEM: 
AVG Energy consumption [J] (Stats structure),1995.84
MAX Energy consumption [J] (Stats structure),1995.84
MIN Energy consumption [J] (Stats structure),1995.84
SUM Energy consumption [J] (Stats structure),1995.84
# CALLTREE;init_0;Main-PWSCF_0;run-PWSCF_0;run-PWSCF-electrons_function_1;electrons-electrons_scf_function_0;c_bands_function_8;diag_bands_k_function_2
# Job info - HDEEM
JOB ID,17281565.7
Nodelist,taurusi5540
AVG Runtime of function [s],9.92884
MAX Runtime of function [s],9.92884
MIN Runtime of function [s],9.92884
# COUNTERS - HDEEM: 
AVG Energy consumption [J] (Stats structure),1992.05
MAX Energy consumption [J] (Stats structure),1992.05
MIN Energy consumption [J] (Stats structure),1992.05
SUM Energy consumption [J] (Stats structure),1992.05
# CALLTREE;init_0;Main-PWSCF_0;run-PWSCF_0;run-PWSCF-electrons_function_1;electrons-electrons_scf_function_0;c_bands_function_8;diag_bands_k_function_3
# Job info - HDEEM
JOB ID,17281565.7
Nodelist,taurusi5540
AVG Runtime of function [s],9.42762
MAX Runtime of function [s],9.42762
MIN Runtime of function [s],9.42762
# COUNTERS - HDEEM: 
AVG Energy consumption [J] (Stats structure),1891.39
MAX Energy consumption [J] (Stats structure),1891.39
MIN Energy consumption [J] (Stats structure),1891.39
SUM Energy consumption [J] (Stats structure),1891.39
# CALLTREE;init_0;Main-PWSCF_0;run-PWSCF_0;run-PWSCF-electrons_function_1;electrons-electrons_scf_function_0;c_bands_function_9;diag_bands_k_function_0
# Job info - HDEEM
JOB ID,17281565.7
Nodelist,taurusi5540
AVG Runtime of function [s],9.37545
MAX Runtime of function [s],9.37545
MIN Runtime of function [s],9.37545
# COUNTERS - HDEEM: 
AVG Energy consumption [J] (Stats structure),1881.24
MAX Energy consumption [J] (Stats structure),1881.24
MIN Energy consumption [J] (Stats structure),1881.24
SUM Energy consumption [J] (Stats structure),1881.24
# CALLTREE;init_0;Main-PWSCF_0;run-PWSCF_0;run-PWSCF-electrons_function_1;electrons-electrons_scf_function_0;c_bands_function_9;diag_bands_k_function_1
# Job info - HDEEM
JOB ID,17281565.7
Nodelist,taurusi5540
AVG Runtime of function [s],9.36094
MAX Runtime of function [s],9.36094
MIN Runtime of function [s],9.36094
# COUNTERS - HDEEM: 
AVG Energy consumption [J] (Stats structure),1878.2
MAX Energy consumption [J] (Stats structure),1878.2
MIN Energy consumption [J] (Stats structure),1878.2
SUM Energy consumption [J] (Stats structure),1878.2
# CALLTREE;init_0;Main-PWSCF_0;run-PWSCF_0;run-PWSCF-electrons_function_1;electrons-electrons_scf_function_0;c_bands_function_9;diag_bands_k_function_2
# Job info - HDEEM
JOB ID,17281565.7
Nodelist,taurusi5540
AVG Runtime of function [s],9.34736
MAX Runtime of function [s],9.34736
MIN Runtime of function [s],9.34736
# COUNTERS - HDEEM: 
AVG Energy consumption [J] (Stats structure),1875.68
MAX Energy consumption [J] (Stats structure),1875.68
MIN Energy consumption [J] (Stats structure),1875.68
SUM Energy consumption [J] (Stats structure),1875.68
# CALLTREE;init_0;Main-PWSCF_0;run-PWSCF_0;run-PWSCF-electrons_function_1;electrons-electrons_scf_function_0;c_bands_function_9;diag_bands_k_function_3
# Job info - HDEEM
JOB ID,17281565.7
Nodelist,taurusi5540
AVG Runtime of function [s],9.26053
MAX Runtime of function [s],9.26053
MIN Runtime of function [s],9.26053
# COUNTERS - HDEEM: 
AVG Energy consumption [J] (Stats structure),1858.73
MAX Energy consumption [J] (Stats structure),1858.73
MIN Energy consumption [J] (Stats structure),1858.73
SUM Energy consumption [J] (Stats structure),1858.73
# CALLTREE;init_0;Main-PWSCF_0;run-PWSCF_0;run-PWSCF-electrons_function_1;electrons-electrons_scf_function_0;c_bands_function_10;diag_bands_k_function_0
# Job info - HDEEM
JOB ID,17281565.7
Nodelist,taurusi5540
AVG Runtime of function [s],9.35772
MAX Runtime of function [s],9.35772
MIN Runtime of function [s],9.35772
# COUNTERS - HDEEM: 
AVG Energy consumption [J] (Stats structure),1877.97
MAX Energy consumption [J] (Stats structure),1877.97
MIN Energy consumption [J] (Stats structure),1877.97
SUM Energy consumption [J] (Stats structure),1877.97
# CALLTREE;init_0;Main-PWSCF_0;run-PWSCF_0;run-PWSCF-electrons_function_1;electrons-electrons_scf_function_0;c_bands_function_10;diag_bands_k_function_1
# Job info - HDEEM
JOB ID,17281565.7
Nodelist,taurusi5540
AVG Runtime of function [s],9.17508
MAX Runtime of function [s],9.17508
MIN Runtime of function [s],9.17508
# COUNTERS - HDEEM: 
AVG Energy consumption [J] (Stats structure),1837.02
MAX Energy consumption [J] (Stats structure),1837.02
MIN Energy consumption [J] (Stats structure),1837.02
SUM Energy consumption [J] (Stats structure),1837.02
# CALLTREE;init_0;Main-PWSCF_0;run-PWSCF_0;run-PWSCF-electrons_function_1;electrons-electrons_scf_function_0;c_bands_function_10;diag_bands_k_function_2
# Job info - HDEEM
JOB ID,17281565.7
Nodelist,taurusi5540
AVG Runtime of function [s],9.56167
MAX Runtime of function [s],9.56167
MIN Runtime of function [s],9.56167
# COUNTERS - HDEEM: 
AVG Energy consumption [J] (Stats structure),1918.75
MAX Energy consumption [J] (Stats structure),1918.75
MIN Energy consumption [J] (Stats structure),1918.75
SUM Energy consumption [J] (Stats structure),1918.75
# CALLTREE;init_0;Main-PWSCF_0;run-PWSCF_0;run-PWSCF-electrons_function_1;electrons-electrons_scf_function_0;c_bands_function_10;diag_bands_k_function_3
# Job info - HDEEM
JOB ID,17281565.7
Nodelist,taurusi5540
AVG Runtime of function [s],9.15367
MAX Runtime of function [s],9.15367
MIN Runtime of function [s],9.15367
# COUNTERS - HDEEM: 
AVG Energy consumption [J] (Stats structure),1833.63
MAX Energy consumption [J] (Stats structure),1833.63
MIN Energy consumption [J] (Stats structure),1833.63
SUM Energy consumption [J] (Stats structure),1833.63
# CALLTREE;init_0;Main-PWSCF_0;run-PWSCF_0;run-PWSCF-electrons_function_1;electrons-electrons_scf_function_0;c_bands_function_11;diag_bands_k_function_0
# Job info - HDEEM
JOB ID,17281565.7
Nodelist,taurusi5540
AVG Runtime of function [s],8.07157
MAX Runtime of function [s],8.07157
MIN Runtime of function [s],8.07157
# COUNTERS - HDEEM: 
AVG Energy consumption [J] (Stats structure),1615.13
MAX Energy consumption [J] (Stats structure),1615.13
MIN Energy consumption [J] (Stats structure),1615.13
SUM Energy consumption [J] (Stats structure),1615.13
# CALLTREE;init_0;Main-PWSCF_0;run-PWSCF_0;run-PWSCF-electrons_function_1;electrons-electrons_scf_function_0;c_bands_function_11;diag_bands_k_function_1
# Job info - HDEEM
JOB ID,17281565.7
Nodelist,taurusi5540
AVG Runtime of function [s],8.13073
MAX Runtime of function [s],8.13073
MIN Runtime of function [s],8.13073
# COUNTERS - HDEEM: 
AVG Energy consumption [J] (Stats structure),1627.46
MAX Energy consumption [J] (Stats structure),1627.46
MIN Energy consumption [J] (Stats structure),1627.46
SUM Energy consumption [J] (Stats structure),1627.46
# CALLTREE;init_0;Main-PWSCF_0;run-PWSCF_0;run-PWSCF-electrons_function_1;electrons-electrons_scf_function_0;c_bands_function_11;diag_bands_k_function_2
# Job info - HDEEM
JOB ID,17281565.7
Nodelist,taurusi5540
AVG Runtime of function [s],8.0189
MAX Runtime of function [s],8.0189
MIN Runtime of function [s],8.0189
# COUNTERS - HDEEM: 
AVG Energy consumption [J] (Stats structure),1605.14
MAX Energy consumption [J] (Stats structure),1605.14
MIN Energy consumption [J] (Stats structure),1605.14
SUM Energy consumption [J] (Stats structure),1605.14
# CALLTREE;init_0;Main-PWSCF_0;run-PWSCF_0;run-PWSCF-electrons_function_1;electrons-electrons_scf_function_0;c_bands_function_11;diag_bands_k_function_3
# Job info - HDEEM
JOB ID,17281565.7
Nodelist,taurusi5540
AVG Runtime of function [s],7.94595
MAX Runtime of function [s],7.94595
MIN Runtime of function [s],7.94595
# COUNTERS - HDEEM: 
AVG Energy consumption [J] (Stats structure),1590.42
MAX Energy consumption [J] (Stats structure),1590.42
MIN Energy consumption [J] (Stats structure),1590.42
SUM Energy consumption [J] (Stats structure),1590.42
# CALLTREE;init_0;Main-PWSCF_0;run-PWSCF_0;run-PWSCF-electrons_function_1;electrons-electrons_scf_function_0;c_bands_function_12;diag_bands_k_function_0
# Job info - HDEEM
JOB ID,17281565.7
Nodelist,taurusi5540
AVG Runtime of function [s],10.3524
MAX Runtime of function [s],10.3524
MIN Runtime of function [s],10.3524
# COUNTERS - HDEEM: 
AVG Energy consumption [J] (Stats structure),2076.21
MAX Energy consumption [J] (Stats structure),2076.21
MIN Energy consumption [J] (Stats structure),2076.21
SUM Energy consumption [J] (Stats structure),2076.21
# CALLTREE;init_0;Main-PWSCF_0;run-PWSCF_0;run-PWSCF-electrons_function_1;electrons-electrons_scf_function_0;c_bands_function_12;diag_bands_k_function_1
# Job info - HDEEM
JOB ID,17281565.7
Nodelist,taurusi5540
AVG Runtime of function [s],9.8499
MAX Runtime of function [s],9.8499
MIN Runtime of function [s],9.8499
# COUNTERS - HDEEM: 
AVG Energy consumption [J] (Stats structure),1976.09
MAX Energy consumption [J] (Stats structure),1976.09
MIN Energy consumption [J] (Stats structure),1976.09
SUM Energy consumption [J] (Stats structure),1976.09
# CALLTREE;init_0;Main-PWSCF_0;run-PWSCF_0;run-PWSCF-electrons_function_1;electrons-electrons_scf_function_0;c_bands_function_12;diag_bands_k_function_2
# Job info - HDEEM
JOB ID,17281565.7
Nodelist,taurusi5540
AVG Runtime of function [s],9.7439
MAX Runtime of function [s],9.7439
MIN Runtime of function [s],9.7439
# COUNTERS - HDEEM: 
AVG Energy consumption [J] (Stats structure),1955.37
MAX Energy consumption [J] (Stats structure),1955.37
MIN Energy consumption [J] (Stats structure),1955.37
SUM Energy consumption [J] (Stats structure),1955.37
# CALLTREE;init_0;Main-PWSCF_0;run-PWSCF_0;run-PWSCF-electrons_function_1;electrons-electrons_scf_function_0;c_bands_function_12;diag_bands_k_function_3
# Job info - HDEEM
JOB ID,17281565.7
Nodelist,taurusi5540
AVG Runtime of function [s],10.1651
MAX Runtime of function [s],10.1651
MIN Runtime of function [s],10.1651
# COUNTERS - HDEEM: 
AVG Energy consumption [J] (Stats structure),2040.59
MAX Energy consumption [J] (Stats structure),2040.59
MIN Energy consumption [J] (Stats structure),2040.59
SUM Energy consumption [J] (Stats structure),2040.59
# CALLTREE;init_0;Main-PWSCF_0;run-PWSCF_0;run-PWSCF-electrons_function_1;electrons-electrons_scf_function_0;c_bands_function_13;diag_bands_k_function_0
# Job info - HDEEM
JOB ID,17281565.7
Nodelist,taurusi5540
AVG Runtime of function [s],9.0522
MAX Runtime of function [s],9.0522
MIN Runtime of function [s],9.0522
# COUNTERS - HDEEM: 
AVG Energy consumption [J] (Stats structure),1817.02
MAX Energy consumption [J] (Stats structure),1817.02
MIN Energy consumption [J] (Stats structure),1817.02
SUM Energy consumption [J] (Stats structure),1817.02
# CALLTREE;init_0;Main-PWSCF_0;run-PWSCF_0;run-PWSCF-electrons_function_1;electrons-electrons_scf_function_0;c_bands_function_13;diag_bands_k_function_1
# Job info - HDEEM
JOB ID,17281565.7
Nodelist,taurusi5540
AVG Runtime of function [s],9.65583
MAX Runtime of function [s],9.65583
MIN Runtime of function [s],9.65583
# COUNTERS - HDEEM: 
AVG Energy consumption [J] (Stats structure),1937.7
MAX Energy consumption [J] (Stats structure),1937.7
MIN Energy consumption [J] (Stats structure),1937.7
SUM Energy consumption [J] (Stats structure),1937.7
# CALLTREE;init_0;Main-PWSCF_0;run-PWSCF_0;run-PWSCF-electrons_function_1;electrons-electrons_scf_function_0;c_bands_function_13;diag_bands_k_function_2
# Job info - HDEEM
JOB ID,17281565.7
Nodelist,taurusi5540
AVG Runtime of function [s],9.71431
MAX Runtime of function [s],9.71431
MIN Runtime of function [s],9.71431
# COUNTERS - HDEEM: 
AVG Energy consumption [J] (Stats structure),1949.45
MAX Energy consumption [J] (Stats structure),1949.45
MIN Energy consumption [J] (Stats structure),1949.45
SUM Energy consumption [J] (Stats structure),1949.45
# CALLTREE;init_0;Main-PWSCF_0;run-PWSCF_0;run-PWSCF-electrons_function_1;electrons-electrons_scf_function_0;c_bands_function_13;diag_bands_k_function_3
# Job info - HDEEM
JOB ID,17281565.7
Nodelist,taurusi5540
AVG Runtime of function [s],9.47289
MAX Runtime of function [s],9.47289
MIN Runtime of function [s],9.47289
# COUNTERS - HDEEM: 
AVG Energy consumption [J] (Stats structure),1901.56
MAX Energy consumption [J] (Stats structure),1901.56
MIN Energy consumption [J] (Stats structure),1901.56
SUM Energy consumption [J] (Stats structure),1901.56
# CALLTREE;init_0;Main-PWSCF_0;run-PWSCF_0;run-PWSCF-electrons_function_1;electrons-electrons_scf_function_0;c_bands_function_14;diag_bands_k_function_0
# Job info - HDEEM
JOB ID,17281565.7
Nodelist,taurusi5540
AVG Runtime of function [s],6.75565
MAX Runtime of function [s],6.75565
MIN Runtime of function [s],6.75565
# COUNTERS - HDEEM: 
AVG Energy consumption [J] (Stats structure),1352.44
MAX Energy consumption [J] (Stats structure),1352.44
MIN Energy consumption [J] (Stats structure),1352.44
SUM Energy consumption [J] (Stats structure),1352.44
# CALLTREE;init_0;Main-PWSCF_0;run-PWSCF_0;run-PWSCF-electrons_function_1;electrons-electrons_scf_function_0;c_bands_function_14;diag_bands_k_function_1
# Job info - HDEEM
JOB ID,17281565.7
Nodelist,taurusi5540
AVG Runtime of function [s],6.73291
MAX Runtime of function [s],6.73291
MIN Runtime of function [s],6.73291
# COUNTERS - HDEEM: 
AVG Energy consumption [J] (Stats structure),1348.24
MAX Energy consumption [J] (Stats structure),1348.24
MIN Energy consumption [J] (Stats structure),1348.24
SUM Energy consumption [J] (Stats structure),1348.24
# CALLTREE;init_0;Main-PWSCF_0;run-PWSCF_0;run-PWSCF-electrons_function_1;electrons-electrons_scf_function_0;c_bands_function_14;diag_bands_k_function_2
# Job info - HDEEM
JOB ID,17281565.7
Nodelist,taurusi5540
AVG Runtime of function [s],6.7279
MAX Runtime of function [s],6.7279
MIN Runtime of function [s],6.7279
# COUNTERS - HDEEM: 
AVG Energy consumption [J] (Stats structure),1347.75
MAX Energy consumption [J] (Stats structure),1347.75
MIN Energy consumption [J] (Stats structure),1347.75
SUM Energy consumption [J] (Stats structure),1347.75
# CALLTREE;init_0;Main-PWSCF_0;run-PWSCF_0;run-PWSCF-electrons_function_1;electrons-electrons_scf_function_0;c_bands_function_14;diag_bands_k_function_3
# Job info - HDEEM
JOB ID,17281565.7
Nodelist,taurusi5540
AVG Runtime of function [s],6.95427
MAX Runtime of function [s],6.95427
MIN Runtime of function [s],6.95427
# COUNTERS - HDEEM: 
AVG Energy consumption [J] (Stats structure),1392.82
MAX Energy consumption [J] (Stats structure),1392.82
MIN Energy consumption [J] (Stats structure),1392.82
SUM Energy consumption [J] (Stats structure),1392.82
# CALLTREE;init_0;Main-PWSCF_0;run-PWSCF_0;run-PWSCF-electrons_function_1;electrons-electrons_scf_function_0;c_bands_function_15;diag_bands_k_function_0
# Job info - HDEEM
JOB ID,17281565.7
Nodelist,taurusi5540
AVG Runtime of function [s],6.7927
MAX Runtime of function [s],6.7927
MIN Runtime of function [s],6.7927
# COUNTERS - HDEEM: 
AVG Energy consumption [J] (Stats structure),1359.21
MAX Energy consumption [J] (Stats structure),1359.21
MIN Energy consumption [J] (Stats structure),1359.21
SUM Energy consumption [J] (Stats structure),1359.21
# CALLTREE;init_0;Main-PWSCF_0;run-PWSCF_0;run-PWSCF-electrons_function_1;electrons-electrons_scf_function_0;c_bands_function_15;diag_bands_k_function_1
# Job info - HDEEM
JOB ID,17281565.7
Nodelist,taurusi5540
AVG Runtime of function [s],6.75408
MAX Runtime of function [s],6.75408
MIN Runtime of function [s],6.75408
# COUNTERS - HDEEM: 
AVG Energy consumption [J] (Stats structure),1352.12
MAX Energy consumption [J] (Stats structure),1352.12
MIN Energy consumption [J] (Stats structure),1352.12
SUM Energy consumption [J] (Stats structure),1352.12
# CALLTREE;init_0;Main-PWSCF_0;run-PWSCF_0;run-PWSCF-electrons_function_1;electrons-electrons_scf_function_0;c_bands_function_15;diag_bands_k_function_2
# Job info - HDEEM
JOB ID,17281565.7
Nodelist,taurusi5540
AVG Runtime of function [s],6.82879
MAX Runtime of function [s],6.82879
MIN Runtime of function [s],6.82879
# COUNTERS - HDEEM: 
AVG Energy consumption [J] (Stats structure),1368.25
MAX Energy consumption [J] (Stats structure),1368.25
MIN Energy consumption [J] (Stats structure),1368.25
SUM Energy consumption [J] (Stats structure),1368.25
# CALLTREE;init_0;Main-PWSCF_0;run-PWSCF_0;run-PWSCF-electrons_function_1;electrons-electrons_scf_function_0;c_bands_function_15;diag_bands_k_function_3
# Job info - HDEEM
JOB ID,17281565.7
Nodelist,taurusi5540
AVG Runtime of function [s],6.73957
MAX Runtime of function [s],6.73957
MIN Runtime of function [s],6.73957
# COUNTERS - HDEEM: 
AVG Energy consumption [J] (Stats structure),1349.68
MAX Energy consumption [J] (Stats structure),1349.68
MIN Energy consumption [J] (Stats structure),1349.68
SUM Energy consumption [J] (Stats structure),1349.68
