# CALLTREE;init_0;Main-PWSCF_0;run-PWSCF_0;run-PWSCF-electrons_function_1;electrons-electrons_scf_function_0;c_bands_function_0;diag_bands_k_function_0
# Job info - HDEEM
JOB ID,17281565.10
Nodelist,taurusi5540
AVG Runtime of function [s],10.8139
MAX Runtime of function [s],10.8139
MIN Runtime of function [s],10.8139
# COUNTERS - HDEEM: 
AVG Energy consumption [J] (Stats structure),2120.32
MAX Energy consumption [J] (Stats structure),2120.32
MIN Energy consumption [J] (Stats structure),2120.32
SUM Energy consumption [J] (Stats structure),2120.32
# CALLTREE;init_0;Main-PWSCF_0;run-PWSCF_0;run-PWSCF-electrons_function_1;electrons-electrons_scf_function_0;c_bands_function_0;diag_bands_k_function_1
# Job info - HDEEM
JOB ID,17281565.10
Nodelist,taurusi5540
AVG Runtime of function [s],11.1588
MAX Runtime of function [s],11.1588
MIN Runtime of function [s],11.1588
# COUNTERS - HDEEM: 
AVG Energy consumption [J] (Stats structure),2187.31
MAX Energy consumption [J] (Stats structure),2187.31
MIN Energy consumption [J] (Stats structure),2187.31
SUM Energy consumption [J] (Stats structure),2187.31
# CALLTREE;init_0;Main-PWSCF_0;run-PWSCF_0;run-PWSCF-electrons_function_1;electrons-electrons_scf_function_0;c_bands_function_0;diag_bands_k_function_2
# Job info - HDEEM
JOB ID,17281565.10
Nodelist,taurusi5540
AVG Runtime of function [s],11.3035
MAX Runtime of function [s],11.3035
MIN Runtime of function [s],11.3035
# COUNTERS - HDEEM: 
AVG Energy consumption [J] (Stats structure),2216.23
MAX Energy consumption [J] (Stats structure),2216.23
MIN Energy consumption [J] (Stats structure),2216.23
SUM Energy consumption [J] (Stats structure),2216.23
# CALLTREE;init_0;Main-PWSCF_0;run-PWSCF_0;run-PWSCF-electrons_function_1;electrons-electrons_scf_function_0;c_bands_function_0;diag_bands_k_function_3
# Job info - HDEEM
JOB ID,17281565.10
Nodelist,taurusi5540
AVG Runtime of function [s],11.306
MAX Runtime of function [s],11.306
MIN Runtime of function [s],11.306
# COUNTERS - HDEEM: 
AVG Energy consumption [J] (Stats structure),2216.89
MAX Energy consumption [J] (Stats structure),2216.89
MIN Energy consumption [J] (Stats structure),2216.89
SUM Energy consumption [J] (Stats structure),2216.89
# CALLTREE;init_0;Main-PWSCF_0;run-PWSCF_0;run-PWSCF-electrons_function_1;electrons-electrons_scf_function_0;c_bands_function_1;diag_bands_k_function_0
# Job info - HDEEM
JOB ID,17281565.10
Nodelist,taurusi5540
AVG Runtime of function [s],7.30226
MAX Runtime of function [s],7.30226
MIN Runtime of function [s],7.30226
# COUNTERS - HDEEM: 
AVG Energy consumption [J] (Stats structure),1429.49
MAX Energy consumption [J] (Stats structure),1429.49
MIN Energy consumption [J] (Stats structure),1429.49
SUM Energy consumption [J] (Stats structure),1429.49
# CALLTREE;init_0;Main-PWSCF_0;run-PWSCF_0;run-PWSCF-electrons_function_1;electrons-electrons_scf_function_0;c_bands_function_1;diag_bands_k_function_1
# Job info - HDEEM
JOB ID,17281565.10
Nodelist,taurusi5540
AVG Runtime of function [s],7.38471
MAX Runtime of function [s],7.38471
MIN Runtime of function [s],7.38471
# COUNTERS - HDEEM: 
AVG Energy consumption [J] (Stats structure),1445.59
MAX Energy consumption [J] (Stats structure),1445.59
MIN Energy consumption [J] (Stats structure),1445.59
SUM Energy consumption [J] (Stats structure),1445.59
# CALLTREE;init_0;Main-PWSCF_0;run-PWSCF_0;run-PWSCF-electrons_function_1;electrons-electrons_scf_function_0;c_bands_function_1;diag_bands_k_function_2
# Job info - HDEEM
JOB ID,17281565.10
Nodelist,taurusi5540
AVG Runtime of function [s],6.98875
MAX Runtime of function [s],6.98875
MIN Runtime of function [s],6.98875
# COUNTERS - HDEEM: 
AVG Energy consumption [J] (Stats structure),1368.76
MAX Energy consumption [J] (Stats structure),1368.76
MIN Energy consumption [J] (Stats structure),1368.76
SUM Energy consumption [J] (Stats structure),1368.76
# CALLTREE;init_0;Main-PWSCF_0;run-PWSCF_0;run-PWSCF-electrons_function_1;electrons-electrons_scf_function_0;c_bands_function_1;diag_bands_k_function_3
# Job info - HDEEM
JOB ID,17281565.10
Nodelist,taurusi5540
AVG Runtime of function [s],7.00707
MAX Runtime of function [s],7.00707
MIN Runtime of function [s],7.00707
# COUNTERS - HDEEM: 
AVG Energy consumption [J] (Stats structure),1371.87
MAX Energy consumption [J] (Stats structure),1371.87
MIN Energy consumption [J] (Stats structure),1371.87
SUM Energy consumption [J] (Stats structure),1371.87
# CALLTREE;init_0;Main-PWSCF_0;run-PWSCF_0;run-PWSCF-electrons_function_1;electrons-electrons_scf_function_0;c_bands_function_2;diag_bands_k_function_0
# Job info - HDEEM
JOB ID,17281565.10
Nodelist,taurusi5540
AVG Runtime of function [s],7.09005
MAX Runtime of function [s],7.09005
MIN Runtime of function [s],7.09005
# COUNTERS - HDEEM: 
AVG Energy consumption [J] (Stats structure),1387.67
MAX Energy consumption [J] (Stats structure),1387.67
MIN Energy consumption [J] (Stats structure),1387.67
SUM Energy consumption [J] (Stats structure),1387.67
# CALLTREE;init_0;Main-PWSCF_0;run-PWSCF_0;run-PWSCF-electrons_function_1;electrons-electrons_scf_function_0;c_bands_function_2;diag_bands_k_function_1
# Job info - HDEEM
JOB ID,17281565.10
Nodelist,taurusi5540
AVG Runtime of function [s],7.01009
MAX Runtime of function [s],7.01009
MIN Runtime of function [s],7.01009
# COUNTERS - HDEEM: 
AVG Energy consumption [J] (Stats structure),1372.77
MAX Energy consumption [J] (Stats structure),1372.77
MIN Energy consumption [J] (Stats structure),1372.77
SUM Energy consumption [J] (Stats structure),1372.77
# CALLTREE;init_0;Main-PWSCF_0;run-PWSCF_0;run-PWSCF-electrons_function_1;electrons-electrons_scf_function_0;c_bands_function_2;diag_bands_k_function_2
# Job info - HDEEM
JOB ID,17281565.10
Nodelist,taurusi5540
AVG Runtime of function [s],7.02322
MAX Runtime of function [s],7.02322
MIN Runtime of function [s],7.02322
# COUNTERS - HDEEM: 
AVG Energy consumption [J] (Stats structure),1375.38
MAX Energy consumption [J] (Stats structure),1375.38
MIN Energy consumption [J] (Stats structure),1375.38
SUM Energy consumption [J] (Stats structure),1375.38
# CALLTREE;init_0;Main-PWSCF_0;run-PWSCF_0;run-PWSCF-electrons_function_1;electrons-electrons_scf_function_0;c_bands_function_2;diag_bands_k_function_3
# Job info - HDEEM
JOB ID,17281565.10
Nodelist,taurusi5540
AVG Runtime of function [s],7.01311
MAX Runtime of function [s],7.01311
MIN Runtime of function [s],7.01311
# COUNTERS - HDEEM: 
AVG Energy consumption [J] (Stats structure),1374.05
MAX Energy consumption [J] (Stats structure),1374.05
MIN Energy consumption [J] (Stats structure),1374.05
SUM Energy consumption [J] (Stats structure),1374.05
# CALLTREE;init_0;Main-PWSCF_0;run-PWSCF_0;run-PWSCF-electrons_function_1;electrons-electrons_scf_function_0;c_bands_function_3;diag_bands_k_function_0
# Job info - HDEEM
JOB ID,17281565.10
Nodelist,taurusi5540
AVG Runtime of function [s],11.4197
MAX Runtime of function [s],11.4197
MIN Runtime of function [s],11.4197
# COUNTERS - HDEEM: 
AVG Energy consumption [J] (Stats structure),2238.02
MAX Energy consumption [J] (Stats structure),2238.02
MIN Energy consumption [J] (Stats structure),2238.02
SUM Energy consumption [J] (Stats structure),2238.02
# CALLTREE;init_0;Main-PWSCF_0;run-PWSCF_0;run-PWSCF-electrons_function_1;electrons-electrons_scf_function_0;c_bands_function_3;diag_bands_k_function_1
# Job info - HDEEM
JOB ID,17281565.10
Nodelist,taurusi5540
AVG Runtime of function [s],13.5201
MAX Runtime of function [s],13.5201
MIN Runtime of function [s],13.5201
# COUNTERS - HDEEM: 
AVG Energy consumption [J] (Stats structure),2645.52
MAX Energy consumption [J] (Stats structure),2645.52
MIN Energy consumption [J] (Stats structure),2645.52
SUM Energy consumption [J] (Stats structure),2645.52
# CALLTREE;init_0;Main-PWSCF_0;run-PWSCF_0;run-PWSCF-electrons_function_1;electrons-electrons_scf_function_0;c_bands_function_3;diag_bands_k_function_2
# Job info - HDEEM
JOB ID,17281565.10
Nodelist,taurusi5540
AVG Runtime of function [s],14.7082
MAX Runtime of function [s],14.7082
MIN Runtime of function [s],14.7082
# COUNTERS - HDEEM: 
AVG Energy consumption [J] (Stats structure),2874.57
MAX Energy consumption [J] (Stats structure),2874.57
MIN Energy consumption [J] (Stats structure),2874.57
SUM Energy consumption [J] (Stats structure),2874.57
# CALLTREE;init_0;Main-PWSCF_0;run-PWSCF_0;run-PWSCF-electrons_function_1;electrons-electrons_scf_function_0;c_bands_function_3;diag_bands_k_function_3
# Job info - HDEEM
JOB ID,17281565.10
Nodelist,taurusi5540
AVG Runtime of function [s],13.8412
MAX Runtime of function [s],13.8412
MIN Runtime of function [s],13.8412
# COUNTERS - HDEEM: 
AVG Energy consumption [J] (Stats structure),2708.82
MAX Energy consumption [J] (Stats structure),2708.82
MIN Energy consumption [J] (Stats structure),2708.82
SUM Energy consumption [J] (Stats structure),2708.82
# CALLTREE;init_0;Main-PWSCF_0;run-PWSCF_0;run-PWSCF-electrons_function_1;electrons-electrons_scf_function_0;c_bands_function_4;diag_bands_k_function_0
# Job info - HDEEM
JOB ID,17281565.10
Nodelist,taurusi5540
AVG Runtime of function [s],13.566
MAX Runtime of function [s],13.566
MIN Runtime of function [s],13.566
# COUNTERS - HDEEM: 
AVG Energy consumption [J] (Stats structure),2655.99
MAX Energy consumption [J] (Stats structure),2655.99
MIN Energy consumption [J] (Stats structure),2655.99
SUM Energy consumption [J] (Stats structure),2655.99
# CALLTREE;init_0;Main-PWSCF_0;run-PWSCF_0;run-PWSCF-electrons_function_1;electrons-electrons_scf_function_0;c_bands_function_4;diag_bands_k_function_1
# Job info - HDEEM
JOB ID,17281565.10
Nodelist,taurusi5540
AVG Runtime of function [s],13.9199
MAX Runtime of function [s],13.9199
MIN Runtime of function [s],13.9199
# COUNTERS - HDEEM: 
AVG Energy consumption [J] (Stats structure),2721.12
MAX Energy consumption [J] (Stats structure),2721.12
MIN Energy consumption [J] (Stats structure),2721.12
SUM Energy consumption [J] (Stats structure),2721.12
# CALLTREE;init_0;Main-PWSCF_0;run-PWSCF_0;run-PWSCF-electrons_function_1;electrons-electrons_scf_function_0;c_bands_function_4;diag_bands_k_function_2
# Job info - HDEEM
JOB ID,17281565.10
Nodelist,taurusi5540
AVG Runtime of function [s],13.947
MAX Runtime of function [s],13.947
MIN Runtime of function [s],13.947
# COUNTERS - HDEEM: 
AVG Energy consumption [J] (Stats structure),2729.47
MAX Energy consumption [J] (Stats structure),2729.47
MIN Energy consumption [J] (Stats structure),2729.47
SUM Energy consumption [J] (Stats structure),2729.47
# CALLTREE;init_0;Main-PWSCF_0;run-PWSCF_0;run-PWSCF-electrons_function_1;electrons-electrons_scf_function_0;c_bands_function_4;diag_bands_k_function_3
# Job info - HDEEM
JOB ID,17281565.10
Nodelist,taurusi5540
AVG Runtime of function [s],11.5394
MAX Runtime of function [s],11.5394
MIN Runtime of function [s],11.5394
# COUNTERS - HDEEM: 
AVG Energy consumption [J] (Stats structure),2263.09
MAX Energy consumption [J] (Stats structure),2263.09
MIN Energy consumption [J] (Stats structure),2263.09
SUM Energy consumption [J] (Stats structure),2263.09
# CALLTREE;init_0;Main-PWSCF_0;run-PWSCF_0;run-PWSCF-electrons_function_1;electrons-electrons_scf_function_0;c_bands_function_5;diag_bands_k_function_0
# Job info - HDEEM
JOB ID,17281565.10
Nodelist,taurusi5540
AVG Runtime of function [s],9.53968
MAX Runtime of function [s],9.53968
MIN Runtime of function [s],9.53968
# COUNTERS - HDEEM: 
AVG Energy consumption [J] (Stats structure),1867.2
MAX Energy consumption [J] (Stats structure),1867.2
MIN Energy consumption [J] (Stats structure),1867.2
SUM Energy consumption [J] (Stats structure),1867.2
# CALLTREE;init_0;Main-PWSCF_0;run-PWSCF_0;run-PWSCF-electrons_function_1;electrons-electrons_scf_function_0;c_bands_function_5;diag_bands_k_function_1
# Job info - HDEEM
JOB ID,17281565.10
Nodelist,taurusi5540
AVG Runtime of function [s],11.8097
MAX Runtime of function [s],11.8097
MIN Runtime of function [s],11.8097
# COUNTERS - HDEEM: 
AVG Energy consumption [J] (Stats structure),2308.99
MAX Energy consumption [J] (Stats structure),2308.99
MIN Energy consumption [J] (Stats structure),2308.99
SUM Energy consumption [J] (Stats structure),2308.99
# CALLTREE;init_0;Main-PWSCF_0;run-PWSCF_0;run-PWSCF-electrons_function_1;electrons-electrons_scf_function_0;c_bands_function_5;diag_bands_k_function_2
# Job info - HDEEM
JOB ID,17281565.10
Nodelist,taurusi5540
AVG Runtime of function [s],11.5686
MAX Runtime of function [s],11.5686
MIN Runtime of function [s],11.5686
# COUNTERS - HDEEM: 
AVG Energy consumption [J] (Stats structure),2262.32
MAX Energy consumption [J] (Stats structure),2262.32
MIN Energy consumption [J] (Stats structure),2262.32
SUM Energy consumption [J] (Stats structure),2262.32
# CALLTREE;init_0;Main-PWSCF_0;run-PWSCF_0;run-PWSCF-electrons_function_1;electrons-electrons_scf_function_0;c_bands_function_5;diag_bands_k_function_3
# Job info - HDEEM
JOB ID,17281565.10
Nodelist,taurusi5540
AVG Runtime of function [s],10.0217
MAX Runtime of function [s],10.0217
MIN Runtime of function [s],10.0217
# COUNTERS - HDEEM: 
AVG Energy consumption [J] (Stats structure),1962.22
MAX Energy consumption [J] (Stats structure),1962.22
MIN Energy consumption [J] (Stats structure),1962.22
SUM Energy consumption [J] (Stats structure),1962.22
# CALLTREE;init_0;Main-PWSCF_0;run-PWSCF_0;run-PWSCF-electrons_function_1;electrons-electrons_scf_function_0;c_bands_function_6;diag_bands_k_function_0
# Job info - HDEEM
JOB ID,17281565.10
Nodelist,taurusi5540
AVG Runtime of function [s],9.2278
MAX Runtime of function [s],9.2278
MIN Runtime of function [s],9.2278
# COUNTERS - HDEEM: 
AVG Energy consumption [J] (Stats structure),1807.01
MAX Energy consumption [J] (Stats structure),1807.01
MIN Energy consumption [J] (Stats structure),1807.01
SUM Energy consumption [J] (Stats structure),1807.01
# CALLTREE;init_0;Main-PWSCF_0;run-PWSCF_0;run-PWSCF-electrons_function_1;electrons-electrons_scf_function_0;c_bands_function_6;diag_bands_k_function_1
# Job info - HDEEM
JOB ID,17281565.10
Nodelist,taurusi5540
AVG Runtime of function [s],9.35108
MAX Runtime of function [s],9.35108
MIN Runtime of function [s],9.35108
# COUNTERS - HDEEM: 
AVG Energy consumption [J] (Stats structure),1831.76
MAX Energy consumption [J] (Stats structure),1831.76
MIN Energy consumption [J] (Stats structure),1831.76
SUM Energy consumption [J] (Stats structure),1831.76
# CALLTREE;init_0;Main-PWSCF_0;run-PWSCF_0;run-PWSCF-electrons_function_1;electrons-electrons_scf_function_0;c_bands_function_6;diag_bands_k_function_2
# Job info - HDEEM
JOB ID,17281565.10
Nodelist,taurusi5540
AVG Runtime of function [s],9.44648
MAX Runtime of function [s],9.44648
MIN Runtime of function [s],9.44648
# COUNTERS - HDEEM: 
AVG Energy consumption [J] (Stats structure),1851.07
MAX Energy consumption [J] (Stats structure),1851.07
MIN Energy consumption [J] (Stats structure),1851.07
SUM Energy consumption [J] (Stats structure),1851.07
# CALLTREE;init_0;Main-PWSCF_0;run-PWSCF_0;run-PWSCF-electrons_function_1;electrons-electrons_scf_function_0;c_bands_function_6;diag_bands_k_function_3
# Job info - HDEEM
JOB ID,17281565.10
Nodelist,taurusi5540
AVG Runtime of function [s],9.09563
MAX Runtime of function [s],9.09563
MIN Runtime of function [s],9.09563
# COUNTERS - HDEEM: 
AVG Energy consumption [J] (Stats structure),1782.7
MAX Energy consumption [J] (Stats structure),1782.7
MIN Energy consumption [J] (Stats structure),1782.7
SUM Energy consumption [J] (Stats structure),1782.7
# CALLTREE;init_0;Main-PWSCF_0;run-PWSCF_0;run-PWSCF-electrons_function_1;electrons-electrons_scf_function_0;c_bands_function_7;diag_bands_k_function_0
# Job info - HDEEM
JOB ID,17281565.10
Nodelist,taurusi5540
AVG Runtime of function [s],10.0564
MAX Runtime of function [s],10.0564
MIN Runtime of function [s],10.0564
# COUNTERS - HDEEM: 
AVG Energy consumption [J] (Stats structure),1973.49
MAX Energy consumption [J] (Stats structure),1973.49
MIN Energy consumption [J] (Stats structure),1973.49
SUM Energy consumption [J] (Stats structure),1973.49
# CALLTREE;init_0;Main-PWSCF_0;run-PWSCF_0;run-PWSCF-electrons_function_1;electrons-electrons_scf_function_0;c_bands_function_7;diag_bands_k_function_1
# Job info - HDEEM
JOB ID,17281565.10
Nodelist,taurusi5540
AVG Runtime of function [s],10.2215
MAX Runtime of function [s],10.2215
MIN Runtime of function [s],10.2215
# COUNTERS - HDEEM: 
AVG Energy consumption [J] (Stats structure),2005.84
MAX Energy consumption [J] (Stats structure),2005.84
MIN Energy consumption [J] (Stats structure),2005.84
SUM Energy consumption [J] (Stats structure),2005.84
# CALLTREE;init_0;Main-PWSCF_0;run-PWSCF_0;run-PWSCF-electrons_function_1;electrons-electrons_scf_function_0;c_bands_function_7;diag_bands_k_function_2
# Job info - HDEEM
JOB ID,17281565.10
Nodelist,taurusi5540
AVG Runtime of function [s],10.0766
MAX Runtime of function [s],10.0766
MIN Runtime of function [s],10.0766
# COUNTERS - HDEEM: 
AVG Energy consumption [J] (Stats structure),1978.05
MAX Energy consumption [J] (Stats structure),1978.05
MIN Energy consumption [J] (Stats structure),1978.05
SUM Energy consumption [J] (Stats structure),1978.05
# CALLTREE;init_0;Main-PWSCF_0;run-PWSCF_0;run-PWSCF-electrons_function_1;electrons-electrons_scf_function_0;c_bands_function_7;diag_bands_k_function_3
# Job info - HDEEM
JOB ID,17281565.10
Nodelist,taurusi5540
AVG Runtime of function [s],10.6729
MAX Runtime of function [s],10.6729
MIN Runtime of function [s],10.6729
# COUNTERS - HDEEM: 
AVG Energy consumption [J] (Stats structure),2094.79
MAX Energy consumption [J] (Stats structure),2094.79
MIN Energy consumption [J] (Stats structure),2094.79
SUM Energy consumption [J] (Stats structure),2094.79
# CALLTREE;init_0;Main-PWSCF_0;run-PWSCF_0;run-PWSCF-electrons_function_1;electrons-electrons_scf_function_0;c_bands_function_8;diag_bands_k_function_0
# Job info - HDEEM
JOB ID,17281565.10
Nodelist,taurusi5540
AVG Runtime of function [s],10.1248
MAX Runtime of function [s],10.1248
MIN Runtime of function [s],10.1248
# COUNTERS - HDEEM: 
AVG Energy consumption [J] (Stats structure),1987.07
MAX Energy consumption [J] (Stats structure),1987.07
MIN Energy consumption [J] (Stats structure),1987.07
SUM Energy consumption [J] (Stats structure),1987.07
# CALLTREE;init_0;Main-PWSCF_0;run-PWSCF_0;run-PWSCF-electrons_function_1;electrons-electrons_scf_function_0;c_bands_function_8;diag_bands_k_function_1
# Job info - HDEEM
JOB ID,17281565.10
Nodelist,taurusi5540
AVG Runtime of function [s],10.3644
MAX Runtime of function [s],10.3644
MIN Runtime of function [s],10.3644
# COUNTERS - HDEEM: 
AVG Energy consumption [J] (Stats structure),2034.15
MAX Energy consumption [J] (Stats structure),2034.15
MIN Energy consumption [J] (Stats structure),2034.15
SUM Energy consumption [J] (Stats structure),2034.15
# CALLTREE;init_0;Main-PWSCF_0;run-PWSCF_0;run-PWSCF-electrons_function_1;electrons-electrons_scf_function_0;c_bands_function_8;diag_bands_k_function_2
# Job info - HDEEM
JOB ID,17281565.10
Nodelist,taurusi5540
AVG Runtime of function [s],10.3473
MAX Runtime of function [s],10.3473
MIN Runtime of function [s],10.3473
# COUNTERS - HDEEM: 
AVG Energy consumption [J] (Stats structure),2031.1
MAX Energy consumption [J] (Stats structure),2031.1
MIN Energy consumption [J] (Stats structure),2031.1
SUM Energy consumption [J] (Stats structure),2031.1
# CALLTREE;init_0;Main-PWSCF_0;run-PWSCF_0;run-PWSCF-electrons_function_1;electrons-electrons_scf_function_0;c_bands_function_8;diag_bands_k_function_3
# Job info - HDEEM
JOB ID,17281565.10
Nodelist,taurusi5540
AVG Runtime of function [s],9.71373
MAX Runtime of function [s],9.71373
MIN Runtime of function [s],9.71373
# COUNTERS - HDEEM: 
AVG Energy consumption [J] (Stats structure),1907.99
MAX Energy consumption [J] (Stats structure),1907.99
MIN Energy consumption [J] (Stats structure),1907.99
SUM Energy consumption [J] (Stats structure),1907.99
# CALLTREE;init_0;Main-PWSCF_0;run-PWSCF_0;run-PWSCF-electrons_function_1;electrons-electrons_scf_function_0;c_bands_function_9;diag_bands_k_function_0
# Job info - HDEEM
JOB ID,17281565.10
Nodelist,taurusi5540
AVG Runtime of function [s],9.73943
MAX Runtime of function [s],9.73943
MIN Runtime of function [s],9.73943
# COUNTERS - HDEEM: 
AVG Energy consumption [J] (Stats structure),1913.34
MAX Energy consumption [J] (Stats structure),1913.34
MIN Energy consumption [J] (Stats structure),1913.34
SUM Energy consumption [J] (Stats structure),1913.34
# CALLTREE;init_0;Main-PWSCF_0;run-PWSCF_0;run-PWSCF-electrons_function_1;electrons-electrons_scf_function_0;c_bands_function_9;diag_bands_k_function_1
# Job info - HDEEM
JOB ID,17281565.10
Nodelist,taurusi5540
AVG Runtime of function [s],9.75462
MAX Runtime of function [s],9.75462
MIN Runtime of function [s],9.75462
# COUNTERS - HDEEM: 
AVG Energy consumption [J] (Stats structure),1914.84
MAX Energy consumption [J] (Stats structure),1914.84
MIN Energy consumption [J] (Stats structure),1914.84
SUM Energy consumption [J] (Stats structure),1914.84
# CALLTREE;init_0;Main-PWSCF_0;run-PWSCF_0;run-PWSCF-electrons_function_1;electrons-electrons_scf_function_0;c_bands_function_9;diag_bands_k_function_2
# Job info - HDEEM
JOB ID,17281565.10
Nodelist,taurusi5540
AVG Runtime of function [s],9.75497
MAX Runtime of function [s],9.75497
MIN Runtime of function [s],9.75497
# COUNTERS - HDEEM: 
AVG Energy consumption [J] (Stats structure),1915.16
MAX Energy consumption [J] (Stats structure),1915.16
MIN Energy consumption [J] (Stats structure),1915.16
SUM Energy consumption [J] (Stats structure),1915.16
# CALLTREE;init_0;Main-PWSCF_0;run-PWSCF_0;run-PWSCF-electrons_function_1;electrons-electrons_scf_function_0;c_bands_function_9;diag_bands_k_function_3
# Job info - HDEEM
JOB ID,17281565.10
Nodelist,taurusi5540
AVG Runtime of function [s],9.6522
MAX Runtime of function [s],9.6522
MIN Runtime of function [s],9.6522
# COUNTERS - HDEEM: 
AVG Energy consumption [J] (Stats structure),1895.59
MAX Energy consumption [J] (Stats structure),1895.59
MIN Energy consumption [J] (Stats structure),1895.59
SUM Energy consumption [J] (Stats structure),1895.59
# CALLTREE;init_0;Main-PWSCF_0;run-PWSCF_0;run-PWSCF-electrons_function_1;electrons-electrons_scf_function_0;c_bands_function_10;diag_bands_k_function_0
# Job info - HDEEM
JOB ID,17281565.10
Nodelist,taurusi5540
AVG Runtime of function [s],9.77006
MAX Runtime of function [s],9.77006
MIN Runtime of function [s],9.77006
# COUNTERS - HDEEM: 
AVG Energy consumption [J] (Stats structure),1918.06
MAX Energy consumption [J] (Stats structure),1918.06
MIN Energy consumption [J] (Stats structure),1918.06
SUM Energy consumption [J] (Stats structure),1918.06
# CALLTREE;init_0;Main-PWSCF_0;run-PWSCF_0;run-PWSCF-electrons_function_1;electrons-electrons_scf_function_0;c_bands_function_10;diag_bands_k_function_1
# Job info - HDEEM
JOB ID,17281565.10
Nodelist,taurusi5540
AVG Runtime of function [s],9.55877
MAX Runtime of function [s],9.55877
MIN Runtime of function [s],9.55877
# COUNTERS - HDEEM: 
AVG Energy consumption [J] (Stats structure),1872.73
MAX Energy consumption [J] (Stats structure),1872.73
MIN Energy consumption [J] (Stats structure),1872.73
SUM Energy consumption [J] (Stats structure),1872.73
# CALLTREE;init_0;Main-PWSCF_0;run-PWSCF_0;run-PWSCF-electrons_function_1;electrons-electrons_scf_function_0;c_bands_function_10;diag_bands_k_function_2
# Job info - HDEEM
JOB ID,17281565.10
Nodelist,taurusi5540
AVG Runtime of function [s],10.0149
MAX Runtime of function [s],10.0149
MIN Runtime of function [s],10.0149
# COUNTERS - HDEEM: 
AVG Energy consumption [J] (Stats structure),1966.14
MAX Energy consumption [J] (Stats structure),1966.14
MIN Energy consumption [J] (Stats structure),1966.14
SUM Energy consumption [J] (Stats structure),1966.14
# CALLTREE;init_0;Main-PWSCF_0;run-PWSCF_0;run-PWSCF-electrons_function_1;electrons-electrons_scf_function_0;c_bands_function_10;diag_bands_k_function_3
# Job info - HDEEM
JOB ID,17281565.10
Nodelist,taurusi5540
AVG Runtime of function [s],9.56437
MAX Runtime of function [s],9.56437
MIN Runtime of function [s],9.56437
# COUNTERS - HDEEM: 
AVG Energy consumption [J] (Stats structure),1874.41
MAX Energy consumption [J] (Stats structure),1874.41
MIN Energy consumption [J] (Stats structure),1874.41
SUM Energy consumption [J] (Stats structure),1874.41
# CALLTREE;init_0;Main-PWSCF_0;run-PWSCF_0;run-PWSCF-electrons_function_1;electrons-electrons_scf_function_0;c_bands_function_11;diag_bands_k_function_0
# Job info - HDEEM
JOB ID,17281565.10
Nodelist,taurusi5540
AVG Runtime of function [s],8.43142
MAX Runtime of function [s],8.43142
MIN Runtime of function [s],8.43142
# COUNTERS - HDEEM: 
AVG Energy consumption [J] (Stats structure),1650.49
MAX Energy consumption [J] (Stats structure),1650.49
MIN Energy consumption [J] (Stats structure),1650.49
SUM Energy consumption [J] (Stats structure),1650.49
# CALLTREE;init_0;Main-PWSCF_0;run-PWSCF_0;run-PWSCF-electrons_function_1;electrons-electrons_scf_function_0;c_bands_function_11;diag_bands_k_function_1
# Job info - HDEEM
JOB ID,17281565.10
Nodelist,taurusi5540
AVG Runtime of function [s],8.43017
MAX Runtime of function [s],8.43017
MIN Runtime of function [s],8.43017
# COUNTERS - HDEEM: 
AVG Energy consumption [J] (Stats structure),1650.81
MAX Energy consumption [J] (Stats structure),1650.81
MIN Energy consumption [J] (Stats structure),1650.81
SUM Energy consumption [J] (Stats structure),1650.81
# CALLTREE;init_0;Main-PWSCF_0;run-PWSCF_0;run-PWSCF-electrons_function_1;electrons-electrons_scf_function_0;c_bands_function_11;diag_bands_k_function_2
# Job info - HDEEM
JOB ID,17281565.10
Nodelist,taurusi5540
AVG Runtime of function [s],8.34812
MAX Runtime of function [s],8.34812
MIN Runtime of function [s],8.34812
# COUNTERS - HDEEM: 
AVG Energy consumption [J] (Stats structure),1634.82
MAX Energy consumption [J] (Stats structure),1634.82
MIN Energy consumption [J] (Stats structure),1634.82
SUM Energy consumption [J] (Stats structure),1634.82
# CALLTREE;init_0;Main-PWSCF_0;run-PWSCF_0;run-PWSCF-electrons_function_1;electrons-electrons_scf_function_0;c_bands_function_11;diag_bands_k_function_3
# Job info - HDEEM
JOB ID,17281565.10
Nodelist,taurusi5540
AVG Runtime of function [s],8.25282
MAX Runtime of function [s],8.25282
MIN Runtime of function [s],8.25282
# COUNTERS - HDEEM: 
AVG Energy consumption [J] (Stats structure),1616.08
MAX Energy consumption [J] (Stats structure),1616.08
MIN Energy consumption [J] (Stats structure),1616.08
SUM Energy consumption [J] (Stats structure),1616.08
# CALLTREE;init_0;Main-PWSCF_0;run-PWSCF_0;run-PWSCF-electrons_function_1;electrons-electrons_scf_function_0;c_bands_function_12;diag_bands_k_function_0
# Job info - HDEEM
JOB ID,17281565.10
Nodelist,taurusi5540
AVG Runtime of function [s],10.7671
MAX Runtime of function [s],10.7671
MIN Runtime of function [s],10.7671
# COUNTERS - HDEEM: 
AVG Energy consumption [J] (Stats structure),2112.79
MAX Energy consumption [J] (Stats structure),2112.79
MIN Energy consumption [J] (Stats structure),2112.79
SUM Energy consumption [J] (Stats structure),2112.79
# CALLTREE;init_0;Main-PWSCF_0;run-PWSCF_0;run-PWSCF-electrons_function_1;electrons-electrons_scf_function_0;c_bands_function_12;diag_bands_k_function_1
# Job info - HDEEM
JOB ID,17281565.10
Nodelist,taurusi5540
AVG Runtime of function [s],10.3195
MAX Runtime of function [s],10.3195
MIN Runtime of function [s],10.3195
# COUNTERS - HDEEM: 
AVG Energy consumption [J] (Stats structure),2025.09
MAX Energy consumption [J] (Stats structure),2025.09
MIN Energy consumption [J] (Stats structure),2025.09
SUM Energy consumption [J] (Stats structure),2025.09
# CALLTREE;init_0;Main-PWSCF_0;run-PWSCF_0;run-PWSCF-electrons_function_1;electrons-electrons_scf_function_0;c_bands_function_12;diag_bands_k_function_2
# Job info - HDEEM
JOB ID,17281565.10
Nodelist,taurusi5540
AVG Runtime of function [s],10.1506
MAX Runtime of function [s],10.1506
MIN Runtime of function [s],10.1506
# COUNTERS - HDEEM: 
AVG Energy consumption [J] (Stats structure),1992.78
MAX Energy consumption [J] (Stats structure),1992.78
MIN Energy consumption [J] (Stats structure),1992.78
SUM Energy consumption [J] (Stats structure),1992.78
# CALLTREE;init_0;Main-PWSCF_0;run-PWSCF_0;run-PWSCF-electrons_function_1;electrons-electrons_scf_function_0;c_bands_function_12;diag_bands_k_function_3
# Job info - HDEEM
JOB ID,17281565.10
Nodelist,taurusi5540
AVG Runtime of function [s],10.6096
MAX Runtime of function [s],10.6096
MIN Runtime of function [s],10.6096
# COUNTERS - HDEEM: 
AVG Energy consumption [J] (Stats structure),2083.14
MAX Energy consumption [J] (Stats structure),2083.14
MIN Energy consumption [J] (Stats structure),2083.14
SUM Energy consumption [J] (Stats structure),2083.14
# CALLTREE;init_0;Main-PWSCF_0;run-PWSCF_0;run-PWSCF-electrons_function_1;electrons-electrons_scf_function_0;c_bands_function_13;diag_bands_k_function_0
# Job info - HDEEM
JOB ID,17281565.10
Nodelist,taurusi5540
AVG Runtime of function [s],9.39018
MAX Runtime of function [s],9.39018
MIN Runtime of function [s],9.39018
# COUNTERS - HDEEM: 
AVG Energy consumption [J] (Stats structure),1845.11
MAX Energy consumption [J] (Stats structure),1845.11
MIN Energy consumption [J] (Stats structure),1845.11
SUM Energy consumption [J] (Stats structure),1845.11
# CALLTREE;init_0;Main-PWSCF_0;run-PWSCF_0;run-PWSCF-electrons_function_1;electrons-electrons_scf_function_0;c_bands_function_13;diag_bands_k_function_1
# Job info - HDEEM
JOB ID,17281565.10
Nodelist,taurusi5540
AVG Runtime of function [s],10.0868
MAX Runtime of function [s],10.0868
MIN Runtime of function [s],10.0868
# COUNTERS - HDEEM: 
AVG Energy consumption [J] (Stats structure),1980.07
MAX Energy consumption [J] (Stats structure),1980.07
MIN Energy consumption [J] (Stats structure),1980.07
SUM Energy consumption [J] (Stats structure),1980.07
# CALLTREE;init_0;Main-PWSCF_0;run-PWSCF_0;run-PWSCF-electrons_function_1;electrons-electrons_scf_function_0;c_bands_function_13;diag_bands_k_function_2
# Job info - HDEEM
JOB ID,17281565.10
Nodelist,taurusi5540
AVG Runtime of function [s],10.1544
MAX Runtime of function [s],10.1544
MIN Runtime of function [s],10.1544
# COUNTERS - HDEEM: 
AVG Energy consumption [J] (Stats structure),1993.76
MAX Energy consumption [J] (Stats structure),1993.76
MIN Energy consumption [J] (Stats structure),1993.76
SUM Energy consumption [J] (Stats structure),1993.76
# CALLTREE;init_0;Main-PWSCF_0;run-PWSCF_0;run-PWSCF-electrons_function_1;electrons-electrons_scf_function_0;c_bands_function_13;diag_bands_k_function_3
# Job info - HDEEM
JOB ID,17281565.10
Nodelist,taurusi5540
AVG Runtime of function [s],9.90123
MAX Runtime of function [s],9.90123
MIN Runtime of function [s],9.90123
# COUNTERS - HDEEM: 
AVG Energy consumption [J] (Stats structure),1944.31
MAX Energy consumption [J] (Stats structure),1944.31
MIN Energy consumption [J] (Stats structure),1944.31
SUM Energy consumption [J] (Stats structure),1944.31
# CALLTREE;init_0;Main-PWSCF_0;run-PWSCF_0;run-PWSCF-electrons_function_1;electrons-electrons_scf_function_0;c_bands_function_14;diag_bands_k_function_0
# Job info - HDEEM
JOB ID,17281565.10
Nodelist,taurusi5540
AVG Runtime of function [s],7.02787
MAX Runtime of function [s],7.02787
MIN Runtime of function [s],7.02787
# COUNTERS - HDEEM: 
AVG Energy consumption [J] (Stats structure),1376.7
MAX Energy consumption [J] (Stats structure),1376.7
MIN Energy consumption [J] (Stats structure),1376.7
SUM Energy consumption [J] (Stats structure),1376.7
# CALLTREE;init_0;Main-PWSCF_0;run-PWSCF_0;run-PWSCF-electrons_function_1;electrons-electrons_scf_function_0;c_bands_function_14;diag_bands_k_function_1
# Job info - HDEEM
JOB ID,17281565.10
Nodelist,taurusi5540
AVG Runtime of function [s],7.01296
MAX Runtime of function [s],7.01296
MIN Runtime of function [s],7.01296
# COUNTERS - HDEEM: 
AVG Energy consumption [J] (Stats structure),1373.55
MAX Energy consumption [J] (Stats structure),1373.55
MIN Energy consumption [J] (Stats structure),1373.55
SUM Energy consumption [J] (Stats structure),1373.55
# CALLTREE;init_0;Main-PWSCF_0;run-PWSCF_0;run-PWSCF-electrons_function_1;electrons-electrons_scf_function_0;c_bands_function_14;diag_bands_k_function_2
# Job info - HDEEM
JOB ID,17281565.10
Nodelist,taurusi5540
AVG Runtime of function [s],7.02621
MAX Runtime of function [s],7.02621
MIN Runtime of function [s],7.02621
# COUNTERS - HDEEM: 
AVG Energy consumption [J] (Stats structure),1376.34
MAX Energy consumption [J] (Stats structure),1376.34
MIN Energy consumption [J] (Stats structure),1376.34
SUM Energy consumption [J] (Stats structure),1376.34
# CALLTREE;init_0;Main-PWSCF_0;run-PWSCF_0;run-PWSCF-electrons_function_1;electrons-electrons_scf_function_0;c_bands_function_14;diag_bands_k_function_3
# Job info - HDEEM
JOB ID,17281565.10
Nodelist,taurusi5540
AVG Runtime of function [s],7.21687
MAX Runtime of function [s],7.21687
MIN Runtime of function [s],7.21687
# COUNTERS - HDEEM: 
AVG Energy consumption [J] (Stats structure),1414.47
MAX Energy consumption [J] (Stats structure),1414.47
MIN Energy consumption [J] (Stats structure),1414.47
SUM Energy consumption [J] (Stats structure),1414.47
# CALLTREE;init_0;Main-PWSCF_0;run-PWSCF_0;run-PWSCF-electrons_function_1;electrons-electrons_scf_function_0;c_bands_function_15;diag_bands_k_function_0
# Job info - HDEEM
JOB ID,17281565.10
Nodelist,taurusi5540
AVG Runtime of function [s],7.0753
MAX Runtime of function [s],7.0753
MIN Runtime of function [s],7.0753
# COUNTERS - HDEEM: 
AVG Energy consumption [J] (Stats structure),1385.24
MAX Energy consumption [J] (Stats structure),1385.24
MIN Energy consumption [J] (Stats structure),1385.24
SUM Energy consumption [J] (Stats structure),1385.24
# CALLTREE;init_0;Main-PWSCF_0;run-PWSCF_0;run-PWSCF-electrons_function_1;electrons-electrons_scf_function_0;c_bands_function_15;diag_bands_k_function_1
# Job info - HDEEM
JOB ID,17281565.10
Nodelist,taurusi5540
AVG Runtime of function [s],7.01585
MAX Runtime of function [s],7.01585
MIN Runtime of function [s],7.01585
# COUNTERS - HDEEM: 
AVG Energy consumption [J] (Stats structure),1374.04
MAX Energy consumption [J] (Stats structure),1374.04
MIN Energy consumption [J] (Stats structure),1374.04
SUM Energy consumption [J] (Stats structure),1374.04
# CALLTREE;init_0;Main-PWSCF_0;run-PWSCF_0;run-PWSCF-electrons_function_1;electrons-electrons_scf_function_0;c_bands_function_15;diag_bands_k_function_2
# Job info - HDEEM
JOB ID,17281565.10
Nodelist,taurusi5540
AVG Runtime of function [s],6.98237
MAX Runtime of function [s],6.98237
MIN Runtime of function [s],6.98237
# COUNTERS - HDEEM: 
AVG Energy consumption [J] (Stats structure),1368.31
MAX Energy consumption [J] (Stats structure),1368.31
MIN Energy consumption [J] (Stats structure),1368.31
SUM Energy consumption [J] (Stats structure),1368.31
# CALLTREE;init_0;Main-PWSCF_0;run-PWSCF_0;run-PWSCF-electrons_function_1;electrons-electrons_scf_function_0;c_bands_function_15;diag_bands_k_function_3
# Job info - HDEEM
JOB ID,17281565.10
Nodelist,taurusi5540
AVG Runtime of function [s],6.99601
MAX Runtime of function [s],6.99601
MIN Runtime of function [s],6.99601
# COUNTERS - HDEEM: 
AVG Energy consumption [J] (Stats structure),1370.7
MAX Energy consumption [J] (Stats structure),1370.7
MIN Energy consumption [J] (Stats structure),1370.7
SUM Energy consumption [J] (Stats structure),1370.7
