# CALLTREE;init_0;Main-PWSCF_0;run-PWSCF_0;run-PWSCF-electrons_function_1;electrons-electrons_scf_function_0;c_bands_function_0
# Job info - HDEEM
JOB ID,17281565.15
Nodelist,taurusi5540
AVG Runtime of function [s],11.9668
MAX Runtime of function [s],11.9668
MIN Runtime of function [s],11.9668
# COUNTERS - HDEEM: 
AVG Energy consumption [J] (Stats structure),2222.86
MAX Energy consumption [J] (Stats structure),2222.86
MIN Energy consumption [J] (Stats structure),2222.86
SUM Energy consumption [J] (Stats structure),2222.86
# CALLTREE;init_0;Main-PWSCF_0;run-PWSCF_0;run-PWSCF-electrons_function_1;electrons-electrons_scf_function_0;c_bands_function_0
# Job info - HDEEM
JOB ID,17281565.15
Nodelist,taurusi5540
AVG Runtime of function [s],12.3456
MAX Runtime of function [s],12.3456
MIN Runtime of function [s],12.3456
# COUNTERS - HDEEM: 
AVG Energy consumption [J] (Stats structure),2292.8
MAX Energy consumption [J] (Stats structure),2292.8
MIN Energy consumption [J] (Stats structure),2292.8
SUM Energy consumption [J] (Stats structure),2292.8
# CALLTREE;init_0;Main-PWSCF_0;run-PWSCF_0;run-PWSCF-electrons_function_1;electrons-electrons_scf_function_0;c_bands_function_0
# Job info - HDEEM
JOB ID,17281565.15
Nodelist,taurusi5540
AVG Runtime of function [s],12.4594
MAX Runtime of function [s],12.4594
MIN Runtime of function [s],12.4594
# COUNTERS - HDEEM: 
AVG Energy consumption [J] (Stats structure),2315.55
MAX Energy consumption [J] (Stats structure),2315.55
MIN Energy consumption [J] (Stats structure),2315.55
SUM Energy consumption [J] (Stats structure),2315.55
# CALLTREE;init_0;Main-PWSCF_0;run-PWSCF_0;run-PWSCF-electrons_function_1;electrons-electrons_scf_function_0;c_bands_function_0
# Job info - HDEEM
JOB ID,17281565.15
Nodelist,taurusi5540
AVG Runtime of function [s],12.4482
MAX Runtime of function [s],12.4482
MIN Runtime of function [s],12.4482
# COUNTERS - HDEEM: 
AVG Energy consumption [J] (Stats structure),2314.25
MAX Energy consumption [J] (Stats structure),2314.25
MIN Energy consumption [J] (Stats structure),2314.25
SUM Energy consumption [J] (Stats structure),2314.25
# CALLTREE;init_0;Main-PWSCF_0;run-PWSCF_0;run-PWSCF-electrons_function_1;electrons-electrons_scf_function_0;c_bands_function_1
# Job info - HDEEM
JOB ID,17281565.15
Nodelist,taurusi5540
AVG Runtime of function [s],8.14505
MAX Runtime of function [s],8.14505
MIN Runtime of function [s],8.14505
# COUNTERS - HDEEM: 
AVG Energy consumption [J] (Stats structure),1511.68
MAX Energy consumption [J] (Stats structure),1511.68
MIN Energy consumption [J] (Stats structure),1511.68
SUM Energy consumption [J] (Stats structure),1511.68
# CALLTREE;init_0;Main-PWSCF_0;run-PWSCF_0;run-PWSCF-electrons_function_1;electrons-electrons_scf_function_0;c_bands_function_1
# Job info - HDEEM
JOB ID,17281565.15
Nodelist,taurusi5540
AVG Runtime of function [s],8.21095
MAX Runtime of function [s],8.21095
MIN Runtime of function [s],8.21095
# COUNTERS - HDEEM: 
AVG Energy consumption [J] (Stats structure),1524.42
MAX Energy consumption [J] (Stats structure),1524.42
MIN Energy consumption [J] (Stats structure),1524.42
SUM Energy consumption [J] (Stats structure),1524.42
# CALLTREE;init_0;Main-PWSCF_0;run-PWSCF_0;run-PWSCF-electrons_function_1;electrons-electrons_scf_function_0;c_bands_function_1
# Job info - HDEEM
JOB ID,17281565.15
Nodelist,taurusi5540
AVG Runtime of function [s],7.76647
MAX Runtime of function [s],7.76647
MIN Runtime of function [s],7.76647
# COUNTERS - HDEEM: 
AVG Energy consumption [J] (Stats structure),1442.41
MAX Energy consumption [J] (Stats structure),1442.41
MIN Energy consumption [J] (Stats structure),1442.41
SUM Energy consumption [J] (Stats structure),1442.41
# CALLTREE;init_0;Main-PWSCF_0;run-PWSCF_0;run-PWSCF-electrons_function_1;electrons-electrons_scf_function_0;c_bands_function_1
# Job info - HDEEM
JOB ID,17281565.15
Nodelist,taurusi5540
AVG Runtime of function [s],7.75691
MAX Runtime of function [s],7.75691
MIN Runtime of function [s],7.75691
# COUNTERS - HDEEM: 
AVG Energy consumption [J] (Stats structure),1440.92
MAX Energy consumption [J] (Stats structure),1440.92
MIN Energy consumption [J] (Stats structure),1440.92
SUM Energy consumption [J] (Stats structure),1440.92
# CALLTREE;init_0;Main-PWSCF_0;run-PWSCF_0;run-PWSCF-electrons_function_1;electrons-electrons_scf_function_0;c_bands_function_2
# Job info - HDEEM
JOB ID,17281565.15
Nodelist,taurusi5540
AVG Runtime of function [s],7.89512
MAX Runtime of function [s],7.89512
MIN Runtime of function [s],7.89512
# COUNTERS - HDEEM: 
AVG Energy consumption [J] (Stats structure),1465.23
MAX Energy consumption [J] (Stats structure),1465.23
MIN Energy consumption [J] (Stats structure),1465.23
SUM Energy consumption [J] (Stats structure),1465.23
# CALLTREE;init_0;Main-PWSCF_0;run-PWSCF_0;run-PWSCF-electrons_function_1;electrons-electrons_scf_function_0;c_bands_function_2
# Job info - HDEEM
JOB ID,17281565.15
Nodelist,taurusi5540
AVG Runtime of function [s],7.78973
MAX Runtime of function [s],7.78973
MIN Runtime of function [s],7.78973
# COUNTERS - HDEEM: 
AVG Energy consumption [J] (Stats structure),1446.77
MAX Energy consumption [J] (Stats structure),1446.77
MIN Energy consumption [J] (Stats structure),1446.77
SUM Energy consumption [J] (Stats structure),1446.77
# CALLTREE;init_0;Main-PWSCF_0;run-PWSCF_0;run-PWSCF-electrons_function_1;electrons-electrons_scf_function_0;c_bands_function_2
# Job info - HDEEM
JOB ID,17281565.15
Nodelist,taurusi5540
AVG Runtime of function [s],7.80277
MAX Runtime of function [s],7.80277
MIN Runtime of function [s],7.80277
# COUNTERS - HDEEM: 
AVG Energy consumption [J] (Stats structure),1449.5
MAX Energy consumption [J] (Stats structure),1449.5
MIN Energy consumption [J] (Stats structure),1449.5
SUM Energy consumption [J] (Stats structure),1449.5
# CALLTREE;init_0;Main-PWSCF_0;run-PWSCF_0;run-PWSCF-electrons_function_1;electrons-electrons_scf_function_0;c_bands_function_2
# Job info - HDEEM
JOB ID,17281565.15
Nodelist,taurusi5540
AVG Runtime of function [s],7.77294
MAX Runtime of function [s],7.77294
MIN Runtime of function [s],7.77294
# COUNTERS - HDEEM: 
AVG Energy consumption [J] (Stats structure),1444.19
MAX Energy consumption [J] (Stats structure),1444.19
MIN Energy consumption [J] (Stats structure),1444.19
SUM Energy consumption [J] (Stats structure),1444.19
# CALLTREE;init_0;Main-PWSCF_0;run-PWSCF_0;run-PWSCF-electrons_function_1;electrons-electrons_scf_function_0;c_bands_function_3
# Job info - HDEEM
JOB ID,17281565.15
Nodelist,taurusi5540
AVG Runtime of function [s],12.7774
MAX Runtime of function [s],12.7774
MIN Runtime of function [s],12.7774
# COUNTERS - HDEEM: 
AVG Energy consumption [J] (Stats structure),2371.72
MAX Energy consumption [J] (Stats structure),2371.72
MIN Energy consumption [J] (Stats structure),2371.72
SUM Energy consumption [J] (Stats structure),2371.72
# CALLTREE;init_0;Main-PWSCF_0;run-PWSCF_0;run-PWSCF-electrons_function_1;electrons-electrons_scf_function_0;c_bands_function_3
# Job info - HDEEM
JOB ID,17281565.15
Nodelist,taurusi5540
AVG Runtime of function [s],15.1061
MAX Runtime of function [s],15.1061
MIN Runtime of function [s],15.1061
# COUNTERS - HDEEM: 
AVG Energy consumption [J] (Stats structure),2799.41
MAX Energy consumption [J] (Stats structure),2799.41
MIN Energy consumption [J] (Stats structure),2799.41
SUM Energy consumption [J] (Stats structure),2799.41
# CALLTREE;init_0;Main-PWSCF_0;run-PWSCF_0;run-PWSCF-electrons_function_1;electrons-electrons_scf_function_0;c_bands_function_3
# Job info - HDEEM
JOB ID,17281565.15
Nodelist,taurusi5540
AVG Runtime of function [s],16.5292
MAX Runtime of function [s],16.5292
MIN Runtime of function [s],16.5292
# COUNTERS - HDEEM: 
AVG Energy consumption [J] (Stats structure),3058.79
MAX Energy consumption [J] (Stats structure),3058.79
MIN Energy consumption [J] (Stats structure),3058.79
SUM Energy consumption [J] (Stats structure),3058.79
# CALLTREE;init_0;Main-PWSCF_0;run-PWSCF_0;run-PWSCF-electrons_function_1;electrons-electrons_scf_function_0;c_bands_function_3
# Job info - HDEEM
JOB ID,17281565.15
Nodelist,taurusi5540
AVG Runtime of function [s],15.4933
MAX Runtime of function [s],15.4933
MIN Runtime of function [s],15.4933
# COUNTERS - HDEEM: 
AVG Energy consumption [J] (Stats structure),2871.17
MAX Energy consumption [J] (Stats structure),2871.17
MIN Energy consumption [J] (Stats structure),2871.17
SUM Energy consumption [J] (Stats structure),2871.17
# CALLTREE;init_0;Main-PWSCF_0;run-PWSCF_0;run-PWSCF-electrons_function_1;electrons-electrons_scf_function_0;c_bands_function_4
# Job info - HDEEM
JOB ID,17281565.15
Nodelist,taurusi5540
AVG Runtime of function [s],15.1166
MAX Runtime of function [s],15.1166
MIN Runtime of function [s],15.1166
# COUNTERS - HDEEM: 
AVG Energy consumption [J] (Stats structure),2801.92
MAX Energy consumption [J] (Stats structure),2801.92
MIN Energy consumption [J] (Stats structure),2801.92
SUM Energy consumption [J] (Stats structure),2801.92
# CALLTREE;init_0;Main-PWSCF_0;run-PWSCF_0;run-PWSCF-electrons_function_1;electrons-electrons_scf_function_0;c_bands_function_4
# Job info - HDEEM
JOB ID,17281565.15
Nodelist,taurusi5540
AVG Runtime of function [s],15.3461
MAX Runtime of function [s],15.3461
MIN Runtime of function [s],15.3461
# COUNTERS - HDEEM: 
AVG Energy consumption [J] (Stats structure),2843.3
MAX Energy consumption [J] (Stats structure),2843.3
MIN Energy consumption [J] (Stats structure),2843.3
SUM Energy consumption [J] (Stats structure),2843.3
# CALLTREE;init_0;Main-PWSCF_0;run-PWSCF_0;run-PWSCF-electrons_function_1;electrons-electrons_scf_function_0;c_bands_function_4
# Job info - HDEEM
JOB ID,17281565.15
Nodelist,taurusi5540
AVG Runtime of function [s],15.5497
MAX Runtime of function [s],15.5497
MIN Runtime of function [s],15.5497
# COUNTERS - HDEEM: 
AVG Energy consumption [J] (Stats structure),2881.7
MAX Energy consumption [J] (Stats structure),2881.7
MIN Energy consumption [J] (Stats structure),2881.7
SUM Energy consumption [J] (Stats structure),2881.7
# CALLTREE;init_0;Main-PWSCF_0;run-PWSCF_0;run-PWSCF-electrons_function_1;electrons-electrons_scf_function_0;c_bands_function_4
# Job info - HDEEM
JOB ID,17281565.15
Nodelist,taurusi5540
AVG Runtime of function [s],12.7579
MAX Runtime of function [s],12.7579
MIN Runtime of function [s],12.7579
# COUNTERS - HDEEM: 
AVG Energy consumption [J] (Stats structure),2370.87
MAX Energy consumption [J] (Stats structure),2370.87
MIN Energy consumption [J] (Stats structure),2370.87
SUM Energy consumption [J] (Stats structure),2370.87
# CALLTREE;init_0;Main-PWSCF_0;run-PWSCF_0;run-PWSCF-electrons_function_1;electrons-electrons_scf_function_0;c_bands_function_5
# Job info - HDEEM
JOB ID,17281565.15
Nodelist,taurusi5540
AVG Runtime of function [s],10.542
MAX Runtime of function [s],10.542
MIN Runtime of function [s],10.542
# COUNTERS - HDEEM: 
AVG Energy consumption [J] (Stats structure),1956.11
MAX Energy consumption [J] (Stats structure),1956.11
MIN Energy consumption [J] (Stats structure),1956.11
SUM Energy consumption [J] (Stats structure),1956.11
# CALLTREE;init_0;Main-PWSCF_0;run-PWSCF_0;run-PWSCF-electrons_function_1;electrons-electrons_scf_function_0;c_bands_function_5
# Job info - HDEEM
JOB ID,17281565.15
Nodelist,taurusi5540
AVG Runtime of function [s],13.1672
MAX Runtime of function [s],13.1672
MIN Runtime of function [s],13.1672
# COUNTERS - HDEEM: 
AVG Energy consumption [J] (Stats structure),2438.61
MAX Energy consumption [J] (Stats structure),2438.61
MIN Energy consumption [J] (Stats structure),2438.61
SUM Energy consumption [J] (Stats structure),2438.61
# CALLTREE;init_0;Main-PWSCF_0;run-PWSCF_0;run-PWSCF-electrons_function_1;electrons-electrons_scf_function_0;c_bands_function_5
# Job info - HDEEM
JOB ID,17281565.15
Nodelist,taurusi5540
AVG Runtime of function [s],12.8934
MAX Runtime of function [s],12.8934
MIN Runtime of function [s],12.8934
# COUNTERS - HDEEM: 
AVG Energy consumption [J] (Stats structure),2388.51
MAX Energy consumption [J] (Stats structure),2388.51
MIN Energy consumption [J] (Stats structure),2388.51
SUM Energy consumption [J] (Stats structure),2388.51
# CALLTREE;init_0;Main-PWSCF_0;run-PWSCF_0;run-PWSCF-electrons_function_1;electrons-electrons_scf_function_0;c_bands_function_5
# Job info - HDEEM
JOB ID,17281565.15
Nodelist,taurusi5540
AVG Runtime of function [s],11.1032
MAX Runtime of function [s],11.1032
MIN Runtime of function [s],11.1032
# COUNTERS - HDEEM: 
AVG Energy consumption [J] (Stats structure),2059.72
MAX Energy consumption [J] (Stats structure),2059.72
MIN Energy consumption [J] (Stats structure),2059.72
SUM Energy consumption [J] (Stats structure),2059.72
# CALLTREE;init_0;Main-PWSCF_0;run-PWSCF_0;run-PWSCF-electrons_function_1;electrons-electrons_scf_function_0;c_bands_function_6
# Job info - HDEEM
JOB ID,17281565.15
Nodelist,taurusi5540
AVG Runtime of function [s],10.2265
MAX Runtime of function [s],10.2265
MIN Runtime of function [s],10.2265
# COUNTERS - HDEEM: 
AVG Energy consumption [J] (Stats structure),1897.52
MAX Energy consumption [J] (Stats structure),1897.52
MIN Energy consumption [J] (Stats structure),1897.52
SUM Energy consumption [J] (Stats structure),1897.52
# CALLTREE;init_0;Main-PWSCF_0;run-PWSCF_0;run-PWSCF-electrons_function_1;electrons-electrons_scf_function_0;c_bands_function_6
# Job info - HDEEM
JOB ID,17281565.15
Nodelist,taurusi5540
AVG Runtime of function [s],10.3759
MAX Runtime of function [s],10.3759
MIN Runtime of function [s],10.3759
# COUNTERS - HDEEM: 
AVG Energy consumption [J] (Stats structure),1925.6
MAX Energy consumption [J] (Stats structure),1925.6
MIN Energy consumption [J] (Stats structure),1925.6
SUM Energy consumption [J] (Stats structure),1925.6
# CALLTREE;init_0;Main-PWSCF_0;run-PWSCF_0;run-PWSCF-electrons_function_1;electrons-electrons_scf_function_0;c_bands_function_6
# Job info - HDEEM
JOB ID,17281565.15
Nodelist,taurusi5540
AVG Runtime of function [s],10.4331
MAX Runtime of function [s],10.4331
MIN Runtime of function [s],10.4331
# COUNTERS - HDEEM: 
AVG Energy consumption [J] (Stats structure),1937.23
MAX Energy consumption [J] (Stats structure),1937.23
MIN Energy consumption [J] (Stats structure),1937.23
SUM Energy consumption [J] (Stats structure),1937.23
# CALLTREE;init_0;Main-PWSCF_0;run-PWSCF_0;run-PWSCF-electrons_function_1;electrons-electrons_scf_function_0;c_bands_function_6
# Job info - HDEEM
JOB ID,17281565.15
Nodelist,taurusi5540
AVG Runtime of function [s],10.04
MAX Runtime of function [s],10.04
MIN Runtime of function [s],10.04
# COUNTERS - HDEEM: 
AVG Energy consumption [J] (Stats structure),1865.05
MAX Energy consumption [J] (Stats structure),1865.05
MIN Energy consumption [J] (Stats structure),1865.05
SUM Energy consumption [J] (Stats structure),1865.05
# CALLTREE;init_0;Main-PWSCF_0;run-PWSCF_0;run-PWSCF-electrons_function_1;electrons-electrons_scf_function_0;c_bands_function_7
# Job info - HDEEM
JOB ID,17281565.15
Nodelist,taurusi5540
AVG Runtime of function [s],11.1093
MAX Runtime of function [s],11.1093
MIN Runtime of function [s],11.1093
# COUNTERS - HDEEM: 
AVG Energy consumption [J] (Stats structure),2066.37
MAX Energy consumption [J] (Stats structure),2066.37
MIN Energy consumption [J] (Stats structure),2066.37
SUM Energy consumption [J] (Stats structure),2066.37
# CALLTREE;init_0;Main-PWSCF_0;run-PWSCF_0;run-PWSCF-electrons_function_1;electrons-electrons_scf_function_0;c_bands_function_7
# Job info - HDEEM
JOB ID,17281565.15
Nodelist,taurusi5540
AVG Runtime of function [s],11.1392
MAX Runtime of function [s],11.1392
MIN Runtime of function [s],11.1392
# COUNTERS - HDEEM: 
AVG Energy consumption [J] (Stats structure),2069.69
MAX Energy consumption [J] (Stats structure),2069.69
MIN Energy consumption [J] (Stats structure),2069.69
SUM Energy consumption [J] (Stats structure),2069.69
# CALLTREE;init_0;Main-PWSCF_0;run-PWSCF_0;run-PWSCF-electrons_function_1;electrons-electrons_scf_function_0;c_bands_function_7
# Job info - HDEEM
JOB ID,17281565.15
Nodelist,taurusi5540
AVG Runtime of function [s],11.1017
MAX Runtime of function [s],11.1017
MIN Runtime of function [s],11.1017
# COUNTERS - HDEEM: 
AVG Energy consumption [J] (Stats structure),2065.76
MAX Energy consumption [J] (Stats structure),2065.76
MIN Energy consumption [J] (Stats structure),2065.76
SUM Energy consumption [J] (Stats structure),2065.76
# CALLTREE;init_0;Main-PWSCF_0;run-PWSCF_0;run-PWSCF-electrons_function_1;electrons-electrons_scf_function_0;c_bands_function_7
# Job info - HDEEM
JOB ID,17281565.15
Nodelist,taurusi5540
AVG Runtime of function [s],11.7971
MAX Runtime of function [s],11.7971
MIN Runtime of function [s],11.7971
# COUNTERS - HDEEM: 
AVG Energy consumption [J] (Stats structure),2193.66
MAX Energy consumption [J] (Stats structure),2193.66
MIN Energy consumption [J] (Stats structure),2193.66
SUM Energy consumption [J] (Stats structure),2193.66
# CALLTREE;init_0;Main-PWSCF_0;run-PWSCF_0;run-PWSCF-electrons_function_1;electrons-electrons_scf_function_0;c_bands_function_8
# Job info - HDEEM
JOB ID,17281565.15
Nodelist,taurusi5540
AVG Runtime of function [s],11.1929
MAX Runtime of function [s],11.1929
MIN Runtime of function [s],11.1929
# COUNTERS - HDEEM: 
AVG Energy consumption [J] (Stats structure),2081.59
MAX Energy consumption [J] (Stats structure),2081.59
MIN Energy consumption [J] (Stats structure),2081.59
SUM Energy consumption [J] (Stats structure),2081.59
# CALLTREE;init_0;Main-PWSCF_0;run-PWSCF_0;run-PWSCF-electrons_function_1;electrons-electrons_scf_function_0;c_bands_function_8
# Job info - HDEEM
JOB ID,17281565.15
Nodelist,taurusi5540
AVG Runtime of function [s],11.4929
MAX Runtime of function [s],11.4929
MIN Runtime of function [s],11.4929
# COUNTERS - HDEEM: 
AVG Energy consumption [J] (Stats structure),2136.47
MAX Energy consumption [J] (Stats structure),2136.47
MIN Energy consumption [J] (Stats structure),2136.47
SUM Energy consumption [J] (Stats structure),2136.47
# CALLTREE;init_0;Main-PWSCF_0;run-PWSCF_0;run-PWSCF-electrons_function_1;electrons-electrons_scf_function_0;c_bands_function_8
# Job info - HDEEM
JOB ID,17281565.15
Nodelist,taurusi5540
AVG Runtime of function [s],11.4509
MAX Runtime of function [s],11.4509
MIN Runtime of function [s],11.4509
# COUNTERS - HDEEM: 
AVG Energy consumption [J] (Stats structure),2129.66
MAX Energy consumption [J] (Stats structure),2129.66
MIN Energy consumption [J] (Stats structure),2129.66
SUM Energy consumption [J] (Stats structure),2129.66
# CALLTREE;init_0;Main-PWSCF_0;run-PWSCF_0;run-PWSCF-electrons_function_1;electrons-electrons_scf_function_0;c_bands_function_8
# Job info - HDEEM
JOB ID,17281565.15
Nodelist,taurusi5540
AVG Runtime of function [s],10.7602
MAX Runtime of function [s],10.7602
MIN Runtime of function [s],10.7602
# COUNTERS - HDEEM: 
AVG Energy consumption [J] (Stats structure),2002.57
MAX Energy consumption [J] (Stats structure),2002.57
MIN Energy consumption [J] (Stats structure),2002.57
SUM Energy consumption [J] (Stats structure),2002.57
# CALLTREE;init_0;Main-PWSCF_0;run-PWSCF_0;run-PWSCF-electrons_function_1;electrons-electrons_scf_function_0;c_bands_function_9
# Job info - HDEEM
JOB ID,17281565.15
Nodelist,taurusi5540
AVG Runtime of function [s],10.7977
MAX Runtime of function [s],10.7977
MIN Runtime of function [s],10.7977
# COUNTERS - HDEEM: 
AVG Energy consumption [J] (Stats structure),2009.51
MAX Energy consumption [J] (Stats structure),2009.51
MIN Energy consumption [J] (Stats structure),2009.51
SUM Energy consumption [J] (Stats structure),2009.51
# CALLTREE;init_0;Main-PWSCF_0;run-PWSCF_0;run-PWSCF-electrons_function_1;electrons-electrons_scf_function_0;c_bands_function_9
# Job info - HDEEM
JOB ID,17281565.15
Nodelist,taurusi5540
AVG Runtime of function [s],10.7729
MAX Runtime of function [s],10.7729
MIN Runtime of function [s],10.7729
# COUNTERS - HDEEM: 
AVG Energy consumption [J] (Stats structure),2004.76
MAX Energy consumption [J] (Stats structure),2004.76
MIN Energy consumption [J] (Stats structure),2004.76
SUM Energy consumption [J] (Stats structure),2004.76
# CALLTREE;init_0;Main-PWSCF_0;run-PWSCF_0;run-PWSCF-electrons_function_1;electrons-electrons_scf_function_0;c_bands_function_9
# Job info - HDEEM
JOB ID,17281565.15
Nodelist,taurusi5540
AVG Runtime of function [s],10.7649
MAX Runtime of function [s],10.7649
MIN Runtime of function [s],10.7649
# COUNTERS - HDEEM: 
AVG Energy consumption [J] (Stats structure),2003.79
MAX Energy consumption [J] (Stats structure),2003.79
MIN Energy consumption [J] (Stats structure),2003.79
SUM Energy consumption [J] (Stats structure),2003.79
# CALLTREE;init_0;Main-PWSCF_0;run-PWSCF_0;run-PWSCF-electrons_function_1;electrons-electrons_scf_function_0;c_bands_function_9
# Job info - HDEEM
JOB ID,17281565.15
Nodelist,taurusi5540
AVG Runtime of function [s],10.6535
MAX Runtime of function [s],10.6535
MIN Runtime of function [s],10.6535
# COUNTERS - HDEEM: 
AVG Energy consumption [J] (Stats structure),1983.18
MAX Energy consumption [J] (Stats structure),1983.18
MIN Energy consumption [J] (Stats structure),1983.18
SUM Energy consumption [J] (Stats structure),1983.18
# CALLTREE;init_0;Main-PWSCF_0;run-PWSCF_0;run-PWSCF-electrons_function_1;electrons-electrons_scf_function_0;c_bands_function_10
# Job info - HDEEM
JOB ID,17281565.15
Nodelist,taurusi5540
AVG Runtime of function [s],10.8168
MAX Runtime of function [s],10.8168
MIN Runtime of function [s],10.8168
# COUNTERS - HDEEM: 
AVG Energy consumption [J] (Stats structure),2013.07
MAX Energy consumption [J] (Stats structure),2013.07
MIN Energy consumption [J] (Stats structure),2013.07
SUM Energy consumption [J] (Stats structure),2013.07
# CALLTREE;init_0;Main-PWSCF_0;run-PWSCF_0;run-PWSCF-electrons_function_1;electrons-electrons_scf_function_0;c_bands_function_10
# Job info - HDEEM
JOB ID,17281565.15
Nodelist,taurusi5540
AVG Runtime of function [s],11.0868
MAX Runtime of function [s],11.0868
MIN Runtime of function [s],11.0868
# COUNTERS - HDEEM: 
AVG Energy consumption [J] (Stats structure),2056.19
MAX Energy consumption [J] (Stats structure),2056.19
MIN Energy consumption [J] (Stats structure),2056.19
SUM Energy consumption [J] (Stats structure),2056.19
# CALLTREE;init_0;Main-PWSCF_0;run-PWSCF_0;run-PWSCF-electrons_function_1;electrons-electrons_scf_function_0;c_bands_function_10
# Job info - HDEEM
JOB ID,17281565.15
Nodelist,taurusi5540
AVG Runtime of function [s],11.0092
MAX Runtime of function [s],11.0092
MIN Runtime of function [s],11.0092
# COUNTERS - HDEEM: 
AVG Energy consumption [J] (Stats structure),2048.64
MAX Energy consumption [J] (Stats structure),2048.64
MIN Energy consumption [J] (Stats structure),2048.64
SUM Energy consumption [J] (Stats structure),2048.64
# CALLTREE;init_0;Main-PWSCF_0;run-PWSCF_0;run-PWSCF-electrons_function_1;electrons-electrons_scf_function_0;c_bands_function_10
# Job info - HDEEM
JOB ID,17281565.15
Nodelist,taurusi5540
AVG Runtime of function [s],10.5794
MAX Runtime of function [s],10.5794
MIN Runtime of function [s],10.5794
# COUNTERS - HDEEM: 
AVG Energy consumption [J] (Stats structure),1965.41
MAX Energy consumption [J] (Stats structure),1965.41
MIN Energy consumption [J] (Stats structure),1965.41
SUM Energy consumption [J] (Stats structure),1965.41
# CALLTREE;init_0;Main-PWSCF_0;run-PWSCF_0;run-PWSCF-electrons_function_1;electrons-electrons_scf_function_0;c_bands_function_11
# Job info - HDEEM
JOB ID,17281565.15
Nodelist,taurusi5540
AVG Runtime of function [s],9.34727
MAX Runtime of function [s],9.34727
MIN Runtime of function [s],9.34727
# COUNTERS - HDEEM: 
AVG Energy consumption [J] (Stats structure),1734.74
MAX Energy consumption [J] (Stats structure),1734.74
MIN Energy consumption [J] (Stats structure),1734.74
SUM Energy consumption [J] (Stats structure),1734.74
# CALLTREE;init_0;Main-PWSCF_0;run-PWSCF_0;run-PWSCF-electrons_function_1;electrons-electrons_scf_function_0;c_bands_function_11
# Job info - HDEEM
JOB ID,17281565.15
Nodelist,taurusi5540
AVG Runtime of function [s],9.35971
MAX Runtime of function [s],9.35971
MIN Runtime of function [s],9.35971
# COUNTERS - HDEEM: 
AVG Energy consumption [J] (Stats structure),1737.66
MAX Energy consumption [J] (Stats structure),1737.66
MIN Energy consumption [J] (Stats structure),1737.66
SUM Energy consumption [J] (Stats structure),1737.66
# CALLTREE;init_0;Main-PWSCF_0;run-PWSCF_0;run-PWSCF-electrons_function_1;electrons-electrons_scf_function_0;c_bands_function_11
# Job info - HDEEM
JOB ID,17281565.15
Nodelist,taurusi5540
AVG Runtime of function [s],9.22183
MAX Runtime of function [s],9.22183
MIN Runtime of function [s],9.22183
# COUNTERS - HDEEM: 
AVG Energy consumption [J] (Stats structure),1712.72
MAX Energy consumption [J] (Stats structure),1712.72
MIN Energy consumption [J] (Stats structure),1712.72
SUM Energy consumption [J] (Stats structure),1712.72
# CALLTREE;init_0;Main-PWSCF_0;run-PWSCF_0;run-PWSCF-electrons_function_1;electrons-electrons_scf_function_0;c_bands_function_11
# Job info - HDEEM
JOB ID,17281565.15
Nodelist,taurusi5540
AVG Runtime of function [s],9.11955
MAX Runtime of function [s],9.11955
MIN Runtime of function [s],9.11955
# COUNTERS - HDEEM: 
AVG Energy consumption [J] (Stats structure),1693.42
MAX Energy consumption [J] (Stats structure),1693.42
MIN Energy consumption [J] (Stats structure),1693.42
SUM Energy consumption [J] (Stats structure),1693.42
# CALLTREE;init_0;Main-PWSCF_0;run-PWSCF_0;run-PWSCF-electrons_function_1;electrons-electrons_scf_function_0;c_bands_function_12
# Job info - HDEEM
JOB ID,17281565.15
Nodelist,taurusi5540
AVG Runtime of function [s],11.9555
MAX Runtime of function [s],11.9555
MIN Runtime of function [s],11.9555
# COUNTERS - HDEEM: 
AVG Energy consumption [J] (Stats structure),2222.85
MAX Energy consumption [J] (Stats structure),2222.85
MIN Energy consumption [J] (Stats structure),2222.85
SUM Energy consumption [J] (Stats structure),2222.85
# CALLTREE;init_0;Main-PWSCF_0;run-PWSCF_0;run-PWSCF-electrons_function_1;electrons-electrons_scf_function_0;c_bands_function_12
# Job info - HDEEM
JOB ID,17281565.15
Nodelist,taurusi5540
AVG Runtime of function [s],11.409
MAX Runtime of function [s],11.409
MIN Runtime of function [s],11.409
# COUNTERS - HDEEM: 
AVG Energy consumption [J] (Stats structure),2121.92
MAX Energy consumption [J] (Stats structure),2121.92
MIN Energy consumption [J] (Stats structure),2121.92
SUM Energy consumption [J] (Stats structure),2121.92
# CALLTREE;init_0;Main-PWSCF_0;run-PWSCF_0;run-PWSCF-electrons_function_1;electrons-electrons_scf_function_0;c_bands_function_12
# Job info - HDEEM
JOB ID,17281565.15
Nodelist,taurusi5540
AVG Runtime of function [s],11.2481
MAX Runtime of function [s],11.2481
MIN Runtime of function [s],11.2481
# COUNTERS - HDEEM: 
AVG Energy consumption [J] (Stats structure),2092.21
MAX Energy consumption [J] (Stats structure),2092.21
MIN Energy consumption [J] (Stats structure),2092.21
SUM Energy consumption [J] (Stats structure),2092.21
# CALLTREE;init_0;Main-PWSCF_0;run-PWSCF_0;run-PWSCF-electrons_function_1;electrons-electrons_scf_function_0;c_bands_function_12
# Job info - HDEEM
JOB ID,17281565.15
Nodelist,taurusi5540
AVG Runtime of function [s],11.7687
MAX Runtime of function [s],11.7687
MIN Runtime of function [s],11.7687
# COUNTERS - HDEEM: 
AVG Energy consumption [J] (Stats structure),2189.06
MAX Energy consumption [J] (Stats structure),2189.06
MIN Energy consumption [J] (Stats structure),2189.06
SUM Energy consumption [J] (Stats structure),2189.06
# CALLTREE;init_0;Main-PWSCF_0;run-PWSCF_0;run-PWSCF-electrons_function_1;electrons-electrons_scf_function_0;c_bands_function_13
# Job info - HDEEM
JOB ID,17281565.15
Nodelist,taurusi5540
AVG Runtime of function [s],10.4038
MAX Runtime of function [s],10.4038
MIN Runtime of function [s],10.4038
# COUNTERS - HDEEM: 
AVG Energy consumption [J] (Stats structure),1936.46
MAX Energy consumption [J] (Stats structure),1936.46
MIN Energy consumption [J] (Stats structure),1936.46
SUM Energy consumption [J] (Stats structure),1936.46
# CALLTREE;init_0;Main-PWSCF_0;run-PWSCF_0;run-PWSCF-electrons_function_1;electrons-electrons_scf_function_0;c_bands_function_13
# Job info - HDEEM
JOB ID,17281565.15
Nodelist,taurusi5540
AVG Runtime of function [s],11.1427
MAX Runtime of function [s],11.1427
MIN Runtime of function [s],11.1427
# COUNTERS - HDEEM: 
AVG Energy consumption [J] (Stats structure),2073.06
MAX Energy consumption [J] (Stats structure),2073.06
MIN Energy consumption [J] (Stats structure),2073.06
SUM Energy consumption [J] (Stats structure),2073.06
# CALLTREE;init_0;Main-PWSCF_0;run-PWSCF_0;run-PWSCF-electrons_function_1;electrons-electrons_scf_function_0;c_bands_function_13
# Job info - HDEEM
JOB ID,17281565.15
Nodelist,taurusi5540
AVG Runtime of function [s],11.197
MAX Runtime of function [s],11.197
MIN Runtime of function [s],11.197
# COUNTERS - HDEEM: 
AVG Energy consumption [J] (Stats structure),2083.27
MAX Energy consumption [J] (Stats structure),2083.27
MIN Energy consumption [J] (Stats structure),2083.27
SUM Energy consumption [J] (Stats structure),2083.27
# CALLTREE;init_0;Main-PWSCF_0;run-PWSCF_0;run-PWSCF-electrons_function_1;electrons-electrons_scf_function_0;c_bands_function_13
# Job info - HDEEM
JOB ID,17281565.15
Nodelist,taurusi5540
AVG Runtime of function [s],10.9318
MAX Runtime of function [s],10.9318
MIN Runtime of function [s],10.9318
# COUNTERS - HDEEM: 
AVG Energy consumption [J] (Stats structure),2034.81
MAX Energy consumption [J] (Stats structure),2034.81
MIN Energy consumption [J] (Stats structure),2034.81
SUM Energy consumption [J] (Stats structure),2034.81
# CALLTREE;init_0;Main-PWSCF_0;run-PWSCF_0;run-PWSCF-electrons_function_1;electrons-electrons_scf_function_0;c_bands_function_14
# Job info - HDEEM
JOB ID,17281565.15
Nodelist,taurusi5540
AVG Runtime of function [s],7.83441
MAX Runtime of function [s],7.83441
MIN Runtime of function [s],7.83441
# COUNTERS - HDEEM: 
AVG Energy consumption [J] (Stats structure),1455.1
MAX Energy consumption [J] (Stats structure),1455.1
MIN Energy consumption [J] (Stats structure),1455.1
SUM Energy consumption [J] (Stats structure),1455.1
# CALLTREE;init_0;Main-PWSCF_0;run-PWSCF_0;run-PWSCF-electrons_function_1;electrons-electrons_scf_function_0;c_bands_function_14
# Job info - HDEEM
JOB ID,17281565.15
Nodelist,taurusi5540
AVG Runtime of function [s],7.73876
MAX Runtime of function [s],7.73876
MIN Runtime of function [s],7.73876
# COUNTERS - HDEEM: 
AVG Energy consumption [J] (Stats structure),1438.18
MAX Energy consumption [J] (Stats structure),1438.18
MIN Energy consumption [J] (Stats structure),1438.18
SUM Energy consumption [J] (Stats structure),1438.18
# CALLTREE;init_0;Main-PWSCF_0;run-PWSCF_0;run-PWSCF-electrons_function_1;electrons-electrons_scf_function_0;c_bands_function_14
# Job info - HDEEM
JOB ID,17281565.15
Nodelist,taurusi5540
AVG Runtime of function [s],7.7733
MAX Runtime of function [s],7.7733
MIN Runtime of function [s],7.7733
# COUNTERS - HDEEM: 
AVG Energy consumption [J] (Stats structure),1444.53
MAX Energy consumption [J] (Stats structure),1444.53
MIN Energy consumption [J] (Stats structure),1444.53
SUM Energy consumption [J] (Stats structure),1444.53
# CALLTREE;init_0;Main-PWSCF_0;run-PWSCF_0;run-PWSCF-electrons_function_1;electrons-electrons_scf_function_0;c_bands_function_14
# Job info - HDEEM
JOB ID,17281565.15
Nodelist,taurusi5540
AVG Runtime of function [s],8.01729
MAX Runtime of function [s],8.01729
MIN Runtime of function [s],8.01729
# COUNTERS - HDEEM: 
AVG Energy consumption [J] (Stats structure),1489.96
MAX Energy consumption [J] (Stats structure),1489.96
MIN Energy consumption [J] (Stats structure),1489.96
SUM Energy consumption [J] (Stats structure),1489.96
# CALLTREE;init_0;Main-PWSCF_0;run-PWSCF_0;run-PWSCF-electrons_function_1;electrons-electrons_scf_function_0;c_bands_function_15
# Job info - HDEEM
JOB ID,17281565.15
Nodelist,taurusi5540
AVG Runtime of function [s],7.83334
MAX Runtime of function [s],7.83334
MIN Runtime of function [s],7.83334
# COUNTERS - HDEEM: 
AVG Energy consumption [J] (Stats structure),1454.7
MAX Energy consumption [J] (Stats structure),1454.7
MIN Energy consumption [J] (Stats structure),1454.7
SUM Energy consumption [J] (Stats structure),1454.7
# CALLTREE;init_0;Main-PWSCF_0;run-PWSCF_0;run-PWSCF-electrons_function_1;electrons-electrons_scf_function_0;c_bands_function_15
# Job info - HDEEM
JOB ID,17281565.15
Nodelist,taurusi5540
AVG Runtime of function [s],7.8075
MAX Runtime of function [s],7.8075
MIN Runtime of function [s],7.8075
# COUNTERS - HDEEM: 
AVG Energy consumption [J] (Stats structure),1450.26
MAX Energy consumption [J] (Stats structure),1450.26
MIN Energy consumption [J] (Stats structure),1450.26
SUM Energy consumption [J] (Stats structure),1450.26
# CALLTREE;init_0;Main-PWSCF_0;run-PWSCF_0;run-PWSCF-electrons_function_1;electrons-electrons_scf_function_0;c_bands_function_15
# Job info - HDEEM
JOB ID,17281565.15
Nodelist,taurusi5540
AVG Runtime of function [s],7.75145
MAX Runtime of function [s],7.75145
MIN Runtime of function [s],7.75145
# COUNTERS - HDEEM: 
AVG Energy consumption [J] (Stats structure),1440.85
MAX Energy consumption [J] (Stats structure),1440.85
MIN Energy consumption [J] (Stats structure),1440.85
SUM Energy consumption [J] (Stats structure),1440.85
# CALLTREE;init_0;Main-PWSCF_0;run-PWSCF_0;run-PWSCF-electrons_function_1;electrons-electrons_scf_function_0;c_bands_function_15
# Job info - HDEEM
JOB ID,17281565.15
Nodelist,taurusi5540
AVG Runtime of function [s],7.75635
MAX Runtime of function [s],7.75635
MIN Runtime of function [s],7.75635
# COUNTERS - HDEEM: 
AVG Energy consumption [J] (Stats structure),1441.79
MAX Energy consumption [J] (Stats structure),1441.79
MIN Energy consumption [J] (Stats structure),1441.79
SUM Energy consumption [J] (Stats structure),1441.79
