# CALLTREE;init_0;Main-PWSCF_0;run-PWSCF_0;run-PWSCF-electrons_function_1;electrons-electrons_scf_function_0;c_bands_function_0
# Job info - HDEEM
JOB ID,17281565.8
Nodelist,taurusi5540
AVG Runtime of function [s],10.6444
MAX Runtime of function [s],10.6444
MIN Runtime of function [s],10.6444
# COUNTERS - HDEEM: 
AVG Energy consumption [J] (Stats structure),2066.21
MAX Energy consumption [J] (Stats structure),2066.21
MIN Energy consumption [J] (Stats structure),2066.21
SUM Energy consumption [J] (Stats structure),2066.21
# CALLTREE;init_0;Main-PWSCF_0;run-PWSCF_0;run-PWSCF-electrons_function_1;electrons-electrons_scf_function_0;c_bands_function_0
# Job info - HDEEM
JOB ID,17281565.8
Nodelist,taurusi5540
AVG Runtime of function [s],10.9306
MAX Runtime of function [s],10.9306
MIN Runtime of function [s],10.9306
# COUNTERS - HDEEM: 
AVG Energy consumption [J] (Stats structure),2122.23
MAX Energy consumption [J] (Stats structure),2122.23
MIN Energy consumption [J] (Stats structure),2122.23
SUM Energy consumption [J] (Stats structure),2122.23
# CALLTREE;init_0;Main-PWSCF_0;run-PWSCF_0;run-PWSCF-electrons_function_1;electrons-electrons_scf_function_0;c_bands_function_0
# Job info - HDEEM
JOB ID,17281565.8
Nodelist,taurusi5540
AVG Runtime of function [s],11.0783
MAX Runtime of function [s],11.0783
MIN Runtime of function [s],11.0783
# COUNTERS - HDEEM: 
AVG Energy consumption [J] (Stats structure),2151.28
MAX Energy consumption [J] (Stats structure),2151.28
MIN Energy consumption [J] (Stats structure),2151.28
SUM Energy consumption [J] (Stats structure),2151.28
# CALLTREE;init_0;Main-PWSCF_0;run-PWSCF_0;run-PWSCF-electrons_function_1;electrons-electrons_scf_function_0;c_bands_function_0
# Job info - HDEEM
JOB ID,17281565.8
Nodelist,taurusi5540
AVG Runtime of function [s],11.0299
MAX Runtime of function [s],11.0299
MIN Runtime of function [s],11.0299
# COUNTERS - HDEEM: 
AVG Energy consumption [J] (Stats structure),2142.62
MAX Energy consumption [J] (Stats structure),2142.62
MIN Energy consumption [J] (Stats structure),2142.62
SUM Energy consumption [J] (Stats structure),2142.62
# CALLTREE;init_0;Main-PWSCF_0;run-PWSCF_0;run-PWSCF-electrons_function_1;electrons-electrons_scf_function_0;c_bands_function_1
# Job info - HDEEM
JOB ID,17281565.8
Nodelist,taurusi5540
AVG Runtime of function [s],7.25627
MAX Runtime of function [s],7.25627
MIN Runtime of function [s],7.25627
# COUNTERS - HDEEM: 
AVG Energy consumption [J] (Stats structure),1406.47
MAX Energy consumption [J] (Stats structure),1406.47
MIN Energy consumption [J] (Stats structure),1406.47
SUM Energy consumption [J] (Stats structure),1406.47
# CALLTREE;init_0;Main-PWSCF_0;run-PWSCF_0;run-PWSCF-electrons_function_1;electrons-electrons_scf_function_0;c_bands_function_1
# Job info - HDEEM
JOB ID,17281565.8
Nodelist,taurusi5540
AVG Runtime of function [s],7.30635
MAX Runtime of function [s],7.30635
MIN Runtime of function [s],7.30635
# COUNTERS - HDEEM: 
AVG Energy consumption [J] (Stats structure),1415.87
MAX Energy consumption [J] (Stats structure),1415.87
MIN Energy consumption [J] (Stats structure),1415.87
SUM Energy consumption [J] (Stats structure),1415.87
# CALLTREE;init_0;Main-PWSCF_0;run-PWSCF_0;run-PWSCF-electrons_function_1;electrons-electrons_scf_function_0;c_bands_function_1
# Job info - HDEEM
JOB ID,17281565.8
Nodelist,taurusi5540
AVG Runtime of function [s],6.94357
MAX Runtime of function [s],6.94357
MIN Runtime of function [s],6.94357
# COUNTERS - HDEEM: 
AVG Energy consumption [J] (Stats structure),1346.67
MAX Energy consumption [J] (Stats structure),1346.67
MIN Energy consumption [J] (Stats structure),1346.67
SUM Energy consumption [J] (Stats structure),1346.67
# CALLTREE;init_0;Main-PWSCF_0;run-PWSCF_0;run-PWSCF-electrons_function_1;electrons-electrons_scf_function_0;c_bands_function_1
# Job info - HDEEM
JOB ID,17281565.8
Nodelist,taurusi5540
AVG Runtime of function [s],6.92002
MAX Runtime of function [s],6.92002
MIN Runtime of function [s],6.92002
# COUNTERS - HDEEM: 
AVG Energy consumption [J] (Stats structure),1342.49
MAX Energy consumption [J] (Stats structure),1342.49
MIN Energy consumption [J] (Stats structure),1342.49
SUM Energy consumption [J] (Stats structure),1342.49
# CALLTREE;init_0;Main-PWSCF_0;run-PWSCF_0;run-PWSCF-electrons_function_1;electrons-electrons_scf_function_0;c_bands_function_2
# Job info - HDEEM
JOB ID,17281565.8
Nodelist,taurusi5540
AVG Runtime of function [s],6.99836
MAX Runtime of function [s],6.99836
MIN Runtime of function [s],6.99836
# COUNTERS - HDEEM: 
AVG Energy consumption [J] (Stats structure),1356.41
MAX Energy consumption [J] (Stats structure),1356.41
MIN Energy consumption [J] (Stats structure),1356.41
SUM Energy consumption [J] (Stats structure),1356.41
# CALLTREE;init_0;Main-PWSCF_0;run-PWSCF_0;run-PWSCF-electrons_function_1;electrons-electrons_scf_function_0;c_bands_function_2
# Job info - HDEEM
JOB ID,17281565.8
Nodelist,taurusi5540
AVG Runtime of function [s],6.94125
MAX Runtime of function [s],6.94125
MIN Runtime of function [s],6.94125
# COUNTERS - HDEEM: 
AVG Energy consumption [J] (Stats structure),1346.66
MAX Energy consumption [J] (Stats structure),1346.66
MIN Energy consumption [J] (Stats structure),1346.66
SUM Energy consumption [J] (Stats structure),1346.66
# CALLTREE;init_0;Main-PWSCF_0;run-PWSCF_0;run-PWSCF-electrons_function_1;electrons-electrons_scf_function_0;c_bands_function_2
# Job info - HDEEM
JOB ID,17281565.8
Nodelist,taurusi5540
AVG Runtime of function [s],6.97604
MAX Runtime of function [s],6.97604
MIN Runtime of function [s],6.97604
# COUNTERS - HDEEM: 
AVG Energy consumption [J] (Stats structure),1353.41
MAX Energy consumption [J] (Stats structure),1353.41
MIN Energy consumption [J] (Stats structure),1353.41
SUM Energy consumption [J] (Stats structure),1353.41
# CALLTREE;init_0;Main-PWSCF_0;run-PWSCF_0;run-PWSCF-electrons_function_1;electrons-electrons_scf_function_0;c_bands_function_2
# Job info - HDEEM
JOB ID,17281565.8
Nodelist,taurusi5540
AVG Runtime of function [s],7.23725
MAX Runtime of function [s],7.23725
MIN Runtime of function [s],7.23725
# COUNTERS - HDEEM: 
AVG Energy consumption [J] (Stats structure),1403.5
MAX Energy consumption [J] (Stats structure),1403.5
MIN Energy consumption [J] (Stats structure),1403.5
SUM Energy consumption [J] (Stats structure),1403.5
# CALLTREE;init_0;Main-PWSCF_0;run-PWSCF_0;run-PWSCF-electrons_function_1;electrons-electrons_scf_function_0;c_bands_function_3
# Job info - HDEEM
JOB ID,17281565.8
Nodelist,taurusi5540
AVG Runtime of function [s],11.1521
MAX Runtime of function [s],11.1521
MIN Runtime of function [s],11.1521
# COUNTERS - HDEEM: 
AVG Energy consumption [J] (Stats structure),2161.7
MAX Energy consumption [J] (Stats structure),2161.7
MIN Energy consumption [J] (Stats structure),2161.7
SUM Energy consumption [J] (Stats structure),2161.7
# CALLTREE;init_0;Main-PWSCF_0;run-PWSCF_0;run-PWSCF-electrons_function_1;electrons-electrons_scf_function_0;c_bands_function_3
# Job info - HDEEM
JOB ID,17281565.8
Nodelist,taurusi5540
AVG Runtime of function [s],13.1724
MAX Runtime of function [s],13.1724
MIN Runtime of function [s],13.1724
# COUNTERS - HDEEM: 
AVG Energy consumption [J] (Stats structure),2551.36
MAX Energy consumption [J] (Stats structure),2551.36
MIN Energy consumption [J] (Stats structure),2551.36
SUM Energy consumption [J] (Stats structure),2551.36
# CALLTREE;init_0;Main-PWSCF_0;run-PWSCF_0;run-PWSCF-electrons_function_1;electrons-electrons_scf_function_0;c_bands_function_3
# Job info - HDEEM
JOB ID,17281565.8
Nodelist,taurusi5540
AVG Runtime of function [s],14.2286
MAX Runtime of function [s],14.2286
MIN Runtime of function [s],14.2286
# COUNTERS - HDEEM: 
AVG Energy consumption [J] (Stats structure),2751.42
MAX Energy consumption [J] (Stats structure),2751.42
MIN Energy consumption [J] (Stats structure),2751.42
SUM Energy consumption [J] (Stats structure),2751.42
# CALLTREE;init_0;Main-PWSCF_0;run-PWSCF_0;run-PWSCF-electrons_function_1;electrons-electrons_scf_function_0;c_bands_function_3
# Job info - HDEEM
JOB ID,17281565.8
Nodelist,taurusi5540
AVG Runtime of function [s],13.5097
MAX Runtime of function [s],13.5097
MIN Runtime of function [s],13.5097
# COUNTERS - HDEEM: 
AVG Energy consumption [J] (Stats structure),2615.89
MAX Energy consumption [J] (Stats structure),2615.89
MIN Energy consumption [J] (Stats structure),2615.89
SUM Energy consumption [J] (Stats structure),2615.89
# CALLTREE;init_0;Main-PWSCF_0;run-PWSCF_0;run-PWSCF-electrons_function_1;electrons-electrons_scf_function_0;c_bands_function_4
# Job info - HDEEM
JOB ID,17281565.8
Nodelist,taurusi5540
AVG Runtime of function [s],13.1944
MAX Runtime of function [s],13.1944
MIN Runtime of function [s],13.1944
# COUNTERS - HDEEM: 
AVG Energy consumption [J] (Stats structure),2554.72
MAX Energy consumption [J] (Stats structure),2554.72
MIN Energy consumption [J] (Stats structure),2554.72
SUM Energy consumption [J] (Stats structure),2554.72
# CALLTREE;init_0;Main-PWSCF_0;run-PWSCF_0;run-PWSCF-electrons_function_1;electrons-electrons_scf_function_0;c_bands_function_4
# Job info - HDEEM
JOB ID,17281565.8
Nodelist,taurusi5540
AVG Runtime of function [s],13.3608
MAX Runtime of function [s],13.3608
MIN Runtime of function [s],13.3608
# COUNTERS - HDEEM: 
AVG Energy consumption [J] (Stats structure),2585.92
MAX Energy consumption [J] (Stats structure),2585.92
MIN Energy consumption [J] (Stats structure),2585.92
SUM Energy consumption [J] (Stats structure),2585.92
# CALLTREE;init_0;Main-PWSCF_0;run-PWSCF_0;run-PWSCF-electrons_function_1;electrons-electrons_scf_function_0;c_bands_function_4
# Job info - HDEEM
JOB ID,17281565.8
Nodelist,taurusi5540
AVG Runtime of function [s],13.5143
MAX Runtime of function [s],13.5143
MIN Runtime of function [s],13.5143
# COUNTERS - HDEEM: 
AVG Energy consumption [J] (Stats structure),2617.54
MAX Energy consumption [J] (Stats structure),2617.54
MIN Energy consumption [J] (Stats structure),2617.54
SUM Energy consumption [J] (Stats structure),2617.54
# CALLTREE;init_0;Main-PWSCF_0;run-PWSCF_0;run-PWSCF-electrons_function_1;electrons-electrons_scf_function_0;c_bands_function_4
# Job info - HDEEM
JOB ID,17281565.8
Nodelist,taurusi5540
AVG Runtime of function [s],11.2925
MAX Runtime of function [s],11.2925
MIN Runtime of function [s],11.2925
# COUNTERS - HDEEM: 
AVG Energy consumption [J] (Stats structure),2191.76
MAX Energy consumption [J] (Stats structure),2191.76
MIN Energy consumption [J] (Stats structure),2191.76
SUM Energy consumption [J] (Stats structure),2191.76
# CALLTREE;init_0;Main-PWSCF_0;run-PWSCF_0;run-PWSCF-electrons_function_1;electrons-electrons_scf_function_0;c_bands_function_5
# Job info - HDEEM
JOB ID,17281565.8
Nodelist,taurusi5540
AVG Runtime of function [s],9.35306
MAX Runtime of function [s],9.35306
MIN Runtime of function [s],9.35306
# COUNTERS - HDEEM: 
AVG Energy consumption [J] (Stats structure),1811.91
MAX Energy consumption [J] (Stats structure),1811.91
MIN Energy consumption [J] (Stats structure),1811.91
SUM Energy consumption [J] (Stats structure),1811.91
# CALLTREE;init_0;Main-PWSCF_0;run-PWSCF_0;run-PWSCF-electrons_function_1;electrons-electrons_scf_function_0;c_bands_function_5
# Job info - HDEEM
JOB ID,17281565.8
Nodelist,taurusi5540
AVG Runtime of function [s],11.5439
MAX Runtime of function [s],11.5439
MIN Runtime of function [s],11.5439
# COUNTERS - HDEEM: 
AVG Energy consumption [J] (Stats structure),2231.55
MAX Energy consumption [J] (Stats structure),2231.55
MIN Energy consumption [J] (Stats structure),2231.55
SUM Energy consumption [J] (Stats structure),2231.55
# CALLTREE;init_0;Main-PWSCF_0;run-PWSCF_0;run-PWSCF-electrons_function_1;electrons-electrons_scf_function_0;c_bands_function_5
# Job info - HDEEM
JOB ID,17281565.8
Nodelist,taurusi5540
AVG Runtime of function [s],11.3274
MAX Runtime of function [s],11.3274
MIN Runtime of function [s],11.3274
# COUNTERS - HDEEM: 
AVG Energy consumption [J] (Stats structure),2189.78
MAX Energy consumption [J] (Stats structure),2189.78
MIN Energy consumption [J] (Stats structure),2189.78
SUM Energy consumption [J] (Stats structure),2189.78
# CALLTREE;init_0;Main-PWSCF_0;run-PWSCF_0;run-PWSCF-electrons_function_1;electrons-electrons_scf_function_0;c_bands_function_5
# Job info - HDEEM
JOB ID,17281565.8
Nodelist,taurusi5540
AVG Runtime of function [s],9.86577
MAX Runtime of function [s],9.86577
MIN Runtime of function [s],9.86577
# COUNTERS - HDEEM: 
AVG Energy consumption [J] (Stats structure),1911.33
MAX Energy consumption [J] (Stats structure),1911.33
MIN Energy consumption [J] (Stats structure),1911.33
SUM Energy consumption [J] (Stats structure),1911.33
# CALLTREE;init_0;Main-PWSCF_0;run-PWSCF_0;run-PWSCF-electrons_function_1;electrons-electrons_scf_function_0;c_bands_function_6
# Job info - HDEEM
JOB ID,17281565.8
Nodelist,taurusi5540
AVG Runtime of function [s],9.12369
MAX Runtime of function [s],9.12369
MIN Runtime of function [s],9.12369
# COUNTERS - HDEEM: 
AVG Energy consumption [J] (Stats structure),1767.08
MAX Energy consumption [J] (Stats structure),1767.08
MIN Energy consumption [J] (Stats structure),1767.08
SUM Energy consumption [J] (Stats structure),1767.08
# CALLTREE;init_0;Main-PWSCF_0;run-PWSCF_0;run-PWSCF-electrons_function_1;electrons-electrons_scf_function_0;c_bands_function_6
# Job info - HDEEM
JOB ID,17281565.8
Nodelist,taurusi5540
AVG Runtime of function [s],9.22036
MAX Runtime of function [s],9.22036
MIN Runtime of function [s],9.22036
# COUNTERS - HDEEM: 
AVG Energy consumption [J] (Stats structure),1786.98
MAX Energy consumption [J] (Stats structure),1786.98
MIN Energy consumption [J] (Stats structure),1786.98
SUM Energy consumption [J] (Stats structure),1786.98
# CALLTREE;init_0;Main-PWSCF_0;run-PWSCF_0;run-PWSCF-electrons_function_1;electrons-electrons_scf_function_0;c_bands_function_6
# Job info - HDEEM
JOB ID,17281565.8
Nodelist,taurusi5540
AVG Runtime of function [s],9.27785
MAX Runtime of function [s],9.27785
MIN Runtime of function [s],9.27785
# COUNTERS - HDEEM: 
AVG Energy consumption [J] (Stats structure),1798.92
MAX Energy consumption [J] (Stats structure),1798.92
MIN Energy consumption [J] (Stats structure),1798.92
SUM Energy consumption [J] (Stats structure),1798.92
# CALLTREE;init_0;Main-PWSCF_0;run-PWSCF_0;run-PWSCF-electrons_function_1;electrons-electrons_scf_function_0;c_bands_function_6
# Job info - HDEEM
JOB ID,17281565.8
Nodelist,taurusi5540
AVG Runtime of function [s],8.97059
MAX Runtime of function [s],8.97059
MIN Runtime of function [s],8.97059
# COUNTERS - HDEEM: 
AVG Energy consumption [J] (Stats structure),1739.93
MAX Energy consumption [J] (Stats structure),1739.93
MIN Energy consumption [J] (Stats structure),1739.93
SUM Energy consumption [J] (Stats structure),1739.93
# CALLTREE;init_0;Main-PWSCF_0;run-PWSCF_0;run-PWSCF-electrons_function_1;electrons-electrons_scf_function_0;c_bands_function_7
# Job info - HDEEM
JOB ID,17281565.8
Nodelist,taurusi5540
AVG Runtime of function [s],9.84809
MAX Runtime of function [s],9.84809
MIN Runtime of function [s],9.84809
# COUNTERS - HDEEM: 
AVG Energy consumption [J] (Stats structure),1912.19
MAX Energy consumption [J] (Stats structure),1912.19
MIN Energy consumption [J] (Stats structure),1912.19
SUM Energy consumption [J] (Stats structure),1912.19
# CALLTREE;init_0;Main-PWSCF_0;run-PWSCF_0;run-PWSCF-electrons_function_1;electrons-electrons_scf_function_0;c_bands_function_7
# Job info - HDEEM
JOB ID,17281565.8
Nodelist,taurusi5540
AVG Runtime of function [s],9.77311
MAX Runtime of function [s],9.77311
MIN Runtime of function [s],9.77311
# COUNTERS - HDEEM: 
AVG Energy consumption [J] (Stats structure),1897.84
MAX Energy consumption [J] (Stats structure),1897.84
MIN Energy consumption [J] (Stats structure),1897.84
SUM Energy consumption [J] (Stats structure),1897.84
# CALLTREE;init_0;Main-PWSCF_0;run-PWSCF_0;run-PWSCF-electrons_function_1;electrons-electrons_scf_function_0;c_bands_function_7
# Job info - HDEEM
JOB ID,17281565.8
Nodelist,taurusi5540
AVG Runtime of function [s],9.88833
MAX Runtime of function [s],9.88833
MIN Runtime of function [s],9.88833
# COUNTERS - HDEEM: 
AVG Energy consumption [J] (Stats structure),1920.85
MAX Energy consumption [J] (Stats structure),1920.85
MIN Energy consumption [J] (Stats structure),1920.85
SUM Energy consumption [J] (Stats structure),1920.85
# CALLTREE;init_0;Main-PWSCF_0;run-PWSCF_0;run-PWSCF-electrons_function_1;electrons-electrons_scf_function_0;c_bands_function_7
# Job info - HDEEM
JOB ID,17281565.8
Nodelist,taurusi5540
AVG Runtime of function [s],10.5049
MAX Runtime of function [s],10.5049
MIN Runtime of function [s],10.5049
# COUNTERS - HDEEM: 
AVG Energy consumption [J] (Stats structure),2039.91
MAX Energy consumption [J] (Stats structure),2039.91
MIN Energy consumption [J] (Stats structure),2039.91
SUM Energy consumption [J] (Stats structure),2039.91
# CALLTREE;init_0;Main-PWSCF_0;run-PWSCF_0;run-PWSCF-electrons_function_1;electrons-electrons_scf_function_0;c_bands_function_8
# Job info - HDEEM
JOB ID,17281565.8
Nodelist,taurusi5540
AVG Runtime of function [s],9.96487
MAX Runtime of function [s],9.96487
MIN Runtime of function [s],9.96487
# COUNTERS - HDEEM: 
AVG Energy consumption [J] (Stats structure),1934.93
MAX Energy consumption [J] (Stats structure),1934.93
MIN Energy consumption [J] (Stats structure),1934.93
SUM Energy consumption [J] (Stats structure),1934.93
# CALLTREE;init_0;Main-PWSCF_0;run-PWSCF_0;run-PWSCF-electrons_function_1;electrons-electrons_scf_function_0;c_bands_function_8
# Job info - HDEEM
JOB ID,17281565.8
Nodelist,taurusi5540
AVG Runtime of function [s],10.2061
MAX Runtime of function [s],10.2061
MIN Runtime of function [s],10.2061
# COUNTERS - HDEEM: 
AVG Energy consumption [J] (Stats structure),1981.66
MAX Energy consumption [J] (Stats structure),1981.66
MIN Energy consumption [J] (Stats structure),1981.66
SUM Energy consumption [J] (Stats structure),1981.66
# CALLTREE;init_0;Main-PWSCF_0;run-PWSCF_0;run-PWSCF-electrons_function_1;electrons-electrons_scf_function_0;c_bands_function_8
# Job info - HDEEM
JOB ID,17281565.8
Nodelist,taurusi5540
AVG Runtime of function [s],10.1681
MAX Runtime of function [s],10.1681
MIN Runtime of function [s],10.1681
# COUNTERS - HDEEM: 
AVG Energy consumption [J] (Stats structure),1975.2
MAX Energy consumption [J] (Stats structure),1975.2
MIN Energy consumption [J] (Stats structure),1975.2
SUM Energy consumption [J] (Stats structure),1975.2
# CALLTREE;init_0;Main-PWSCF_0;run-PWSCF_0;run-PWSCF-electrons_function_1;electrons-electrons_scf_function_0;c_bands_function_8
# Job info - HDEEM
JOB ID,17281565.8
Nodelist,taurusi5540
AVG Runtime of function [s],9.59929
MAX Runtime of function [s],9.59929
MIN Runtime of function [s],9.59929
# COUNTERS - HDEEM: 
AVG Energy consumption [J] (Stats structure),1864.91
MAX Energy consumption [J] (Stats structure),1864.91
MIN Energy consumption [J] (Stats structure),1864.91
SUM Energy consumption [J] (Stats structure),1864.91
# CALLTREE;init_0;Main-PWSCF_0;run-PWSCF_0;run-PWSCF-electrons_function_1;electrons-electrons_scf_function_0;c_bands_function_9
# Job info - HDEEM
JOB ID,17281565.8
Nodelist,taurusi5540
AVG Runtime of function [s],9.61891
MAX Runtime of function [s],9.61891
MIN Runtime of function [s],9.61891
# COUNTERS - HDEEM: 
AVG Energy consumption [J] (Stats structure),1868.25
MAX Energy consumption [J] (Stats structure),1868.25
MIN Energy consumption [J] (Stats structure),1868.25
SUM Energy consumption [J] (Stats structure),1868.25
# CALLTREE;init_0;Main-PWSCF_0;run-PWSCF_0;run-PWSCF-electrons_function_1;electrons-electrons_scf_function_0;c_bands_function_9
# Job info - HDEEM
JOB ID,17281565.8
Nodelist,taurusi5540
AVG Runtime of function [s],9.6157
MAX Runtime of function [s],9.6157
MIN Runtime of function [s],9.6157
# COUNTERS - HDEEM: 
AVG Energy consumption [J] (Stats structure),1867.54
MAX Energy consumption [J] (Stats structure),1867.54
MIN Energy consumption [J] (Stats structure),1867.54
SUM Energy consumption [J] (Stats structure),1867.54
# CALLTREE;init_0;Main-PWSCF_0;run-PWSCF_0;run-PWSCF-electrons_function_1;electrons-electrons_scf_function_0;c_bands_function_9
# Job info - HDEEM
JOB ID,17281565.8
Nodelist,taurusi5540
AVG Runtime of function [s],9.66162
MAX Runtime of function [s],9.66162
MIN Runtime of function [s],9.66162
# COUNTERS - HDEEM: 
AVG Energy consumption [J] (Stats structure),1875.9
MAX Energy consumption [J] (Stats structure),1875.9
MIN Energy consumption [J] (Stats structure),1875.9
SUM Energy consumption [J] (Stats structure),1875.9
# CALLTREE;init_0;Main-PWSCF_0;run-PWSCF_0;run-PWSCF-electrons_function_1;electrons-electrons_scf_function_0;c_bands_function_9
# Job info - HDEEM
JOB ID,17281565.8
Nodelist,taurusi5540
AVG Runtime of function [s],9.49588
MAX Runtime of function [s],9.49588
MIN Runtime of function [s],9.49588
# COUNTERS - HDEEM: 
AVG Energy consumption [J] (Stats structure),1844.79
MAX Energy consumption [J] (Stats structure),1844.79
MIN Energy consumption [J] (Stats structure),1844.79
SUM Energy consumption [J] (Stats structure),1844.79
# CALLTREE;init_0;Main-PWSCF_0;run-PWSCF_0;run-PWSCF-electrons_function_1;electrons-electrons_scf_function_0;c_bands_function_10
# Job info - HDEEM
JOB ID,17281565.8
Nodelist,taurusi5540
AVG Runtime of function [s],9.57977
MAX Runtime of function [s],9.57977
MIN Runtime of function [s],9.57977
# COUNTERS - HDEEM: 
AVG Energy consumption [J] (Stats structure),1861.6
MAX Energy consumption [J] (Stats structure),1861.6
MIN Energy consumption [J] (Stats structure),1861.6
SUM Energy consumption [J] (Stats structure),1861.6
# CALLTREE;init_0;Main-PWSCF_0;run-PWSCF_0;run-PWSCF-electrons_function_1;electrons-electrons_scf_function_0;c_bands_function_10
# Job info - HDEEM
JOB ID,17281565.8
Nodelist,taurusi5540
AVG Runtime of function [s],9.40285
MAX Runtime of function [s],9.40285
MIN Runtime of function [s],9.40285
# COUNTERS - HDEEM: 
AVG Energy consumption [J] (Stats structure),1823.37
MAX Energy consumption [J] (Stats structure),1823.37
MIN Energy consumption [J] (Stats structure),1823.37
SUM Energy consumption [J] (Stats structure),1823.37
# CALLTREE;init_0;Main-PWSCF_0;run-PWSCF_0;run-PWSCF-electrons_function_1;electrons-electrons_scf_function_0;c_bands_function_10
# Job info - HDEEM
JOB ID,17281565.8
Nodelist,taurusi5540
AVG Runtime of function [s],9.81479
MAX Runtime of function [s],9.81479
MIN Runtime of function [s],9.81479
# COUNTERS - HDEEM: 
AVG Energy consumption [J] (Stats structure),1906.92
MAX Energy consumption [J] (Stats structure),1906.92
MIN Energy consumption [J] (Stats structure),1906.92
SUM Energy consumption [J] (Stats structure),1906.92
# CALLTREE;init_0;Main-PWSCF_0;run-PWSCF_0;run-PWSCF-electrons_function_1;electrons-electrons_scf_function_0;c_bands_function_10
# Job info - HDEEM
JOB ID,17281565.8
Nodelist,taurusi5540
AVG Runtime of function [s],9.44637
MAX Runtime of function [s],9.44637
MIN Runtime of function [s],9.44637
# COUNTERS - HDEEM: 
AVG Energy consumption [J] (Stats structure),1831.69
MAX Energy consumption [J] (Stats structure),1831.69
MIN Energy consumption [J] (Stats structure),1831.69
SUM Energy consumption [J] (Stats structure),1831.69
# CALLTREE;init_0;Main-PWSCF_0;run-PWSCF_0;run-PWSCF-electrons_function_1;electrons-electrons_scf_function_0;c_bands_function_11
# Job info - HDEEM
JOB ID,17281565.8
Nodelist,taurusi5540
AVG Runtime of function [s],8.32202
MAX Runtime of function [s],8.32202
MIN Runtime of function [s],8.32202
# COUNTERS - HDEEM: 
AVG Energy consumption [J] (Stats structure),1612.44
MAX Energy consumption [J] (Stats structure),1612.44
MIN Energy consumption [J] (Stats structure),1612.44
SUM Energy consumption [J] (Stats structure),1612.44
# CALLTREE;init_0;Main-PWSCF_0;run-PWSCF_0;run-PWSCF-electrons_function_1;electrons-electrons_scf_function_0;c_bands_function_11
# Job info - HDEEM
JOB ID,17281565.8
Nodelist,taurusi5540
AVG Runtime of function [s],8.34604
MAX Runtime of function [s],8.34604
MIN Runtime of function [s],8.34604
# COUNTERS - HDEEM: 
AVG Energy consumption [J] (Stats structure),1618.18
MAX Energy consumption [J] (Stats structure),1618.18
MIN Energy consumption [J] (Stats structure),1618.18
SUM Energy consumption [J] (Stats structure),1618.18
# CALLTREE;init_0;Main-PWSCF_0;run-PWSCF_0;run-PWSCF-electrons_function_1;electrons-electrons_scf_function_0;c_bands_function_11
# Job info - HDEEM
JOB ID,17281565.8
Nodelist,taurusi5540
AVG Runtime of function [s],8.27033
MAX Runtime of function [s],8.27033
MIN Runtime of function [s],8.27033
# COUNTERS - HDEEM: 
AVG Energy consumption [J] (Stats structure),1603.54
MAX Energy consumption [J] (Stats structure),1603.54
MIN Energy consumption [J] (Stats structure),1603.54
SUM Energy consumption [J] (Stats structure),1603.54
# CALLTREE;init_0;Main-PWSCF_0;run-PWSCF_0;run-PWSCF-electrons_function_1;electrons-electrons_scf_function_0;c_bands_function_11
# Job info - HDEEM
JOB ID,17281565.8
Nodelist,taurusi5540
AVG Runtime of function [s],8.26184
MAX Runtime of function [s],8.26184
MIN Runtime of function [s],8.26184
# COUNTERS - HDEEM: 
AVG Energy consumption [J] (Stats structure),1600.7
MAX Energy consumption [J] (Stats structure),1600.7
MIN Energy consumption [J] (Stats structure),1600.7
SUM Energy consumption [J] (Stats structure),1600.7
# CALLTREE;init_0;Main-PWSCF_0;run-PWSCF_0;run-PWSCF-electrons_function_1;electrons-electrons_scf_function_0;c_bands_function_12
# Job info - HDEEM
JOB ID,17281565.8
Nodelist,taurusi5540
AVG Runtime of function [s],10.6082
MAX Runtime of function [s],10.6082
MIN Runtime of function [s],10.6082
# COUNTERS - HDEEM: 
AVG Energy consumption [J] (Stats structure),2059.81
MAX Energy consumption [J] (Stats structure),2059.81
MIN Energy consumption [J] (Stats structure),2059.81
SUM Energy consumption [J] (Stats structure),2059.81
# CALLTREE;init_0;Main-PWSCF_0;run-PWSCF_0;run-PWSCF-electrons_function_1;electrons-electrons_scf_function_0;c_bands_function_12
# Job info - HDEEM
JOB ID,17281565.8
Nodelist,taurusi5540
AVG Runtime of function [s],10.1241
MAX Runtime of function [s],10.1241
MIN Runtime of function [s],10.1241
# COUNTERS - HDEEM: 
AVG Energy consumption [J] (Stats structure),1966.71
MAX Energy consumption [J] (Stats structure),1966.71
MIN Energy consumption [J] (Stats structure),1966.71
SUM Energy consumption [J] (Stats structure),1966.71
# CALLTREE;init_0;Main-PWSCF_0;run-PWSCF_0;run-PWSCF-electrons_function_1;electrons-electrons_scf_function_0;c_bands_function_12
# Job info - HDEEM
JOB ID,17281565.8
Nodelist,taurusi5540
AVG Runtime of function [s],10.0144
MAX Runtime of function [s],10.0144
MIN Runtime of function [s],10.0144
# COUNTERS - HDEEM: 
AVG Energy consumption [J] (Stats structure),1945.18
MAX Energy consumption [J] (Stats structure),1945.18
MIN Energy consumption [J] (Stats structure),1945.18
SUM Energy consumption [J] (Stats structure),1945.18
# CALLTREE;init_0;Main-PWSCF_0;run-PWSCF_0;run-PWSCF-electrons_function_1;electrons-electrons_scf_function_0;c_bands_function_12
# Job info - HDEEM
JOB ID,17281565.8
Nodelist,taurusi5540
AVG Runtime of function [s],10.4218
MAX Runtime of function [s],10.4218
MIN Runtime of function [s],10.4218
# COUNTERS - HDEEM: 
AVG Energy consumption [J] (Stats structure),2024.95
MAX Energy consumption [J] (Stats structure),2024.95
MIN Energy consumption [J] (Stats structure),2024.95
SUM Energy consumption [J] (Stats structure),2024.95
# CALLTREE;init_0;Main-PWSCF_0;run-PWSCF_0;run-PWSCF-electrons_function_1;electrons-electrons_scf_function_0;c_bands_function_13
# Job info - HDEEM
JOB ID,17281565.8
Nodelist,taurusi5540
AVG Runtime of function [s],9.28144
MAX Runtime of function [s],9.28144
MIN Runtime of function [s],9.28144
# COUNTERS - HDEEM: 
AVG Energy consumption [J] (Stats structure),1803.47
MAX Energy consumption [J] (Stats structure),1803.47
MIN Energy consumption [J] (Stats structure),1803.47
SUM Energy consumption [J] (Stats structure),1803.47
# CALLTREE;init_0;Main-PWSCF_0;run-PWSCF_0;run-PWSCF-electrons_function_1;electrons-electrons_scf_function_0;c_bands_function_13
# Job info - HDEEM
JOB ID,17281565.8
Nodelist,taurusi5540
AVG Runtime of function [s],9.88053
MAX Runtime of function [s],9.88053
MIN Runtime of function [s],9.88053
# COUNTERS - HDEEM: 
AVG Energy consumption [J] (Stats structure),1919.96
MAX Energy consumption [J] (Stats structure),1919.96
MIN Energy consumption [J] (Stats structure),1919.96
SUM Energy consumption [J] (Stats structure),1919.96
# CALLTREE;init_0;Main-PWSCF_0;run-PWSCF_0;run-PWSCF-electrons_function_1;electrons-electrons_scf_function_0;c_bands_function_13
# Job info - HDEEM
JOB ID,17281565.8
Nodelist,taurusi5540
AVG Runtime of function [s],9.98861
MAX Runtime of function [s],9.98861
MIN Runtime of function [s],9.98861
# COUNTERS - HDEEM: 
AVG Energy consumption [J] (Stats structure),1940.76
MAX Energy consumption [J] (Stats structure),1940.76
MIN Energy consumption [J] (Stats structure),1940.76
SUM Energy consumption [J] (Stats structure),1940.76
# CALLTREE;init_0;Main-PWSCF_0;run-PWSCF_0;run-PWSCF-electrons_function_1;electrons-electrons_scf_function_0;c_bands_function_13
# Job info - HDEEM
JOB ID,17281565.8
Nodelist,taurusi5540
AVG Runtime of function [s],9.7221
MAX Runtime of function [s],9.7221
MIN Runtime of function [s],9.7221
# COUNTERS - HDEEM: 
AVG Energy consumption [J] (Stats structure),1889.92
MAX Energy consumption [J] (Stats structure),1889.92
MIN Energy consumption [J] (Stats structure),1889.92
SUM Energy consumption [J] (Stats structure),1889.92
# CALLTREE;init_0;Main-PWSCF_0;run-PWSCF_0;run-PWSCF-electrons_function_1;electrons-electrons_scf_function_0;c_bands_function_14
# Job info - HDEEM
JOB ID,17281565.8
Nodelist,taurusi5540
AVG Runtime of function [s],6.99095
MAX Runtime of function [s],6.99095
MIN Runtime of function [s],6.99095
# COUNTERS - HDEEM: 
AVG Energy consumption [J] (Stats structure),1355.55
MAX Energy consumption [J] (Stats structure),1355.55
MIN Energy consumption [J] (Stats structure),1355.55
SUM Energy consumption [J] (Stats structure),1355.55
# CALLTREE;init_0;Main-PWSCF_0;run-PWSCF_0;run-PWSCF-electrons_function_1;electrons-electrons_scf_function_0;c_bands_function_14
# Job info - HDEEM
JOB ID,17281565.8
Nodelist,taurusi5540
AVG Runtime of function [s],6.96103
MAX Runtime of function [s],6.96103
MIN Runtime of function [s],6.96103
# COUNTERS - HDEEM: 
AVG Energy consumption [J] (Stats structure),1349.98
MAX Energy consumption [J] (Stats structure),1349.98
MIN Energy consumption [J] (Stats structure),1349.98
SUM Energy consumption [J] (Stats structure),1349.98
# CALLTREE;init_0;Main-PWSCF_0;run-PWSCF_0;run-PWSCF-electrons_function_1;electrons-electrons_scf_function_0;c_bands_function_14
# Job info - HDEEM
JOB ID,17281565.8
Nodelist,taurusi5540
AVG Runtime of function [s],6.9496
MAX Runtime of function [s],6.9496
MIN Runtime of function [s],6.9496
# COUNTERS - HDEEM: 
AVG Energy consumption [J] (Stats structure),1348.42
MAX Energy consumption [J] (Stats structure),1348.42
MIN Energy consumption [J] (Stats structure),1348.42
SUM Energy consumption [J] (Stats structure),1348.42
# CALLTREE;init_0;Main-PWSCF_0;run-PWSCF_0;run-PWSCF-electrons_function_1;electrons-electrons_scf_function_0;c_bands_function_14
# Job info - HDEEM
JOB ID,17281565.8
Nodelist,taurusi5540
AVG Runtime of function [s],7.16681
MAX Runtime of function [s],7.16681
MIN Runtime of function [s],7.16681
# COUNTERS - HDEEM: 
AVG Energy consumption [J] (Stats structure),1390.39
MAX Energy consumption [J] (Stats structure),1390.39
MIN Energy consumption [J] (Stats structure),1390.39
SUM Energy consumption [J] (Stats structure),1390.39
# CALLTREE;init_0;Main-PWSCF_0;run-PWSCF_0;run-PWSCF-electrons_function_1;electrons-electrons_scf_function_0;c_bands_function_15
# Job info - HDEEM
JOB ID,17281565.8
Nodelist,taurusi5540
AVG Runtime of function [s],7.02277
MAX Runtime of function [s],7.02277
MIN Runtime of function [s],7.02277
# COUNTERS - HDEEM: 
AVG Energy consumption [J] (Stats structure),1361.44
MAX Energy consumption [J] (Stats structure),1361.44
MIN Energy consumption [J] (Stats structure),1361.44
SUM Energy consumption [J] (Stats structure),1361.44
# CALLTREE;init_0;Main-PWSCF_0;run-PWSCF_0;run-PWSCF-electrons_function_1;electrons-electrons_scf_function_0;c_bands_function_15
# Job info - HDEEM
JOB ID,17281565.8
Nodelist,taurusi5540
AVG Runtime of function [s],7.09094
MAX Runtime of function [s],7.09094
MIN Runtime of function [s],7.09094
# COUNTERS - HDEEM: 
AVG Energy consumption [J] (Stats structure),1376.34
MAX Energy consumption [J] (Stats structure),1376.34
MIN Energy consumption [J] (Stats structure),1376.34
SUM Energy consumption [J] (Stats structure),1376.34
# CALLTREE;init_0;Main-PWSCF_0;run-PWSCF_0;run-PWSCF-electrons_function_1;electrons-electrons_scf_function_0;c_bands_function_15
# Job info - HDEEM
JOB ID,17281565.8
Nodelist,taurusi5540
AVG Runtime of function [s],7.01659
MAX Runtime of function [s],7.01659
MIN Runtime of function [s],7.01659
# COUNTERS - HDEEM: 
AVG Energy consumption [J] (Stats structure),1361.33
MAX Energy consumption [J] (Stats structure),1361.33
MIN Energy consumption [J] (Stats structure),1361.33
SUM Energy consumption [J] (Stats structure),1361.33
# CALLTREE;init_0;Main-PWSCF_0;run-PWSCF_0;run-PWSCF-electrons_function_1;electrons-electrons_scf_function_0;c_bands_function_15
# Job info - HDEEM
JOB ID,17281565.8
Nodelist,taurusi5540
AVG Runtime of function [s],6.96022
MAX Runtime of function [s],6.96022
MIN Runtime of function [s],6.96022
# COUNTERS - HDEEM: 
AVG Energy consumption [J] (Stats structure),1350.3
MAX Energy consumption [J] (Stats structure),1350.3
MIN Energy consumption [J] (Stats structure),1350.3
SUM Energy consumption [J] (Stats structure),1350.3
