# CALLTREE;init_0;Main-PWSCF_0;run-PWSCF_0;run-PWSCF-electrons_function_1;electrons-electrons_scf_function_0;c_bands_function_0
# Job info - HDEEM
JOB ID,17281565.17
Nodelist,taurusi5540
AVG Runtime of function [s],12.1361
MAX Runtime of function [s],12.1361
MIN Runtime of function [s],12.1361
# COUNTERS - HDEEM: 
AVG Energy consumption [J] (Stats structure),2018.95
MAX Energy consumption [J] (Stats structure),2018.95
MIN Energy consumption [J] (Stats structure),2018.95
SUM Energy consumption [J] (Stats structure),2018.95
# CALLTREE;init_0;Main-PWSCF_0;run-PWSCF_0;run-PWSCF-electrons_function_1;electrons-electrons_scf_function_0;c_bands_function_0
# Job info - HDEEM
JOB ID,17281565.17
Nodelist,taurusi5540
AVG Runtime of function [s],12.4569
MAX Runtime of function [s],12.4569
MIN Runtime of function [s],12.4569
# COUNTERS - HDEEM: 
AVG Energy consumption [J] (Stats structure),2071.81
MAX Energy consumption [J] (Stats structure),2071.81
MIN Energy consumption [J] (Stats structure),2071.81
SUM Energy consumption [J] (Stats structure),2071.81
# CALLTREE;init_0;Main-PWSCF_0;run-PWSCF_0;run-PWSCF-electrons_function_1;electrons-electrons_scf_function_0;c_bands_function_0
# Job info - HDEEM
JOB ID,17281565.17
Nodelist,taurusi5540
AVG Runtime of function [s],13.0935
MAX Runtime of function [s],13.0935
MIN Runtime of function [s],13.0935
# COUNTERS - HDEEM: 
AVG Energy consumption [J] (Stats structure),2176.7
MAX Energy consumption [J] (Stats structure),2176.7
MIN Energy consumption [J] (Stats structure),2176.7
SUM Energy consumption [J] (Stats structure),2176.7
# CALLTREE;init_0;Main-PWSCF_0;run-PWSCF_0;run-PWSCF-electrons_function_1;electrons-electrons_scf_function_0;c_bands_function_0
# Job info - HDEEM
JOB ID,17281565.17
Nodelist,taurusi5540
AVG Runtime of function [s],12.5266
MAX Runtime of function [s],12.5266
MIN Runtime of function [s],12.5266
# COUNTERS - HDEEM: 
AVG Energy consumption [J] (Stats structure),2084.56
MAX Energy consumption [J] (Stats structure),2084.56
MIN Energy consumption [J] (Stats structure),2084.56
SUM Energy consumption [J] (Stats structure),2084.56
# CALLTREE;init_0;Main-PWSCF_0;run-PWSCF_0;run-PWSCF-electrons_function_1;electrons-electrons_scf_function_0;c_bands_function_1
# Job info - HDEEM
JOB ID,17281565.17
Nodelist,taurusi5540
AVG Runtime of function [s],8.17891
MAX Runtime of function [s],8.17891
MIN Runtime of function [s],8.17891
# COUNTERS - HDEEM: 
AVG Energy consumption [J] (Stats structure),1359.51
MAX Energy consumption [J] (Stats structure),1359.51
MIN Energy consumption [J] (Stats structure),1359.51
SUM Energy consumption [J] (Stats structure),1359.51
# CALLTREE;init_0;Main-PWSCF_0;run-PWSCF_0;run-PWSCF-electrons_function_1;electrons-electrons_scf_function_0;c_bands_function_1
# Job info - HDEEM
JOB ID,17281565.17
Nodelist,taurusi5540
AVG Runtime of function [s],8.31089
MAX Runtime of function [s],8.31089
MIN Runtime of function [s],8.31089
# COUNTERS - HDEEM: 
AVG Energy consumption [J] (Stats structure),1380.46
MAX Energy consumption [J] (Stats structure),1380.46
MIN Energy consumption [J] (Stats structure),1380.46
SUM Energy consumption [J] (Stats structure),1380.46
# CALLTREE;init_0;Main-PWSCF_0;run-PWSCF_0;run-PWSCF-electrons_function_1;electrons-electrons_scf_function_0;c_bands_function_1
# Job info - HDEEM
JOB ID,17281565.17
Nodelist,taurusi5540
AVG Runtime of function [s],7.82407
MAX Runtime of function [s],7.82407
MIN Runtime of function [s],7.82407
# COUNTERS - HDEEM: 
AVG Energy consumption [J] (Stats structure),1300.57
MAX Energy consumption [J] (Stats structure),1300.57
MIN Energy consumption [J] (Stats structure),1300.57
SUM Energy consumption [J] (Stats structure),1300.57
# CALLTREE;init_0;Main-PWSCF_0;run-PWSCF_0;run-PWSCF-electrons_function_1;electrons-electrons_scf_function_0;c_bands_function_1
# Job info - HDEEM
JOB ID,17281565.17
Nodelist,taurusi5540
AVG Runtime of function [s],7.79407
MAX Runtime of function [s],7.79407
MIN Runtime of function [s],7.79407
# COUNTERS - HDEEM: 
AVG Energy consumption [J] (Stats structure),1295.89
MAX Energy consumption [J] (Stats structure),1295.89
MIN Energy consumption [J] (Stats structure),1295.89
SUM Energy consumption [J] (Stats structure),1295.89
# CALLTREE;init_0;Main-PWSCF_0;run-PWSCF_0;run-PWSCF-electrons_function_1;electrons-electrons_scf_function_0;c_bands_function_2
# Job info - HDEEM
JOB ID,17281565.17
Nodelist,taurusi5540
AVG Runtime of function [s],7.95205
MAX Runtime of function [s],7.95205
MIN Runtime of function [s],7.95205
# COUNTERS - HDEEM: 
AVG Energy consumption [J] (Stats structure),1320.81
MAX Energy consumption [J] (Stats structure),1320.81
MIN Energy consumption [J] (Stats structure),1320.81
SUM Energy consumption [J] (Stats structure),1320.81
# CALLTREE;init_0;Main-PWSCF_0;run-PWSCF_0;run-PWSCF-electrons_function_1;electrons-electrons_scf_function_0;c_bands_function_2
# Job info - HDEEM
JOB ID,17281565.17
Nodelist,taurusi5540
AVG Runtime of function [s],7.84253
MAX Runtime of function [s],7.84253
MIN Runtime of function [s],7.84253
# COUNTERS - HDEEM: 
AVG Energy consumption [J] (Stats structure),1303.31
MAX Energy consumption [J] (Stats structure),1303.31
MIN Energy consumption [J] (Stats structure),1303.31
SUM Energy consumption [J] (Stats structure),1303.31
# CALLTREE;init_0;Main-PWSCF_0;run-PWSCF_0;run-PWSCF-electrons_function_1;electrons-electrons_scf_function_0;c_bands_function_2
# Job info - HDEEM
JOB ID,17281565.17
Nodelist,taurusi5540
AVG Runtime of function [s],7.84437
MAX Runtime of function [s],7.84437
MIN Runtime of function [s],7.84437
# COUNTERS - HDEEM: 
AVG Energy consumption [J] (Stats structure),1304.15
MAX Energy consumption [J] (Stats structure),1304.15
MIN Energy consumption [J] (Stats structure),1304.15
SUM Energy consumption [J] (Stats structure),1304.15
# CALLTREE;init_0;Main-PWSCF_0;run-PWSCF_0;run-PWSCF-electrons_function_1;electrons-electrons_scf_function_0;c_bands_function_2
# Job info - HDEEM
JOB ID,17281565.17
Nodelist,taurusi5540
AVG Runtime of function [s],7.84916
MAX Runtime of function [s],7.84916
MIN Runtime of function [s],7.84916
# COUNTERS - HDEEM: 
AVG Energy consumption [J] (Stats structure),1304.95
MAX Energy consumption [J] (Stats structure),1304.95
MIN Energy consumption [J] (Stats structure),1304.95
SUM Energy consumption [J] (Stats structure),1304.95
# CALLTREE;init_0;Main-PWSCF_0;run-PWSCF_0;run-PWSCF-electrons_function_1;electrons-electrons_scf_function_0;c_bands_function_3
# Job info - HDEEM
JOB ID,17281565.17
Nodelist,taurusi5540
AVG Runtime of function [s],12.876
MAX Runtime of function [s],12.876
MIN Runtime of function [s],12.876
# COUNTERS - HDEEM: 
AVG Energy consumption [J] (Stats structure),2138.34
MAX Energy consumption [J] (Stats structure),2138.34
MIN Energy consumption [J] (Stats structure),2138.34
SUM Energy consumption [J] (Stats structure),2138.34
# CALLTREE;init_0;Main-PWSCF_0;run-PWSCF_0;run-PWSCF-electrons_function_1;electrons-electrons_scf_function_0;c_bands_function_3
# Job info - HDEEM
JOB ID,17281565.17
Nodelist,taurusi5540
AVG Runtime of function [s],15.2697
MAX Runtime of function [s],15.2697
MIN Runtime of function [s],15.2697
# COUNTERS - HDEEM: 
AVG Energy consumption [J] (Stats structure),2531.06
MAX Energy consumption [J] (Stats structure),2531.06
MIN Energy consumption [J] (Stats structure),2531.06
SUM Energy consumption [J] (Stats structure),2531.06
# CALLTREE;init_0;Main-PWSCF_0;run-PWSCF_0;run-PWSCF-electrons_function_1;electrons-electrons_scf_function_0;c_bands_function_3
# Job info - HDEEM
JOB ID,17281565.17
Nodelist,taurusi5540
AVG Runtime of function [s],16.6992
MAX Runtime of function [s],16.6992
MIN Runtime of function [s],16.6992
# COUNTERS - HDEEM: 
AVG Energy consumption [J] (Stats structure),2763.75
MAX Energy consumption [J] (Stats structure),2763.75
MIN Energy consumption [J] (Stats structure),2763.75
SUM Energy consumption [J] (Stats structure),2763.75
# CALLTREE;init_0;Main-PWSCF_0;run-PWSCF_0;run-PWSCF-electrons_function_1;electrons-electrons_scf_function_0;c_bands_function_3
# Job info - HDEEM
JOB ID,17281565.17
Nodelist,taurusi5540
AVG Runtime of function [s],15.6359
MAX Runtime of function [s],15.6359
MIN Runtime of function [s],15.6359
# COUNTERS - HDEEM: 
AVG Energy consumption [J] (Stats structure),2591.5
MAX Energy consumption [J] (Stats structure),2591.5
MIN Energy consumption [J] (Stats structure),2591.5
SUM Energy consumption [J] (Stats structure),2591.5
# CALLTREE;init_0;Main-PWSCF_0;run-PWSCF_0;run-PWSCF-electrons_function_1;electrons-electrons_scf_function_0;c_bands_function_4
# Job info - HDEEM
JOB ID,17281565.17
Nodelist,taurusi5540
AVG Runtime of function [s],15.3008
MAX Runtime of function [s],15.3008
MIN Runtime of function [s],15.3008
# COUNTERS - HDEEM: 
AVG Energy consumption [J] (Stats structure),2535.99
MAX Energy consumption [J] (Stats structure),2535.99
MIN Energy consumption [J] (Stats structure),2535.99
SUM Energy consumption [J] (Stats structure),2535.99
# CALLTREE;init_0;Main-PWSCF_0;run-PWSCF_0;run-PWSCF-electrons_function_1;electrons-electrons_scf_function_0;c_bands_function_4
# Job info - HDEEM
JOB ID,17281565.17
Nodelist,taurusi5540
AVG Runtime of function [s],15.4823
MAX Runtime of function [s],15.4823
MIN Runtime of function [s],15.4823
# COUNTERS - HDEEM: 
AVG Energy consumption [J] (Stats structure),2565.03
MAX Energy consumption [J] (Stats structure),2565.03
MIN Energy consumption [J] (Stats structure),2565.03
SUM Energy consumption [J] (Stats structure),2565.03
# CALLTREE;init_0;Main-PWSCF_0;run-PWSCF_0;run-PWSCF-electrons_function_1;electrons-electrons_scf_function_0;c_bands_function_4
# Job info - HDEEM
JOB ID,17281565.17
Nodelist,taurusi5540
AVG Runtime of function [s],15.6419
MAX Runtime of function [s],15.6419
MIN Runtime of function [s],15.6419
# COUNTERS - HDEEM: 
AVG Energy consumption [J] (Stats structure),2593.37
MAX Energy consumption [J] (Stats structure),2593.37
MIN Energy consumption [J] (Stats structure),2593.37
SUM Energy consumption [J] (Stats structure),2593.37
# CALLTREE;init_0;Main-PWSCF_0;run-PWSCF_0;run-PWSCF-electrons_function_1;electrons-electrons_scf_function_0;c_bands_function_4
# Job info - HDEEM
JOB ID,17281565.17
Nodelist,taurusi5540
AVG Runtime of function [s],12.839
MAX Runtime of function [s],12.839
MIN Runtime of function [s],12.839
# COUNTERS - HDEEM: 
AVG Energy consumption [J] (Stats structure),2134.25
MAX Energy consumption [J] (Stats structure),2134.25
MIN Energy consumption [J] (Stats structure),2134.25
SUM Energy consumption [J] (Stats structure),2134.25
# CALLTREE;init_0;Main-PWSCF_0;run-PWSCF_0;run-PWSCF-electrons_function_1;electrons-electrons_scf_function_0;c_bands_function_5
# Job info - HDEEM
JOB ID,17281565.17
Nodelist,taurusi5540
AVG Runtime of function [s],10.6592
MAX Runtime of function [s],10.6592
MIN Runtime of function [s],10.6592
# COUNTERS - HDEEM: 
AVG Energy consumption [J] (Stats structure),1768.39
MAX Energy consumption [J] (Stats structure),1768.39
MIN Energy consumption [J] (Stats structure),1768.39
SUM Energy consumption [J] (Stats structure),1768.39
# CALLTREE;init_0;Main-PWSCF_0;run-PWSCF_0;run-PWSCF-electrons_function_1;electrons-electrons_scf_function_0;c_bands_function_5
# Job info - HDEEM
JOB ID,17281565.17
Nodelist,taurusi5540
AVG Runtime of function [s],13.2887
MAX Runtime of function [s],13.2887
MIN Runtime of function [s],13.2887
# COUNTERS - HDEEM: 
AVG Energy consumption [J] (Stats structure),2200.75
MAX Energy consumption [J] (Stats structure),2200.75
MIN Energy consumption [J] (Stats structure),2200.75
SUM Energy consumption [J] (Stats structure),2200.75
# CALLTREE;init_0;Main-PWSCF_0;run-PWSCF_0;run-PWSCF-electrons_function_1;electrons-electrons_scf_function_0;c_bands_function_5
# Job info - HDEEM
JOB ID,17281565.17
Nodelist,taurusi5540
AVG Runtime of function [s],13.0077
MAX Runtime of function [s],13.0077
MIN Runtime of function [s],13.0077
# COUNTERS - HDEEM: 
AVG Energy consumption [J] (Stats structure),2154.65
MAX Energy consumption [J] (Stats structure),2154.65
MIN Energy consumption [J] (Stats structure),2154.65
SUM Energy consumption [J] (Stats structure),2154.65
# CALLTREE;init_0;Main-PWSCF_0;run-PWSCF_0;run-PWSCF-electrons_function_1;electrons-electrons_scf_function_0;c_bands_function_5
# Job info - HDEEM
JOB ID,17281565.17
Nodelist,taurusi5540
AVG Runtime of function [s],11.192
MAX Runtime of function [s],11.192
MIN Runtime of function [s],11.192
# COUNTERS - HDEEM: 
AVG Energy consumption [J] (Stats structure),1857.31
MAX Energy consumption [J] (Stats structure),1857.31
MIN Energy consumption [J] (Stats structure),1857.31
SUM Energy consumption [J] (Stats structure),1857.31
# CALLTREE;init_0;Main-PWSCF_0;run-PWSCF_0;run-PWSCF-electrons_function_1;electrons-electrons_scf_function_0;c_bands_function_6
# Job info - HDEEM
JOB ID,17281565.17
Nodelist,taurusi5540
AVG Runtime of function [s],10.3158
MAX Runtime of function [s],10.3158
MIN Runtime of function [s],10.3158
# COUNTERS - HDEEM: 
AVG Energy consumption [J] (Stats structure),1711.95
MAX Energy consumption [J] (Stats structure),1711.95
MIN Energy consumption [J] (Stats structure),1711.95
SUM Energy consumption [J] (Stats structure),1711.95
# CALLTREE;init_0;Main-PWSCF_0;run-PWSCF_0;run-PWSCF-electrons_function_1;electrons-electrons_scf_function_0;c_bands_function_6
# Job info - HDEEM
JOB ID,17281565.17
Nodelist,taurusi5540
AVG Runtime of function [s],10.4745
MAX Runtime of function [s],10.4745
MIN Runtime of function [s],10.4745
# COUNTERS - HDEEM: 
AVG Energy consumption [J] (Stats structure),1738.55
MAX Energy consumption [J] (Stats structure),1738.55
MIN Energy consumption [J] (Stats structure),1738.55
SUM Energy consumption [J] (Stats structure),1738.55
# CALLTREE;init_0;Main-PWSCF_0;run-PWSCF_0;run-PWSCF-electrons_function_1;electrons-electrons_scf_function_0;c_bands_function_6
# Job info - HDEEM
JOB ID,17281565.17
Nodelist,taurusi5540
AVG Runtime of function [s],10.5405
MAX Runtime of function [s],10.5405
MIN Runtime of function [s],10.5405
# COUNTERS - HDEEM: 
AVG Energy consumption [J] (Stats structure),1750.28
MAX Energy consumption [J] (Stats structure),1750.28
MIN Energy consumption [J] (Stats structure),1750.28
SUM Energy consumption [J] (Stats structure),1750.28
# CALLTREE;init_0;Main-PWSCF_0;run-PWSCF_0;run-PWSCF-electrons_function_1;electrons-electrons_scf_function_0;c_bands_function_6
# Job info - HDEEM
JOB ID,17281565.17
Nodelist,taurusi5540
AVG Runtime of function [s],10.1293
MAX Runtime of function [s],10.1293
MIN Runtime of function [s],10.1293
# COUNTERS - HDEEM: 
AVG Energy consumption [J] (Stats structure),1683.12
MAX Energy consumption [J] (Stats structure),1683.12
MIN Energy consumption [J] (Stats structure),1683.12
SUM Energy consumption [J] (Stats structure),1683.12
# CALLTREE;init_0;Main-PWSCF_0;run-PWSCF_0;run-PWSCF-electrons_function_1;electrons-electrons_scf_function_0;c_bands_function_7
# Job info - HDEEM
JOB ID,17281565.17
Nodelist,taurusi5540
AVG Runtime of function [s],11.1488
MAX Runtime of function [s],11.1488
MIN Runtime of function [s],11.1488
# COUNTERS - HDEEM: 
AVG Energy consumption [J] (Stats structure),1854.52
MAX Energy consumption [J] (Stats structure),1854.52
MIN Energy consumption [J] (Stats structure),1854.52
SUM Energy consumption [J] (Stats structure),1854.52
# CALLTREE;init_0;Main-PWSCF_0;run-PWSCF_0;run-PWSCF-electrons_function_1;electrons-electrons_scf_function_0;c_bands_function_7
# Job info - HDEEM
JOB ID,17281565.17
Nodelist,taurusi5540
AVG Runtime of function [s],11.0675
MAX Runtime of function [s],11.0675
MIN Runtime of function [s],11.0675
# COUNTERS - HDEEM: 
AVG Energy consumption [J] (Stats structure),1841.18
MAX Energy consumption [J] (Stats structure),1841.18
MIN Energy consumption [J] (Stats structure),1841.18
SUM Energy consumption [J] (Stats structure),1841.18
# CALLTREE;init_0;Main-PWSCF_0;run-PWSCF_0;run-PWSCF-electrons_function_1;electrons-electrons_scf_function_0;c_bands_function_7
# Job info - HDEEM
JOB ID,17281565.17
Nodelist,taurusi5540
AVG Runtime of function [s],11.204
MAX Runtime of function [s],11.204
MIN Runtime of function [s],11.204
# COUNTERS - HDEEM: 
AVG Energy consumption [J] (Stats structure),1864.09
MAX Energy consumption [J] (Stats structure),1864.09
MIN Energy consumption [J] (Stats structure),1864.09
SUM Energy consumption [J] (Stats structure),1864.09
# CALLTREE;init_0;Main-PWSCF_0;run-PWSCF_0;run-PWSCF-electrons_function_1;electrons-electrons_scf_function_0;c_bands_function_7
# Job info - HDEEM
JOB ID,17281565.17
Nodelist,taurusi5540
AVG Runtime of function [s],11.8899
MAX Runtime of function [s],11.8899
MIN Runtime of function [s],11.8899
# COUNTERS - HDEEM: 
AVG Energy consumption [J] (Stats structure),1977.96
MAX Energy consumption [J] (Stats structure),1977.96
MIN Energy consumption [J] (Stats structure),1977.96
SUM Energy consumption [J] (Stats structure),1977.96
# CALLTREE;init_0;Main-PWSCF_0;run-PWSCF_0;run-PWSCF-electrons_function_1;electrons-electrons_scf_function_0;c_bands_function_8
# Job info - HDEEM
JOB ID,17281565.17
Nodelist,taurusi5540
AVG Runtime of function [s],11.2831
MAX Runtime of function [s],11.2831
MIN Runtime of function [s],11.2831
# COUNTERS - HDEEM: 
AVG Energy consumption [J] (Stats structure),1876.92
MAX Energy consumption [J] (Stats structure),1876.92
MIN Energy consumption [J] (Stats structure),1876.92
SUM Energy consumption [J] (Stats structure),1876.92
# CALLTREE;init_0;Main-PWSCF_0;run-PWSCF_0;run-PWSCF-electrons_function_1;electrons-electrons_scf_function_0;c_bands_function_8
# Job info - HDEEM
JOB ID,17281565.17
Nodelist,taurusi5540
AVG Runtime of function [s],11.5571
MAX Runtime of function [s],11.5571
MIN Runtime of function [s],11.5571
# COUNTERS - HDEEM: 
AVG Energy consumption [J] (Stats structure),1921.93
MAX Energy consumption [J] (Stats structure),1921.93
MIN Energy consumption [J] (Stats structure),1921.93
SUM Energy consumption [J] (Stats structure),1921.93
# CALLTREE;init_0;Main-PWSCF_0;run-PWSCF_0;run-PWSCF-electrons_function_1;electrons-electrons_scf_function_0;c_bands_function_8
# Job info - HDEEM
JOB ID,17281565.17
Nodelist,taurusi5540
AVG Runtime of function [s],11.5507
MAX Runtime of function [s],11.5507
MIN Runtime of function [s],11.5507
# COUNTERS - HDEEM: 
AVG Energy consumption [J] (Stats structure),1922.19
MAX Energy consumption [J] (Stats structure),1922.19
MIN Energy consumption [J] (Stats structure),1922.19
SUM Energy consumption [J] (Stats structure),1922.19
# CALLTREE;init_0;Main-PWSCF_0;run-PWSCF_0;run-PWSCF-electrons_function_1;electrons-electrons_scf_function_0;c_bands_function_8
# Job info - HDEEM
JOB ID,17281565.17
Nodelist,taurusi5540
AVG Runtime of function [s],10.927
MAX Runtime of function [s],10.927
MIN Runtime of function [s],10.927
# COUNTERS - HDEEM: 
AVG Energy consumption [J] (Stats structure),1817.95
MAX Energy consumption [J] (Stats structure),1817.95
MIN Energy consumption [J] (Stats structure),1817.95
SUM Energy consumption [J] (Stats structure),1817.95
# CALLTREE;init_0;Main-PWSCF_0;run-PWSCF_0;run-PWSCF-electrons_function_1;electrons-electrons_scf_function_0;c_bands_function_9
# Job info - HDEEM
JOB ID,17281565.17
Nodelist,taurusi5540
AVG Runtime of function [s],10.9324
MAX Runtime of function [s],10.9324
MIN Runtime of function [s],10.9324
# COUNTERS - HDEEM: 
AVG Energy consumption [J] (Stats structure),1818.46
MAX Energy consumption [J] (Stats structure),1818.46
MIN Energy consumption [J] (Stats structure),1818.46
SUM Energy consumption [J] (Stats structure),1818.46
# CALLTREE;init_0;Main-PWSCF_0;run-PWSCF_0;run-PWSCF-electrons_function_1;electrons-electrons_scf_function_0;c_bands_function_9
# Job info - HDEEM
JOB ID,17281565.17
Nodelist,taurusi5540
AVG Runtime of function [s],10.8943
MAX Runtime of function [s],10.8943
MIN Runtime of function [s],10.8943
# COUNTERS - HDEEM: 
AVG Energy consumption [J] (Stats structure),1812.94
MAX Energy consumption [J] (Stats structure),1812.94
MIN Energy consumption [J] (Stats structure),1812.94
SUM Energy consumption [J] (Stats structure),1812.94
# CALLTREE;init_0;Main-PWSCF_0;run-PWSCF_0;run-PWSCF-electrons_function_1;electrons-electrons_scf_function_0;c_bands_function_9
# Job info - HDEEM
JOB ID,17281565.17
Nodelist,taurusi5540
AVG Runtime of function [s],10.8806
MAX Runtime of function [s],10.8806
MIN Runtime of function [s],10.8806
# COUNTERS - HDEEM: 
AVG Energy consumption [J] (Stats structure),1811.05
MAX Energy consumption [J] (Stats structure),1811.05
MIN Energy consumption [J] (Stats structure),1811.05
SUM Energy consumption [J] (Stats structure),1811.05
# CALLTREE;init_0;Main-PWSCF_0;run-PWSCF_0;run-PWSCF-electrons_function_1;electrons-electrons_scf_function_0;c_bands_function_9
# Job info - HDEEM
JOB ID,17281565.17
Nodelist,taurusi5540
AVG Runtime of function [s],10.7351
MAX Runtime of function [s],10.7351
MIN Runtime of function [s],10.7351
# COUNTERS - HDEEM: 
AVG Energy consumption [J] (Stats structure),1787.68
MAX Energy consumption [J] (Stats structure),1787.68
MIN Energy consumption [J] (Stats structure),1787.68
SUM Energy consumption [J] (Stats structure),1787.68
# CALLTREE;init_0;Main-PWSCF_0;run-PWSCF_0;run-PWSCF-electrons_function_1;electrons-electrons_scf_function_0;c_bands_function_10
# Job info - HDEEM
JOB ID,17281565.17
Nodelist,taurusi5540
AVG Runtime of function [s],10.8972
MAX Runtime of function [s],10.8972
MIN Runtime of function [s],10.8972
# COUNTERS - HDEEM: 
AVG Energy consumption [J] (Stats structure),1813.8
MAX Energy consumption [J] (Stats structure),1813.8
MIN Energy consumption [J] (Stats structure),1813.8
SUM Energy consumption [J] (Stats structure),1813.8
# CALLTREE;init_0;Main-PWSCF_0;run-PWSCF_0;run-PWSCF-electrons_function_1;electrons-electrons_scf_function_0;c_bands_function_10
# Job info - HDEEM
JOB ID,17281565.17
Nodelist,taurusi5540
AVG Runtime of function [s],10.671
MAX Runtime of function [s],10.671
MIN Runtime of function [s],10.671
# COUNTERS - HDEEM: 
AVG Energy consumption [J] (Stats structure),1772.37
MAX Energy consumption [J] (Stats structure),1772.37
MIN Energy consumption [J] (Stats structure),1772.37
SUM Energy consumption [J] (Stats structure),1772.37
# CALLTREE;init_0;Main-PWSCF_0;run-PWSCF_0;run-PWSCF-electrons_function_1;electrons-electrons_scf_function_0;c_bands_function_10
# Job info - HDEEM
JOB ID,17281565.17
Nodelist,taurusi5540
AVG Runtime of function [s],11.133
MAX Runtime of function [s],11.133
MIN Runtime of function [s],11.133
# COUNTERS - HDEEM: 
AVG Energy consumption [J] (Stats structure),1852.71
MAX Energy consumption [J] (Stats structure),1852.71
MIN Energy consumption [J] (Stats structure),1852.71
SUM Energy consumption [J] (Stats structure),1852.71
# CALLTREE;init_0;Main-PWSCF_0;run-PWSCF_0;run-PWSCF-electrons_function_1;electrons-electrons_scf_function_0;c_bands_function_10
# Job info - HDEEM
JOB ID,17281565.17
Nodelist,taurusi5540
AVG Runtime of function [s],10.6539
MAX Runtime of function [s],10.6539
MIN Runtime of function [s],10.6539
# COUNTERS - HDEEM: 
AVG Energy consumption [J] (Stats structure),1770.11
MAX Energy consumption [J] (Stats structure),1770.11
MIN Energy consumption [J] (Stats structure),1770.11
SUM Energy consumption [J] (Stats structure),1770.11
# CALLTREE;init_0;Main-PWSCF_0;run-PWSCF_0;run-PWSCF-electrons_function_1;electrons-electrons_scf_function_0;c_bands_function_11
# Job info - HDEEM
JOB ID,17281565.17
Nodelist,taurusi5540
AVG Runtime of function [s],9.41992
MAX Runtime of function [s],9.41992
MIN Runtime of function [s],9.41992
# COUNTERS - HDEEM: 
AVG Energy consumption [J] (Stats structure),1563.49
MAX Energy consumption [J] (Stats structure),1563.49
MIN Energy consumption [J] (Stats structure),1563.49
SUM Energy consumption [J] (Stats structure),1563.49
# CALLTREE;init_0;Main-PWSCF_0;run-PWSCF_0;run-PWSCF-electrons_function_1;electrons-electrons_scf_function_0;c_bands_function_11
# Job info - HDEEM
JOB ID,17281565.17
Nodelist,taurusi5540
AVG Runtime of function [s],9.46789
MAX Runtime of function [s],9.46789
MIN Runtime of function [s],9.46789
# COUNTERS - HDEEM: 
AVG Energy consumption [J] (Stats structure),1571.72
MAX Energy consumption [J] (Stats structure),1571.72
MIN Energy consumption [J] (Stats structure),1571.72
SUM Energy consumption [J] (Stats structure),1571.72
# CALLTREE;init_0;Main-PWSCF_0;run-PWSCF_0;run-PWSCF-electrons_function_1;electrons-electrons_scf_function_0;c_bands_function_11
# Job info - HDEEM
JOB ID,17281565.17
Nodelist,taurusi5540
AVG Runtime of function [s],9.31377
MAX Runtime of function [s],9.31377
MIN Runtime of function [s],9.31377
# COUNTERS - HDEEM: 
AVG Energy consumption [J] (Stats structure),1546.79
MAX Energy consumption [J] (Stats structure),1546.79
MIN Energy consumption [J] (Stats structure),1546.79
SUM Energy consumption [J] (Stats structure),1546.79
# CALLTREE;init_0;Main-PWSCF_0;run-PWSCF_0;run-PWSCF-electrons_function_1;electrons-electrons_scf_function_0;c_bands_function_11
# Job info - HDEEM
JOB ID,17281565.17
Nodelist,taurusi5540
AVG Runtime of function [s],9.69295
MAX Runtime of function [s],9.69295
MIN Runtime of function [s],9.69295
# COUNTERS - HDEEM: 
AVG Energy consumption [J] (Stats structure),1607.81
MAX Energy consumption [J] (Stats structure),1607.81
MIN Energy consumption [J] (Stats structure),1607.81
SUM Energy consumption [J] (Stats structure),1607.81
# CALLTREE;init_0;Main-PWSCF_0;run-PWSCF_0;run-PWSCF-electrons_function_1;electrons-electrons_scf_function_0;c_bands_function_12
# Job info - HDEEM
JOB ID,17281565.17
Nodelist,taurusi5540
AVG Runtime of function [s],12.0175
MAX Runtime of function [s],12.0175
MIN Runtime of function [s],12.0175
# COUNTERS - HDEEM: 
AVG Energy consumption [J] (Stats structure),1998.36
MAX Energy consumption [J] (Stats structure),1998.36
MIN Energy consumption [J] (Stats structure),1998.36
SUM Energy consumption [J] (Stats structure),1998.36
# CALLTREE;init_0;Main-PWSCF_0;run-PWSCF_0;run-PWSCF-electrons_function_1;electrons-electrons_scf_function_0;c_bands_function_12
# Job info - HDEEM
JOB ID,17281565.17
Nodelist,taurusi5540
AVG Runtime of function [s],11.4937
MAX Runtime of function [s],11.4937
MIN Runtime of function [s],11.4937
# COUNTERS - HDEEM: 
AVG Energy consumption [J] (Stats structure),1911.49
MAX Energy consumption [J] (Stats structure),1911.49
MIN Energy consumption [J] (Stats structure),1911.49
SUM Energy consumption [J] (Stats structure),1911.49
# CALLTREE;init_0;Main-PWSCF_0;run-PWSCF_0;run-PWSCF-electrons_function_1;electrons-electrons_scf_function_0;c_bands_function_12
# Job info - HDEEM
JOB ID,17281565.17
Nodelist,taurusi5540
AVG Runtime of function [s],11.3092
MAX Runtime of function [s],11.3092
MIN Runtime of function [s],11.3092
# COUNTERS - HDEEM: 
AVG Energy consumption [J] (Stats structure),1881.73
MAX Energy consumption [J] (Stats structure),1881.73
MIN Energy consumption [J] (Stats structure),1881.73
SUM Energy consumption [J] (Stats structure),1881.73
# CALLTREE;init_0;Main-PWSCF_0;run-PWSCF_0;run-PWSCF-electrons_function_1;electrons-electrons_scf_function_0;c_bands_function_12
# Job info - HDEEM
JOB ID,17281565.17
Nodelist,taurusi5540
AVG Runtime of function [s],11.8152
MAX Runtime of function [s],11.8152
MIN Runtime of function [s],11.8152
# COUNTERS - HDEEM: 
AVG Energy consumption [J] (Stats structure),1965.99
MAX Energy consumption [J] (Stats structure),1965.99
MIN Energy consumption [J] (Stats structure),1965.99
SUM Energy consumption [J] (Stats structure),1965.99
# CALLTREE;init_0;Main-PWSCF_0;run-PWSCF_0;run-PWSCF-electrons_function_1;electrons-electrons_scf_function_0;c_bands_function_13
# Job info - HDEEM
JOB ID,17281565.17
Nodelist,taurusi5540
AVG Runtime of function [s],10.4932
MAX Runtime of function [s],10.4932
MIN Runtime of function [s],10.4932
# COUNTERS - HDEEM: 
AVG Energy consumption [J] (Stats structure),1746.31
MAX Energy consumption [J] (Stats structure),1746.31
MIN Energy consumption [J] (Stats structure),1746.31
SUM Energy consumption [J] (Stats structure),1746.31
# CALLTREE;init_0;Main-PWSCF_0;run-PWSCF_0;run-PWSCF-electrons_function_1;electrons-electrons_scf_function_0;c_bands_function_13
# Job info - HDEEM
JOB ID,17281565.17
Nodelist,taurusi5540
AVG Runtime of function [s],11.2537
MAX Runtime of function [s],11.2537
MIN Runtime of function [s],11.2537
# COUNTERS - HDEEM: 
AVG Energy consumption [J] (Stats structure),1871.83
MAX Energy consumption [J] (Stats structure),1871.83
MIN Energy consumption [J] (Stats structure),1871.83
SUM Energy consumption [J] (Stats structure),1871.83
# CALLTREE;init_0;Main-PWSCF_0;run-PWSCF_0;run-PWSCF-electrons_function_1;electrons-electrons_scf_function_0;c_bands_function_13
# Job info - HDEEM
JOB ID,17281565.17
Nodelist,taurusi5540
AVG Runtime of function [s],11.3022
MAX Runtime of function [s],11.3022
MIN Runtime of function [s],11.3022
# COUNTERS - HDEEM: 
AVG Energy consumption [J] (Stats structure),1880.89
MAX Energy consumption [J] (Stats structure),1880.89
MIN Energy consumption [J] (Stats structure),1880.89
SUM Energy consumption [J] (Stats structure),1880.89
# CALLTREE;init_0;Main-PWSCF_0;run-PWSCF_0;run-PWSCF-electrons_function_1;electrons-electrons_scf_function_0;c_bands_function_13
# Job info - HDEEM
JOB ID,17281565.17
Nodelist,taurusi5540
AVG Runtime of function [s],11.036
MAX Runtime of function [s],11.036
MIN Runtime of function [s],11.036
# COUNTERS - HDEEM: 
AVG Energy consumption [J] (Stats structure),1837.39
MAX Energy consumption [J] (Stats structure),1837.39
MIN Energy consumption [J] (Stats structure),1837.39
SUM Energy consumption [J] (Stats structure),1837.39
# CALLTREE;init_0;Main-PWSCF_0;run-PWSCF_0;run-PWSCF-electrons_function_1;electrons-electrons_scf_function_0;c_bands_function_14
# Job info - HDEEM
JOB ID,17281565.17
Nodelist,taurusi5540
AVG Runtime of function [s],7.90169
MAX Runtime of function [s],7.90169
MIN Runtime of function [s],7.90169
# COUNTERS - HDEEM: 
AVG Energy consumption [J] (Stats structure),1312.36
MAX Energy consumption [J] (Stats structure),1312.36
MIN Energy consumption [J] (Stats structure),1312.36
SUM Energy consumption [J] (Stats structure),1312.36
# CALLTREE;init_0;Main-PWSCF_0;run-PWSCF_0;run-PWSCF-electrons_function_1;electrons-electrons_scf_function_0;c_bands_function_14
# Job info - HDEEM
JOB ID,17281565.17
Nodelist,taurusi5540
AVG Runtime of function [s],7.81528
MAX Runtime of function [s],7.81528
MIN Runtime of function [s],7.81528
# COUNTERS - HDEEM: 
AVG Energy consumption [J] (Stats structure),1298.63
MAX Energy consumption [J] (Stats structure),1298.63
MIN Energy consumption [J] (Stats structure),1298.63
SUM Energy consumption [J] (Stats structure),1298.63
# CALLTREE;init_0;Main-PWSCF_0;run-PWSCF_0;run-PWSCF-electrons_function_1;electrons-electrons_scf_function_0;c_bands_function_14
# Job info - HDEEM
JOB ID,17281565.17
Nodelist,taurusi5540
AVG Runtime of function [s],7.84307
MAX Runtime of function [s],7.84307
MIN Runtime of function [s],7.84307
# COUNTERS - HDEEM: 
AVG Energy consumption [J] (Stats structure),1303.32
MAX Energy consumption [J] (Stats structure),1303.32
MIN Energy consumption [J] (Stats structure),1303.32
SUM Energy consumption [J] (Stats structure),1303.32
# CALLTREE;init_0;Main-PWSCF_0;run-PWSCF_0;run-PWSCF-electrons_function_1;electrons-electrons_scf_function_0;c_bands_function_14
# Job info - HDEEM
JOB ID,17281565.17
Nodelist,taurusi5540
AVG Runtime of function [s],8.11845
MAX Runtime of function [s],8.11845
MIN Runtime of function [s],8.11845
# COUNTERS - HDEEM: 
AVG Energy consumption [J] (Stats structure),1349.23
MAX Energy consumption [J] (Stats structure),1349.23
MIN Energy consumption [J] (Stats structure),1349.23
SUM Energy consumption [J] (Stats structure),1349.23
# CALLTREE;init_0;Main-PWSCF_0;run-PWSCF_0;run-PWSCF-electrons_function_1;electrons-electrons_scf_function_0;c_bands_function_15
# Job info - HDEEM
JOB ID,17281565.17
Nodelist,taurusi5540
AVG Runtime of function [s],7.91803
MAX Runtime of function [s],7.91803
MIN Runtime of function [s],7.91803
# COUNTERS - HDEEM: 
AVG Energy consumption [J] (Stats structure),1314.99
MAX Energy consumption [J] (Stats structure),1314.99
MIN Energy consumption [J] (Stats structure),1314.99
SUM Energy consumption [J] (Stats structure),1314.99
# CALLTREE;init_0;Main-PWSCF_0;run-PWSCF_0;run-PWSCF-electrons_function_1;electrons-electrons_scf_function_0;c_bands_function_15
# Job info - HDEEM
JOB ID,17281565.17
Nodelist,taurusi5540
AVG Runtime of function [s],7.93435
MAX Runtime of function [s],7.93435
MIN Runtime of function [s],7.93435
# COUNTERS - HDEEM: 
AVG Energy consumption [J] (Stats structure),1317.41
MAX Energy consumption [J] (Stats structure),1317.41
MIN Energy consumption [J] (Stats structure),1317.41
SUM Energy consumption [J] (Stats structure),1317.41
# CALLTREE;init_0;Main-PWSCF_0;run-PWSCF_0;run-PWSCF-electrons_function_1;electrons-electrons_scf_function_0;c_bands_function_15
# Job info - HDEEM
JOB ID,17281565.17
Nodelist,taurusi5540
AVG Runtime of function [s],7.85384
MAX Runtime of function [s],7.85384
MIN Runtime of function [s],7.85384
# COUNTERS - HDEEM: 
AVG Energy consumption [J] (Stats structure),1305.17
MAX Energy consumption [J] (Stats structure),1305.17
MIN Energy consumption [J] (Stats structure),1305.17
SUM Energy consumption [J] (Stats structure),1305.17
# CALLTREE;init_0;Main-PWSCF_0;run-PWSCF_0;run-PWSCF-electrons_function_1;electrons-electrons_scf_function_0;c_bands_function_15
# Job info - HDEEM
JOB ID,17281565.17
Nodelist,taurusi5540
AVG Runtime of function [s],7.85742
MAX Runtime of function [s],7.85742
MIN Runtime of function [s],7.85742
# COUNTERS - HDEEM: 
AVG Energy consumption [J] (Stats structure),1305.85
MAX Energy consumption [J] (Stats structure),1305.85
MIN Energy consumption [J] (Stats structure),1305.85
SUM Energy consumption [J] (Stats structure),1305.85
