# CALLTREE;init_0;Main-PWSCF_0;run-PWSCF_0;run-PWSCF-electrons_function_1;electrons-electrons_scf_function_0
# Job info - HDEEM
JOB ID,17280379.4
Nodelist,taurusi5525
AVG Runtime of function [s],0.0104109
MAX Runtime of function [s],0.0104109
MIN Runtime of function [s],0.0104109
# COUNTERS - HDEEM: 
AVG Energy consumption [J] (Stats structure),1.532
MAX Energy consumption [J] (Stats structure),1.532
MIN Energy consumption [J] (Stats structure),1.532
SUM Energy consumption [J] (Stats structure),1.532
# CALLTREE;init_0;Main-PWSCF_0;run-PWSCF_0;run-PWSCF-electrons_function_1;electrons-electrons_scf_function_0
# Job info - HDEEM
JOB ID,17280379.4
Nodelist,taurusi5525
AVG Runtime of function [s],0.555154
MAX Runtime of function [s],0.555154
MIN Runtime of function [s],0.555154
# COUNTERS - HDEEM: 
AVG Energy consumption [J] (Stats structure),58.412
MAX Energy consumption [J] (Stats structure),58.412
MIN Energy consumption [J] (Stats structure),58.412
SUM Energy consumption [J] (Stats structure),58.412
# CALLTREE;init_0;Main-PWSCF_0;run-PWSCF_0;run-PWSCF-electrons_function_1;electrons-electrons_scf_function_0
# Job info - HDEEM
JOB ID,17280379.4
Nodelist,taurusi5525
AVG Runtime of function [s],0.572527
MAX Runtime of function [s],0.572527
MIN Runtime of function [s],0.572527
# COUNTERS - HDEEM: 
AVG Energy consumption [J] (Stats structure),60.352
MAX Energy consumption [J] (Stats structure),60.352
MIN Energy consumption [J] (Stats structure),60.352
SUM Energy consumption [J] (Stats structure),60.352
# CALLTREE;init_0;Main-PWSCF_0;run-PWSCF_0;run-PWSCF-electrons_function_1;electrons-electrons_scf_function_0
# Job info - HDEEM
JOB ID,17280379.4
Nodelist,taurusi5525
AVG Runtime of function [s],0.579669
MAX Runtime of function [s],0.579669
MIN Runtime of function [s],0.579669
# COUNTERS - HDEEM: 
AVG Energy consumption [J] (Stats structure),61.063
MAX Energy consumption [J] (Stats structure),61.063
MIN Energy consumption [J] (Stats structure),61.063
SUM Energy consumption [J] (Stats structure),61.063
# CALLTREE;init_0;Main-PWSCF_0;run-PWSCF_0;run-PWSCF-electrons_function_1;electrons-electrons_scf_function_0
# Job info - HDEEM
JOB ID,17280379.4
Nodelist,taurusi5525
AVG Runtime of function [s],0.588903
MAX Runtime of function [s],0.588903
MIN Runtime of function [s],0.588903
# COUNTERS - HDEEM: 
AVG Energy consumption [J] (Stats structure),62.154
MAX Energy consumption [J] (Stats structure),62.154
MIN Energy consumption [J] (Stats structure),62.154
SUM Energy consumption [J] (Stats structure),62.154
# CALLTREE;init_0;Main-PWSCF_0;run-PWSCF_0;run-PWSCF-electrons_function_1;electrons-electrons_scf_function_0
# Job info - HDEEM
JOB ID,17280379.4
Nodelist,taurusi5525
AVG Runtime of function [s],0.601122
MAX Runtime of function [s],0.601122
MIN Runtime of function [s],0.601122
# COUNTERS - HDEEM: 
AVG Energy consumption [J] (Stats structure),63.428
MAX Energy consumption [J] (Stats structure),63.428
MIN Energy consumption [J] (Stats structure),63.428
SUM Energy consumption [J] (Stats structure),63.428
# CALLTREE;init_0;Main-PWSCF_0;run-PWSCF_0;run-PWSCF-electrons_function_1;electrons-electrons_scf_function_0
# Job info - HDEEM
JOB ID,17280379.4
Nodelist,taurusi5525
AVG Runtime of function [s],0.61412
MAX Runtime of function [s],0.61412
MIN Runtime of function [s],0.61412
# COUNTERS - HDEEM: 
AVG Energy consumption [J] (Stats structure),64.713
MAX Energy consumption [J] (Stats structure),64.713
MIN Energy consumption [J] (Stats structure),64.713
SUM Energy consumption [J] (Stats structure),64.713
# CALLTREE;init_0;Main-PWSCF_0;run-PWSCF_0;run-PWSCF-electrons_function_1;electrons-electrons_scf_function_0
# Job info - HDEEM
JOB ID,17280379.4
Nodelist,taurusi5525
AVG Runtime of function [s],0.626427
MAX Runtime of function [s],0.626427
MIN Runtime of function [s],0.626427
# COUNTERS - HDEEM: 
AVG Energy consumption [J] (Stats structure),65.993
MAX Energy consumption [J] (Stats structure),65.993
MIN Energy consumption [J] (Stats structure),65.993
SUM Energy consumption [J] (Stats structure),65.993
# CALLTREE;init_0;Main-PWSCF_0;run-PWSCF_0;run-PWSCF-electrons_function_1;electrons-electrons_scf_function_0
# Job info - HDEEM
JOB ID,17280379.4
Nodelist,taurusi5525
AVG Runtime of function [s],0.640574
MAX Runtime of function [s],0.640574
MIN Runtime of function [s],0.640574
# COUNTERS - HDEEM: 
AVG Energy consumption [J] (Stats structure),67.582
MAX Energy consumption [J] (Stats structure),67.582
MIN Energy consumption [J] (Stats structure),67.582
SUM Energy consumption [J] (Stats structure),67.582
# CALLTREE;init_0;Main-PWSCF_0;run-PWSCF_0;run-PWSCF-electrons_function_1;electrons-electrons_scf_function_0
# Job info - HDEEM
JOB ID,17280379.4
Nodelist,taurusi5525
AVG Runtime of function [s],0.658394
MAX Runtime of function [s],0.658394
MIN Runtime of function [s],0.658394
# COUNTERS - HDEEM: 
AVG Energy consumption [J] (Stats structure),69.497
MAX Energy consumption [J] (Stats structure),69.497
MIN Energy consumption [J] (Stats structure),69.497
SUM Energy consumption [J] (Stats structure),69.497
# CALLTREE;init_0;Main-PWSCF_0;run-PWSCF_0;run-PWSCF-electrons_function_1;electrons-electrons_scf_function_0
# Job info - HDEEM
JOB ID,17280379.4
Nodelist,taurusi5525
AVG Runtime of function [s],0.657089
MAX Runtime of function [s],0.657089
MIN Runtime of function [s],0.657089
# COUNTERS - HDEEM: 
AVG Energy consumption [J] (Stats structure),69.267
MAX Energy consumption [J] (Stats structure),69.267
MIN Energy consumption [J] (Stats structure),69.267
SUM Energy consumption [J] (Stats structure),69.267
# CALLTREE;init_0;Main-PWSCF_0;run-PWSCF_0;run-PWSCF-electrons_function_1;electrons-electrons_scf_function_0
# Job info - HDEEM
JOB ID,17280379.4
Nodelist,taurusi5525
AVG Runtime of function [s],0.654163
MAX Runtime of function [s],0.654163
MIN Runtime of function [s],0.654163
# COUNTERS - HDEEM: 
AVG Energy consumption [J] (Stats structure),68.931
MAX Energy consumption [J] (Stats structure),68.931
MIN Energy consumption [J] (Stats structure),68.931
SUM Energy consumption [J] (Stats structure),68.931
# CALLTREE;init_0;Main-PWSCF_0;run-PWSCF_0;run-PWSCF-electrons_function_1;electrons-electrons_scf_function_0
# Job info - HDEEM
JOB ID,17280379.4
Nodelist,taurusi5525
AVG Runtime of function [s],0.653332
MAX Runtime of function [s],0.653332
MIN Runtime of function [s],0.653332
# COUNTERS - HDEEM: 
AVG Energy consumption [J] (Stats structure),68.965
MAX Energy consumption [J] (Stats structure),68.965
MIN Energy consumption [J] (Stats structure),68.965
SUM Energy consumption [J] (Stats structure),68.965
# CALLTREE;init_0;Main-PWSCF_0;run-PWSCF_0;run-PWSCF-electrons_function_1;electrons-electrons_scf_function_0
# Job info - HDEEM
JOB ID,17280379.4
Nodelist,taurusi5525
AVG Runtime of function [s],0.657235
MAX Runtime of function [s],0.657235
MIN Runtime of function [s],0.657235
# COUNTERS - HDEEM: 
AVG Energy consumption [J] (Stats structure),69.406
MAX Energy consumption [J] (Stats structure),69.406
MIN Energy consumption [J] (Stats structure),69.406
SUM Energy consumption [J] (Stats structure),69.406
# CALLTREE;init_0;Main-PWSCF_0;run-PWSCF_0;run-PWSCF-electrons_function_1;electrons-electrons_scf_function_0
# Job info - HDEEM
JOB ID,17280379.4
Nodelist,taurusi5525
AVG Runtime of function [s],0.010473
MAX Runtime of function [s],0.010473
MIN Runtime of function [s],0.010473
# COUNTERS - HDEEM: 
AVG Energy consumption [J] (Stats structure),1.57
MAX Energy consumption [J] (Stats structure),1.57
MIN Energy consumption [J] (Stats structure),1.57
SUM Energy consumption [J] (Stats structure),1.57
