# CALLTREE;init_0;Main-PWSCF_0;run-PWSCF_0;run-PWSCF-electrons_function_1;electrons-electrons_scf_function_0
# Job info - HDEEM
JOB ID,17280379.12
Nodelist,taurusi5525
AVG Runtime of function [s],0.0119873
MAX Runtime of function [s],0.0119873
MIN Runtime of function [s],0.0119873
# COUNTERS - HDEEM: 
AVG Energy consumption [J] (Stats structure),1.818
MAX Energy consumption [J] (Stats structure),1.818
MIN Energy consumption [J] (Stats structure),1.818
SUM Energy consumption [J] (Stats structure),1.818
# CALLTREE;init_0;Main-PWSCF_0;run-PWSCF_0;run-PWSCF-electrons_function_1;electrons-electrons_scf_function_0
# Job info - HDEEM
JOB ID,17280379.12
Nodelist,taurusi5525
AVG Runtime of function [s],0.59849
MAX Runtime of function [s],0.59849
MIN Runtime of function [s],0.59849
# COUNTERS - HDEEM: 
AVG Energy consumption [J] (Stats structure),68.265
MAX Energy consumption [J] (Stats structure),68.265
MIN Energy consumption [J] (Stats structure),68.265
SUM Energy consumption [J] (Stats structure),68.265
# CALLTREE;init_0;Main-PWSCF_0;run-PWSCF_0;run-PWSCF-electrons_function_1;electrons-electrons_scf_function_0
# Job info - HDEEM
JOB ID,17280379.12
Nodelist,taurusi5525
AVG Runtime of function [s],0.60917
MAX Runtime of function [s],0.60917
MIN Runtime of function [s],0.60917
# COUNTERS - HDEEM: 
AVG Energy consumption [J] (Stats structure),69.704
MAX Energy consumption [J] (Stats structure),69.704
MIN Energy consumption [J] (Stats structure),69.704
SUM Energy consumption [J] (Stats structure),69.704
# CALLTREE;init_0;Main-PWSCF_0;run-PWSCF_0;run-PWSCF-electrons_function_1;electrons-electrons_scf_function_0
# Job info - HDEEM
JOB ID,17280379.12
Nodelist,taurusi5525
AVG Runtime of function [s],0.620021
MAX Runtime of function [s],0.620021
MIN Runtime of function [s],0.620021
# COUNTERS - HDEEM: 
AVG Energy consumption [J] (Stats structure),70.84
MAX Energy consumption [J] (Stats structure),70.84
MIN Energy consumption [J] (Stats structure),70.84
SUM Energy consumption [J] (Stats structure),70.84
# CALLTREE;init_0;Main-PWSCF_0;run-PWSCF_0;run-PWSCF-electrons_function_1;electrons-electrons_scf_function_0
# Job info - HDEEM
JOB ID,17280379.12
Nodelist,taurusi5525
AVG Runtime of function [s],0.630402
MAX Runtime of function [s],0.630402
MIN Runtime of function [s],0.630402
# COUNTERS - HDEEM: 
AVG Energy consumption [J] (Stats structure),72.111
MAX Energy consumption [J] (Stats structure),72.111
MIN Energy consumption [J] (Stats structure),72.111
SUM Energy consumption [J] (Stats structure),72.111
# CALLTREE;init_0;Main-PWSCF_0;run-PWSCF_0;run-PWSCF-electrons_function_1;electrons-electrons_scf_function_0
# Job info - HDEEM
JOB ID,17280379.12
Nodelist,taurusi5525
AVG Runtime of function [s],0.643345
MAX Runtime of function [s],0.643345
MIN Runtime of function [s],0.643345
# COUNTERS - HDEEM: 
AVG Energy consumption [J] (Stats structure),80.664
MAX Energy consumption [J] (Stats structure),80.664
MIN Energy consumption [J] (Stats structure),80.664
SUM Energy consumption [J] (Stats structure),80.664
# CALLTREE;init_0;Main-PWSCF_0;run-PWSCF_0;run-PWSCF-electrons_function_1;electrons-electrons_scf_function_0
# Job info - HDEEM
JOB ID,17280379.12
Nodelist,taurusi5525
AVG Runtime of function [s],0.656812
MAX Runtime of function [s],0.656812
MIN Runtime of function [s],0.656812
# COUNTERS - HDEEM: 
AVG Energy consumption [J] (Stats structure),75.072
MAX Energy consumption [J] (Stats structure),75.072
MIN Energy consumption [J] (Stats structure),75.072
SUM Energy consumption [J] (Stats structure),75.072
# CALLTREE;init_0;Main-PWSCF_0;run-PWSCF_0;run-PWSCF-electrons_function_1;electrons-electrons_scf_function_0
# Job info - HDEEM
JOB ID,17280379.12
Nodelist,taurusi5525
AVG Runtime of function [s],0.672523
MAX Runtime of function [s],0.672523
MIN Runtime of function [s],0.672523
# COUNTERS - HDEEM: 
AVG Energy consumption [J] (Stats structure),76.836
MAX Energy consumption [J] (Stats structure),76.836
MIN Energy consumption [J] (Stats structure),76.836
SUM Energy consumption [J] (Stats structure),76.836
# CALLTREE;init_0;Main-PWSCF_0;run-PWSCF_0;run-PWSCF-electrons_function_1;electrons-electrons_scf_function_0
# Job info - HDEEM
JOB ID,17280379.12
Nodelist,taurusi5525
AVG Runtime of function [s],0.684685
MAX Runtime of function [s],0.684685
MIN Runtime of function [s],0.684685
# COUNTERS - HDEEM: 
AVG Energy consumption [J] (Stats structure),80.934
MAX Energy consumption [J] (Stats structure),80.934
MIN Energy consumption [J] (Stats structure),80.934
SUM Energy consumption [J] (Stats structure),80.934
# CALLTREE;init_0;Main-PWSCF_0;run-PWSCF_0;run-PWSCF-electrons_function_1;electrons-electrons_scf_function_0
# Job info - HDEEM
JOB ID,17280379.12
Nodelist,taurusi5525
AVG Runtime of function [s],0.704268
MAX Runtime of function [s],0.704268
MIN Runtime of function [s],0.704268
# COUNTERS - HDEEM: 
AVG Energy consumption [J] (Stats structure),80.671
MAX Energy consumption [J] (Stats structure),80.671
MIN Energy consumption [J] (Stats structure),80.671
SUM Energy consumption [J] (Stats structure),80.671
# CALLTREE;init_0;Main-PWSCF_0;run-PWSCF_0;run-PWSCF-electrons_function_1;electrons-electrons_scf_function_0
# Job info - HDEEM
JOB ID,17280379.12
Nodelist,taurusi5525
AVG Runtime of function [s],0.701201
MAX Runtime of function [s],0.701201
MIN Runtime of function [s],0.701201
# COUNTERS - HDEEM: 
AVG Energy consumption [J] (Stats structure),80.334
MAX Energy consumption [J] (Stats structure),80.334
MIN Energy consumption [J] (Stats structure),80.334
SUM Energy consumption [J] (Stats structure),80.334
# CALLTREE;init_0;Main-PWSCF_0;run-PWSCF_0;run-PWSCF-electrons_function_1;electrons-electrons_scf_function_0
# Job info - HDEEM
JOB ID,17280379.12
Nodelist,taurusi5525
AVG Runtime of function [s],0.697841
MAX Runtime of function [s],0.697841
MIN Runtime of function [s],0.697841
# COUNTERS - HDEEM: 
AVG Energy consumption [J] (Stats structure),79.854
MAX Energy consumption [J] (Stats structure),79.854
MIN Energy consumption [J] (Stats structure),79.854
SUM Energy consumption [J] (Stats structure),79.854
# CALLTREE;init_0;Main-PWSCF_0;run-PWSCF_0;run-PWSCF-electrons_function_1;electrons-electrons_scf_function_0
# Job info - HDEEM
JOB ID,17280379.12
Nodelist,taurusi5525
AVG Runtime of function [s],0.697529
MAX Runtime of function [s],0.697529
MIN Runtime of function [s],0.697529
# COUNTERS - HDEEM: 
AVG Energy consumption [J] (Stats structure),79.872
MAX Energy consumption [J] (Stats structure),79.872
MIN Energy consumption [J] (Stats structure),79.872
SUM Energy consumption [J] (Stats structure),79.872
# CALLTREE;init_0;Main-PWSCF_0;run-PWSCF_0;run-PWSCF-electrons_function_1;electrons-electrons_scf_function_0
# Job info - HDEEM
JOB ID,17280379.12
Nodelist,taurusi5525
AVG Runtime of function [s],0.700331
MAX Runtime of function [s],0.700331
MIN Runtime of function [s],0.700331
# COUNTERS - HDEEM: 
AVG Energy consumption [J] (Stats structure),80.206
MAX Energy consumption [J] (Stats structure),80.206
MIN Energy consumption [J] (Stats structure),80.206
SUM Energy consumption [J] (Stats structure),80.206
# CALLTREE;init_0;Main-PWSCF_0;run-PWSCF_0;run-PWSCF-electrons_function_1;electrons-electrons_scf_function_0
# Job info - HDEEM
JOB ID,17280379.12
Nodelist,taurusi5525
AVG Runtime of function [s],0.0119306
MAX Runtime of function [s],0.0119306
MIN Runtime of function [s],0.0119306
# COUNTERS - HDEEM: 
AVG Energy consumption [J] (Stats structure),1.822
MAX Energy consumption [J] (Stats structure),1.822
MIN Energy consumption [J] (Stats structure),1.822
SUM Energy consumption [J] (Stats structure),1.822
