# CALLTREE;init_0;Main-PWSCF_0;run-PWSCF_0;run-PWSCF-electrons_function_1;electrons-electrons_scf_function_0;c_bands_function_0;diag_bands_k_function_0
# Job info - HDEEM
JOB ID,17280379.15
Nodelist,taurusi5525
AVG Runtime of function [s],75.9338
MAX Runtime of function [s],75.9338
MIN Runtime of function [s],75.9338
# COUNTERS - HDEEM: 
AVG Energy consumption [J] (Stats structure),10046.5
MAX Energy consumption [J] (Stats structure),10046.5
MIN Energy consumption [J] (Stats structure),10046.5
SUM Energy consumption [J] (Stats structure),10046.5
# CALLTREE;init_0;Main-PWSCF_0;run-PWSCF_0;run-PWSCF-electrons_function_1;electrons-electrons_scf_function_0;c_bands_function_0;diag_bands_k_function_1
# Job info - HDEEM
JOB ID,17280379.15
Nodelist,taurusi5525
AVG Runtime of function [s],78.4321
MAX Runtime of function [s],78.4321
MIN Runtime of function [s],78.4321
# COUNTERS - HDEEM: 
AVG Energy consumption [J] (Stats structure),10378.4
MAX Energy consumption [J] (Stats structure),10378.4
MIN Energy consumption [J] (Stats structure),10378.4
SUM Energy consumption [J] (Stats structure),10378.4
# CALLTREE;init_0;Main-PWSCF_0;run-PWSCF_0;run-PWSCF-electrons_function_1;electrons-electrons_scf_function_0;c_bands_function_0;diag_bands_k_function_2
# Job info - HDEEM
JOB ID,17280379.15
Nodelist,taurusi5525
AVG Runtime of function [s],79.4347
MAX Runtime of function [s],79.4347
MIN Runtime of function [s],79.4347
# COUNTERS - HDEEM: 
AVG Energy consumption [J] (Stats structure),10519.2
MAX Energy consumption [J] (Stats structure),10519.2
MIN Energy consumption [J] (Stats structure),10519.2
SUM Energy consumption [J] (Stats structure),10519.2
# CALLTREE;init_0;Main-PWSCF_0;run-PWSCF_0;run-PWSCF-electrons_function_1;electrons-electrons_scf_function_0;c_bands_function_0;diag_bands_k_function_3
# Job info - HDEEM
JOB ID,17280379.15
Nodelist,taurusi5525
AVG Runtime of function [s],79.2938
MAX Runtime of function [s],79.2938
MIN Runtime of function [s],79.2938
# COUNTERS - HDEEM: 
AVG Energy consumption [J] (Stats structure),10483.8
MAX Energy consumption [J] (Stats structure),10483.8
MIN Energy consumption [J] (Stats structure),10483.8
SUM Energy consumption [J] (Stats structure),10483.8
# CALLTREE;init_0;Main-PWSCF_0;run-PWSCF_0;run-PWSCF-electrons_function_1;electrons-electrons_scf_function_0;c_bands_function_1;diag_bands_k_function_0
# Job info - HDEEM
JOB ID,17280379.15
Nodelist,taurusi5525
AVG Runtime of function [s],50.9902
MAX Runtime of function [s],50.9902
MIN Runtime of function [s],50.9902
# COUNTERS - HDEEM: 
AVG Energy consumption [J] (Stats structure),6746.03
MAX Energy consumption [J] (Stats structure),6746.03
MIN Energy consumption [J] (Stats structure),6746.03
SUM Energy consumption [J] (Stats structure),6746.03
# CALLTREE;init_0;Main-PWSCF_0;run-PWSCF_0;run-PWSCF-electrons_function_1;electrons-electrons_scf_function_0;c_bands_function_1;diag_bands_k_function_1
# Job info - HDEEM
JOB ID,17280379.15
Nodelist,taurusi5525
AVG Runtime of function [s],49.7872
MAX Runtime of function [s],49.7872
MIN Runtime of function [s],49.7872
# COUNTERS - HDEEM: 
AVG Energy consumption [J] (Stats structure),6585.62
MAX Energy consumption [J] (Stats structure),6585.62
MIN Energy consumption [J] (Stats structure),6585.62
SUM Energy consumption [J] (Stats structure),6585.62
# CALLTREE;init_0;Main-PWSCF_0;run-PWSCF_0;run-PWSCF-electrons_function_1;electrons-electrons_scf_function_0;c_bands_function_1;diag_bands_k_function_2
# Job info - HDEEM
JOB ID,17280379.15
Nodelist,taurusi5525
AVG Runtime of function [s],49.1505
MAX Runtime of function [s],49.1505
MIN Runtime of function [s],49.1505
# COUNTERS - HDEEM: 
AVG Energy consumption [J] (Stats structure),6504.02
MAX Energy consumption [J] (Stats structure),6504.02
MIN Energy consumption [J] (Stats structure),6504.02
SUM Energy consumption [J] (Stats structure),6504.02
# CALLTREE;init_0;Main-PWSCF_0;run-PWSCF_0;run-PWSCF-electrons_function_1;electrons-electrons_scf_function_0;c_bands_function_1;diag_bands_k_function_3
# Job info - HDEEM
JOB ID,17280379.15
Nodelist,taurusi5525
AVG Runtime of function [s],49.1458
MAX Runtime of function [s],49.1458
MIN Runtime of function [s],49.1458
# COUNTERS - HDEEM: 
AVG Energy consumption [J] (Stats structure),6508.39
MAX Energy consumption [J] (Stats structure),6508.39
MIN Energy consumption [J] (Stats structure),6508.39
SUM Energy consumption [J] (Stats structure),6508.39
# CALLTREE;init_0;Main-PWSCF_0;run-PWSCF_0;run-PWSCF-electrons_function_1;electrons-electrons_scf_function_0;c_bands_function_2;diag_bands_k_function_0
# Job info - HDEEM
JOB ID,17280379.15
Nodelist,taurusi5525
AVG Runtime of function [s],49.2283
MAX Runtime of function [s],49.2283
MIN Runtime of function [s],49.2283
# COUNTERS - HDEEM: 
AVG Energy consumption [J] (Stats structure),6514.79
MAX Energy consumption [J] (Stats structure),6514.79
MIN Energy consumption [J] (Stats structure),6514.79
SUM Energy consumption [J] (Stats structure),6514.79
# CALLTREE;init_0;Main-PWSCF_0;run-PWSCF_0;run-PWSCF-electrons_function_1;electrons-electrons_scf_function_0;c_bands_function_2;diag_bands_k_function_1
# Job info - HDEEM
JOB ID,17280379.15
Nodelist,taurusi5525
AVG Runtime of function [s],49.1369
MAX Runtime of function [s],49.1369
MIN Runtime of function [s],49.1369
# COUNTERS - HDEEM: 
AVG Energy consumption [J] (Stats structure),6499.24
MAX Energy consumption [J] (Stats structure),6499.24
MIN Energy consumption [J] (Stats structure),6499.24
SUM Energy consumption [J] (Stats structure),6499.24
# CALLTREE;init_0;Main-PWSCF_0;run-PWSCF_0;run-PWSCF-electrons_function_1;electrons-electrons_scf_function_0;c_bands_function_2;diag_bands_k_function_2
# Job info - HDEEM
JOB ID,17280379.15
Nodelist,taurusi5525
AVG Runtime of function [s],49.1859
MAX Runtime of function [s],49.1859
MIN Runtime of function [s],49.1859
# COUNTERS - HDEEM: 
AVG Energy consumption [J] (Stats structure),6511.5
MAX Energy consumption [J] (Stats structure),6511.5
MIN Energy consumption [J] (Stats structure),6511.5
SUM Energy consumption [J] (Stats structure),6511.5
# CALLTREE;init_0;Main-PWSCF_0;run-PWSCF_0;run-PWSCF-electrons_function_1;electrons-electrons_scf_function_0;c_bands_function_2;diag_bands_k_function_3
# Job info - HDEEM
JOB ID,17280379.15
Nodelist,taurusi5525
AVG Runtime of function [s],49.1646
MAX Runtime of function [s],49.1646
MIN Runtime of function [s],49.1646
# COUNTERS - HDEEM: 
AVG Energy consumption [J] (Stats structure),6501.89
MAX Energy consumption [J] (Stats structure),6501.89
MIN Energy consumption [J] (Stats structure),6501.89
SUM Energy consumption [J] (Stats structure),6501.89
# CALLTREE;init_0;Main-PWSCF_0;run-PWSCF_0;run-PWSCF-electrons_function_1;electrons-electrons_scf_function_0;c_bands_function_3;diag_bands_k_function_0
# Job info - HDEEM
JOB ID,17280379.15
Nodelist,taurusi5525
AVG Runtime of function [s],80.2572
MAX Runtime of function [s],80.2572
MIN Runtime of function [s],80.2572
# COUNTERS - HDEEM: 
AVG Energy consumption [J] (Stats structure),10647.5
MAX Energy consumption [J] (Stats structure),10647.5
MIN Energy consumption [J] (Stats structure),10647.5
SUM Energy consumption [J] (Stats structure),10647.5
# CALLTREE;init_0;Main-PWSCF_0;run-PWSCF_0;run-PWSCF-electrons_function_1;electrons-electrons_scf_function_0;c_bands_function_3;diag_bands_k_function_1
# Job info - HDEEM
JOB ID,17280379.15
Nodelist,taurusi5525
AVG Runtime of function [s],89.7642
MAX Runtime of function [s],89.7642
MIN Runtime of function [s],89.7642
# COUNTERS - HDEEM: 
AVG Energy consumption [J] (Stats structure),11921.6
MAX Energy consumption [J] (Stats structure),11921.6
MIN Energy consumption [J] (Stats structure),11921.6
SUM Energy consumption [J] (Stats structure),11921.6
# CALLTREE;init_0;Main-PWSCF_0;run-PWSCF_0;run-PWSCF-electrons_function_1;electrons-electrons_scf_function_0;c_bands_function_3;diag_bands_k_function_2
# Job info - HDEEM
JOB ID,17280379.15
Nodelist,taurusi5525
AVG Runtime of function [s],92.5644
MAX Runtime of function [s],92.5644
MIN Runtime of function [s],92.5644
# COUNTERS - HDEEM: 
AVG Energy consumption [J] (Stats structure),12261.7
MAX Energy consumption [J] (Stats structure),12261.7
MIN Energy consumption [J] (Stats structure),12261.7
SUM Energy consumption [J] (Stats structure),12261.7
# CALLTREE;init_0;Main-PWSCF_0;run-PWSCF_0;run-PWSCF-electrons_function_1;electrons-electrons_scf_function_0;c_bands_function_3;diag_bands_k_function_3
# Job info - HDEEM
JOB ID,17280379.15
Nodelist,taurusi5525
AVG Runtime of function [s],92.1417
MAX Runtime of function [s],92.1417
MIN Runtime of function [s],92.1417
# COUNTERS - HDEEM: 
AVG Energy consumption [J] (Stats structure),12192.3
MAX Energy consumption [J] (Stats structure),12192.3
MIN Energy consumption [J] (Stats structure),12192.3
SUM Energy consumption [J] (Stats structure),12192.3
# CALLTREE;init_0;Main-PWSCF_0;run-PWSCF_0;run-PWSCF-electrons_function_1;electrons-electrons_scf_function_0;c_bands_function_4;diag_bands_k_function_0
# Job info - HDEEM
JOB ID,17280379.15
Nodelist,taurusi5525
AVG Runtime of function [s],87.4599
MAX Runtime of function [s],87.4599
MIN Runtime of function [s],87.4599
# COUNTERS - HDEEM: 
AVG Energy consumption [J] (Stats structure),11574.2
MAX Energy consumption [J] (Stats structure),11574.2
MIN Energy consumption [J] (Stats structure),11574.2
SUM Energy consumption [J] (Stats structure),11574.2
# CALLTREE;init_0;Main-PWSCF_0;run-PWSCF_0;run-PWSCF-electrons_function_1;electrons-electrons_scf_function_0;c_bands_function_4;diag_bands_k_function_1
# Job info - HDEEM
JOB ID,17280379.15
Nodelist,taurusi5525
AVG Runtime of function [s],90.5744
MAX Runtime of function [s],90.5744
MIN Runtime of function [s],90.5744
# COUNTERS - HDEEM: 
AVG Energy consumption [J] (Stats structure),11996
MAX Energy consumption [J] (Stats structure),11996
MIN Energy consumption [J] (Stats structure),11996
SUM Energy consumption [J] (Stats structure),11996
# CALLTREE;init_0;Main-PWSCF_0;run-PWSCF_0;run-PWSCF-electrons_function_1;electrons-electrons_scf_function_0;c_bands_function_4;diag_bands_k_function_2
# Job info - HDEEM
JOB ID,17280379.15
Nodelist,taurusi5525
AVG Runtime of function [s],93.5586
MAX Runtime of function [s],93.5586
MIN Runtime of function [s],93.5586
# COUNTERS - HDEEM: 
AVG Energy consumption [J] (Stats structure),12391.3
MAX Energy consumption [J] (Stats structure),12391.3
MIN Energy consumption [J] (Stats structure),12391.3
SUM Energy consumption [J] (Stats structure),12391.3
# CALLTREE;init_0;Main-PWSCF_0;run-PWSCF_0;run-PWSCF-electrons_function_1;electrons-electrons_scf_function_0;c_bands_function_4;diag_bands_k_function_3
# Job info - HDEEM
JOB ID,17280379.15
Nodelist,taurusi5525
AVG Runtime of function [s],80.2034
MAX Runtime of function [s],80.2034
MIN Runtime of function [s],80.2034
# COUNTERS - HDEEM: 
AVG Energy consumption [J] (Stats structure),10619
MAX Energy consumption [J] (Stats structure),10619
MIN Energy consumption [J] (Stats structure),10619
SUM Energy consumption [J] (Stats structure),10619
# CALLTREE;init_0;Main-PWSCF_0;run-PWSCF_0;run-PWSCF-electrons_function_1;electrons-electrons_scf_function_0;c_bands_function_5;diag_bands_k_function_0
# Job info - HDEEM
JOB ID,17280379.15
Nodelist,taurusi5525
AVG Runtime of function [s],66.8985
MAX Runtime of function [s],66.8985
MIN Runtime of function [s],66.8985
# COUNTERS - HDEEM: 
AVG Energy consumption [J] (Stats structure),8842.91
MAX Energy consumption [J] (Stats structure),8842.91
MIN Energy consumption [J] (Stats structure),8842.91
SUM Energy consumption [J] (Stats structure),8842.91
# CALLTREE;init_0;Main-PWSCF_0;run-PWSCF_0;run-PWSCF-electrons_function_1;electrons-electrons_scf_function_0;c_bands_function_5;diag_bands_k_function_1
# Job info - HDEEM
JOB ID,17280379.15
Nodelist,taurusi5525
AVG Runtime of function [s],76.9757
MAX Runtime of function [s],76.9757
MIN Runtime of function [s],76.9757
# COUNTERS - HDEEM: 
AVG Energy consumption [J] (Stats structure),10197.8
MAX Energy consumption [J] (Stats structure),10197.8
MIN Energy consumption [J] (Stats structure),10197.8
SUM Energy consumption [J] (Stats structure),10197.8
# CALLTREE;init_0;Main-PWSCF_0;run-PWSCF_0;run-PWSCF-electrons_function_1;electrons-electrons_scf_function_0;c_bands_function_5;diag_bands_k_function_2
# Job info - HDEEM
JOB ID,17280379.15
Nodelist,taurusi5525
AVG Runtime of function [s],76.2631
MAX Runtime of function [s],76.2631
MIN Runtime of function [s],76.2631
# COUNTERS - HDEEM: 
AVG Energy consumption [J] (Stats structure),10098
MAX Energy consumption [J] (Stats structure),10098
MIN Energy consumption [J] (Stats structure),10098
SUM Energy consumption [J] (Stats structure),10098
# CALLTREE;init_0;Main-PWSCF_0;run-PWSCF_0;run-PWSCF-electrons_function_1;electrons-electrons_scf_function_0;c_bands_function_5;diag_bands_k_function_3
# Job info - HDEEM
JOB ID,17280379.15
Nodelist,taurusi5525
AVG Runtime of function [s],69.1269
MAX Runtime of function [s],69.1269
MIN Runtime of function [s],69.1269
# COUNTERS - HDEEM: 
AVG Energy consumption [J] (Stats structure),9155.05
MAX Energy consumption [J] (Stats structure),9155.05
MIN Energy consumption [J] (Stats structure),9155.05
SUM Energy consumption [J] (Stats structure),9155.05
# CALLTREE;init_0;Main-PWSCF_0;run-PWSCF_0;run-PWSCF-electrons_function_1;electrons-electrons_scf_function_0;c_bands_function_6;diag_bands_k_function_0
# Job info - HDEEM
JOB ID,17280379.15
Nodelist,taurusi5525
AVG Runtime of function [s],64.9394
MAX Runtime of function [s],64.9394
MIN Runtime of function [s],64.9394
# COUNTERS - HDEEM: 
AVG Energy consumption [J] (Stats structure),8600.23
MAX Energy consumption [J] (Stats structure),8600.23
MIN Energy consumption [J] (Stats structure),8600.23
SUM Energy consumption [J] (Stats structure),8600.23
# CALLTREE;init_0;Main-PWSCF_0;run-PWSCF_0;run-PWSCF-electrons_function_1;electrons-electrons_scf_function_0;c_bands_function_6;diag_bands_k_function_1
# Job info - HDEEM
JOB ID,17280379.15
Nodelist,taurusi5525
AVG Runtime of function [s],65.1177
MAX Runtime of function [s],65.1177
MIN Runtime of function [s],65.1177
# COUNTERS - HDEEM: 
AVG Energy consumption [J] (Stats structure),8624.55
MAX Energy consumption [J] (Stats structure),8624.55
MIN Energy consumption [J] (Stats structure),8624.55
SUM Energy consumption [J] (Stats structure),8624.55
# CALLTREE;init_0;Main-PWSCF_0;run-PWSCF_0;run-PWSCF-electrons_function_1;electrons-electrons_scf_function_0;c_bands_function_6;diag_bands_k_function_2
# Job info - HDEEM
JOB ID,17280379.15
Nodelist,taurusi5525
AVG Runtime of function [s],65.9073
MAX Runtime of function [s],65.9073
MIN Runtime of function [s],65.9073
# COUNTERS - HDEEM: 
AVG Energy consumption [J] (Stats structure),8720.73
MAX Energy consumption [J] (Stats structure),8720.73
MIN Energy consumption [J] (Stats structure),8720.73
SUM Energy consumption [J] (Stats structure),8720.73
# CALLTREE;init_0;Main-PWSCF_0;run-PWSCF_0;run-PWSCF-electrons_function_1;electrons-electrons_scf_function_0;c_bands_function_6;diag_bands_k_function_3
# Job info - HDEEM
JOB ID,17280379.15
Nodelist,taurusi5525
AVG Runtime of function [s],65.0585
MAX Runtime of function [s],65.0585
MIN Runtime of function [s],65.0585
# COUNTERS - HDEEM: 
AVG Energy consumption [J] (Stats structure),8605.2
MAX Energy consumption [J] (Stats structure),8605.2
MIN Energy consumption [J] (Stats structure),8605.2
SUM Energy consumption [J] (Stats structure),8605.2
# CALLTREE;init_0;Main-PWSCF_0;run-PWSCF_0;run-PWSCF-electrons_function_1;electrons-electrons_scf_function_0;c_bands_function_7;diag_bands_k_function_0
# Job info - HDEEM
JOB ID,17280379.15
Nodelist,taurusi5525
AVG Runtime of function [s],68.9273
MAX Runtime of function [s],68.9273
MIN Runtime of function [s],68.9273
# COUNTERS - HDEEM: 
AVG Energy consumption [J] (Stats structure),9116.93
MAX Energy consumption [J] (Stats structure),9116.93
MIN Energy consumption [J] (Stats structure),9116.93
SUM Energy consumption [J] (Stats structure),9116.93
# CALLTREE;init_0;Main-PWSCF_0;run-PWSCF_0;run-PWSCF-electrons_function_1;electrons-electrons_scf_function_0;c_bands_function_7;diag_bands_k_function_1
# Job info - HDEEM
JOB ID,17280379.15
Nodelist,taurusi5525
AVG Runtime of function [s],69.8505
MAX Runtime of function [s],69.8505
MIN Runtime of function [s],69.8505
# COUNTERS - HDEEM: 
AVG Energy consumption [J] (Stats structure),9234.77
MAX Energy consumption [J] (Stats structure),9234.77
MIN Energy consumption [J] (Stats structure),9234.77
SUM Energy consumption [J] (Stats structure),9234.77
# CALLTREE;init_0;Main-PWSCF_0;run-PWSCF_0;run-PWSCF-electrons_function_1;electrons-electrons_scf_function_0;c_bands_function_7;diag_bands_k_function_2
# Job info - HDEEM
JOB ID,17280379.15
Nodelist,taurusi5525
AVG Runtime of function [s],70.996
MAX Runtime of function [s],70.996
MIN Runtime of function [s],70.996
# COUNTERS - HDEEM: 
AVG Energy consumption [J] (Stats structure),9387.35
MAX Energy consumption [J] (Stats structure),9387.35
MIN Energy consumption [J] (Stats structure),9387.35
SUM Energy consumption [J] (Stats structure),9387.35
# CALLTREE;init_0;Main-PWSCF_0;run-PWSCF_0;run-PWSCF-electrons_function_1;electrons-electrons_scf_function_0;c_bands_function_7;diag_bands_k_function_3
# Job info - HDEEM
JOB ID,17280379.15
Nodelist,taurusi5525
AVG Runtime of function [s],73.3647
MAX Runtime of function [s],73.3647
MIN Runtime of function [s],73.3647
# COUNTERS - HDEEM: 
AVG Energy consumption [J] (Stats structure),9709
MAX Energy consumption [J] (Stats structure),9709
MIN Energy consumption [J] (Stats structure),9709
SUM Energy consumption [J] (Stats structure),9709
# CALLTREE;init_0;Main-PWSCF_0;run-PWSCF_0;run-PWSCF-electrons_function_1;electrons-electrons_scf_function_0;c_bands_function_8;diag_bands_k_function_0
# Job info - HDEEM
JOB ID,17280379.15
Nodelist,taurusi5525
AVG Runtime of function [s],71.0793
MAX Runtime of function [s],71.0793
MIN Runtime of function [s],71.0793
# COUNTERS - HDEEM: 
AVG Energy consumption [J] (Stats structure),9408.02
MAX Energy consumption [J] (Stats structure),9408.02
MIN Energy consumption [J] (Stats structure),9408.02
SUM Energy consumption [J] (Stats structure),9408.02
# CALLTREE;init_0;Main-PWSCF_0;run-PWSCF_0;run-PWSCF-electrons_function_1;electrons-electrons_scf_function_0;c_bands_function_8;diag_bands_k_function_1
# Job info - HDEEM
JOB ID,17280379.15
Nodelist,taurusi5525
AVG Runtime of function [s],72.0692
MAX Runtime of function [s],72.0692
MIN Runtime of function [s],72.0692
# COUNTERS - HDEEM: 
AVG Energy consumption [J] (Stats structure),9540.03
MAX Energy consumption [J] (Stats structure),9540.03
MIN Energy consumption [J] (Stats structure),9540.03
SUM Energy consumption [J] (Stats structure),9540.03
# CALLTREE;init_0;Main-PWSCF_0;run-PWSCF_0;run-PWSCF-electrons_function_1;electrons-electrons_scf_function_0;c_bands_function_8;diag_bands_k_function_2
# Job info - HDEEM
JOB ID,17280379.15
Nodelist,taurusi5525
AVG Runtime of function [s],71.8463
MAX Runtime of function [s],71.8463
MIN Runtime of function [s],71.8463
# COUNTERS - HDEEM: 
AVG Energy consumption [J] (Stats structure),9508.64
MAX Energy consumption [J] (Stats structure),9508.64
MIN Energy consumption [J] (Stats structure),9508.64
SUM Energy consumption [J] (Stats structure),9508.64
# CALLTREE;init_0;Main-PWSCF_0;run-PWSCF_0;run-PWSCF-electrons_function_1;electrons-electrons_scf_function_0;c_bands_function_8;diag_bands_k_function_3
# Job info - HDEEM
JOB ID,17280379.15
Nodelist,taurusi5525
AVG Runtime of function [s],69.1963
MAX Runtime of function [s],69.1963
MIN Runtime of function [s],69.1963
# COUNTERS - HDEEM: 
AVG Energy consumption [J] (Stats structure),9158.29
MAX Energy consumption [J] (Stats structure),9158.29
MIN Energy consumption [J] (Stats structure),9158.29
SUM Energy consumption [J] (Stats structure),9158.29
# CALLTREE;init_0;Main-PWSCF_0;run-PWSCF_0;run-PWSCF-electrons_function_1;electrons-electrons_scf_function_0;c_bands_function_9;diag_bands_k_function_0
# Job info - HDEEM
JOB ID,17280379.15
Nodelist,taurusi5525
AVG Runtime of function [s],68.0341
MAX Runtime of function [s],68.0341
MIN Runtime of function [s],68.0341
# COUNTERS - HDEEM: 
AVG Energy consumption [J] (Stats structure),9008.22
MAX Energy consumption [J] (Stats structure),9008.22
MIN Energy consumption [J] (Stats structure),9008.22
SUM Energy consumption [J] (Stats structure),9008.22
# CALLTREE;init_0;Main-PWSCF_0;run-PWSCF_0;run-PWSCF-electrons_function_1;electrons-electrons_scf_function_0;c_bands_function_9;diag_bands_k_function_1
# Job info - HDEEM
JOB ID,17280379.15
Nodelist,taurusi5525
AVG Runtime of function [s],68.3643
MAX Runtime of function [s],68.3643
MIN Runtime of function [s],68.3643
# COUNTERS - HDEEM: 
AVG Energy consumption [J] (Stats structure),9050.22
MAX Energy consumption [J] (Stats structure),9050.22
MIN Energy consumption [J] (Stats structure),9050.22
SUM Energy consumption [J] (Stats structure),9050.22
# CALLTREE;init_0;Main-PWSCF_0;run-PWSCF_0;run-PWSCF-electrons_function_1;electrons-electrons_scf_function_0;c_bands_function_9;diag_bands_k_function_2
# Job info - HDEEM
JOB ID,17280379.15
Nodelist,taurusi5525
AVG Runtime of function [s],67.3697
MAX Runtime of function [s],67.3697
MIN Runtime of function [s],67.3697
# COUNTERS - HDEEM: 
AVG Energy consumption [J] (Stats structure),8919.37
MAX Energy consumption [J] (Stats structure),8919.37
MIN Energy consumption [J] (Stats structure),8919.37
SUM Energy consumption [J] (Stats structure),8919.37
# CALLTREE;init_0;Main-PWSCF_0;run-PWSCF_0;run-PWSCF-electrons_function_1;electrons-electrons_scf_function_0;c_bands_function_9;diag_bands_k_function_3
# Job info - HDEEM
JOB ID,17280379.15
Nodelist,taurusi5525
AVG Runtime of function [s],68.2383
MAX Runtime of function [s],68.2383
MIN Runtime of function [s],68.2383
# COUNTERS - HDEEM: 
AVG Energy consumption [J] (Stats structure),9035.84
MAX Energy consumption [J] (Stats structure),9035.84
MIN Energy consumption [J] (Stats structure),9035.84
SUM Energy consumption [J] (Stats structure),9035.84
# CALLTREE;init_0;Main-PWSCF_0;run-PWSCF_0;run-PWSCF-electrons_function_1;electrons-electrons_scf_function_0;c_bands_function_10;diag_bands_k_function_0
# Job info - HDEEM
JOB ID,17280379.15
Nodelist,taurusi5525
AVG Runtime of function [s],66.247
MAX Runtime of function [s],66.247
MIN Runtime of function [s],66.247
# COUNTERS - HDEEM: 
AVG Energy consumption [J] (Stats structure),8772.73
MAX Energy consumption [J] (Stats structure),8772.73
MIN Energy consumption [J] (Stats structure),8772.73
SUM Energy consumption [J] (Stats structure),8772.73
# CALLTREE;init_0;Main-PWSCF_0;run-PWSCF_0;run-PWSCF-electrons_function_1;electrons-electrons_scf_function_0;c_bands_function_10;diag_bands_k_function_1
# Job info - HDEEM
JOB ID,17280379.15
Nodelist,taurusi5525
AVG Runtime of function [s],66.8194
MAX Runtime of function [s],66.8194
MIN Runtime of function [s],66.8194
# COUNTERS - HDEEM: 
AVG Energy consumption [J] (Stats structure),8841.98
MAX Energy consumption [J] (Stats structure),8841.98
MIN Energy consumption [J] (Stats structure),8841.98
SUM Energy consumption [J] (Stats structure),8841.98
# CALLTREE;init_0;Main-PWSCF_0;run-PWSCF_0;run-PWSCF-electrons_function_1;electrons-electrons_scf_function_0;c_bands_function_10;diag_bands_k_function_2
# Job info - HDEEM
JOB ID,17280379.15
Nodelist,taurusi5525
AVG Runtime of function [s],69.4742
MAX Runtime of function [s],69.4742
MIN Runtime of function [s],69.4742
# COUNTERS - HDEEM: 
AVG Energy consumption [J] (Stats structure),9191.12
MAX Energy consumption [J] (Stats structure),9191.12
MIN Energy consumption [J] (Stats structure),9191.12
SUM Energy consumption [J] (Stats structure),9191.12
# CALLTREE;init_0;Main-PWSCF_0;run-PWSCF_0;run-PWSCF-electrons_function_1;electrons-electrons_scf_function_0;c_bands_function_10;diag_bands_k_function_3
# Job info - HDEEM
JOB ID,17280379.15
Nodelist,taurusi5525
AVG Runtime of function [s],66.1083
MAX Runtime of function [s],66.1083
MIN Runtime of function [s],66.1083
# COUNTERS - HDEEM: 
AVG Energy consumption [J] (Stats structure),8751.72
MAX Energy consumption [J] (Stats structure),8751.72
MIN Energy consumption [J] (Stats structure),8751.72
SUM Energy consumption [J] (Stats structure),8751.72
# CALLTREE;init_0;Main-PWSCF_0;run-PWSCF_0;run-PWSCF-electrons_function_1;electrons-electrons_scf_function_0;c_bands_function_11;diag_bands_k_function_0
# Job info - HDEEM
JOB ID,17280379.15
Nodelist,taurusi5525
AVG Runtime of function [s],58.0419
MAX Runtime of function [s],58.0419
MIN Runtime of function [s],58.0419
# COUNTERS - HDEEM: 
AVG Energy consumption [J] (Stats structure),7683.11
MAX Energy consumption [J] (Stats structure),7683.11
MIN Energy consumption [J] (Stats structure),7683.11
SUM Energy consumption [J] (Stats structure),7683.11
# CALLTREE;init_0;Main-PWSCF_0;run-PWSCF_0;run-PWSCF-electrons_function_1;electrons-electrons_scf_function_0;c_bands_function_11;diag_bands_k_function_1
# Job info - HDEEM
JOB ID,17280379.15
Nodelist,taurusi5525
AVG Runtime of function [s],58.7556
MAX Runtime of function [s],58.7556
MIN Runtime of function [s],58.7556
# COUNTERS - HDEEM: 
AVG Energy consumption [J] (Stats structure),7775.42
MAX Energy consumption [J] (Stats structure),7775.42
MIN Energy consumption [J] (Stats structure),7775.42
SUM Energy consumption [J] (Stats structure),7775.42
# CALLTREE;init_0;Main-PWSCF_0;run-PWSCF_0;run-PWSCF-electrons_function_1;electrons-electrons_scf_function_0;c_bands_function_11;diag_bands_k_function_2
# Job info - HDEEM
JOB ID,17280379.15
Nodelist,taurusi5525
AVG Runtime of function [s],58.1718
MAX Runtime of function [s],58.1718
MIN Runtime of function [s],58.1718
# COUNTERS - HDEEM: 
AVG Energy consumption [J] (Stats structure),7689.67
MAX Energy consumption [J] (Stats structure),7689.67
MIN Energy consumption [J] (Stats structure),7689.67
SUM Energy consumption [J] (Stats structure),7689.67
# CALLTREE;init_0;Main-PWSCF_0;run-PWSCF_0;run-PWSCF-electrons_function_1;electrons-electrons_scf_function_0;c_bands_function_11;diag_bands_k_function_3
# Job info - HDEEM
JOB ID,17280379.15
Nodelist,taurusi5525
AVG Runtime of function [s],56.9034
MAX Runtime of function [s],56.9034
MIN Runtime of function [s],56.9034
# COUNTERS - HDEEM: 
AVG Energy consumption [J] (Stats structure),7529.54
MAX Energy consumption [J] (Stats structure),7529.54
MIN Energy consumption [J] (Stats structure),7529.54
SUM Energy consumption [J] (Stats structure),7529.54
# CALLTREE;init_0;Main-PWSCF_0;run-PWSCF_0;run-PWSCF-electrons_function_1;electrons-electrons_scf_function_0;c_bands_function_12;diag_bands_k_function_0
# Job info - HDEEM
JOB ID,17280379.15
Nodelist,taurusi5525
AVG Runtime of function [s],74.2046
MAX Runtime of function [s],74.2046
MIN Runtime of function [s],74.2046
# COUNTERS - HDEEM: 
AVG Energy consumption [J] (Stats structure),9818.03
MAX Energy consumption [J] (Stats structure),9818.03
MIN Energy consumption [J] (Stats structure),9818.03
SUM Energy consumption [J] (Stats structure),9818.03
# CALLTREE;init_0;Main-PWSCF_0;run-PWSCF_0;run-PWSCF-electrons_function_1;electrons-electrons_scf_function_0;c_bands_function_12;diag_bands_k_function_1
# Job info - HDEEM
JOB ID,17280379.15
Nodelist,taurusi5525
AVG Runtime of function [s],72.9594
MAX Runtime of function [s],72.9594
MIN Runtime of function [s],72.9594
# COUNTERS - HDEEM: 
AVG Energy consumption [J] (Stats structure),9658.82
MAX Energy consumption [J] (Stats structure),9658.82
MIN Energy consumption [J] (Stats structure),9658.82
SUM Energy consumption [J] (Stats structure),9658.82
# CALLTREE;init_0;Main-PWSCF_0;run-PWSCF_0;run-PWSCF-electrons_function_1;electrons-electrons_scf_function_0;c_bands_function_12;diag_bands_k_function_2
# Job info - HDEEM
JOB ID,17280379.15
Nodelist,taurusi5525
AVG Runtime of function [s],73.3282
MAX Runtime of function [s],73.3282
MIN Runtime of function [s],73.3282
# COUNTERS - HDEEM: 
AVG Energy consumption [J] (Stats structure),9706.97
MAX Energy consumption [J] (Stats structure),9706.97
MIN Energy consumption [J] (Stats structure),9706.97
SUM Energy consumption [J] (Stats structure),9706.97
# CALLTREE;init_0;Main-PWSCF_0;run-PWSCF_0;run-PWSCF-electrons_function_1;electrons-electrons_scf_function_0;c_bands_function_12;diag_bands_k_function_3
# Job info - HDEEM
JOB ID,17280379.15
Nodelist,taurusi5525
AVG Runtime of function [s],76.3599
MAX Runtime of function [s],76.3599
MIN Runtime of function [s],76.3599
# COUNTERS - HDEEM: 
AVG Energy consumption [J] (Stats structure),10107.5
MAX Energy consumption [J] (Stats structure),10107.5
MIN Energy consumption [J] (Stats structure),10107.5
SUM Energy consumption [J] (Stats structure),10107.5
# CALLTREE;init_0;Main-PWSCF_0;run-PWSCF_0;run-PWSCF-electrons_function_1;electrons-electrons_scf_function_0;c_bands_function_13;diag_bands_k_function_0
# Job info - HDEEM
JOB ID,17280379.15
Nodelist,taurusi5525
AVG Runtime of function [s],69.1597
MAX Runtime of function [s],69.1597
MIN Runtime of function [s],69.1597
# COUNTERS - HDEEM: 
AVG Energy consumption [J] (Stats structure),9156.47
MAX Energy consumption [J] (Stats structure),9156.47
MIN Energy consumption [J] (Stats structure),9156.47
SUM Energy consumption [J] (Stats structure),9156.47
# CALLTREE;init_0;Main-PWSCF_0;run-PWSCF_0;run-PWSCF-electrons_function_1;electrons-electrons_scf_function_0;c_bands_function_13;diag_bands_k_function_1
# Job info - HDEEM
JOB ID,17280379.15
Nodelist,taurusi5525
AVG Runtime of function [s],70.5953
MAX Runtime of function [s],70.5953
MIN Runtime of function [s],70.5953
# COUNTERS - HDEEM: 
AVG Energy consumption [J] (Stats structure),9339.93
MAX Energy consumption [J] (Stats structure),9339.93
MIN Energy consumption [J] (Stats structure),9339.93
SUM Energy consumption [J] (Stats structure),9339.93
# CALLTREE;init_0;Main-PWSCF_0;run-PWSCF_0;run-PWSCF-electrons_function_1;electrons-electrons_scf_function_0;c_bands_function_13;diag_bands_k_function_2
# Job info - HDEEM
JOB ID,17280379.15
Nodelist,taurusi5525
AVG Runtime of function [s],70.822
MAX Runtime of function [s],70.822
MIN Runtime of function [s],70.822
# COUNTERS - HDEEM: 
AVG Energy consumption [J] (Stats structure),9370.44
MAX Energy consumption [J] (Stats structure),9370.44
MIN Energy consumption [J] (Stats structure),9370.44
SUM Energy consumption [J] (Stats structure),9370.44
# CALLTREE;init_0;Main-PWSCF_0;run-PWSCF_0;run-PWSCF-electrons_function_1;electrons-electrons_scf_function_0;c_bands_function_13;diag_bands_k_function_3
# Job info - HDEEM
JOB ID,17280379.15
Nodelist,taurusi5525
AVG Runtime of function [s],69.3932
MAX Runtime of function [s],69.3932
MIN Runtime of function [s],69.3932
# COUNTERS - HDEEM: 
AVG Energy consumption [J] (Stats structure),9181.14
MAX Energy consumption [J] (Stats structure),9181.14
MIN Energy consumption [J] (Stats structure),9181.14
SUM Energy consumption [J] (Stats structure),9181.14
# CALLTREE;init_0;Main-PWSCF_0;run-PWSCF_0;run-PWSCF-electrons_function_1;electrons-electrons_scf_function_0;c_bands_function_14;diag_bands_k_function_0
# Job info - HDEEM
JOB ID,17280379.15
Nodelist,taurusi5525
AVG Runtime of function [s],49.1755
MAX Runtime of function [s],49.1755
MIN Runtime of function [s],49.1755
# COUNTERS - HDEEM: 
AVG Energy consumption [J] (Stats structure),6504.66
MAX Energy consumption [J] (Stats structure),6504.66
MIN Energy consumption [J] (Stats structure),6504.66
SUM Energy consumption [J] (Stats structure),6504.66
# CALLTREE;init_0;Main-PWSCF_0;run-PWSCF_0;run-PWSCF-electrons_function_1;electrons-electrons_scf_function_0;c_bands_function_14;diag_bands_k_function_1
# Job info - HDEEM
JOB ID,17280379.15
Nodelist,taurusi5525
AVG Runtime of function [s],49.1054
MAX Runtime of function [s],49.1054
MIN Runtime of function [s],49.1054
# COUNTERS - HDEEM: 
AVG Energy consumption [J] (Stats structure),6492.88
MAX Energy consumption [J] (Stats structure),6492.88
MIN Energy consumption [J] (Stats structure),6492.88
SUM Energy consumption [J] (Stats structure),6492.88
# CALLTREE;init_0;Main-PWSCF_0;run-PWSCF_0;run-PWSCF-electrons_function_1;electrons-electrons_scf_function_0;c_bands_function_14;diag_bands_k_function_2
# Job info - HDEEM
JOB ID,17280379.15
Nodelist,taurusi5525
AVG Runtime of function [s],49.1318
MAX Runtime of function [s],49.1318
MIN Runtime of function [s],49.1318
# COUNTERS - HDEEM: 
AVG Energy consumption [J] (Stats structure),6504.02
MAX Energy consumption [J] (Stats structure),6504.02
MIN Energy consumption [J] (Stats structure),6504.02
SUM Energy consumption [J] (Stats structure),6504.02
# CALLTREE;init_0;Main-PWSCF_0;run-PWSCF_0;run-PWSCF-electrons_function_1;electrons-electrons_scf_function_0;c_bands_function_14;diag_bands_k_function_3
# Job info - HDEEM
JOB ID,17280379.15
Nodelist,taurusi5525
AVG Runtime of function [s],50.5244
MAX Runtime of function [s],50.5244
MIN Runtime of function [s],50.5244
# COUNTERS - HDEEM: 
AVG Energy consumption [J] (Stats structure),6683.6
MAX Energy consumption [J] (Stats structure),6683.6
MIN Energy consumption [J] (Stats structure),6683.6
SUM Energy consumption [J] (Stats structure),6683.6
