# CALLTREE;init_0;Main-PWSCF_0;run-PWSCF_0;run-PWSCF-electrons_function_1;electrons-electrons_scf_function_0;c_bands_function_0;diag_bands_k_function_0
# Job info - HDEEM
JOB ID,17280379.5
Nodelist,taurusi5525
AVG Runtime of function [s],51.7279
MAX Runtime of function [s],51.7279
MIN Runtime of function [s],51.7279
# COUNTERS - HDEEM: 
AVG Energy consumption [J] (Stats structure),6985.03
MAX Energy consumption [J] (Stats structure),6985.03
MIN Energy consumption [J] (Stats structure),6985.03
SUM Energy consumption [J] (Stats structure),6985.03
# CALLTREE;init_0;Main-PWSCF_0;run-PWSCF_0;run-PWSCF-electrons_function_1;electrons-electrons_scf_function_0;c_bands_function_0;diag_bands_k_function_1
# Job info - HDEEM
JOB ID,17280379.5
Nodelist,taurusi5525
AVG Runtime of function [s],53.4326
MAX Runtime of function [s],53.4326
MIN Runtime of function [s],53.4326
# COUNTERS - HDEEM: 
AVG Energy consumption [J] (Stats structure),7201.74
MAX Energy consumption [J] (Stats structure),7201.74
MIN Energy consumption [J] (Stats structure),7201.74
SUM Energy consumption [J] (Stats structure),7201.74
# CALLTREE;init_0;Main-PWSCF_0;run-PWSCF_0;run-PWSCF-electrons_function_1;electrons-electrons_scf_function_0;c_bands_function_0;diag_bands_k_function_2
# Job info - HDEEM
JOB ID,17280379.5
Nodelist,taurusi5525
AVG Runtime of function [s],54.0519
MAX Runtime of function [s],54.0519
MIN Runtime of function [s],54.0519
# COUNTERS - HDEEM: 
AVG Energy consumption [J] (Stats structure),7294.49
MAX Energy consumption [J] (Stats structure),7294.49
MIN Energy consumption [J] (Stats structure),7294.49
SUM Energy consumption [J] (Stats structure),7294.49
# CALLTREE;init_0;Main-PWSCF_0;run-PWSCF_0;run-PWSCF-electrons_function_1;electrons-electrons_scf_function_0;c_bands_function_0;diag_bands_k_function_3
# Job info - HDEEM
JOB ID,17280379.5
Nodelist,taurusi5525
AVG Runtime of function [s],54.005
MAX Runtime of function [s],54.005
MIN Runtime of function [s],54.005
# COUNTERS - HDEEM: 
AVG Energy consumption [J] (Stats structure),7279.66
MAX Energy consumption [J] (Stats structure),7279.66
MIN Energy consumption [J] (Stats structure),7279.66
SUM Energy consumption [J] (Stats structure),7279.66
# CALLTREE;init_0;Main-PWSCF_0;run-PWSCF_0;run-PWSCF-electrons_function_1;electrons-electrons_scf_function_0;c_bands_function_1;diag_bands_k_function_0
# Job info - HDEEM
JOB ID,17280379.5
Nodelist,taurusi5525
AVG Runtime of function [s],34.8392
MAX Runtime of function [s],34.8392
MIN Runtime of function [s],34.8392
# COUNTERS - HDEEM: 
AVG Energy consumption [J] (Stats structure),4704.68
MAX Energy consumption [J] (Stats structure),4704.68
MIN Energy consumption [J] (Stats structure),4704.68
SUM Energy consumption [J] (Stats structure),4704.68
# CALLTREE;init_0;Main-PWSCF_0;run-PWSCF_0;run-PWSCF-electrons_function_1;electrons-electrons_scf_function_0;c_bands_function_1;diag_bands_k_function_1
# Job info - HDEEM
JOB ID,17280379.5
Nodelist,taurusi5525
AVG Runtime of function [s],33.9975
MAX Runtime of function [s],33.9975
MIN Runtime of function [s],33.9975
# COUNTERS - HDEEM: 
AVG Energy consumption [J] (Stats structure),4576.8
MAX Energy consumption [J] (Stats structure),4576.8
MIN Energy consumption [J] (Stats structure),4576.8
SUM Energy consumption [J] (Stats structure),4576.8
# CALLTREE;init_0;Main-PWSCF_0;run-PWSCF_0;run-PWSCF-electrons_function_1;electrons-electrons_scf_function_0;c_bands_function_1;diag_bands_k_function_2
# Job info - HDEEM
JOB ID,17280379.5
Nodelist,taurusi5525
AVG Runtime of function [s],33.5039
MAX Runtime of function [s],33.5039
MIN Runtime of function [s],33.5039
# COUNTERS - HDEEM: 
AVG Energy consumption [J] (Stats structure),4524.37
MAX Energy consumption [J] (Stats structure),4524.37
MIN Energy consumption [J] (Stats structure),4524.37
SUM Energy consumption [J] (Stats structure),4524.37
# CALLTREE;init_0;Main-PWSCF_0;run-PWSCF_0;run-PWSCF-electrons_function_1;electrons-electrons_scf_function_0;c_bands_function_1;diag_bands_k_function_3
# Job info - HDEEM
JOB ID,17280379.5
Nodelist,taurusi5525
AVG Runtime of function [s],33.5087
MAX Runtime of function [s],33.5087
MIN Runtime of function [s],33.5087
# COUNTERS - HDEEM: 
AVG Energy consumption [J] (Stats structure),4515.05
MAX Energy consumption [J] (Stats structure),4515.05
MIN Energy consumption [J] (Stats structure),4515.05
SUM Energy consumption [J] (Stats structure),4515.05
# CALLTREE;init_0;Main-PWSCF_0;run-PWSCF_0;run-PWSCF-electrons_function_1;electrons-electrons_scf_function_0;c_bands_function_2;diag_bands_k_function_0
# Job info - HDEEM
JOB ID,17280379.5
Nodelist,taurusi5525
AVG Runtime of function [s],33.5693
MAX Runtime of function [s],33.5693
MIN Runtime of function [s],33.5693
# COUNTERS - HDEEM: 
AVG Energy consumption [J] (Stats structure),4534.32
MAX Energy consumption [J] (Stats structure),4534.32
MIN Energy consumption [J] (Stats structure),4534.32
SUM Energy consumption [J] (Stats structure),4534.32
# CALLTREE;init_0;Main-PWSCF_0;run-PWSCF_0;run-PWSCF-electrons_function_1;electrons-electrons_scf_function_0;c_bands_function_2;diag_bands_k_function_1
# Job info - HDEEM
JOB ID,17280379.5
Nodelist,taurusi5525
AVG Runtime of function [s],33.4622
MAX Runtime of function [s],33.4622
MIN Runtime of function [s],33.4622
# COUNTERS - HDEEM: 
AVG Energy consumption [J] (Stats structure),4508.11
MAX Energy consumption [J] (Stats structure),4508.11
MIN Energy consumption [J] (Stats structure),4508.11
SUM Energy consumption [J] (Stats structure),4508.11
# CALLTREE;init_0;Main-PWSCF_0;run-PWSCF_0;run-PWSCF-electrons_function_1;electrons-electrons_scf_function_0;c_bands_function_2;diag_bands_k_function_2
# Job info - HDEEM
JOB ID,17280379.5
Nodelist,taurusi5525
AVG Runtime of function [s],33.556
MAX Runtime of function [s],33.556
MIN Runtime of function [s],33.556
# COUNTERS - HDEEM: 
AVG Energy consumption [J] (Stats structure),4534.04
MAX Energy consumption [J] (Stats structure),4534.04
MIN Energy consumption [J] (Stats structure),4534.04
SUM Energy consumption [J] (Stats structure),4534.04
# CALLTREE;init_0;Main-PWSCF_0;run-PWSCF_0;run-PWSCF-electrons_function_1;electrons-electrons_scf_function_0;c_bands_function_2;diag_bands_k_function_3
# Job info - HDEEM
JOB ID,17280379.5
Nodelist,taurusi5525
AVG Runtime of function [s],33.5383
MAX Runtime of function [s],33.5383
MIN Runtime of function [s],33.5383
# COUNTERS - HDEEM: 
AVG Energy consumption [J] (Stats structure),4516.71
MAX Energy consumption [J] (Stats structure),4516.71
MIN Energy consumption [J] (Stats structure),4516.71
SUM Energy consumption [J] (Stats structure),4516.71
# CALLTREE;init_0;Main-PWSCF_0;run-PWSCF_0;run-PWSCF-electrons_function_1;electrons-electrons_scf_function_0;c_bands_function_3;diag_bands_k_function_0
# Job info - HDEEM
JOB ID,17280379.5
Nodelist,taurusi5525
AVG Runtime of function [s],55.4267
MAX Runtime of function [s],55.4267
MIN Runtime of function [s],55.4267
# COUNTERS - HDEEM: 
AVG Energy consumption [J] (Stats structure),7489.72
MAX Energy consumption [J] (Stats structure),7489.72
MIN Energy consumption [J] (Stats structure),7489.72
SUM Energy consumption [J] (Stats structure),7489.72
# CALLTREE;init_0;Main-PWSCF_0;run-PWSCF_0;run-PWSCF-electrons_function_1;electrons-electrons_scf_function_0;c_bands_function_3;diag_bands_k_function_1
# Job info - HDEEM
JOB ID,17280379.5
Nodelist,taurusi5525
AVG Runtime of function [s],61.485
MAX Runtime of function [s],61.485
MIN Runtime of function [s],61.485
# COUNTERS - HDEEM: 
AVG Energy consumption [J] (Stats structure),8289.75
MAX Energy consumption [J] (Stats structure),8289.75
MIN Energy consumption [J] (Stats structure),8289.75
SUM Energy consumption [J] (Stats structure),8289.75
# CALLTREE;init_0;Main-PWSCF_0;run-PWSCF_0;run-PWSCF-electrons_function_1;electrons-electrons_scf_function_0;c_bands_function_3;diag_bands_k_function_2
# Job info - HDEEM
JOB ID,17280379.5
Nodelist,taurusi5525
AVG Runtime of function [s],63.8756
MAX Runtime of function [s],63.8756
MIN Runtime of function [s],63.8756
# COUNTERS - HDEEM: 
AVG Energy consumption [J] (Stats structure),8631.22
MAX Energy consumption [J] (Stats structure),8631.22
MIN Energy consumption [J] (Stats structure),8631.22
SUM Energy consumption [J] (Stats structure),8631.22
# CALLTREE;init_0;Main-PWSCF_0;run-PWSCF_0;run-PWSCF-electrons_function_1;electrons-electrons_scf_function_0;c_bands_function_3;diag_bands_k_function_3
# Job info - HDEEM
JOB ID,17280379.5
Nodelist,taurusi5525
AVG Runtime of function [s],63.3807
MAX Runtime of function [s],63.3807
MIN Runtime of function [s],63.3807
# COUNTERS - HDEEM: 
AVG Energy consumption [J] (Stats structure),8567.07
MAX Energy consumption [J] (Stats structure),8567.07
MIN Energy consumption [J] (Stats structure),8567.07
SUM Energy consumption [J] (Stats structure),8567.07
# CALLTREE;init_0;Main-PWSCF_0;run-PWSCF_0;run-PWSCF-electrons_function_1;electrons-electrons_scf_function_0;c_bands_function_4;diag_bands_k_function_0
# Job info - HDEEM
JOB ID,17280379.5
Nodelist,taurusi5525
AVG Runtime of function [s],60.0216
MAX Runtime of function [s],60.0216
MIN Runtime of function [s],60.0216
# COUNTERS - HDEEM: 
AVG Energy consumption [J] (Stats structure),8099.41
MAX Energy consumption [J] (Stats structure),8099.41
MIN Energy consumption [J] (Stats structure),8099.41
SUM Energy consumption [J] (Stats structure),8099.41
# CALLTREE;init_0;Main-PWSCF_0;run-PWSCF_0;run-PWSCF-electrons_function_1;electrons-electrons_scf_function_0;c_bands_function_4;diag_bands_k_function_1
# Job info - HDEEM
JOB ID,17280379.5
Nodelist,taurusi5525
AVG Runtime of function [s],62.2708
MAX Runtime of function [s],62.2708
MIN Runtime of function [s],62.2708
# COUNTERS - HDEEM: 
AVG Energy consumption [J] (Stats structure),8408.29
MAX Energy consumption [J] (Stats structure),8408.29
MIN Energy consumption [J] (Stats structure),8408.29
SUM Energy consumption [J] (Stats structure),8408.29
# CALLTREE;init_0;Main-PWSCF_0;run-PWSCF_0;run-PWSCF-electrons_function_1;electrons-electrons_scf_function_0;c_bands_function_4;diag_bands_k_function_2
# Job info - HDEEM
JOB ID,17280379.5
Nodelist,taurusi5525
AVG Runtime of function [s],64.211
MAX Runtime of function [s],64.211
MIN Runtime of function [s],64.211
# COUNTERS - HDEEM: 
AVG Energy consumption [J] (Stats structure),8683.73
MAX Energy consumption [J] (Stats structure),8683.73
MIN Energy consumption [J] (Stats structure),8683.73
SUM Energy consumption [J] (Stats structure),8683.73
# CALLTREE;init_0;Main-PWSCF_0;run-PWSCF_0;run-PWSCF-electrons_function_1;electrons-electrons_scf_function_0;c_bands_function_4;diag_bands_k_function_3
# Job info - HDEEM
JOB ID,17280379.5
Nodelist,taurusi5525
AVG Runtime of function [s],54.7743
MAX Runtime of function [s],54.7743
MIN Runtime of function [s],54.7743
# COUNTERS - HDEEM: 
AVG Energy consumption [J] (Stats structure),7391.19
MAX Energy consumption [J] (Stats structure),7391.19
MIN Energy consumption [J] (Stats structure),7391.19
SUM Energy consumption [J] (Stats structure),7391.19
# CALLTREE;init_0;Main-PWSCF_0;run-PWSCF_0;run-PWSCF-electrons_function_1;electrons-electrons_scf_function_0;c_bands_function_5;diag_bands_k_function_0
# Job info - HDEEM
JOB ID,17280379.5
Nodelist,taurusi5525
AVG Runtime of function [s],45.73
MAX Runtime of function [s],45.73
MIN Runtime of function [s],45.73
# COUNTERS - HDEEM: 
AVG Energy consumption [J] (Stats structure),6169.27
MAX Energy consumption [J] (Stats structure),6169.27
MIN Energy consumption [J] (Stats structure),6169.27
SUM Energy consumption [J] (Stats structure),6169.27
# CALLTREE;init_0;Main-PWSCF_0;run-PWSCF_0;run-PWSCF-electrons_function_1;electrons-electrons_scf_function_0;c_bands_function_5;diag_bands_k_function_1
# Job info - HDEEM
JOB ID,17280379.5
Nodelist,taurusi5525
AVG Runtime of function [s],53.0866
MAX Runtime of function [s],53.0866
MIN Runtime of function [s],53.0866
# COUNTERS - HDEEM: 
AVG Energy consumption [J] (Stats structure),7168.46
MAX Energy consumption [J] (Stats structure),7168.46
MIN Energy consumption [J] (Stats structure),7168.46
SUM Energy consumption [J] (Stats structure),7168.46
# CALLTREE;init_0;Main-PWSCF_0;run-PWSCF_0;run-PWSCF-electrons_function_1;electrons-electrons_scf_function_0;c_bands_function_5;diag_bands_k_function_2
# Job info - HDEEM
JOB ID,17280379.5
Nodelist,taurusi5525
AVG Runtime of function [s],52.6502
MAX Runtime of function [s],52.6502
MIN Runtime of function [s],52.6502
# COUNTERS - HDEEM: 
AVG Energy consumption [J] (Stats structure),7114.59
MAX Energy consumption [J] (Stats structure),7114.59
MIN Energy consumption [J] (Stats structure),7114.59
SUM Energy consumption [J] (Stats structure),7114.59
# CALLTREE;init_0;Main-PWSCF_0;run-PWSCF_0;run-PWSCF-electrons_function_1;electrons-electrons_scf_function_0;c_bands_function_5;diag_bands_k_function_3
# Job info - HDEEM
JOB ID,17280379.5
Nodelist,taurusi5525
AVG Runtime of function [s],47.3102
MAX Runtime of function [s],47.3102
MIN Runtime of function [s],47.3102
# COUNTERS - HDEEM: 
AVG Energy consumption [J] (Stats structure),6391.71
MAX Energy consumption [J] (Stats structure),6391.71
MIN Energy consumption [J] (Stats structure),6391.71
SUM Energy consumption [J] (Stats structure),6391.71
# CALLTREE;init_0;Main-PWSCF_0;run-PWSCF_0;run-PWSCF-electrons_function_1;electrons-electrons_scf_function_0;c_bands_function_6;diag_bands_k_function_0
# Job info - HDEEM
JOB ID,17280379.5
Nodelist,taurusi5525
AVG Runtime of function [s],44.3805
MAX Runtime of function [s],44.3805
MIN Runtime of function [s],44.3805
# COUNTERS - HDEEM: 
AVG Energy consumption [J] (Stats structure),5991.47
MAX Energy consumption [J] (Stats structure),5991.47
MIN Energy consumption [J] (Stats structure),5991.47
SUM Energy consumption [J] (Stats structure),5991.47
# CALLTREE;init_0;Main-PWSCF_0;run-PWSCF_0;run-PWSCF-electrons_function_1;electrons-electrons_scf_function_0;c_bands_function_6;diag_bands_k_function_1
# Job info - HDEEM
JOB ID,17280379.5
Nodelist,taurusi5525
AVG Runtime of function [s],44.5252
MAX Runtime of function [s],44.5252
MIN Runtime of function [s],44.5252
# COUNTERS - HDEEM: 
AVG Energy consumption [J] (Stats structure),6016.99
MAX Energy consumption [J] (Stats structure),6016.99
MIN Energy consumption [J] (Stats structure),6016.99
SUM Energy consumption [J] (Stats structure),6016.99
# CALLTREE;init_0;Main-PWSCF_0;run-PWSCF_0;run-PWSCF-electrons_function_1;electrons-electrons_scf_function_0;c_bands_function_6;diag_bands_k_function_2
# Job info - HDEEM
JOB ID,17280379.5
Nodelist,taurusi5525
AVG Runtime of function [s],44.985
MAX Runtime of function [s],44.985
MIN Runtime of function [s],44.985
# COUNTERS - HDEEM: 
AVG Energy consumption [J] (Stats structure),6071.88
MAX Energy consumption [J] (Stats structure),6071.88
MIN Energy consumption [J] (Stats structure),6071.88
SUM Energy consumption [J] (Stats structure),6071.88
# CALLTREE;init_0;Main-PWSCF_0;run-PWSCF_0;run-PWSCF-electrons_function_1;electrons-electrons_scf_function_0;c_bands_function_6;diag_bands_k_function_3
# Job info - HDEEM
JOB ID,17280379.5
Nodelist,taurusi5525
AVG Runtime of function [s],44.3261
MAX Runtime of function [s],44.3261
MIN Runtime of function [s],44.3261
# COUNTERS - HDEEM: 
AVG Energy consumption [J] (Stats structure),5988.69
MAX Energy consumption [J] (Stats structure),5988.69
MIN Energy consumption [J] (Stats structure),5988.69
SUM Energy consumption [J] (Stats structure),5988.69
# CALLTREE;init_0;Main-PWSCF_0;run-PWSCF_0;run-PWSCF-electrons_function_1;electrons-electrons_scf_function_0;c_bands_function_7;diag_bands_k_function_0
# Job info - HDEEM
JOB ID,17280379.5
Nodelist,taurusi5525
AVG Runtime of function [s],47.0814
MAX Runtime of function [s],47.0814
MIN Runtime of function [s],47.0814
# COUNTERS - HDEEM: 
AVG Energy consumption [J] (Stats structure),6351.99
MAX Energy consumption [J] (Stats structure),6351.99
MIN Energy consumption [J] (Stats structure),6351.99
SUM Energy consumption [J] (Stats structure),6351.99
# CALLTREE;init_0;Main-PWSCF_0;run-PWSCF_0;run-PWSCF-electrons_function_1;electrons-electrons_scf_function_0;c_bands_function_7;diag_bands_k_function_1
# Job info - HDEEM
JOB ID,17280379.5
Nodelist,taurusi5525
AVG Runtime of function [s],47.7338
MAX Runtime of function [s],47.7338
MIN Runtime of function [s],47.7338
# COUNTERS - HDEEM: 
AVG Energy consumption [J] (Stats structure),6443.53
MAX Energy consumption [J] (Stats structure),6443.53
MIN Energy consumption [J] (Stats structure),6443.53
SUM Energy consumption [J] (Stats structure),6443.53
# CALLTREE;init_0;Main-PWSCF_0;run-PWSCF_0;run-PWSCF-electrons_function_1;electrons-electrons_scf_function_0;c_bands_function_7;diag_bands_k_function_2
# Job info - HDEEM
JOB ID,17280379.5
Nodelist,taurusi5525
AVG Runtime of function [s],48.419
MAX Runtime of function [s],48.419
MIN Runtime of function [s],48.419
# COUNTERS - HDEEM: 
AVG Energy consumption [J] (Stats structure),6535.29
MAX Energy consumption [J] (Stats structure),6535.29
MIN Energy consumption [J] (Stats structure),6535.29
SUM Energy consumption [J] (Stats structure),6535.29
# CALLTREE;init_0;Main-PWSCF_0;run-PWSCF_0;run-PWSCF-electrons_function_1;electrons-electrons_scf_function_0;c_bands_function_7;diag_bands_k_function_3
# Job info - HDEEM
JOB ID,17280379.5
Nodelist,taurusi5525
AVG Runtime of function [s],50.0338
MAX Runtime of function [s],50.0338
MIN Runtime of function [s],50.0338
# COUNTERS - HDEEM: 
AVG Energy consumption [J] (Stats structure),6754.52
MAX Energy consumption [J] (Stats structure),6754.52
MIN Energy consumption [J] (Stats structure),6754.52
SUM Energy consumption [J] (Stats structure),6754.52
# CALLTREE;init_0;Main-PWSCF_0;run-PWSCF_0;run-PWSCF-electrons_function_1;electrons-electrons_scf_function_0;c_bands_function_8;diag_bands_k_function_0
# Job info - HDEEM
JOB ID,17280379.5
Nodelist,taurusi5525
AVG Runtime of function [s],48.578
MAX Runtime of function [s],48.578
MIN Runtime of function [s],48.578
# COUNTERS - HDEEM: 
AVG Energy consumption [J] (Stats structure),6551.81
MAX Energy consumption [J] (Stats structure),6551.81
MIN Energy consumption [J] (Stats structure),6551.81
SUM Energy consumption [J] (Stats structure),6551.81
# CALLTREE;init_0;Main-PWSCF_0;run-PWSCF_0;run-PWSCF-electrons_function_1;electrons-electrons_scf_function_0;c_bands_function_8;diag_bands_k_function_1
# Job info - HDEEM
JOB ID,17280379.5
Nodelist,taurusi5525
AVG Runtime of function [s],49.1706
MAX Runtime of function [s],49.1706
MIN Runtime of function [s],49.1706
# COUNTERS - HDEEM: 
AVG Energy consumption [J] (Stats structure),6637.9
MAX Energy consumption [J] (Stats structure),6637.9
MIN Energy consumption [J] (Stats structure),6637.9
SUM Energy consumption [J] (Stats structure),6637.9
# CALLTREE;init_0;Main-PWSCF_0;run-PWSCF_0;run-PWSCF-electrons_function_1;electrons-electrons_scf_function_0;c_bands_function_8;diag_bands_k_function_2
# Job info - HDEEM
JOB ID,17280379.5
Nodelist,taurusi5525
AVG Runtime of function [s],48.9728
MAX Runtime of function [s],48.9728
MIN Runtime of function [s],48.9728
# COUNTERS - HDEEM: 
AVG Energy consumption [J] (Stats structure),6597.73
MAX Energy consumption [J] (Stats structure),6597.73
MIN Energy consumption [J] (Stats structure),6597.73
SUM Energy consumption [J] (Stats structure),6597.73
# CALLTREE;init_0;Main-PWSCF_0;run-PWSCF_0;run-PWSCF-electrons_function_1;electrons-electrons_scf_function_0;c_bands_function_8;diag_bands_k_function_3
# Job info - HDEEM
JOB ID,17280379.5
Nodelist,taurusi5525
AVG Runtime of function [s],47.2659
MAX Runtime of function [s],47.2659
MIN Runtime of function [s],47.2659
# COUNTERS - HDEEM: 
AVG Energy consumption [J] (Stats structure),6381.01
MAX Energy consumption [J] (Stats structure),6381.01
MIN Energy consumption [J] (Stats structure),6381.01
SUM Energy consumption [J] (Stats structure),6381.01
# CALLTREE;init_0;Main-PWSCF_0;run-PWSCF_0;run-PWSCF-electrons_function_1;electrons-electrons_scf_function_0;c_bands_function_9;diag_bands_k_function_0
# Job info - HDEEM
JOB ID,17280379.5
Nodelist,taurusi5525
AVG Runtime of function [s],46.4455
MAX Runtime of function [s],46.4455
MIN Runtime of function [s],46.4455
# COUNTERS - HDEEM: 
AVG Energy consumption [J] (Stats structure),6277.96
MAX Energy consumption [J] (Stats structure),6277.96
MIN Energy consumption [J] (Stats structure),6277.96
SUM Energy consumption [J] (Stats structure),6277.96
# CALLTREE;init_0;Main-PWSCF_0;run-PWSCF_0;run-PWSCF-electrons_function_1;electrons-electrons_scf_function_0;c_bands_function_9;diag_bands_k_function_1
# Job info - HDEEM
JOB ID,17280379.5
Nodelist,taurusi5525
AVG Runtime of function [s],46.6542
MAX Runtime of function [s],46.6542
MIN Runtime of function [s],46.6542
# COUNTERS - HDEEM: 
AVG Energy consumption [J] (Stats structure),6295.56
MAX Energy consumption [J] (Stats structure),6295.56
MIN Energy consumption [J] (Stats structure),6295.56
SUM Energy consumption [J] (Stats structure),6295.56
# CALLTREE;init_0;Main-PWSCF_0;run-PWSCF_0;run-PWSCF-electrons_function_1;electrons-electrons_scf_function_0;c_bands_function_9;diag_bands_k_function_2
# Job info - HDEEM
JOB ID,17280379.5
Nodelist,taurusi5525
AVG Runtime of function [s],45.9981
MAX Runtime of function [s],45.9981
MIN Runtime of function [s],45.9981
# COUNTERS - HDEEM: 
AVG Energy consumption [J] (Stats structure),6210.28
MAX Energy consumption [J] (Stats structure),6210.28
MIN Energy consumption [J] (Stats structure),6210.28
SUM Energy consumption [J] (Stats structure),6210.28
# CALLTREE;init_0;Main-PWSCF_0;run-PWSCF_0;run-PWSCF-electrons_function_1;electrons-electrons_scf_function_0;c_bands_function_9;diag_bands_k_function_3
# Job info - HDEEM
JOB ID,17280379.5
Nodelist,taurusi5525
AVG Runtime of function [s],46.5809
MAX Runtime of function [s],46.5809
MIN Runtime of function [s],46.5809
# COUNTERS - HDEEM: 
AVG Energy consumption [J] (Stats structure),6291.91
MAX Energy consumption [J] (Stats structure),6291.91
MIN Energy consumption [J] (Stats structure),6291.91
SUM Energy consumption [J] (Stats structure),6291.91
# CALLTREE;init_0;Main-PWSCF_0;run-PWSCF_0;run-PWSCF-electrons_function_1;electrons-electrons_scf_function_0;c_bands_function_10;diag_bands_k_function_0
# Job info - HDEEM
JOB ID,17280379.5
Nodelist,taurusi5525
AVG Runtime of function [s],45.1924
MAX Runtime of function [s],45.1924
MIN Runtime of function [s],45.1924
# COUNTERS - HDEEM: 
AVG Energy consumption [J] (Stats structure),6095.84
MAX Energy consumption [J] (Stats structure),6095.84
MIN Energy consumption [J] (Stats structure),6095.84
SUM Energy consumption [J] (Stats structure),6095.84
# CALLTREE;init_0;Main-PWSCF_0;run-PWSCF_0;run-PWSCF-electrons_function_1;electrons-electrons_scf_function_0;c_bands_function_10;diag_bands_k_function_1
# Job info - HDEEM
JOB ID,17280379.5
Nodelist,taurusi5525
AVG Runtime of function [s],45.6186
MAX Runtime of function [s],45.6186
MIN Runtime of function [s],45.6186
# COUNTERS - HDEEM: 
AVG Energy consumption [J] (Stats structure),6158.64
MAX Energy consumption [J] (Stats structure),6158.64
MIN Energy consumption [J] (Stats structure),6158.64
SUM Energy consumption [J] (Stats structure),6158.64
# CALLTREE;init_0;Main-PWSCF_0;run-PWSCF_0;run-PWSCF-electrons_function_1;electrons-electrons_scf_function_0;c_bands_function_10;diag_bands_k_function_2
# Job info - HDEEM
JOB ID,17280379.5
Nodelist,taurusi5525
AVG Runtime of function [s],47.433
MAX Runtime of function [s],47.433
MIN Runtime of function [s],47.433
# COUNTERS - HDEEM: 
AVG Energy consumption [J] (Stats structure),6403.2
MAX Energy consumption [J] (Stats structure),6403.2
MIN Energy consumption [J] (Stats structure),6403.2
SUM Energy consumption [J] (Stats structure),6403.2
# CALLTREE;init_0;Main-PWSCF_0;run-PWSCF_0;run-PWSCF-electrons_function_1;electrons-electrons_scf_function_0;c_bands_function_10;diag_bands_k_function_3
# Job info - HDEEM
JOB ID,17280379.5
Nodelist,taurusi5525
AVG Runtime of function [s],45.1648
MAX Runtime of function [s],45.1648
MIN Runtime of function [s],45.1648
# COUNTERS - HDEEM: 
AVG Energy consumption [J] (Stats structure),6100.42
MAX Energy consumption [J] (Stats structure),6100.42
MIN Energy consumption [J] (Stats structure),6100.42
SUM Energy consumption [J] (Stats structure),6100.42
# CALLTREE;init_0;Main-PWSCF_0;run-PWSCF_0;run-PWSCF-electrons_function_1;electrons-electrons_scf_function_0;c_bands_function_11;diag_bands_k_function_0
# Job info - HDEEM
JOB ID,17280379.5
Nodelist,taurusi5525
AVG Runtime of function [s],39.7483
MAX Runtime of function [s],39.7483
MIN Runtime of function [s],39.7483
# COUNTERS - HDEEM: 
AVG Energy consumption [J] (Stats structure),5372.62
MAX Energy consumption [J] (Stats structure),5372.62
MIN Energy consumption [J] (Stats structure),5372.62
SUM Energy consumption [J] (Stats structure),5372.62
# CALLTREE;init_0;Main-PWSCF_0;run-PWSCF_0;run-PWSCF-electrons_function_1;electrons-electrons_scf_function_0;c_bands_function_11;diag_bands_k_function_1
# Job info - HDEEM
JOB ID,17280379.5
Nodelist,taurusi5525
AVG Runtime of function [s],40.1046
MAX Runtime of function [s],40.1046
MIN Runtime of function [s],40.1046
# COUNTERS - HDEEM: 
AVG Energy consumption [J] (Stats structure),5404.39
MAX Energy consumption [J] (Stats structure),5404.39
MIN Energy consumption [J] (Stats structure),5404.39
SUM Energy consumption [J] (Stats structure),5404.39
# CALLTREE;init_0;Main-PWSCF_0;run-PWSCF_0;run-PWSCF-electrons_function_1;electrons-electrons_scf_function_0;c_bands_function_11;diag_bands_k_function_2
# Job info - HDEEM
JOB ID,17280379.5
Nodelist,taurusi5525
AVG Runtime of function [s],39.7121
MAX Runtime of function [s],39.7121
MIN Runtime of function [s],39.7121
# COUNTERS - HDEEM: 
AVG Energy consumption [J] (Stats structure),5357.77
MAX Energy consumption [J] (Stats structure),5357.77
MIN Energy consumption [J] (Stats structure),5357.77
SUM Energy consumption [J] (Stats structure),5357.77
# CALLTREE;init_0;Main-PWSCF_0;run-PWSCF_0;run-PWSCF-electrons_function_1;electrons-electrons_scf_function_0;c_bands_function_11;diag_bands_k_function_3
# Job info - HDEEM
JOB ID,17280379.5
Nodelist,taurusi5525
AVG Runtime of function [s],38.9101
MAX Runtime of function [s],38.9101
MIN Runtime of function [s],38.9101
# COUNTERS - HDEEM: 
AVG Energy consumption [J] (Stats structure),5261.32
MAX Energy consumption [J] (Stats structure),5261.32
MIN Energy consumption [J] (Stats structure),5261.32
SUM Energy consumption [J] (Stats structure),5261.32
# CALLTREE;init_0;Main-PWSCF_0;run-PWSCF_0;run-PWSCF-electrons_function_1;electrons-electrons_scf_function_0;c_bands_function_12;diag_bands_k_function_0
# Job info - HDEEM
JOB ID,17280379.5
Nodelist,taurusi5525
AVG Runtime of function [s],50.6504
MAX Runtime of function [s],50.6504
MIN Runtime of function [s],50.6504
# COUNTERS - HDEEM: 
AVG Energy consumption [J] (Stats structure),6833.02
MAX Energy consumption [J] (Stats structure),6833.02
MIN Energy consumption [J] (Stats structure),6833.02
SUM Energy consumption [J] (Stats structure),6833.02
# CALLTREE;init_0;Main-PWSCF_0;run-PWSCF_0;run-PWSCF-electrons_function_1;electrons-electrons_scf_function_0;c_bands_function_12;diag_bands_k_function_1
# Job info - HDEEM
JOB ID,17280379.5
Nodelist,taurusi5525
AVG Runtime of function [s],49.8052
MAX Runtime of function [s],49.8052
MIN Runtime of function [s],49.8052
# COUNTERS - HDEEM: 
AVG Energy consumption [J] (Stats structure),6718.18
MAX Energy consumption [J] (Stats structure),6718.18
MIN Energy consumption [J] (Stats structure),6718.18
SUM Energy consumption [J] (Stats structure),6718.18
# CALLTREE;init_0;Main-PWSCF_0;run-PWSCF_0;run-PWSCF-electrons_function_1;electrons-electrons_scf_function_0;c_bands_function_12;diag_bands_k_function_2
# Job info - HDEEM
JOB ID,17280379.5
Nodelist,taurusi5525
AVG Runtime of function [s],49.981
MAX Runtime of function [s],49.981
MIN Runtime of function [s],49.981
# COUNTERS - HDEEM: 
AVG Energy consumption [J] (Stats structure),6743.01
MAX Energy consumption [J] (Stats structure),6743.01
MIN Energy consumption [J] (Stats structure),6743.01
SUM Energy consumption [J] (Stats structure),6743.01
# CALLTREE;init_0;Main-PWSCF_0;run-PWSCF_0;run-PWSCF-electrons_function_1;electrons-electrons_scf_function_0;c_bands_function_12;diag_bands_k_function_3
# Job info - HDEEM
JOB ID,17280379.5
Nodelist,taurusi5525
AVG Runtime of function [s],52.0433
MAX Runtime of function [s],52.0433
MIN Runtime of function [s],52.0433
# COUNTERS - HDEEM: 
AVG Energy consumption [J] (Stats structure),7022.56
MAX Energy consumption [J] (Stats structure),7022.56
MIN Energy consumption [J] (Stats structure),7022.56
SUM Energy consumption [J] (Stats structure),7022.56
# CALLTREE;init_0;Main-PWSCF_0;run-PWSCF_0;run-PWSCF-electrons_function_1;electrons-electrons_scf_function_0;c_bands_function_13;diag_bands_k_function_0
# Job info - HDEEM
JOB ID,17280379.5
Nodelist,taurusi5525
AVG Runtime of function [s],47.2444
MAX Runtime of function [s],47.2444
MIN Runtime of function [s],47.2444
# COUNTERS - HDEEM: 
AVG Energy consumption [J] (Stats structure),6381.01
MAX Energy consumption [J] (Stats structure),6381.01
MIN Energy consumption [J] (Stats structure),6381.01
SUM Energy consumption [J] (Stats structure),6381.01
# CALLTREE;init_0;Main-PWSCF_0;run-PWSCF_0;run-PWSCF-electrons_function_1;electrons-electrons_scf_function_0;c_bands_function_13;diag_bands_k_function_1
# Job info - HDEEM
JOB ID,17280379.5
Nodelist,taurusi5525
AVG Runtime of function [s],48.175
MAX Runtime of function [s],48.175
MIN Runtime of function [s],48.175
# COUNTERS - HDEEM: 
AVG Energy consumption [J] (Stats structure),6505.67
MAX Energy consumption [J] (Stats structure),6505.67
MIN Energy consumption [J] (Stats structure),6505.67
SUM Energy consumption [J] (Stats structure),6505.67
# CALLTREE;init_0;Main-PWSCF_0;run-PWSCF_0;run-PWSCF-electrons_function_1;electrons-electrons_scf_function_0;c_bands_function_13;diag_bands_k_function_2
# Job info - HDEEM
JOB ID,17280379.5
Nodelist,taurusi5525
AVG Runtime of function [s],48.3593
MAX Runtime of function [s],48.3593
MIN Runtime of function [s],48.3593
# COUNTERS - HDEEM: 
AVG Energy consumption [J] (Stats structure),6529.43
MAX Energy consumption [J] (Stats structure),6529.43
MIN Energy consumption [J] (Stats structure),6529.43
SUM Energy consumption [J] (Stats structure),6529.43
# CALLTREE;init_0;Main-PWSCF_0;run-PWSCF_0;run-PWSCF-electrons_function_1;electrons-electrons_scf_function_0;c_bands_function_13;diag_bands_k_function_3
# Job info - HDEEM
JOB ID,17280379.5
Nodelist,taurusi5525
AVG Runtime of function [s],47.347
MAX Runtime of function [s],47.347
MIN Runtime of function [s],47.347
# COUNTERS - HDEEM: 
AVG Energy consumption [J] (Stats structure),6385.5
MAX Energy consumption [J] (Stats structure),6385.5
MIN Energy consumption [J] (Stats structure),6385.5
SUM Energy consumption [J] (Stats structure),6385.5
# CALLTREE;init_0;Main-PWSCF_0;run-PWSCF_0;run-PWSCF-electrons_function_1;electrons-electrons_scf_function_0;c_bands_function_14;diag_bands_k_function_0
# Job info - HDEEM
JOB ID,17280379.5
Nodelist,taurusi5525
AVG Runtime of function [s],33.5761
MAX Runtime of function [s],33.5761
MIN Runtime of function [s],33.5761
# COUNTERS - HDEEM: 
AVG Energy consumption [J] (Stats structure),4541.55
MAX Energy consumption [J] (Stats structure),4541.55
MIN Energy consumption [J] (Stats structure),4541.55
SUM Energy consumption [J] (Stats structure),4541.55
# CALLTREE;init_0;Main-PWSCF_0;run-PWSCF_0;run-PWSCF-electrons_function_1;electrons-electrons_scf_function_0;c_bands_function_14;diag_bands_k_function_1
# Job info - HDEEM
JOB ID,17280379.5
Nodelist,taurusi5525
AVG Runtime of function [s],33.4901
MAX Runtime of function [s],33.4901
MIN Runtime of function [s],33.4901
# COUNTERS - HDEEM: 
AVG Energy consumption [J] (Stats structure),4513.02
MAX Energy consumption [J] (Stats structure),4513.02
MIN Energy consumption [J] (Stats structure),4513.02
SUM Energy consumption [J] (Stats structure),4513.02
# CALLTREE;init_0;Main-PWSCF_0;run-PWSCF_0;run-PWSCF-electrons_function_1;electrons-electrons_scf_function_0;c_bands_function_14;diag_bands_k_function_2
# Job info - HDEEM
JOB ID,17280379.5
Nodelist,taurusi5525
AVG Runtime of function [s],33.5428
MAX Runtime of function [s],33.5428
MIN Runtime of function [s],33.5428
# COUNTERS - HDEEM: 
AVG Energy consumption [J] (Stats structure),4536.41
MAX Energy consumption [J] (Stats structure),4536.41
MIN Energy consumption [J] (Stats structure),4536.41
SUM Energy consumption [J] (Stats structure),4536.41
# CALLTREE;init_0;Main-PWSCF_0;run-PWSCF_0;run-PWSCF-electrons_function_1;electrons-electrons_scf_function_0;c_bands_function_14;diag_bands_k_function_3
# Job info - HDEEM
JOB ID,17280379.5
Nodelist,taurusi5525
AVG Runtime of function [s],34.5429
MAX Runtime of function [s],34.5429
MIN Runtime of function [s],34.5429
# COUNTERS - HDEEM: 
AVG Energy consumption [J] (Stats structure),4660.55
MAX Energy consumption [J] (Stats structure),4660.55
MIN Energy consumption [J] (Stats structure),4660.55
SUM Energy consumption [J] (Stats structure),4660.55
