# CALLTREE;init_0;Main-PWSCF_0;run-PWSCF_0;run-PWSCF-electrons_function_1
# Job info - HDEEM
JOB ID,17280379.15
Nodelist,taurusi5525
AVG Runtime of function [s],5552.97
MAX Runtime of function [s],5552.97
MIN Runtime of function [s],5552.97
# COUNTERS - HDEEM: 
AVG Energy consumption [J] (Stats structure),735357
MAX Energy consumption [J] (Stats structure),735357
MIN Energy consumption [J] (Stats structure),735357
SUM Energy consumption [J] (Stats structure),735357
