# CALLTREE;init_0;Main-PWSCF_0;run-PWSCF_0;run-PWSCF-electrons_function_1
# Job info - HDEEM
JOB ID,17281565.17
Nodelist,taurusi5540
AVG Runtime of function [s],837.154
MAX Runtime of function [s],837.154
MIN Runtime of function [s],837.154
# COUNTERS - HDEEM: 
AVG Energy consumption [J] (Stats structure),139465
MAX Energy consumption [J] (Stats structure),139465
MIN Energy consumption [J] (Stats structure),139465
SUM Energy consumption [J] (Stats structure),139465
