# CALLTREE;init_0;Main-PWSCF_0;run-PWSCF_0;run-PWSCF-electrons_function_1
# Job info - HDEEM
JOB ID,17281565.16
Nodelist,taurusi5540
AVG Runtime of function [s],831.889
MAX Runtime of function [s],831.889
MIN Runtime of function [s],831.889
# COUNTERS - HDEEM: 
AVG Energy consumption [J] (Stats structure),146234
MAX Energy consumption [J] (Stats structure),146234
MIN Energy consumption [J] (Stats structure),146234
SUM Energy consumption [J] (Stats structure),146234
