# CALLTREE;init_0;Main-PWSCF_0;run-PWSCF_0;run-PWSCF-electrons_function_1;electrons-electrons_scf_function_0;c_bands_function_0
# Job info - HDEEM
JOB ID,17280379.8
Nodelist,taurusi5525
AVG Runtime of function [s],0.174489
MAX Runtime of function [s],0.174489
MIN Runtime of function [s],0.174489
# COUNTERS - HDEEM: 
AVG Energy consumption [J] (Stats structure),20.018
MAX Energy consumption [J] (Stats structure),20.018
MIN Energy consumption [J] (Stats structure),20.018
SUM Energy consumption [J] (Stats structure),20.018
# CALLTREE;init_0;Main-PWSCF_0;run-PWSCF_0;run-PWSCF-electrons_function_1;electrons-electrons_scf_function_0;c_bands_function_0
# Job info - HDEEM
JOB ID,17280379.8
Nodelist,taurusi5525
AVG Runtime of function [s],0.18017
MAX Runtime of function [s],0.18017
MIN Runtime of function [s],0.18017
# COUNTERS - HDEEM: 
AVG Energy consumption [J] (Stats structure),20.601
MAX Energy consumption [J] (Stats structure),20.601
MIN Energy consumption [J] (Stats structure),20.601
SUM Energy consumption [J] (Stats structure),20.601
# CALLTREE;init_0;Main-PWSCF_0;run-PWSCF_0;run-PWSCF-electrons_function_1;electrons-electrons_scf_function_0;c_bands_function_0
# Job info - HDEEM
JOB ID,17280379.8
Nodelist,taurusi5525
AVG Runtime of function [s],0.180254
MAX Runtime of function [s],0.180254
MIN Runtime of function [s],0.180254
# COUNTERS - HDEEM: 
AVG Energy consumption [J] (Stats structure),20.693
MAX Energy consumption [J] (Stats structure),20.693
MIN Energy consumption [J] (Stats structure),20.693
SUM Energy consumption [J] (Stats structure),20.693
# CALLTREE;init_0;Main-PWSCF_0;run-PWSCF_0;run-PWSCF-electrons_function_1;electrons-electrons_scf_function_0;c_bands_function_0
# Job info - HDEEM
JOB ID,17280379.8
Nodelist,taurusi5525
AVG Runtime of function [s],0.18006
MAX Runtime of function [s],0.18006
MIN Runtime of function [s],0.18006
# COUNTERS - HDEEM: 
AVG Energy consumption [J] (Stats structure),20.711
MAX Energy consumption [J] (Stats structure),20.711
MIN Energy consumption [J] (Stats structure),20.711
SUM Energy consumption [J] (Stats structure),20.711
# CALLTREE;init_0;Main-PWSCF_0;run-PWSCF_0;run-PWSCF-electrons_function_1;electrons-electrons_scf_function_0;c_bands_function_1
# Job info - HDEEM
JOB ID,17280379.8
Nodelist,taurusi5525
AVG Runtime of function [s],0.176346
MAX Runtime of function [s],0.176346
MIN Runtime of function [s],0.176346
# COUNTERS - HDEEM: 
AVG Energy consumption [J] (Stats structure),20.242
MAX Energy consumption [J] (Stats structure),20.242
MIN Energy consumption [J] (Stats structure),20.242
SUM Energy consumption [J] (Stats structure),20.242
# CALLTREE;init_0;Main-PWSCF_0;run-PWSCF_0;run-PWSCF-electrons_function_1;electrons-electrons_scf_function_0;c_bands_function_1
# Job info - HDEEM
JOB ID,17280379.8
Nodelist,taurusi5525
AVG Runtime of function [s],0.178138
MAX Runtime of function [s],0.178138
MIN Runtime of function [s],0.178138
# COUNTERS - HDEEM: 
AVG Energy consumption [J] (Stats structure),20.477
MAX Energy consumption [J] (Stats structure),20.477
MIN Energy consumption [J] (Stats structure),20.477
SUM Energy consumption [J] (Stats structure),20.477
# CALLTREE;init_0;Main-PWSCF_0;run-PWSCF_0;run-PWSCF-electrons_function_1;electrons-electrons_scf_function_0;c_bands_function_1
# Job info - HDEEM
JOB ID,17280379.8
Nodelist,taurusi5525
AVG Runtime of function [s],0.177542
MAX Runtime of function [s],0.177542
MIN Runtime of function [s],0.177542
# COUNTERS - HDEEM: 
AVG Energy consumption [J] (Stats structure),22.125
MAX Energy consumption [J] (Stats structure),22.125
MIN Energy consumption [J] (Stats structure),22.125
SUM Energy consumption [J] (Stats structure),22.125
# CALLTREE;init_0;Main-PWSCF_0;run-PWSCF_0;run-PWSCF-electrons_function_1;electrons-electrons_scf_function_0;c_bands_function_1
# Job info - HDEEM
JOB ID,17280379.8
Nodelist,taurusi5525
AVG Runtime of function [s],0.178488
MAX Runtime of function [s],0.178488
MIN Runtime of function [s],0.178488
# COUNTERS - HDEEM: 
AVG Energy consumption [J] (Stats structure),20.471
MAX Energy consumption [J] (Stats structure),20.471
MIN Energy consumption [J] (Stats structure),20.471
SUM Energy consumption [J] (Stats structure),20.471
# CALLTREE;init_0;Main-PWSCF_0;run-PWSCF_0;run-PWSCF-electrons_function_1;electrons-electrons_scf_function_0;c_bands_function_2
# Job info - HDEEM
JOB ID,17280379.8
Nodelist,taurusi5525
AVG Runtime of function [s],0.178227
MAX Runtime of function [s],0.178227
MIN Runtime of function [s],0.178227
# COUNTERS - HDEEM: 
AVG Energy consumption [J] (Stats structure),20.454
MAX Energy consumption [J] (Stats structure),20.454
MIN Energy consumption [J] (Stats structure),20.454
SUM Energy consumption [J] (Stats structure),20.454
# CALLTREE;init_0;Main-PWSCF_0;run-PWSCF_0;run-PWSCF-electrons_function_1;electrons-electrons_scf_function_0;c_bands_function_2
# Job info - HDEEM
JOB ID,17280379.8
Nodelist,taurusi5525
AVG Runtime of function [s],0.179312
MAX Runtime of function [s],0.179312
MIN Runtime of function [s],0.179312
# COUNTERS - HDEEM: 
AVG Energy consumption [J] (Stats structure),23.297
MAX Energy consumption [J] (Stats structure),23.297
MIN Energy consumption [J] (Stats structure),23.297
SUM Energy consumption [J] (Stats structure),23.297
# CALLTREE;init_0;Main-PWSCF_0;run-PWSCF_0;run-PWSCF-electrons_function_1;electrons-electrons_scf_function_0;c_bands_function_2
# Job info - HDEEM
JOB ID,17280379.8
Nodelist,taurusi5525
AVG Runtime of function [s],0.177761
MAX Runtime of function [s],0.177761
MIN Runtime of function [s],0.177761
# COUNTERS - HDEEM: 
AVG Energy consumption [J] (Stats structure),20.5
MAX Energy consumption [J] (Stats structure),20.5
MIN Energy consumption [J] (Stats structure),20.5
SUM Energy consumption [J] (Stats structure),20.5
# CALLTREE;init_0;Main-PWSCF_0;run-PWSCF_0;run-PWSCF-electrons_function_1;electrons-electrons_scf_function_0;c_bands_function_2
# Job info - HDEEM
JOB ID,17280379.8
Nodelist,taurusi5525
AVG Runtime of function [s],0.178374
MAX Runtime of function [s],0.178374
MIN Runtime of function [s],0.178374
# COUNTERS - HDEEM: 
AVG Energy consumption [J] (Stats structure),20.392
MAX Energy consumption [J] (Stats structure),20.392
MIN Energy consumption [J] (Stats structure),20.392
SUM Energy consumption [J] (Stats structure),20.392
# CALLTREE;init_0;Main-PWSCF_0;run-PWSCF_0;run-PWSCF-electrons_function_1;electrons-electrons_scf_function_0;c_bands_function_3
# Job info - HDEEM
JOB ID,17280379.8
Nodelist,taurusi5525
AVG Runtime of function [s],0.177945
MAX Runtime of function [s],0.177945
MIN Runtime of function [s],0.177945
# COUNTERS - HDEEM: 
AVG Energy consumption [J] (Stats structure),20.36
MAX Energy consumption [J] (Stats structure),20.36
MIN Energy consumption [J] (Stats structure),20.36
SUM Energy consumption [J] (Stats structure),20.36
# CALLTREE;init_0;Main-PWSCF_0;run-PWSCF_0;run-PWSCF-electrons_function_1;electrons-electrons_scf_function_0;c_bands_function_3
# Job info - HDEEM
JOB ID,17280379.8
Nodelist,taurusi5525
AVG Runtime of function [s],0.178644
MAX Runtime of function [s],0.178644
MIN Runtime of function [s],0.178644
# COUNTERS - HDEEM: 
AVG Energy consumption [J] (Stats structure),20.493
MAX Energy consumption [J] (Stats structure),20.493
MIN Energy consumption [J] (Stats structure),20.493
SUM Energy consumption [J] (Stats structure),20.493
# CALLTREE;init_0;Main-PWSCF_0;run-PWSCF_0;run-PWSCF-electrons_function_1;electrons-electrons_scf_function_0;c_bands_function_3
# Job info - HDEEM
JOB ID,17280379.8
Nodelist,taurusi5525
AVG Runtime of function [s],0.178285
MAX Runtime of function [s],0.178285
MIN Runtime of function [s],0.178285
# COUNTERS - HDEEM: 
AVG Energy consumption [J] (Stats structure),20.495
MAX Energy consumption [J] (Stats structure),20.495
MIN Energy consumption [J] (Stats structure),20.495
SUM Energy consumption [J] (Stats structure),20.495
# CALLTREE;init_0;Main-PWSCF_0;run-PWSCF_0;run-PWSCF-electrons_function_1;electrons-electrons_scf_function_0;c_bands_function_3
# Job info - HDEEM
JOB ID,17280379.8
Nodelist,taurusi5525
AVG Runtime of function [s],0.178775
MAX Runtime of function [s],0.178775
MIN Runtime of function [s],0.178775
# COUNTERS - HDEEM: 
AVG Energy consumption [J] (Stats structure),20.492
MAX Energy consumption [J] (Stats structure),20.492
MIN Energy consumption [J] (Stats structure),20.492
SUM Energy consumption [J] (Stats structure),20.492
# CALLTREE;init_0;Main-PWSCF_0;run-PWSCF_0;run-PWSCF-electrons_function_1;electrons-electrons_scf_function_0;c_bands_function_4
# Job info - HDEEM
JOB ID,17280379.8
Nodelist,taurusi5525
AVG Runtime of function [s],0.175665
MAX Runtime of function [s],0.175665
MIN Runtime of function [s],0.175665
# COUNTERS - HDEEM: 
AVG Energy consumption [J] (Stats structure),20.141
MAX Energy consumption [J] (Stats structure),20.141
MIN Energy consumption [J] (Stats structure),20.141
SUM Energy consumption [J] (Stats structure),20.141
# CALLTREE;init_0;Main-PWSCF_0;run-PWSCF_0;run-PWSCF-electrons_function_1;electrons-electrons_scf_function_0;c_bands_function_4
# Job info - HDEEM
JOB ID,17280379.8
Nodelist,taurusi5525
AVG Runtime of function [s],0.178275
MAX Runtime of function [s],0.178275
MIN Runtime of function [s],0.178275
# COUNTERS - HDEEM: 
AVG Energy consumption [J] (Stats structure),20.377
MAX Energy consumption [J] (Stats structure),20.377
MIN Energy consumption [J] (Stats structure),20.377
SUM Energy consumption [J] (Stats structure),20.377
# CALLTREE;init_0;Main-PWSCF_0;run-PWSCF_0;run-PWSCF-electrons_function_1;electrons-electrons_scf_function_0;c_bands_function_4
# Job info - HDEEM
JOB ID,17280379.8
Nodelist,taurusi5525
AVG Runtime of function [s],0.178484
MAX Runtime of function [s],0.178484
MIN Runtime of function [s],0.178484
# COUNTERS - HDEEM: 
AVG Energy consumption [J] (Stats structure),20.369
MAX Energy consumption [J] (Stats structure),20.369
MIN Energy consumption [J] (Stats structure),20.369
SUM Energy consumption [J] (Stats structure),20.369
# CALLTREE;init_0;Main-PWSCF_0;run-PWSCF_0;run-PWSCF-electrons_function_1;electrons-electrons_scf_function_0;c_bands_function_4
# Job info - HDEEM
JOB ID,17280379.8
Nodelist,taurusi5525
AVG Runtime of function [s],0.17904
MAX Runtime of function [s],0.17904
MIN Runtime of function [s],0.17904
# COUNTERS - HDEEM: 
AVG Energy consumption [J] (Stats structure),20.444
MAX Energy consumption [J] (Stats structure),20.444
MIN Energy consumption [J] (Stats structure),20.444
SUM Energy consumption [J] (Stats structure),20.444
# CALLTREE;init_0;Main-PWSCF_0;run-PWSCF_0;run-PWSCF-electrons_function_1;electrons-electrons_scf_function_0;c_bands_function_5
# Job info - HDEEM
JOB ID,17280379.8
Nodelist,taurusi5525
AVG Runtime of function [s],0.178343
MAX Runtime of function [s],0.178343
MIN Runtime of function [s],0.178343
# COUNTERS - HDEEM: 
AVG Energy consumption [J] (Stats structure),20.454
MAX Energy consumption [J] (Stats structure),20.454
MIN Energy consumption [J] (Stats structure),20.454
SUM Energy consumption [J] (Stats structure),20.454
# CALLTREE;init_0;Main-PWSCF_0;run-PWSCF_0;run-PWSCF-electrons_function_1;electrons-electrons_scf_function_0;c_bands_function_5
# Job info - HDEEM
JOB ID,17280379.8
Nodelist,taurusi5525
AVG Runtime of function [s],0.178663
MAX Runtime of function [s],0.178663
MIN Runtime of function [s],0.178663
# COUNTERS - HDEEM: 
AVG Energy consumption [J] (Stats structure),20.471
MAX Energy consumption [J] (Stats structure),20.471
MIN Energy consumption [J] (Stats structure),20.471
SUM Energy consumption [J] (Stats structure),20.471
# CALLTREE;init_0;Main-PWSCF_0;run-PWSCF_0;run-PWSCF-electrons_function_1;electrons-electrons_scf_function_0;c_bands_function_5
# Job info - HDEEM
JOB ID,17280379.8
Nodelist,taurusi5525
AVG Runtime of function [s],0.178732
MAX Runtime of function [s],0.178732
MIN Runtime of function [s],0.178732
# COUNTERS - HDEEM: 
AVG Energy consumption [J] (Stats structure),20.49
MAX Energy consumption [J] (Stats structure),20.49
MIN Energy consumption [J] (Stats structure),20.49
SUM Energy consumption [J] (Stats structure),20.49
# CALLTREE;init_0;Main-PWSCF_0;run-PWSCF_0;run-PWSCF-electrons_function_1;electrons-electrons_scf_function_0;c_bands_function_5
# Job info - HDEEM
JOB ID,17280379.8
Nodelist,taurusi5525
AVG Runtime of function [s],0.17876
MAX Runtime of function [s],0.17876
MIN Runtime of function [s],0.17876
# COUNTERS - HDEEM: 
AVG Energy consumption [J] (Stats structure),20.477
MAX Energy consumption [J] (Stats structure),20.477
MIN Energy consumption [J] (Stats structure),20.477
SUM Energy consumption [J] (Stats structure),20.477
# CALLTREE;init_0;Main-PWSCF_0;run-PWSCF_0;run-PWSCF-electrons_function_1;electrons-electrons_scf_function_0;c_bands_function_6
# Job info - HDEEM
JOB ID,17280379.8
Nodelist,taurusi5525
AVG Runtime of function [s],0.178024
MAX Runtime of function [s],0.178024
MIN Runtime of function [s],0.178024
# COUNTERS - HDEEM: 
AVG Energy consumption [J] (Stats structure),20.336
MAX Energy consumption [J] (Stats structure),20.336
MIN Energy consumption [J] (Stats structure),20.336
SUM Energy consumption [J] (Stats structure),20.336
# CALLTREE;init_0;Main-PWSCF_0;run-PWSCF_0;run-PWSCF-electrons_function_1;electrons-electrons_scf_function_0;c_bands_function_6
# Job info - HDEEM
JOB ID,17280379.8
Nodelist,taurusi5525
AVG Runtime of function [s],0.17866
MAX Runtime of function [s],0.17866
MIN Runtime of function [s],0.17866
# COUNTERS - HDEEM: 
AVG Energy consumption [J] (Stats structure),20.494
MAX Energy consumption [J] (Stats structure),20.494
MIN Energy consumption [J] (Stats structure),20.494
SUM Energy consumption [J] (Stats structure),20.494
# CALLTREE;init_0;Main-PWSCF_0;run-PWSCF_0;run-PWSCF-electrons_function_1;electrons-electrons_scf_function_0;c_bands_function_6
# Job info - HDEEM
JOB ID,17280379.8
Nodelist,taurusi5525
AVG Runtime of function [s],0.178807
MAX Runtime of function [s],0.178807
MIN Runtime of function [s],0.178807
# COUNTERS - HDEEM: 
AVG Energy consumption [J] (Stats structure),20.586
MAX Energy consumption [J] (Stats structure),20.586
MIN Energy consumption [J] (Stats structure),20.586
SUM Energy consumption [J] (Stats structure),20.586
# CALLTREE;init_0;Main-PWSCF_0;run-PWSCF_0;run-PWSCF-electrons_function_1;electrons-electrons_scf_function_0;c_bands_function_6
# Job info - HDEEM
JOB ID,17280379.8
Nodelist,taurusi5525
AVG Runtime of function [s],0.178683
MAX Runtime of function [s],0.178683
MIN Runtime of function [s],0.178683
# COUNTERS - HDEEM: 
AVG Energy consumption [J] (Stats structure),20.503
MAX Energy consumption [J] (Stats structure),20.503
MIN Energy consumption [J] (Stats structure),20.503
SUM Energy consumption [J] (Stats structure),20.503
# CALLTREE;init_0;Main-PWSCF_0;run-PWSCF_0;run-PWSCF-electrons_function_1;electrons-electrons_scf_function_0;c_bands_function_7
# Job info - HDEEM
JOB ID,17280379.8
Nodelist,taurusi5525
AVG Runtime of function [s],0.178018
MAX Runtime of function [s],0.178018
MIN Runtime of function [s],0.178018
# COUNTERS - HDEEM: 
AVG Energy consumption [J] (Stats structure),20.356
MAX Energy consumption [J] (Stats structure),20.356
MIN Energy consumption [J] (Stats structure),20.356
SUM Energy consumption [J] (Stats structure),20.356
# CALLTREE;init_0;Main-PWSCF_0;run-PWSCF_0;run-PWSCF-electrons_function_1;electrons-electrons_scf_function_0;c_bands_function_7
# Job info - HDEEM
JOB ID,17280379.8
Nodelist,taurusi5525
AVG Runtime of function [s],0.178639
MAX Runtime of function [s],0.178639
MIN Runtime of function [s],0.178639
# COUNTERS - HDEEM: 
AVG Energy consumption [J] (Stats structure),20.465
MAX Energy consumption [J] (Stats structure),20.465
MIN Energy consumption [J] (Stats structure),20.465
SUM Energy consumption [J] (Stats structure),20.465
# CALLTREE;init_0;Main-PWSCF_0;run-PWSCF_0;run-PWSCF-electrons_function_1;electrons-electrons_scf_function_0;c_bands_function_7
# Job info - HDEEM
JOB ID,17280379.8
Nodelist,taurusi5525
AVG Runtime of function [s],0.178734
MAX Runtime of function [s],0.178734
MIN Runtime of function [s],0.178734
# COUNTERS - HDEEM: 
AVG Energy consumption [J] (Stats structure),20.481
MAX Energy consumption [J] (Stats structure),20.481
MIN Energy consumption [J] (Stats structure),20.481
SUM Energy consumption [J] (Stats structure),20.481
# CALLTREE;init_0;Main-PWSCF_0;run-PWSCF_0;run-PWSCF-electrons_function_1;electrons-electrons_scf_function_0;c_bands_function_7
# Job info - HDEEM
JOB ID,17280379.8
Nodelist,taurusi5525
AVG Runtime of function [s],0.179011
MAX Runtime of function [s],0.179011
MIN Runtime of function [s],0.179011
# COUNTERS - HDEEM: 
AVG Energy consumption [J] (Stats structure),20.491
MAX Energy consumption [J] (Stats structure),20.491
MIN Energy consumption [J] (Stats structure),20.491
SUM Energy consumption [J] (Stats structure),20.491
# CALLTREE;init_0;Main-PWSCF_0;run-PWSCF_0;run-PWSCF-electrons_function_1;electrons-electrons_scf_function_0;c_bands_function_8
# Job info - HDEEM
JOB ID,17280379.8
Nodelist,taurusi5525
AVG Runtime of function [s],0.178181
MAX Runtime of function [s],0.178181
MIN Runtime of function [s],0.178181
# COUNTERS - HDEEM: 
AVG Energy consumption [J] (Stats structure),20.341
MAX Energy consumption [J] (Stats structure),20.341
MIN Energy consumption [J] (Stats structure),20.341
SUM Energy consumption [J] (Stats structure),20.341
# CALLTREE;init_0;Main-PWSCF_0;run-PWSCF_0;run-PWSCF-electrons_function_1;electrons-electrons_scf_function_0;c_bands_function_8
# Job info - HDEEM
JOB ID,17280379.8
Nodelist,taurusi5525
AVG Runtime of function [s],0.178416
MAX Runtime of function [s],0.178416
MIN Runtime of function [s],0.178416
# COUNTERS - HDEEM: 
AVG Energy consumption [J] (Stats structure),20.489
MAX Energy consumption [J] (Stats structure),20.489
MIN Energy consumption [J] (Stats structure),20.489
SUM Energy consumption [J] (Stats structure),20.489
# CALLTREE;init_0;Main-PWSCF_0;run-PWSCF_0;run-PWSCF-electrons_function_1;electrons-electrons_scf_function_0;c_bands_function_8
# Job info - HDEEM
JOB ID,17280379.8
Nodelist,taurusi5525
AVG Runtime of function [s],0.178548
MAX Runtime of function [s],0.178548
MIN Runtime of function [s],0.178548
# COUNTERS - HDEEM: 
AVG Energy consumption [J] (Stats structure),20.475
MAX Energy consumption [J] (Stats structure),20.475
MIN Energy consumption [J] (Stats structure),20.475
SUM Energy consumption [J] (Stats structure),20.475
# CALLTREE;init_0;Main-PWSCF_0;run-PWSCF_0;run-PWSCF-electrons_function_1;electrons-electrons_scf_function_0;c_bands_function_8
# Job info - HDEEM
JOB ID,17280379.8
Nodelist,taurusi5525
AVG Runtime of function [s],0.178917
MAX Runtime of function [s],0.178917
MIN Runtime of function [s],0.178917
# COUNTERS - HDEEM: 
AVG Energy consumption [J] (Stats structure),20.506
MAX Energy consumption [J] (Stats structure),20.506
MIN Energy consumption [J] (Stats structure),20.506
SUM Energy consumption [J] (Stats structure),20.506
# CALLTREE;init_0;Main-PWSCF_0;run-PWSCF_0;run-PWSCF-electrons_function_1;electrons-electrons_scf_function_0;c_bands_function_9
# Job info - HDEEM
JOB ID,17280379.8
Nodelist,taurusi5525
AVG Runtime of function [s],0.178425
MAX Runtime of function [s],0.178425
MIN Runtime of function [s],0.178425
# COUNTERS - HDEEM: 
AVG Energy consumption [J] (Stats structure),20.475
MAX Energy consumption [J] (Stats structure),20.475
MIN Energy consumption [J] (Stats structure),20.475
SUM Energy consumption [J] (Stats structure),20.475
# CALLTREE;init_0;Main-PWSCF_0;run-PWSCF_0;run-PWSCF-electrons_function_1;electrons-electrons_scf_function_0;c_bands_function_9
# Job info - HDEEM
JOB ID,17280379.8
Nodelist,taurusi5525
AVG Runtime of function [s],0.178745
MAX Runtime of function [s],0.178745
MIN Runtime of function [s],0.178745
# COUNTERS - HDEEM: 
AVG Energy consumption [J] (Stats structure),20.495
MAX Energy consumption [J] (Stats structure),20.495
MIN Energy consumption [J] (Stats structure),20.495
SUM Energy consumption [J] (Stats structure),20.495
# CALLTREE;init_0;Main-PWSCF_0;run-PWSCF_0;run-PWSCF-electrons_function_1;electrons-electrons_scf_function_0;c_bands_function_9
# Job info - HDEEM
JOB ID,17280379.8
Nodelist,taurusi5525
AVG Runtime of function [s],0.178642
MAX Runtime of function [s],0.178642
MIN Runtime of function [s],0.178642
# COUNTERS - HDEEM: 
AVG Energy consumption [J] (Stats structure),20.494
MAX Energy consumption [J] (Stats structure),20.494
MIN Energy consumption [J] (Stats structure),20.494
SUM Energy consumption [J] (Stats structure),20.494
# CALLTREE;init_0;Main-PWSCF_0;run-PWSCF_0;run-PWSCF-electrons_function_1;electrons-electrons_scf_function_0;c_bands_function_9
# Job info - HDEEM
JOB ID,17280379.8
Nodelist,taurusi5525
AVG Runtime of function [s],0.178764
MAX Runtime of function [s],0.178764
MIN Runtime of function [s],0.178764
# COUNTERS - HDEEM: 
AVG Energy consumption [J] (Stats structure),20.488
MAX Energy consumption [J] (Stats structure),20.488
MIN Energy consumption [J] (Stats structure),20.488
SUM Energy consumption [J] (Stats structure),20.488
# CALLTREE;init_0;Main-PWSCF_0;run-PWSCF_0;run-PWSCF-electrons_function_1;electrons-electrons_scf_function_0;c_bands_function_10
# Job info - HDEEM
JOB ID,17280379.8
Nodelist,taurusi5525
AVG Runtime of function [s],0.178332
MAX Runtime of function [s],0.178332
MIN Runtime of function [s],0.178332
# COUNTERS - HDEEM: 
AVG Energy consumption [J] (Stats structure),20.364
MAX Energy consumption [J] (Stats structure),20.364
MIN Energy consumption [J] (Stats structure),20.364
SUM Energy consumption [J] (Stats structure),20.364
# CALLTREE;init_0;Main-PWSCF_0;run-PWSCF_0;run-PWSCF-electrons_function_1;electrons-electrons_scf_function_0;c_bands_function_10
# Job info - HDEEM
JOB ID,17280379.8
Nodelist,taurusi5525
AVG Runtime of function [s],0.178848
MAX Runtime of function [s],0.178848
MIN Runtime of function [s],0.178848
# COUNTERS - HDEEM: 
AVG Energy consumption [J] (Stats structure),20.482
MAX Energy consumption [J] (Stats structure),20.482
MIN Energy consumption [J] (Stats structure),20.482
SUM Energy consumption [J] (Stats structure),20.482
# CALLTREE;init_0;Main-PWSCF_0;run-PWSCF_0;run-PWSCF-electrons_function_1;electrons-electrons_scf_function_0;c_bands_function_10
# Job info - HDEEM
JOB ID,17280379.8
Nodelist,taurusi5525
AVG Runtime of function [s],0.17812
MAX Runtime of function [s],0.17812
MIN Runtime of function [s],0.17812
# COUNTERS - HDEEM: 
AVG Energy consumption [J] (Stats structure),21.88
MAX Energy consumption [J] (Stats structure),21.88
MIN Energy consumption [J] (Stats structure),21.88
SUM Energy consumption [J] (Stats structure),21.88
# CALLTREE;init_0;Main-PWSCF_0;run-PWSCF_0;run-PWSCF-electrons_function_1;electrons-electrons_scf_function_0;c_bands_function_10
# Job info - HDEEM
JOB ID,17280379.8
Nodelist,taurusi5525
AVG Runtime of function [s],0.178871
MAX Runtime of function [s],0.178871
MIN Runtime of function [s],0.178871
# COUNTERS - HDEEM: 
AVG Energy consumption [J] (Stats structure),20.478
MAX Energy consumption [J] (Stats structure),20.478
MIN Energy consumption [J] (Stats structure),20.478
SUM Energy consumption [J] (Stats structure),20.478
# CALLTREE;init_0;Main-PWSCF_0;run-PWSCF_0;run-PWSCF-electrons_function_1;electrons-electrons_scf_function_0;c_bands_function_11
# Job info - HDEEM
JOB ID,17280379.8
Nodelist,taurusi5525
AVG Runtime of function [s],0.178318
MAX Runtime of function [s],0.178318
MIN Runtime of function [s],0.178318
# COUNTERS - HDEEM: 
AVG Energy consumption [J] (Stats structure),20.454
MAX Energy consumption [J] (Stats structure),20.454
MIN Energy consumption [J] (Stats structure),20.454
SUM Energy consumption [J] (Stats structure),20.454
# CALLTREE;init_0;Main-PWSCF_0;run-PWSCF_0;run-PWSCF-electrons_function_1;electrons-electrons_scf_function_0;c_bands_function_11
# Job info - HDEEM
JOB ID,17280379.8
Nodelist,taurusi5525
AVG Runtime of function [s],0.178663
MAX Runtime of function [s],0.178663
MIN Runtime of function [s],0.178663
# COUNTERS - HDEEM: 
AVG Energy consumption [J] (Stats structure),20.505
MAX Energy consumption [J] (Stats structure),20.505
MIN Energy consumption [J] (Stats structure),20.505
SUM Energy consumption [J] (Stats structure),20.505
# CALLTREE;init_0;Main-PWSCF_0;run-PWSCF_0;run-PWSCF-electrons_function_1;electrons-electrons_scf_function_0;c_bands_function_11
# Job info - HDEEM
JOB ID,17280379.8
Nodelist,taurusi5525
AVG Runtime of function [s],0.178863
MAX Runtime of function [s],0.178863
MIN Runtime of function [s],0.178863
# COUNTERS - HDEEM: 
AVG Energy consumption [J] (Stats structure),20.494
MAX Energy consumption [J] (Stats structure),20.494
MIN Energy consumption [J] (Stats structure),20.494
SUM Energy consumption [J] (Stats structure),20.494
# CALLTREE;init_0;Main-PWSCF_0;run-PWSCF_0;run-PWSCF-electrons_function_1;electrons-electrons_scf_function_0;c_bands_function_11
# Job info - HDEEM
JOB ID,17280379.8
Nodelist,taurusi5525
AVG Runtime of function [s],0.178453
MAX Runtime of function [s],0.178453
MIN Runtime of function [s],0.178453
# COUNTERS - HDEEM: 
AVG Energy consumption [J] (Stats structure),24.29
MAX Energy consumption [J] (Stats structure),24.29
MIN Energy consumption [J] (Stats structure),24.29
SUM Energy consumption [J] (Stats structure),24.29
# CALLTREE;init_0;Main-PWSCF_0;run-PWSCF_0;run-PWSCF-electrons_function_1;electrons-electrons_scf_function_0;c_bands_function_12
# Job info - HDEEM
JOB ID,17280379.8
Nodelist,taurusi5525
AVG Runtime of function [s],0.178324
MAX Runtime of function [s],0.178324
MIN Runtime of function [s],0.178324
# COUNTERS - HDEEM: 
AVG Energy consumption [J] (Stats structure),20.477
MAX Energy consumption [J] (Stats structure),20.477
MIN Energy consumption [J] (Stats structure),20.477
SUM Energy consumption [J] (Stats structure),20.477
# CALLTREE;init_0;Main-PWSCF_0;run-PWSCF_0;run-PWSCF-electrons_function_1;electrons-electrons_scf_function_0;c_bands_function_12
# Job info - HDEEM
JOB ID,17280379.8
Nodelist,taurusi5525
AVG Runtime of function [s],0.178775
MAX Runtime of function [s],0.178775
MIN Runtime of function [s],0.178775
# COUNTERS - HDEEM: 
AVG Energy consumption [J] (Stats structure),20.489
MAX Energy consumption [J] (Stats structure),20.489
MIN Energy consumption [J] (Stats structure),20.489
SUM Energy consumption [J] (Stats structure),20.489
# CALLTREE;init_0;Main-PWSCF_0;run-PWSCF_0;run-PWSCF-electrons_function_1;electrons-electrons_scf_function_0;c_bands_function_12
# Job info - HDEEM
JOB ID,17280379.8
Nodelist,taurusi5525
AVG Runtime of function [s],0.178832
MAX Runtime of function [s],0.178832
MIN Runtime of function [s],0.178832
# COUNTERS - HDEEM: 
AVG Energy consumption [J] (Stats structure),20.503
MAX Energy consumption [J] (Stats structure),20.503
MIN Energy consumption [J] (Stats structure),20.503
SUM Energy consumption [J] (Stats structure),20.503
# CALLTREE;init_0;Main-PWSCF_0;run-PWSCF_0;run-PWSCF-electrons_function_1;electrons-electrons_scf_function_0;c_bands_function_12
# Job info - HDEEM
JOB ID,17280379.8
Nodelist,taurusi5525
AVG Runtime of function [s],0.179173
MAX Runtime of function [s],0.179173
MIN Runtime of function [s],0.179173
# COUNTERS - HDEEM: 
AVG Energy consumption [J] (Stats structure),20.6
MAX Energy consumption [J] (Stats structure),20.6
MIN Energy consumption [J] (Stats structure),20.6
SUM Energy consumption [J] (Stats structure),20.6
# CALLTREE;init_0;Main-PWSCF_0;run-PWSCF_0;run-PWSCF-electrons_function_1;electrons-electrons_scf_function_0;c_bands_function_13
# Job info - HDEEM
JOB ID,17280379.8
Nodelist,taurusi5525
AVG Runtime of function [s],0.178111
MAX Runtime of function [s],0.178111
MIN Runtime of function [s],0.178111
# COUNTERS - HDEEM: 
AVG Energy consumption [J] (Stats structure),20.329
MAX Energy consumption [J] (Stats structure),20.329
MIN Energy consumption [J] (Stats structure),20.329
SUM Energy consumption [J] (Stats structure),20.329
# CALLTREE;init_0;Main-PWSCF_0;run-PWSCF_0;run-PWSCF-electrons_function_1;electrons-electrons_scf_function_0;c_bands_function_13
# Job info - HDEEM
JOB ID,17280379.8
Nodelist,taurusi5525
AVG Runtime of function [s],0.178742
MAX Runtime of function [s],0.178742
MIN Runtime of function [s],0.178742
# COUNTERS - HDEEM: 
AVG Energy consumption [J] (Stats structure),20.584
MAX Energy consumption [J] (Stats structure),20.584
MIN Energy consumption [J] (Stats structure),20.584
SUM Energy consumption [J] (Stats structure),20.584
# CALLTREE;init_0;Main-PWSCF_0;run-PWSCF_0;run-PWSCF-electrons_function_1;electrons-electrons_scf_function_0;c_bands_function_13
# Job info - HDEEM
JOB ID,17280379.8
Nodelist,taurusi5525
AVG Runtime of function [s],0.178716
MAX Runtime of function [s],0.178716
MIN Runtime of function [s],0.178716
# COUNTERS - HDEEM: 
AVG Energy consumption [J] (Stats structure),20.502
MAX Energy consumption [J] (Stats structure),20.502
MIN Energy consumption [J] (Stats structure),20.502
SUM Energy consumption [J] (Stats structure),20.502
# CALLTREE;init_0;Main-PWSCF_0;run-PWSCF_0;run-PWSCF-electrons_function_1;electrons-electrons_scf_function_0;c_bands_function_13
# Job info - HDEEM
JOB ID,17280379.8
Nodelist,taurusi5525
AVG Runtime of function [s],0.178428
MAX Runtime of function [s],0.178428
MIN Runtime of function [s],0.178428
# COUNTERS - HDEEM: 
AVG Energy consumption [J] (Stats structure),21.411
MAX Energy consumption [J] (Stats structure),21.411
MIN Energy consumption [J] (Stats structure),21.411
SUM Energy consumption [J] (Stats structure),21.411
# CALLTREE;init_0;Main-PWSCF_0;run-PWSCF_0;run-PWSCF-electrons_function_1;electrons-electrons_scf_function_0;c_bands_function_14
# Job info - HDEEM
JOB ID,17280379.8
Nodelist,taurusi5525
AVG Runtime of function [s],0.178128
MAX Runtime of function [s],0.178128
MIN Runtime of function [s],0.178128
# COUNTERS - HDEEM: 
AVG Energy consumption [J] (Stats structure),20.343
MAX Energy consumption [J] (Stats structure),20.343
MIN Energy consumption [J] (Stats structure),20.343
SUM Energy consumption [J] (Stats structure),20.343
# CALLTREE;init_0;Main-PWSCF_0;run-PWSCF_0;run-PWSCF-electrons_function_1;electrons-electrons_scf_function_0;c_bands_function_14
# Job info - HDEEM
JOB ID,17280379.8
Nodelist,taurusi5525
AVG Runtime of function [s],0.178583
MAX Runtime of function [s],0.178583
MIN Runtime of function [s],0.178583
# COUNTERS - HDEEM: 
AVG Energy consumption [J] (Stats structure),20.541
MAX Energy consumption [J] (Stats structure),20.541
MIN Energy consumption [J] (Stats structure),20.541
SUM Energy consumption [J] (Stats structure),20.541
# CALLTREE;init_0;Main-PWSCF_0;run-PWSCF_0;run-PWSCF-electrons_function_1;electrons-electrons_scf_function_0;c_bands_function_14
# Job info - HDEEM
JOB ID,17280379.8
Nodelist,taurusi5525
AVG Runtime of function [s],0.178694
MAX Runtime of function [s],0.178694
MIN Runtime of function [s],0.178694
# COUNTERS - HDEEM: 
AVG Energy consumption [J] (Stats structure),20.49
MAX Energy consumption [J] (Stats structure),20.49
MIN Energy consumption [J] (Stats structure),20.49
SUM Energy consumption [J] (Stats structure),20.49
# CALLTREE;init_0;Main-PWSCF_0;run-PWSCF_0;run-PWSCF-electrons_function_1;electrons-electrons_scf_function_0;c_bands_function_14
# Job info - HDEEM
JOB ID,17280379.8
Nodelist,taurusi5525
AVG Runtime of function [s],0.178954
MAX Runtime of function [s],0.178954
MIN Runtime of function [s],0.178954
# COUNTERS - HDEEM: 
AVG Energy consumption [J] (Stats structure),20.485
MAX Energy consumption [J] (Stats structure),20.485
MIN Energy consumption [J] (Stats structure),20.485
SUM Energy consumption [J] (Stats structure),20.485
