# CALLTREE;init_0;Main-PWSCF_0;run-PWSCF_0;run-PWSCF-electrons_function_1;electrons-electrons_scf_function_0
# Job info - HDEEM
JOB ID,17280379.10
Nodelist,taurusi5525
AVG Runtime of function [s],0.457088
MAX Runtime of function [s],0.457088
MIN Runtime of function [s],0.457088
# COUNTERS - HDEEM: 
AVG Energy consumption [J] (Stats structure),60.87
MAX Energy consumption [J] (Stats structure),60.87
MIN Energy consumption [J] (Stats structure),60.87
SUM Energy consumption [J] (Stats structure),60.87
# CALLTREE;init_0;Main-PWSCF_0;run-PWSCF_0;run-PWSCF-electrons_function_1;electrons-electrons_scf_function_0
# Job info - HDEEM
JOB ID,17280379.10
Nodelist,taurusi5525
AVG Runtime of function [s],0.456363
MAX Runtime of function [s],0.456363
MIN Runtime of function [s],0.456363
# COUNTERS - HDEEM: 
AVG Energy consumption [J] (Stats structure),60.729
MAX Energy consumption [J] (Stats structure),60.729
MIN Energy consumption [J] (Stats structure),60.729
SUM Energy consumption [J] (Stats structure),60.729
# CALLTREE;init_0;Main-PWSCF_0;run-PWSCF_0;run-PWSCF-electrons_function_1;electrons-electrons_scf_function_0
# Job info - HDEEM
JOB ID,17280379.10
Nodelist,taurusi5525
AVG Runtime of function [s],0.455578
MAX Runtime of function [s],0.455578
MIN Runtime of function [s],0.455578
# COUNTERS - HDEEM: 
AVG Energy consumption [J] (Stats structure),60.741
MAX Energy consumption [J] (Stats structure),60.741
MIN Energy consumption [J] (Stats structure),60.741
SUM Energy consumption [J] (Stats structure),60.741
# CALLTREE;init_0;Main-PWSCF_0;run-PWSCF_0;run-PWSCF-electrons_function_1;electrons-electrons_scf_function_0
# Job info - HDEEM
JOB ID,17280379.10
Nodelist,taurusi5525
AVG Runtime of function [s],0.457062
MAX Runtime of function [s],0.457062
MIN Runtime of function [s],0.457062
# COUNTERS - HDEEM: 
AVG Energy consumption [J] (Stats structure),62.518
MAX Energy consumption [J] (Stats structure),62.518
MIN Energy consumption [J] (Stats structure),62.518
SUM Energy consumption [J] (Stats structure),62.518
# CALLTREE;init_0;Main-PWSCF_0;run-PWSCF_0;run-PWSCF-electrons_function_1;electrons-electrons_scf_function_0
# Job info - HDEEM
JOB ID,17280379.10
Nodelist,taurusi5525
AVG Runtime of function [s],0.456193
MAX Runtime of function [s],0.456193
MIN Runtime of function [s],0.456193
# COUNTERS - HDEEM: 
AVG Energy consumption [J] (Stats structure),60.759
MAX Energy consumption [J] (Stats structure),60.759
MIN Energy consumption [J] (Stats structure),60.759
SUM Energy consumption [J] (Stats structure),60.759
# CALLTREE;init_0;Main-PWSCF_0;run-PWSCF_0;run-PWSCF-electrons_function_1;electrons-electrons_scf_function_0
# Job info - HDEEM
JOB ID,17280379.10
Nodelist,taurusi5525
AVG Runtime of function [s],0.455075
MAX Runtime of function [s],0.455075
MIN Runtime of function [s],0.455075
# COUNTERS - HDEEM: 
AVG Energy consumption [J] (Stats structure),60.772
MAX Energy consumption [J] (Stats structure),60.772
MIN Energy consumption [J] (Stats structure),60.772
SUM Energy consumption [J] (Stats structure),60.772
# CALLTREE;init_0;Main-PWSCF_0;run-PWSCF_0;run-PWSCF-electrons_function_1;electrons-electrons_scf_function_0
# Job info - HDEEM
JOB ID,17280379.10
Nodelist,taurusi5525
AVG Runtime of function [s],0.455139
MAX Runtime of function [s],0.455139
MIN Runtime of function [s],0.455139
# COUNTERS - HDEEM: 
AVG Energy consumption [J] (Stats structure),60.597
MAX Energy consumption [J] (Stats structure),60.597
MIN Energy consumption [J] (Stats structure),60.597
SUM Energy consumption [J] (Stats structure),60.597
# CALLTREE;init_0;Main-PWSCF_0;run-PWSCF_0;run-PWSCF-electrons_function_1;electrons-electrons_scf_function_0
# Job info - HDEEM
JOB ID,17280379.10
Nodelist,taurusi5525
AVG Runtime of function [s],0.454779
MAX Runtime of function [s],0.454779
MIN Runtime of function [s],0.454779
# COUNTERS - HDEEM: 
AVG Energy consumption [J] (Stats structure),60.617
MAX Energy consumption [J] (Stats structure),60.617
MIN Energy consumption [J] (Stats structure),60.617
SUM Energy consumption [J] (Stats structure),60.617
# CALLTREE;init_0;Main-PWSCF_0;run-PWSCF_0;run-PWSCF-electrons_function_1;electrons-electrons_scf_function_0
# Job info - HDEEM
JOB ID,17280379.10
Nodelist,taurusi5525
AVG Runtime of function [s],0.455343
MAX Runtime of function [s],0.455343
MIN Runtime of function [s],0.455343
# COUNTERS - HDEEM: 
AVG Energy consumption [J] (Stats structure),60.755
MAX Energy consumption [J] (Stats structure),60.755
MIN Energy consumption [J] (Stats structure),60.755
SUM Energy consumption [J] (Stats structure),60.755
# CALLTREE;init_0;Main-PWSCF_0;run-PWSCF_0;run-PWSCF-electrons_function_1;electrons-electrons_scf_function_0
# Job info - HDEEM
JOB ID,17280379.10
Nodelist,taurusi5525
AVG Runtime of function [s],0.455412
MAX Runtime of function [s],0.455412
MIN Runtime of function [s],0.455412
# COUNTERS - HDEEM: 
AVG Energy consumption [J] (Stats structure),60.77
MAX Energy consumption [J] (Stats structure),60.77
MIN Energy consumption [J] (Stats structure),60.77
SUM Energy consumption [J] (Stats structure),60.77
# CALLTREE;init_0;Main-PWSCF_0;run-PWSCF_0;run-PWSCF-electrons_function_1;electrons-electrons_scf_function_0
# Job info - HDEEM
JOB ID,17280379.10
Nodelist,taurusi5525
AVG Runtime of function [s],0.457453
MAX Runtime of function [s],0.457453
MIN Runtime of function [s],0.457453
# COUNTERS - HDEEM: 
AVG Energy consumption [J] (Stats structure),61.563
MAX Energy consumption [J] (Stats structure),61.563
MIN Energy consumption [J] (Stats structure),61.563
SUM Energy consumption [J] (Stats structure),61.563
# CALLTREE;init_0;Main-PWSCF_0;run-PWSCF_0;run-PWSCF-electrons_function_1;electrons-electrons_scf_function_0
# Job info - HDEEM
JOB ID,17280379.10
Nodelist,taurusi5525
AVG Runtime of function [s],0.455484
MAX Runtime of function [s],0.455484
MIN Runtime of function [s],0.455484
# COUNTERS - HDEEM: 
AVG Energy consumption [J] (Stats structure),60.606
MAX Energy consumption [J] (Stats structure),60.606
MIN Energy consumption [J] (Stats structure),60.606
SUM Energy consumption [J] (Stats structure),60.606
# CALLTREE;init_0;Main-PWSCF_0;run-PWSCF_0;run-PWSCF-electrons_function_1;electrons-electrons_scf_function_0
# Job info - HDEEM
JOB ID,17280379.10
Nodelist,taurusi5525
AVG Runtime of function [s],0.470843
MAX Runtime of function [s],0.470843
MIN Runtime of function [s],0.470843
# COUNTERS - HDEEM: 
AVG Energy consumption [J] (Stats structure),62.737
MAX Energy consumption [J] (Stats structure),62.737
MIN Energy consumption [J] (Stats structure),62.737
SUM Energy consumption [J] (Stats structure),62.737
