# CALLTREE;init_0;Main-PWSCF_0;run-PWSCF_0;run-PWSCF-electrons_function_1;electrons-electrons_scf_function_0
# Job info - HDEEM
JOB ID,17280379.6
Nodelist,taurusi5525
AVG Runtime of function [s],0.39203
MAX Runtime of function [s],0.39203
MIN Runtime of function [s],0.39203
# COUNTERS - HDEEM: 
AVG Energy consumption [J] (Stats structure),48.753
MAX Energy consumption [J] (Stats structure),48.753
MIN Energy consumption [J] (Stats structure),48.753
SUM Energy consumption [J] (Stats structure),48.753
# CALLTREE;init_0;Main-PWSCF_0;run-PWSCF_0;run-PWSCF-electrons_function_1;electrons-electrons_scf_function_0
# Job info - HDEEM
JOB ID,17280379.6
Nodelist,taurusi5525
AVG Runtime of function [s],0.392904
MAX Runtime of function [s],0.392904
MIN Runtime of function [s],0.392904
# COUNTERS - HDEEM: 
AVG Energy consumption [J] (Stats structure),48.699
MAX Energy consumption [J] (Stats structure),48.699
MIN Energy consumption [J] (Stats structure),48.699
SUM Energy consumption [J] (Stats structure),48.699
# CALLTREE;init_0;Main-PWSCF_0;run-PWSCF_0;run-PWSCF-electrons_function_1;electrons-electrons_scf_function_0
# Job info - HDEEM
JOB ID,17280379.6
Nodelist,taurusi5525
AVG Runtime of function [s],0.391843
MAX Runtime of function [s],0.391843
MIN Runtime of function [s],0.391843
# COUNTERS - HDEEM: 
AVG Energy consumption [J] (Stats structure),48.601
MAX Energy consumption [J] (Stats structure),48.601
MIN Energy consumption [J] (Stats structure),48.601
SUM Energy consumption [J] (Stats structure),48.601
# CALLTREE;init_0;Main-PWSCF_0;run-PWSCF_0;run-PWSCF-electrons_function_1;electrons-electrons_scf_function_0
# Job info - HDEEM
JOB ID,17280379.6
Nodelist,taurusi5525
AVG Runtime of function [s],0.392072
MAX Runtime of function [s],0.392072
MIN Runtime of function [s],0.392072
# COUNTERS - HDEEM: 
AVG Energy consumption [J] (Stats structure),48.582
MAX Energy consumption [J] (Stats structure),48.582
MIN Energy consumption [J] (Stats structure),48.582
SUM Energy consumption [J] (Stats structure),48.582
# CALLTREE;init_0;Main-PWSCF_0;run-PWSCF_0;run-PWSCF-electrons_function_1;electrons-electrons_scf_function_0
# Job info - HDEEM
JOB ID,17280379.6
Nodelist,taurusi5525
AVG Runtime of function [s],0.39281
MAX Runtime of function [s],0.39281
MIN Runtime of function [s],0.39281
# COUNTERS - HDEEM: 
AVG Energy consumption [J] (Stats structure),48.7
MAX Energy consumption [J] (Stats structure),48.7
MIN Energy consumption [J] (Stats structure),48.7
SUM Energy consumption [J] (Stats structure),48.7
# CALLTREE;init_0;Main-PWSCF_0;run-PWSCF_0;run-PWSCF-electrons_function_1;electrons-electrons_scf_function_0
# Job info - HDEEM
JOB ID,17280379.6
Nodelist,taurusi5525
AVG Runtime of function [s],0.393141
MAX Runtime of function [s],0.393141
MIN Runtime of function [s],0.393141
# COUNTERS - HDEEM: 
AVG Energy consumption [J] (Stats structure),48.714
MAX Energy consumption [J] (Stats structure),48.714
MIN Energy consumption [J] (Stats structure),48.714
SUM Energy consumption [J] (Stats structure),48.714
# CALLTREE;init_0;Main-PWSCF_0;run-PWSCF_0;run-PWSCF-electrons_function_1;electrons-electrons_scf_function_0
# Job info - HDEEM
JOB ID,17280379.6
Nodelist,taurusi5525
AVG Runtime of function [s],0.392419
MAX Runtime of function [s],0.392419
MIN Runtime of function [s],0.392419
# COUNTERS - HDEEM: 
AVG Energy consumption [J] (Stats structure),48.695
MAX Energy consumption [J] (Stats structure),48.695
MIN Energy consumption [J] (Stats structure),48.695
SUM Energy consumption [J] (Stats structure),48.695
# CALLTREE;init_0;Main-PWSCF_0;run-PWSCF_0;run-PWSCF-electrons_function_1;electrons-electrons_scf_function_0
# Job info - HDEEM
JOB ID,17280379.6
Nodelist,taurusi5525
AVG Runtime of function [s],0.392349
MAX Runtime of function [s],0.392349
MIN Runtime of function [s],0.392349
# COUNTERS - HDEEM: 
AVG Energy consumption [J] (Stats structure),48.588
MAX Energy consumption [J] (Stats structure),48.588
MIN Energy consumption [J] (Stats structure),48.588
SUM Energy consumption [J] (Stats structure),48.588
# CALLTREE;init_0;Main-PWSCF_0;run-PWSCF_0;run-PWSCF-electrons_function_1;electrons-electrons_scf_function_0
# Job info - HDEEM
JOB ID,17280379.6
Nodelist,taurusi5525
AVG Runtime of function [s],0.392353
MAX Runtime of function [s],0.392353
MIN Runtime of function [s],0.392353
# COUNTERS - HDEEM: 
AVG Energy consumption [J] (Stats structure),48.563
MAX Energy consumption [J] (Stats structure),48.563
MIN Energy consumption [J] (Stats structure),48.563
SUM Energy consumption [J] (Stats structure),48.563
# CALLTREE;init_0;Main-PWSCF_0;run-PWSCF_0;run-PWSCF-electrons_function_1;electrons-electrons_scf_function_0
# Job info - HDEEM
JOB ID,17280379.6
Nodelist,taurusi5525
AVG Runtime of function [s],0.391524
MAX Runtime of function [s],0.391524
MIN Runtime of function [s],0.391524
# COUNTERS - HDEEM: 
AVG Energy consumption [J] (Stats structure),48.452
MAX Energy consumption [J] (Stats structure),48.452
MIN Energy consumption [J] (Stats structure),48.452
SUM Energy consumption [J] (Stats structure),48.452
# CALLTREE;init_0;Main-PWSCF_0;run-PWSCF_0;run-PWSCF-electrons_function_1;electrons-electrons_scf_function_0
# Job info - HDEEM
JOB ID,17280379.6
Nodelist,taurusi5525
AVG Runtime of function [s],0.395069
MAX Runtime of function [s],0.395069
MIN Runtime of function [s],0.395069
# COUNTERS - HDEEM: 
AVG Energy consumption [J] (Stats structure),49.049
MAX Energy consumption [J] (Stats structure),49.049
MIN Energy consumption [J] (Stats structure),49.049
SUM Energy consumption [J] (Stats structure),49.049
# CALLTREE;init_0;Main-PWSCF_0;run-PWSCF_0;run-PWSCF-electrons_function_1;electrons-electrons_scf_function_0
# Job info - HDEEM
JOB ID,17280379.6
Nodelist,taurusi5525
AVG Runtime of function [s],0.393616
MAX Runtime of function [s],0.393616
MIN Runtime of function [s],0.393616
# COUNTERS - HDEEM: 
AVG Energy consumption [J] (Stats structure),48.831
MAX Energy consumption [J] (Stats structure),48.831
MIN Energy consumption [J] (Stats structure),48.831
SUM Energy consumption [J] (Stats structure),48.831
# CALLTREE;init_0;Main-PWSCF_0;run-PWSCF_0;run-PWSCF-electrons_function_1;electrons-electrons_scf_function_0
# Job info - HDEEM
JOB ID,17280379.6
Nodelist,taurusi5525
AVG Runtime of function [s],0.406207
MAX Runtime of function [s],0.406207
MIN Runtime of function [s],0.406207
# COUNTERS - HDEEM: 
AVG Energy consumption [J] (Stats structure),50.271
MAX Energy consumption [J] (Stats structure),50.271
MIN Energy consumption [J] (Stats structure),50.271
SUM Energy consumption [J] (Stats structure),50.271
