# CALLTREE;init_0;Main-PWSCF_0;run-PWSCF_0;run-PWSCF-electrons_function_1;electrons-electrons_scf_function_0
# Job info - HDEEM
JOB ID,17280379.2
Nodelist,taurusi5525
AVG Runtime of function [s],0.354741
MAX Runtime of function [s],0.354741
MIN Runtime of function [s],0.354741
# COUNTERS - HDEEM: 
AVG Energy consumption [J] (Stats structure),41.315
MAX Energy consumption [J] (Stats structure),41.315
MIN Energy consumption [J] (Stats structure),41.315
SUM Energy consumption [J] (Stats structure),41.315
# CALLTREE;init_0;Main-PWSCF_0;run-PWSCF_0;run-PWSCF-electrons_function_1;electrons-electrons_scf_function_0
# Job info - HDEEM
JOB ID,17280379.2
Nodelist,taurusi5525
AVG Runtime of function [s],0.35492
MAX Runtime of function [s],0.35492
MIN Runtime of function [s],0.35492
# COUNTERS - HDEEM: 
AVG Energy consumption [J] (Stats structure),41.414
MAX Energy consumption [J] (Stats structure),41.414
MIN Energy consumption [J] (Stats structure),41.414
SUM Energy consumption [J] (Stats structure),41.414
# CALLTREE;init_0;Main-PWSCF_0;run-PWSCF_0;run-PWSCF-electrons_function_1;electrons-electrons_scf_function_0
# Job info - HDEEM
JOB ID,17280379.2
Nodelist,taurusi5525
AVG Runtime of function [s],0.355428
MAX Runtime of function [s],0.355428
MIN Runtime of function [s],0.355428
# COUNTERS - HDEEM: 
AVG Energy consumption [J] (Stats structure),41.436
MAX Energy consumption [J] (Stats structure),41.436
MIN Energy consumption [J] (Stats structure),41.436
SUM Energy consumption [J] (Stats structure),41.436
# CALLTREE;init_0;Main-PWSCF_0;run-PWSCF_0;run-PWSCF-electrons_function_1;electrons-electrons_scf_function_0
# Job info - HDEEM
JOB ID,17280379.2
Nodelist,taurusi5525
AVG Runtime of function [s],0.355438
MAX Runtime of function [s],0.355438
MIN Runtime of function [s],0.355438
# COUNTERS - HDEEM: 
AVG Energy consumption [J] (Stats structure),41.557
MAX Energy consumption [J] (Stats structure),41.557
MIN Energy consumption [J] (Stats structure),41.557
SUM Energy consumption [J] (Stats structure),41.557
# CALLTREE;init_0;Main-PWSCF_0;run-PWSCF_0;run-PWSCF-electrons_function_1;electrons-electrons_scf_function_0
# Job info - HDEEM
JOB ID,17280379.2
Nodelist,taurusi5525
AVG Runtime of function [s],0.355564
MAX Runtime of function [s],0.355564
MIN Runtime of function [s],0.355564
# COUNTERS - HDEEM: 
AVG Energy consumption [J] (Stats structure),41.525
MAX Energy consumption [J] (Stats structure),41.525
MIN Energy consumption [J] (Stats structure),41.525
SUM Energy consumption [J] (Stats structure),41.525
# CALLTREE;init_0;Main-PWSCF_0;run-PWSCF_0;run-PWSCF-electrons_function_1;electrons-electrons_scf_function_0
# Job info - HDEEM
JOB ID,17280379.2
Nodelist,taurusi5525
AVG Runtime of function [s],0.354691
MAX Runtime of function [s],0.354691
MIN Runtime of function [s],0.354691
# COUNTERS - HDEEM: 
AVG Energy consumption [J] (Stats structure),41.415
MAX Energy consumption [J] (Stats structure),41.415
MIN Energy consumption [J] (Stats structure),41.415
SUM Energy consumption [J] (Stats structure),41.415
# CALLTREE;init_0;Main-PWSCF_0;run-PWSCF_0;run-PWSCF-electrons_function_1;electrons-electrons_scf_function_0
# Job info - HDEEM
JOB ID,17280379.2
Nodelist,taurusi5525
AVG Runtime of function [s],0.355677
MAX Runtime of function [s],0.355677
MIN Runtime of function [s],0.355677
# COUNTERS - HDEEM: 
AVG Energy consumption [J] (Stats structure),41.868
MAX Energy consumption [J] (Stats structure),41.868
MIN Energy consumption [J] (Stats structure),41.868
SUM Energy consumption [J] (Stats structure),41.868
# CALLTREE;init_0;Main-PWSCF_0;run-PWSCF_0;run-PWSCF-electrons_function_1;electrons-electrons_scf_function_0
# Job info - HDEEM
JOB ID,17280379.2
Nodelist,taurusi5525
AVG Runtime of function [s],0.355541
MAX Runtime of function [s],0.355541
MIN Runtime of function [s],0.355541
# COUNTERS - HDEEM: 
AVG Energy consumption [J] (Stats structure),41.54
MAX Energy consumption [J] (Stats structure),41.54
MIN Energy consumption [J] (Stats structure),41.54
SUM Energy consumption [J] (Stats structure),41.54
# CALLTREE;init_0;Main-PWSCF_0;run-PWSCF_0;run-PWSCF-electrons_function_1;electrons-electrons_scf_function_0
# Job info - HDEEM
JOB ID,17280379.2
Nodelist,taurusi5525
AVG Runtime of function [s],0.355527
MAX Runtime of function [s],0.355527
MIN Runtime of function [s],0.355527
# COUNTERS - HDEEM: 
AVG Energy consumption [J] (Stats structure),41.568
MAX Energy consumption [J] (Stats structure),41.568
MIN Energy consumption [J] (Stats structure),41.568
SUM Energy consumption [J] (Stats structure),41.568
# CALLTREE;init_0;Main-PWSCF_0;run-PWSCF_0;run-PWSCF-electrons_function_1;electrons-electrons_scf_function_0
# Job info - HDEEM
JOB ID,17280379.2
Nodelist,taurusi5525
AVG Runtime of function [s],0.355633
MAX Runtime of function [s],0.355633
MIN Runtime of function [s],0.355633
# COUNTERS - HDEEM: 
AVG Energy consumption [J] (Stats structure),41.555
MAX Energy consumption [J] (Stats structure),41.555
MIN Energy consumption [J] (Stats structure),41.555
SUM Energy consumption [J] (Stats structure),41.555
# CALLTREE;init_0;Main-PWSCF_0;run-PWSCF_0;run-PWSCF-electrons_function_1;electrons-electrons_scf_function_0
# Job info - HDEEM
JOB ID,17280379.2
Nodelist,taurusi5525
AVG Runtime of function [s],0.356001
MAX Runtime of function [s],0.356001
MIN Runtime of function [s],0.356001
# COUNTERS - HDEEM: 
AVG Energy consumption [J] (Stats structure),41.53
MAX Energy consumption [J] (Stats structure),41.53
MIN Energy consumption [J] (Stats structure),41.53
SUM Energy consumption [J] (Stats structure),41.53
# CALLTREE;init_0;Main-PWSCF_0;run-PWSCF_0;run-PWSCF-electrons_function_1;electrons-electrons_scf_function_0
# Job info - HDEEM
JOB ID,17280379.2
Nodelist,taurusi5525
AVG Runtime of function [s],0.355381
MAX Runtime of function [s],0.355381
MIN Runtime of function [s],0.355381
# COUNTERS - HDEEM: 
AVG Energy consumption [J] (Stats structure),41.602
MAX Energy consumption [J] (Stats structure),41.602
MIN Energy consumption [J] (Stats structure),41.602
SUM Energy consumption [J] (Stats structure),41.602
# CALLTREE;init_0;Main-PWSCF_0;run-PWSCF_0;run-PWSCF-electrons_function_1;electrons-electrons_scf_function_0
# Job info - HDEEM
JOB ID,17280379.2
Nodelist,taurusi5525
AVG Runtime of function [s],0.367526
MAX Runtime of function [s],0.367526
MIN Runtime of function [s],0.367526
# COUNTERS - HDEEM: 
AVG Energy consumption [J] (Stats structure),42.93
MAX Energy consumption [J] (Stats structure),42.93
MIN Energy consumption [J] (Stats structure),42.93
SUM Energy consumption [J] (Stats structure),42.93
