# CALLTREE;init_0;Main-PWSCF_0;run-PWSCF_0;run-PWSCF-electrons_function_1;electrons-electrons_scf_function_0
# Job info - HDEEM
JOB ID,17281896.16
Nodelist,taurusi5610
AVG Runtime of function [s],0.0232328
MAX Runtime of function [s],0.0232328
MIN Runtime of function [s],0.0232328
# COUNTERS - HDEEM: 
AVG Energy consumption [J] (Stats structure),5.008
MAX Energy consumption [J] (Stats structure),5.008
MIN Energy consumption [J] (Stats structure),5.008
SUM Energy consumption [J] (Stats structure),5.008
