# CALLTREE;init_0;Main-PWSCF_0;run-PWSCF_0
# Job info - HDEEM
JOB ID,17280379.9
Nodelist,taurusi5525
AVG Runtime of function [s],134.721
MAX Runtime of function [s],134.721
MIN Runtime of function [s],134.721
# COUNTERS - HDEEM: 
AVG Energy consumption [J] (Stats structure),14102.7
MAX Energy consumption [J] (Stats structure),14102.7
MIN Energy consumption [J] (Stats structure),14102.7
SUM Energy consumption [J] (Stats structure),14102.7
# CALLTREE;init_0;Main-PWSCF_0;run-PWSCF_0
# Job info - HDEEM
JOB ID,17280379.9
Nodelist,taurusi5525
AVG Runtime of function [s],4199.82
MAX Runtime of function [s],4199.82
MIN Runtime of function [s],4199.82
# COUNTERS - HDEEM: 
AVG Energy consumption [J] (Stats structure),439878
MAX Energy consumption [J] (Stats structure),439878
MIN Energy consumption [J] (Stats structure),439878
SUM Energy consumption [J] (Stats structure),439878
