# CALLTREE;init_0;Main-PWSCF_0;run-PWSCF_0
# Job info - HDEEM
JOB ID,17280379.5
Nodelist,taurusi5525
AVG Runtime of function [s],122.943
MAX Runtime of function [s],122.943
MIN Runtime of function [s],122.943
# COUNTERS - HDEEM: 
AVG Energy consumption [J] (Stats structure),16571.9
MAX Energy consumption [J] (Stats structure),16571.9
MIN Energy consumption [J] (Stats structure),16571.9
SUM Energy consumption [J] (Stats structure),16571.9
# CALLTREE;init_0;Main-PWSCF_0;run-PWSCF_0
# Job info - HDEEM
JOB ID,17280379.5
Nodelist,taurusi5525
AVG Runtime of function [s],3796.31
MAX Runtime of function [s],3796.31
MIN Runtime of function [s],3796.31
# COUNTERS - HDEEM: 
AVG Energy consumption [J] (Stats structure),512710
MAX Energy consumption [J] (Stats structure),512710
MIN Energy consumption [J] (Stats structure),512710
SUM Energy consumption [J] (Stats structure),512710
