# CALLTREE;init_0;Main-PWSCF_0;run-PWSCF_0
# Job info - HDEEM
JOB ID,17280379.1
Nodelist,taurusi5525
AVG Runtime of function [s],109.566
MAX Runtime of function [s],109.566
MIN Runtime of function [s],109.566
# COUNTERS - HDEEM: 
AVG Energy consumption [J] (Stats structure),13809.7
MAX Energy consumption [J] (Stats structure),13809.7
MIN Energy consumption [J] (Stats structure),13809.7
SUM Energy consumption [J] (Stats structure),13809.7
# CALLTREE;init_0;Main-PWSCF_0;run-PWSCF_0
# Job info - HDEEM
JOB ID,17280379.1
Nodelist,taurusi5525
AVG Runtime of function [s],3391.8
MAX Runtime of function [s],3391.8
MIN Runtime of function [s],3391.8
# COUNTERS - HDEEM: 
AVG Energy consumption [J] (Stats structure),427803
MAX Energy consumption [J] (Stats structure),427803
MIN Energy consumption [J] (Stats structure),427803
SUM Energy consumption [J] (Stats structure),427803
