# CALLTREE;init_0;Main-PWSCF_0;run-PWSCF_0
# Job info - HDEEM
JOB ID,17280379.10
Nodelist,taurusi5525
AVG Runtime of function [s],144.85
MAX Runtime of function [s],144.85
MIN Runtime of function [s],144.85
# COUNTERS - HDEEM: 
AVG Energy consumption [J] (Stats structure),19287.7
MAX Energy consumption [J] (Stats structure),19287.7
MIN Energy consumption [J] (Stats structure),19287.7
SUM Energy consumption [J] (Stats structure),19287.7
# CALLTREE;init_0;Main-PWSCF_0;run-PWSCF_0
# Job info - HDEEM
JOB ID,17280379.10
Nodelist,taurusi5525
AVG Runtime of function [s],4459.65
MAX Runtime of function [s],4459.65
MIN Runtime of function [s],4459.65
# COUNTERS - HDEEM: 
AVG Energy consumption [J] (Stats structure),594755
MAX Energy consumption [J] (Stats structure),594755
MIN Energy consumption [J] (Stats structure),594755
SUM Energy consumption [J] (Stats structure),594755
