# CALLTREE;init_0;Main-PWSCF_0;run-PWSCF_0;run-PWSCF-electrons_function_1;electrons-electrons_scf_function_0
# Job info - HDEEM
JOB ID,17281565.13
Nodelist,taurusi5540
AVG Runtime of function [s],7.49454
MAX Runtime of function [s],7.49454
MIN Runtime of function [s],7.49454
# COUNTERS - HDEEM: 
AVG Energy consumption [J] (Stats structure),1280.02
MAX Energy consumption [J] (Stats structure),1280.02
MIN Energy consumption [J] (Stats structure),1280.02
SUM Energy consumption [J] (Stats structure),1280.02
# CALLTREE;init_0;Main-PWSCF_0;run-PWSCF_0;run-PWSCF-electrons_function_1;electrons-electrons_scf_function_0
# Job info - HDEEM
JOB ID,17281565.13
Nodelist,taurusi5540
AVG Runtime of function [s],7.49534
MAX Runtime of function [s],7.49534
MIN Runtime of function [s],7.49534
# COUNTERS - HDEEM: 
AVG Energy consumption [J] (Stats structure),1280.33
MAX Energy consumption [J] (Stats structure),1280.33
MIN Energy consumption [J] (Stats structure),1280.33
SUM Energy consumption [J] (Stats structure),1280.33
# CALLTREE;init_0;Main-PWSCF_0;run-PWSCF_0;run-PWSCF-electrons_function_1;electrons-electrons_scf_function_0
# Job info - HDEEM
JOB ID,17281565.13
Nodelist,taurusi5540
AVG Runtime of function [s],7.4972
MAX Runtime of function [s],7.4972
MIN Runtime of function [s],7.4972
# COUNTERS - HDEEM: 
AVG Energy consumption [J] (Stats structure),1280.78
MAX Energy consumption [J] (Stats structure),1280.78
MIN Energy consumption [J] (Stats structure),1280.78
SUM Energy consumption [J] (Stats structure),1280.78
# CALLTREE;init_0;Main-PWSCF_0;run-PWSCF_0;run-PWSCF-electrons_function_1;electrons-electrons_scf_function_0
# Job info - HDEEM
JOB ID,17281565.13
Nodelist,taurusi5540
AVG Runtime of function [s],7.51258
MAX Runtime of function [s],7.51258
MIN Runtime of function [s],7.51258
# COUNTERS - HDEEM: 
AVG Energy consumption [J] (Stats structure),1282.42
MAX Energy consumption [J] (Stats structure),1282.42
MIN Energy consumption [J] (Stats structure),1282.42
SUM Energy consumption [J] (Stats structure),1282.42
# CALLTREE;init_0;Main-PWSCF_0;run-PWSCF_0;run-PWSCF-electrons_function_1;electrons-electrons_scf_function_0
# Job info - HDEEM
JOB ID,17281565.13
Nodelist,taurusi5540
AVG Runtime of function [s],7.48499
MAX Runtime of function [s],7.48499
MIN Runtime of function [s],7.48499
# COUNTERS - HDEEM: 
AVG Energy consumption [J] (Stats structure),1278.11
MAX Energy consumption [J] (Stats structure),1278.11
MIN Energy consumption [J] (Stats structure),1278.11
SUM Energy consumption [J] (Stats structure),1278.11
# CALLTREE;init_0;Main-PWSCF_0;run-PWSCF_0;run-PWSCF-electrons_function_1;electrons-electrons_scf_function_0
# Job info - HDEEM
JOB ID,17281565.13
Nodelist,taurusi5540
AVG Runtime of function [s],7.46834
MAX Runtime of function [s],7.46834
MIN Runtime of function [s],7.46834
# COUNTERS - HDEEM: 
AVG Energy consumption [J] (Stats structure),1275.4
MAX Energy consumption [J] (Stats structure),1275.4
MIN Energy consumption [J] (Stats structure),1275.4
SUM Energy consumption [J] (Stats structure),1275.4
# CALLTREE;init_0;Main-PWSCF_0;run-PWSCF_0;run-PWSCF-electrons_function_1;electrons-electrons_scf_function_0
# Job info - HDEEM
JOB ID,17281565.13
Nodelist,taurusi5540
AVG Runtime of function [s],7.47832
MAX Runtime of function [s],7.47832
MIN Runtime of function [s],7.47832
# COUNTERS - HDEEM: 
AVG Energy consumption [J] (Stats structure),1277.04
MAX Energy consumption [J] (Stats structure),1277.04
MIN Energy consumption [J] (Stats structure),1277.04
SUM Energy consumption [J] (Stats structure),1277.04
# CALLTREE;init_0;Main-PWSCF_0;run-PWSCF_0;run-PWSCF-electrons_function_1;electrons-electrons_scf_function_0
# Job info - HDEEM
JOB ID,17281565.13
Nodelist,taurusi5540
AVG Runtime of function [s],7.49051
MAX Runtime of function [s],7.49051
MIN Runtime of function [s],7.49051
# COUNTERS - HDEEM: 
AVG Energy consumption [J] (Stats structure),1278.75
MAX Energy consumption [J] (Stats structure),1278.75
MIN Energy consumption [J] (Stats structure),1278.75
SUM Energy consumption [J] (Stats structure),1278.75
# CALLTREE;init_0;Main-PWSCF_0;run-PWSCF_0;run-PWSCF-electrons_function_1;electrons-electrons_scf_function_0
# Job info - HDEEM
JOB ID,17281565.13
Nodelist,taurusi5540
AVG Runtime of function [s],7.51948
MAX Runtime of function [s],7.51948
MIN Runtime of function [s],7.51948
# COUNTERS - HDEEM: 
AVG Energy consumption [J] (Stats structure),1283.56
MAX Energy consumption [J] (Stats structure),1283.56
MIN Energy consumption [J] (Stats structure),1283.56
SUM Energy consumption [J] (Stats structure),1283.56
# CALLTREE;init_0;Main-PWSCF_0;run-PWSCF_0;run-PWSCF-electrons_function_1;electrons-electrons_scf_function_0
# Job info - HDEEM
JOB ID,17281565.13
Nodelist,taurusi5540
AVG Runtime of function [s],7.48951
MAX Runtime of function [s],7.48951
MIN Runtime of function [s],7.48951
# COUNTERS - HDEEM: 
AVG Energy consumption [J] (Stats structure),1279.09
MAX Energy consumption [J] (Stats structure),1279.09
MIN Energy consumption [J] (Stats structure),1279.09
SUM Energy consumption [J] (Stats structure),1279.09
# CALLTREE;init_0;Main-PWSCF_0;run-PWSCF_0;run-PWSCF-electrons_function_1;electrons-electrons_scf_function_0
# Job info - HDEEM
JOB ID,17281565.13
Nodelist,taurusi5540
AVG Runtime of function [s],7.47766
MAX Runtime of function [s],7.47766
MIN Runtime of function [s],7.47766
# COUNTERS - HDEEM: 
AVG Energy consumption [J] (Stats structure),1276.99
MAX Energy consumption [J] (Stats structure),1276.99
MIN Energy consumption [J] (Stats structure),1276.99
SUM Energy consumption [J] (Stats structure),1276.99
# CALLTREE;init_0;Main-PWSCF_0;run-PWSCF_0;run-PWSCF-electrons_function_1;electrons-electrons_scf_function_0
# Job info - HDEEM
JOB ID,17281565.13
Nodelist,taurusi5540
AVG Runtime of function [s],7.49222
MAX Runtime of function [s],7.49222
MIN Runtime of function [s],7.49222
# COUNTERS - HDEEM: 
AVG Energy consumption [J] (Stats structure),1279.26
MAX Energy consumption [J] (Stats structure),1279.26
MIN Energy consumption [J] (Stats structure),1279.26
SUM Energy consumption [J] (Stats structure),1279.26
# CALLTREE;init_0;Main-PWSCF_0;run-PWSCF_0;run-PWSCF-electrons_function_1;electrons-electrons_scf_function_0
# Job info - HDEEM
JOB ID,17281565.13
Nodelist,taurusi5540
AVG Runtime of function [s],7.44084
MAX Runtime of function [s],7.44084
MIN Runtime of function [s],7.44084
# COUNTERS - HDEEM: 
AVG Energy consumption [J] (Stats structure),1271.16
MAX Energy consumption [J] (Stats structure),1271.16
MIN Energy consumption [J] (Stats structure),1271.16
SUM Energy consumption [J] (Stats structure),1271.16
# CALLTREE;init_0;Main-PWSCF_0;run-PWSCF_0;run-PWSCF-electrons_function_1;electrons-electrons_scf_function_0
# Job info - HDEEM
JOB ID,17281565.13
Nodelist,taurusi5540
AVG Runtime of function [s],7.45673
MAX Runtime of function [s],7.45673
MIN Runtime of function [s],7.45673
# COUNTERS - HDEEM: 
AVG Energy consumption [J] (Stats structure),1273.71
MAX Energy consumption [J] (Stats structure),1273.71
MIN Energy consumption [J] (Stats structure),1273.71
SUM Energy consumption [J] (Stats structure),1273.71
# CALLTREE;init_0;Main-PWSCF_0;run-PWSCF_0;run-PWSCF-electrons_function_1;electrons-electrons_scf_function_0
# Job info - HDEEM
JOB ID,17281565.13
Nodelist,taurusi5540
AVG Runtime of function [s],7.46994
MAX Runtime of function [s],7.46994
MIN Runtime of function [s],7.46994
# COUNTERS - HDEEM: 
AVG Energy consumption [J] (Stats structure),1275.81
MAX Energy consumption [J] (Stats structure),1275.81
MIN Energy consumption [J] (Stats structure),1275.81
SUM Energy consumption [J] (Stats structure),1275.81
# CALLTREE;init_0;Main-PWSCF_0;run-PWSCF_0;run-PWSCF-electrons_function_1;electrons-electrons_scf_function_0
# Job info - HDEEM
JOB ID,17281565.13
Nodelist,taurusi5540
AVG Runtime of function [s],7.45609
MAX Runtime of function [s],7.45609
MIN Runtime of function [s],7.45609
# COUNTERS - HDEEM: 
AVG Energy consumption [J] (Stats structure),1273.6
MAX Energy consumption [J] (Stats structure),1273.6
MIN Energy consumption [J] (Stats structure),1273.6
SUM Energy consumption [J] (Stats structure),1273.6
