# CALLTREE;init_0;Main-PWSCF_0;run-PWSCF_0;run-PWSCF-electrons_function_1;electrons-electrons_scf_function_0
# Job info - HDEEM
JOB ID,17281565.6
Nodelist,taurusi5540
AVG Runtime of function [s],7.04351
MAX Runtime of function [s],7.04351
MIN Runtime of function [s],7.04351
# COUNTERS - HDEEM: 
AVG Energy consumption [J] (Stats structure),1485.52
MAX Energy consumption [J] (Stats structure),1485.52
MIN Energy consumption [J] (Stats structure),1485.52
SUM Energy consumption [J] (Stats structure),1485.52
# CALLTREE;init_0;Main-PWSCF_0;run-PWSCF_0;run-PWSCF-electrons_function_1;electrons-electrons_scf_function_0
# Job info - HDEEM
JOB ID,17281565.6
Nodelist,taurusi5540
AVG Runtime of function [s],7.00955
MAX Runtime of function [s],7.00955
MIN Runtime of function [s],7.00955
# COUNTERS - HDEEM: 
AVG Energy consumption [J] (Stats structure),1479.18
MAX Energy consumption [J] (Stats structure),1479.18
MIN Energy consumption [J] (Stats structure),1479.18
SUM Energy consumption [J] (Stats structure),1479.18
# CALLTREE;init_0;Main-PWSCF_0;run-PWSCF_0;run-PWSCF-electrons_function_1;electrons-electrons_scf_function_0
# Job info - HDEEM
JOB ID,17281565.6
Nodelist,taurusi5540
AVG Runtime of function [s],7.00865
MAX Runtime of function [s],7.00865
MIN Runtime of function [s],7.00865
# COUNTERS - HDEEM: 
AVG Energy consumption [J] (Stats structure),1478.83
MAX Energy consumption [J] (Stats structure),1478.83
MIN Energy consumption [J] (Stats structure),1478.83
SUM Energy consumption [J] (Stats structure),1478.83
# CALLTREE;init_0;Main-PWSCF_0;run-PWSCF_0;run-PWSCF-electrons_function_1;electrons-electrons_scf_function_0
# Job info - HDEEM
JOB ID,17281565.6
Nodelist,taurusi5540
AVG Runtime of function [s],7.05616
MAX Runtime of function [s],7.05616
MIN Runtime of function [s],7.05616
# COUNTERS - HDEEM: 
AVG Energy consumption [J] (Stats structure),1488.06
MAX Energy consumption [J] (Stats structure),1488.06
MIN Energy consumption [J] (Stats structure),1488.06
SUM Energy consumption [J] (Stats structure),1488.06
# CALLTREE;init_0;Main-PWSCF_0;run-PWSCF_0;run-PWSCF-electrons_function_1;electrons-electrons_scf_function_0
# Job info - HDEEM
JOB ID,17281565.6
Nodelist,taurusi5540
AVG Runtime of function [s],7.03236
MAX Runtime of function [s],7.03236
MIN Runtime of function [s],7.03236
# COUNTERS - HDEEM: 
AVG Energy consumption [J] (Stats structure),1483.11
MAX Energy consumption [J] (Stats structure),1483.11
MIN Energy consumption [J] (Stats structure),1483.11
SUM Energy consumption [J] (Stats structure),1483.11
# CALLTREE;init_0;Main-PWSCF_0;run-PWSCF_0;run-PWSCF-electrons_function_1;electrons-electrons_scf_function_0
# Job info - HDEEM
JOB ID,17281565.6
Nodelist,taurusi5540
AVG Runtime of function [s],7.03616
MAX Runtime of function [s],7.03616
MIN Runtime of function [s],7.03616
# COUNTERS - HDEEM: 
AVG Energy consumption [J] (Stats structure),1483.89
MAX Energy consumption [J] (Stats structure),1483.89
MIN Energy consumption [J] (Stats structure),1483.89
SUM Energy consumption [J] (Stats structure),1483.89
# CALLTREE;init_0;Main-PWSCF_0;run-PWSCF_0;run-PWSCF-electrons_function_1;electrons-electrons_scf_function_0
# Job info - HDEEM
JOB ID,17281565.6
Nodelist,taurusi5540
AVG Runtime of function [s],7.01034
MAX Runtime of function [s],7.01034
MIN Runtime of function [s],7.01034
# COUNTERS - HDEEM: 
AVG Energy consumption [J] (Stats structure),1478.88
MAX Energy consumption [J] (Stats structure),1478.88
MIN Energy consumption [J] (Stats structure),1478.88
SUM Energy consumption [J] (Stats structure),1478.88
# CALLTREE;init_0;Main-PWSCF_0;run-PWSCF_0;run-PWSCF-electrons_function_1;electrons-electrons_scf_function_0
# Job info - HDEEM
JOB ID,17281565.6
Nodelist,taurusi5540
AVG Runtime of function [s],7.11248
MAX Runtime of function [s],7.11248
MIN Runtime of function [s],7.11248
# COUNTERS - HDEEM: 
AVG Energy consumption [J] (Stats structure),1499.27
MAX Energy consumption [J] (Stats structure),1499.27
MIN Energy consumption [J] (Stats structure),1499.27
SUM Energy consumption [J] (Stats structure),1499.27
# CALLTREE;init_0;Main-PWSCF_0;run-PWSCF_0;run-PWSCF-electrons_function_1;electrons-electrons_scf_function_0
# Job info - HDEEM
JOB ID,17281565.6
Nodelist,taurusi5540
AVG Runtime of function [s],7.23769
MAX Runtime of function [s],7.23769
MIN Runtime of function [s],7.23769
# COUNTERS - HDEEM: 
AVG Energy consumption [J] (Stats structure),1527.4
MAX Energy consumption [J] (Stats structure),1527.4
MIN Energy consumption [J] (Stats structure),1527.4
SUM Energy consumption [J] (Stats structure),1527.4
# CALLTREE;init_0;Main-PWSCF_0;run-PWSCF_0;run-PWSCF-electrons_function_1;electrons-electrons_scf_function_0
# Job info - HDEEM
JOB ID,17281565.6
Nodelist,taurusi5540
AVG Runtime of function [s],7.04449
MAX Runtime of function [s],7.04449
MIN Runtime of function [s],7.04449
# COUNTERS - HDEEM: 
AVG Energy consumption [J] (Stats structure),1485.76
MAX Energy consumption [J] (Stats structure),1485.76
MIN Energy consumption [J] (Stats structure),1485.76
SUM Energy consumption [J] (Stats structure),1485.76
# CALLTREE;init_0;Main-PWSCF_0;run-PWSCF_0;run-PWSCF-electrons_function_1;electrons-electrons_scf_function_0
# Job info - HDEEM
JOB ID,17281565.6
Nodelist,taurusi5540
AVG Runtime of function [s],7.02386
MAX Runtime of function [s],7.02386
MIN Runtime of function [s],7.02386
# COUNTERS - HDEEM: 
AVG Energy consumption [J] (Stats structure),1481.43
MAX Energy consumption [J] (Stats structure),1481.43
MIN Energy consumption [J] (Stats structure),1481.43
SUM Energy consumption [J] (Stats structure),1481.43
# CALLTREE;init_0;Main-PWSCF_0;run-PWSCF_0;run-PWSCF-electrons_function_1;electrons-electrons_scf_function_0
# Job info - HDEEM
JOB ID,17281565.6
Nodelist,taurusi5540
AVG Runtime of function [s],6.97692
MAX Runtime of function [s],6.97692
MIN Runtime of function [s],6.97692
# COUNTERS - HDEEM: 
AVG Energy consumption [J] (Stats structure),1471.77
MAX Energy consumption [J] (Stats structure),1471.77
MIN Energy consumption [J] (Stats structure),1471.77
SUM Energy consumption [J] (Stats structure),1471.77
# CALLTREE;init_0;Main-PWSCF_0;run-PWSCF_0;run-PWSCF-electrons_function_1;electrons-electrons_scf_function_0
# Job info - HDEEM
JOB ID,17281565.6
Nodelist,taurusi5540
AVG Runtime of function [s],7.00089
MAX Runtime of function [s],7.00089
MIN Runtime of function [s],7.00089
# COUNTERS - HDEEM: 
AVG Energy consumption [J] (Stats structure),1476.69
MAX Energy consumption [J] (Stats structure),1476.69
MIN Energy consumption [J] (Stats structure),1476.69
SUM Energy consumption [J] (Stats structure),1476.69
# CALLTREE;init_0;Main-PWSCF_0;run-PWSCF_0;run-PWSCF-electrons_function_1;electrons-electrons_scf_function_0
# Job info - HDEEM
JOB ID,17281565.6
Nodelist,taurusi5540
AVG Runtime of function [s],6.98193
MAX Runtime of function [s],6.98193
MIN Runtime of function [s],6.98193
# COUNTERS - HDEEM: 
AVG Energy consumption [J] (Stats structure),1473.46
MAX Energy consumption [J] (Stats structure),1473.46
MIN Energy consumption [J] (Stats structure),1473.46
SUM Energy consumption [J] (Stats structure),1473.46
# CALLTREE;init_0;Main-PWSCF_0;run-PWSCF_0;run-PWSCF-electrons_function_1;electrons-electrons_scf_function_0
# Job info - HDEEM
JOB ID,17281565.6
Nodelist,taurusi5540
AVG Runtime of function [s],7.00182
MAX Runtime of function [s],7.00182
MIN Runtime of function [s],7.00182
# COUNTERS - HDEEM: 
AVG Energy consumption [J] (Stats structure),1477.27
MAX Energy consumption [J] (Stats structure),1477.27
MIN Energy consumption [J] (Stats structure),1477.27
SUM Energy consumption [J] (Stats structure),1477.27
# CALLTREE;init_0;Main-PWSCF_0;run-PWSCF_0;run-PWSCF-electrons_function_1;electrons-electrons_scf_function_0
# Job info - HDEEM
JOB ID,17281565.6
Nodelist,taurusi5540
AVG Runtime of function [s],6.98745
MAX Runtime of function [s],6.98745
MIN Runtime of function [s],6.98745
# COUNTERS - HDEEM: 
AVG Energy consumption [J] (Stats structure),1474.28
MAX Energy consumption [J] (Stats structure),1474.28
MIN Energy consumption [J] (Stats structure),1474.28
SUM Energy consumption [J] (Stats structure),1474.28
