# CALLTREE;init_0;Main-PWSCF_0;run-PWSCF_0;run-PWSCF-electrons_function_1;electrons-electrons_scf_function_0
# Job info - HDEEM
JOB ID,17281565.6
Nodelist,taurusi5540
AVG Runtime of function [s],43.1883
MAX Runtime of function [s],43.1883
MIN Runtime of function [s],43.1883
# COUNTERS - HDEEM: 
AVG Energy consumption [J] (Stats structure),9081.24
MAX Energy consumption [J] (Stats structure),9081.24
MIN Energy consumption [J] (Stats structure),9081.24
SUM Energy consumption [J] (Stats structure),9081.24
# CALLTREE;init_0;Main-PWSCF_0;run-PWSCF_0;run-PWSCF-electrons_function_1;electrons-electrons_scf_function_0
# Job info - HDEEM
JOB ID,17281565.6
Nodelist,taurusi5540
AVG Runtime of function [s],28.1562
MAX Runtime of function [s],28.1562
MIN Runtime of function [s],28.1562
# COUNTERS - HDEEM: 
AVG Energy consumption [J] (Stats structure),5911.04
MAX Energy consumption [J] (Stats structure),5911.04
MIN Energy consumption [J] (Stats structure),5911.04
SUM Energy consumption [J] (Stats structure),5911.04
# CALLTREE;init_0;Main-PWSCF_0;run-PWSCF_0;run-PWSCF-electrons_function_1;electrons-electrons_scf_function_0
# Job info - HDEEM
JOB ID,17281565.6
Nodelist,taurusi5540
AVG Runtime of function [s],27.6574
MAX Runtime of function [s],27.6574
MIN Runtime of function [s],27.6574
# COUNTERS - HDEEM: 
AVG Energy consumption [J] (Stats structure),5807.48
MAX Energy consumption [J] (Stats structure),5807.48
MIN Energy consumption [J] (Stats structure),5807.48
SUM Energy consumption [J] (Stats structure),5807.48
# CALLTREE;init_0;Main-PWSCF_0;run-PWSCF_0;run-PWSCF-electrons_function_1;electrons-electrons_scf_function_0
# Job info - HDEEM
JOB ID,17281565.6
Nodelist,taurusi5540
AVG Runtime of function [s],51.26
MAX Runtime of function [s],51.26
MIN Runtime of function [s],51.26
# COUNTERS - HDEEM: 
AVG Energy consumption [J] (Stats structure),10749.9
MAX Energy consumption [J] (Stats structure),10749.9
MIN Energy consumption [J] (Stats structure),10749.9
SUM Energy consumption [J] (Stats structure),10749.9
# CALLTREE;init_0;Main-PWSCF_0;run-PWSCF_0;run-PWSCF-electrons_function_1;electrons-electrons_scf_function_0
# Job info - HDEEM
JOB ID,17281565.6
Nodelist,taurusi5540
AVG Runtime of function [s],50.5892
MAX Runtime of function [s],50.5892
MIN Runtime of function [s],50.5892
# COUNTERS - HDEEM: 
AVG Energy consumption [J] (Stats structure),10617.1
MAX Energy consumption [J] (Stats structure),10617.1
MIN Energy consumption [J] (Stats structure),10617.1
SUM Energy consumption [J] (Stats structure),10617.1
# CALLTREE;init_0;Main-PWSCF_0;run-PWSCF_0;run-PWSCF-electrons_function_1;electrons-electrons_scf_function_0
# Job info - HDEEM
JOB ID,17281565.6
Nodelist,taurusi5540
AVG Runtime of function [s],41.6571
MAX Runtime of function [s],41.6571
MIN Runtime of function [s],41.6571
# COUNTERS - HDEEM: 
AVG Energy consumption [J] (Stats structure),8730.68
MAX Energy consumption [J] (Stats structure),8730.68
MIN Energy consumption [J] (Stats structure),8730.68
SUM Energy consumption [J] (Stats structure),8730.68
# CALLTREE;init_0;Main-PWSCF_0;run-PWSCF_0;run-PWSCF-electrons_function_1;electrons-electrons_scf_function_0
# Job info - HDEEM
JOB ID,17281565.6
Nodelist,taurusi5540
AVG Runtime of function [s],36.2134
MAX Runtime of function [s],36.2134
MIN Runtime of function [s],36.2134
# COUNTERS - HDEEM: 
AVG Energy consumption [J] (Stats structure),7601.33
MAX Energy consumption [J] (Stats structure),7601.33
MIN Energy consumption [J] (Stats structure),7601.33
SUM Energy consumption [J] (Stats structure),7601.33
# CALLTREE;init_0;Main-PWSCF_0;run-PWSCF_0;run-PWSCF-electrons_function_1;electrons-electrons_scf_function_0
# Job info - HDEEM
JOB ID,17281565.6
Nodelist,taurusi5540
AVG Runtime of function [s],39.5168
MAX Runtime of function [s],39.5168
MIN Runtime of function [s],39.5168
# COUNTERS - HDEEM: 
AVG Energy consumption [J] (Stats structure),8311.21
MAX Energy consumption [J] (Stats structure),8311.21
MIN Energy consumption [J] (Stats structure),8311.21
SUM Energy consumption [J] (Stats structure),8311.21
# CALLTREE;init_0;Main-PWSCF_0;run-PWSCF_0;run-PWSCF-electrons_function_1;electrons-electrons_scf_function_0
# Job info - HDEEM
JOB ID,17281565.6
Nodelist,taurusi5540
AVG Runtime of function [s],39.4948
MAX Runtime of function [s],39.4948
MIN Runtime of function [s],39.4948
# COUNTERS - HDEEM: 
AVG Energy consumption [J] (Stats structure),8305.72
MAX Energy consumption [J] (Stats structure),8305.72
MIN Energy consumption [J] (Stats structure),8305.72
SUM Energy consumption [J] (Stats structure),8305.72
# CALLTREE;init_0;Main-PWSCF_0;run-PWSCF_0;run-PWSCF-electrons_function_1;electrons-electrons_scf_function_0
# Job info - HDEEM
JOB ID,17281565.6
Nodelist,taurusi5540
AVG Runtime of function [s],37.8817
MAX Runtime of function [s],37.8817
MIN Runtime of function [s],37.8817
# COUNTERS - HDEEM: 
AVG Energy consumption [J] (Stats structure),7967.29
MAX Energy consumption [J] (Stats structure),7967.29
MIN Energy consumption [J] (Stats structure),7967.29
SUM Energy consumption [J] (Stats structure),7967.29
# CALLTREE;init_0;Main-PWSCF_0;run-PWSCF_0;run-PWSCF-electrons_function_1;electrons-electrons_scf_function_0
# Job info - HDEEM
JOB ID,17281565.6
Nodelist,taurusi5540
AVG Runtime of function [s],37.8733
MAX Runtime of function [s],37.8733
MIN Runtime of function [s],37.8733
# COUNTERS - HDEEM: 
AVG Energy consumption [J] (Stats structure),7957.35
MAX Energy consumption [J] (Stats structure),7957.35
MIN Energy consumption [J] (Stats structure),7957.35
SUM Energy consumption [J] (Stats structure),7957.35
# CALLTREE;init_0;Main-PWSCF_0;run-PWSCF_0;run-PWSCF-electrons_function_1;electrons-electrons_scf_function_0
# Job info - HDEEM
JOB ID,17281565.6
Nodelist,taurusi5540
AVG Runtime of function [s],32.7859
MAX Runtime of function [s],32.7859
MIN Runtime of function [s],32.7859
# COUNTERS - HDEEM: 
AVG Energy consumption [J] (Stats structure),6876.52
MAX Energy consumption [J] (Stats structure),6876.52
MIN Energy consumption [J] (Stats structure),6876.52
SUM Energy consumption [J] (Stats structure),6876.52
# CALLTREE;init_0;Main-PWSCF_0;run-PWSCF_0;run-PWSCF-electrons_function_1;electrons-electrons_scf_function_0
# Job info - HDEEM
JOB ID,17281565.6
Nodelist,taurusi5540
AVG Runtime of function [s],40.75
MAX Runtime of function [s],40.75
MIN Runtime of function [s],40.75
# COUNTERS - HDEEM: 
AVG Energy consumption [J] (Stats structure),8566.72
MAX Energy consumption [J] (Stats structure),8566.72
MIN Energy consumption [J] (Stats structure),8566.72
SUM Energy consumption [J] (Stats structure),8566.72
# CALLTREE;init_0;Main-PWSCF_0;run-PWSCF_0;run-PWSCF-electrons_function_1;electrons-electrons_scf_function_0
# Job info - HDEEM
JOB ID,17281565.6
Nodelist,taurusi5540
AVG Runtime of function [s],38.494
MAX Runtime of function [s],38.494
MIN Runtime of function [s],38.494
# COUNTERS - HDEEM: 
AVG Energy consumption [J] (Stats structure),8095.29
MAX Energy consumption [J] (Stats structure),8095.29
MIN Energy consumption [J] (Stats structure),8095.29
SUM Energy consumption [J] (Stats structure),8095.29
# CALLTREE;init_0;Main-PWSCF_0;run-PWSCF_0;run-PWSCF-electrons_function_1;electrons-electrons_scf_function_0
# Job info - HDEEM
JOB ID,17281565.6
Nodelist,taurusi5540
AVG Runtime of function [s],27.8228
MAX Runtime of function [s],27.8228
MIN Runtime of function [s],27.8228
# COUNTERS - HDEEM: 
AVG Energy consumption [J] (Stats structure),5840.66
MAX Energy consumption [J] (Stats structure),5840.66
MIN Energy consumption [J] (Stats structure),5840.66
SUM Energy consumption [J] (Stats structure),5840.66
# CALLTREE;init_0;Main-PWSCF_0;run-PWSCF_0;run-PWSCF-electrons_function_1;electrons-electrons_scf_function_0
# Job info - HDEEM
JOB ID,17281565.6
Nodelist,taurusi5540
AVG Runtime of function [s],27.6109
MAX Runtime of function [s],27.6109
MIN Runtime of function [s],27.6109
# COUNTERS - HDEEM: 
AVG Energy consumption [J] (Stats structure),5795.99
MAX Energy consumption [J] (Stats structure),5795.99
MIN Energy consumption [J] (Stats structure),5795.99
SUM Energy consumption [J] (Stats structure),5795.99
