# CALLTREE;init_0;Main-PWSCF_0;run-PWSCF_0;run-PWSCF-electrons_function_1;electrons-electrons_scf_function_0
# Job info - HDEEM
JOB ID,17281565.13
Nodelist,taurusi5540
AVG Runtime of function [s],46.0648
MAX Runtime of function [s],46.0648
MIN Runtime of function [s],46.0648
# COUNTERS - HDEEM: 
AVG Energy consumption [J] (Stats structure),7841.97
MAX Energy consumption [J] (Stats structure),7841.97
MIN Energy consumption [J] (Stats structure),7841.97
SUM Energy consumption [J] (Stats structure),7841.97
# CALLTREE;init_0;Main-PWSCF_0;run-PWSCF_0;run-PWSCF-electrons_function_1;electrons-electrons_scf_function_0
# Job info - HDEEM
JOB ID,17281565.13
Nodelist,taurusi5540
AVG Runtime of function [s],29.9598
MAX Runtime of function [s],29.9598
MIN Runtime of function [s],29.9598
# COUNTERS - HDEEM: 
AVG Energy consumption [J] (Stats structure),5091.5
MAX Energy consumption [J] (Stats structure),5091.5
MIN Energy consumption [J] (Stats structure),5091.5
SUM Energy consumption [J] (Stats structure),5091.5
# CALLTREE;init_0;Main-PWSCF_0;run-PWSCF_0;run-PWSCF-electrons_function_1;electrons-electrons_scf_function_0
# Job info - HDEEM
JOB ID,17281565.13
Nodelist,taurusi5540
AVG Runtime of function [s],29.3603
MAX Runtime of function [s],29.3603
MIN Runtime of function [s],29.3603
# COUNTERS - HDEEM: 
AVG Energy consumption [J] (Stats structure),4991.89
MAX Energy consumption [J] (Stats structure),4991.89
MIN Energy consumption [J] (Stats structure),4991.89
SUM Energy consumption [J] (Stats structure),4991.89
# CALLTREE;init_0;Main-PWSCF_0;run-PWSCF_0;run-PWSCF-electrons_function_1;electrons-electrons_scf_function_0
# Job info - HDEEM
JOB ID,17281565.13
Nodelist,taurusi5540
AVG Runtime of function [s],55.4133
MAX Runtime of function [s],55.4133
MIN Runtime of function [s],55.4133
# COUNTERS - HDEEM: 
AVG Energy consumption [J] (Stats structure),9399.58
MAX Energy consumption [J] (Stats structure),9399.58
MIN Energy consumption [J] (Stats structure),9399.58
SUM Energy consumption [J] (Stats structure),9399.58
# CALLTREE;init_0;Main-PWSCF_0;run-PWSCF_0;run-PWSCF-electrons_function_1;electrons-electrons_scf_function_0
# Job info - HDEEM
JOB ID,17281565.13
Nodelist,taurusi5540
AVG Runtime of function [s],54.4797
MAX Runtime of function [s],54.4797
MIN Runtime of function [s],54.4797
# COUNTERS - HDEEM: 
AVG Energy consumption [J] (Stats structure),9246.86
MAX Energy consumption [J] (Stats structure),9246.86
MIN Energy consumption [J] (Stats structure),9246.86
SUM Energy consumption [J] (Stats structure),9246.86
# CALLTREE;init_0;Main-PWSCF_0;run-PWSCF_0;run-PWSCF-electrons_function_1;electrons-electrons_scf_function_0
# Job info - HDEEM
JOB ID,17281565.13
Nodelist,taurusi5540
AVG Runtime of function [s],44.4285
MAX Runtime of function [s],44.4285
MIN Runtime of function [s],44.4285
# COUNTERS - HDEEM: 
AVG Energy consumption [J] (Stats structure),7535.38
MAX Energy consumption [J] (Stats structure),7535.38
MIN Energy consumption [J] (Stats structure),7535.38
SUM Energy consumption [J] (Stats structure),7535.38
# CALLTREE;init_0;Main-PWSCF_0;run-PWSCF_0;run-PWSCF-electrons_function_1;electrons-electrons_scf_function_0
# Job info - HDEEM
JOB ID,17281565.13
Nodelist,taurusi5540
AVG Runtime of function [s],38.5433
MAX Runtime of function [s],38.5433
MIN Runtime of function [s],38.5433
# COUNTERS - HDEEM: 
AVG Energy consumption [J] (Stats structure),6546.72
MAX Energy consumption [J] (Stats structure),6546.72
MIN Energy consumption [J] (Stats structure),6546.72
SUM Energy consumption [J] (Stats structure),6546.72
# CALLTREE;init_0;Main-PWSCF_0;run-PWSCF_0;run-PWSCF-electrons_function_1;electrons-electrons_scf_function_0
# Job info - HDEEM
JOB ID,17281565.13
Nodelist,taurusi5540
AVG Runtime of function [s],42.548
MAX Runtime of function [s],42.548
MIN Runtime of function [s],42.548
# COUNTERS - HDEEM: 
AVG Energy consumption [J] (Stats structure),7239.26
MAX Energy consumption [J] (Stats structure),7239.26
MIN Energy consumption [J] (Stats structure),7239.26
SUM Energy consumption [J] (Stats structure),7239.26
# CALLTREE;init_0;Main-PWSCF_0;run-PWSCF_0;run-PWSCF-electrons_function_1;electrons-electrons_scf_function_0
# Job info - HDEEM
JOB ID,17281565.13
Nodelist,taurusi5540
AVG Runtime of function [s],41.9965
MAX Runtime of function [s],41.9965
MIN Runtime of function [s],41.9965
# COUNTERS - HDEEM: 
AVG Energy consumption [J] (Stats structure),7147.37
MAX Energy consumption [J] (Stats structure),7147.37
MIN Energy consumption [J] (Stats structure),7147.37
SUM Energy consumption [J] (Stats structure),7147.37
# CALLTREE;init_0;Main-PWSCF_0;run-PWSCF_0;run-PWSCF-electrons_function_1;electrons-electrons_scf_function_0
# Job info - HDEEM
JOB ID,17281565.13
Nodelist,taurusi5540
AVG Runtime of function [s],40.3151
MAX Runtime of function [s],40.3151
MIN Runtime of function [s],40.3151
# COUNTERS - HDEEM: 
AVG Energy consumption [J] (Stats structure),6863.04
MAX Energy consumption [J] (Stats structure),6863.04
MIN Energy consumption [J] (Stats structure),6863.04
SUM Energy consumption [J] (Stats structure),6863.04
# CALLTREE;init_0;Main-PWSCF_0;run-PWSCF_0;run-PWSCF-electrons_function_1;electrons-electrons_scf_function_0
# Job info - HDEEM
JOB ID,17281565.13
Nodelist,taurusi5540
AVG Runtime of function [s],40.3136
MAX Runtime of function [s],40.3136
MIN Runtime of function [s],40.3136
# COUNTERS - HDEEM: 
AVG Energy consumption [J] (Stats structure),6854.75
MAX Energy consumption [J] (Stats structure),6854.75
MIN Energy consumption [J] (Stats structure),6854.75
SUM Energy consumption [J] (Stats structure),6854.75
# CALLTREE;init_0;Main-PWSCF_0;run-PWSCF_0;run-PWSCF-electrons_function_1;electrons-electrons_scf_function_0
# Job info - HDEEM
JOB ID,17281565.13
Nodelist,taurusi5540
AVG Runtime of function [s],34.8912
MAX Runtime of function [s],34.8912
MIN Runtime of function [s],34.8912
# COUNTERS - HDEEM: 
AVG Energy consumption [J] (Stats structure),5924.66
MAX Energy consumption [J] (Stats structure),5924.66
MIN Energy consumption [J] (Stats structure),5924.66
SUM Energy consumption [J] (Stats structure),5924.66
# CALLTREE;init_0;Main-PWSCF_0;run-PWSCF_0;run-PWSCF-electrons_function_1;electrons-electrons_scf_function_0
# Job info - HDEEM
JOB ID,17281565.13
Nodelist,taurusi5540
AVG Runtime of function [s],43.317
MAX Runtime of function [s],43.317
MIN Runtime of function [s],43.317
# COUNTERS - HDEEM: 
AVG Energy consumption [J] (Stats structure),7372.8
MAX Energy consumption [J] (Stats structure),7372.8
MIN Energy consumption [J] (Stats structure),7372.8
SUM Energy consumption [J] (Stats structure),7372.8
# CALLTREE;init_0;Main-PWSCF_0;run-PWSCF_0;run-PWSCF-electrons_function_1;electrons-electrons_scf_function_0
# Job info - HDEEM
JOB ID,17281565.13
Nodelist,taurusi5540
AVG Runtime of function [s],40.8949
MAX Runtime of function [s],40.8949
MIN Runtime of function [s],40.8949
# COUNTERS - HDEEM: 
AVG Energy consumption [J] (Stats structure),6962.86
MAX Energy consumption [J] (Stats structure),6962.86
MIN Energy consumption [J] (Stats structure),6962.86
SUM Energy consumption [J] (Stats structure),6962.86
# CALLTREE;init_0;Main-PWSCF_0;run-PWSCF_0;run-PWSCF-electrons_function_1;electrons-electrons_scf_function_0
# Job info - HDEEM
JOB ID,17281565.13
Nodelist,taurusi5540
AVG Runtime of function [s],29.5356
MAX Runtime of function [s],29.5356
MIN Runtime of function [s],29.5356
# COUNTERS - HDEEM: 
AVG Energy consumption [J] (Stats structure),5020.17
MAX Energy consumption [J] (Stats structure),5020.17
MIN Energy consumption [J] (Stats structure),5020.17
SUM Energy consumption [J] (Stats structure),5020.17
# CALLTREE;init_0;Main-PWSCF_0;run-PWSCF_0;run-PWSCF-electrons_function_1;electrons-electrons_scf_function_0
# Job info - HDEEM
JOB ID,17281565.13
Nodelist,taurusi5540
AVG Runtime of function [s],29.3098
MAX Runtime of function [s],29.3098
MIN Runtime of function [s],29.3098
# COUNTERS - HDEEM: 
AVG Energy consumption [J] (Stats structure),4981.38
MAX Energy consumption [J] (Stats structure),4981.38
MIN Energy consumption [J] (Stats structure),4981.38
SUM Energy consumption [J] (Stats structure),4981.38
