# CALLTREE;init_0;Main-PWSCF_0;run-PWSCF_0;run-PWSCF-electrons_function_1;electrons-electrons_scf_function_0
# Job info - HDEEM
JOB ID,17281565.11
Nodelist,taurusi5540
AVG Runtime of function [s],45.7076
MAX Runtime of function [s],45.7076
MIN Runtime of function [s],45.7076
# COUNTERS - HDEEM: 
AVG Energy consumption [J] (Stats structure),8500.06
MAX Energy consumption [J] (Stats structure),8500.06
MIN Energy consumption [J] (Stats structure),8500.06
SUM Energy consumption [J] (Stats structure),8500.06
# CALLTREE;init_0;Main-PWSCF_0;run-PWSCF_0;run-PWSCF-electrons_function_1;electrons-electrons_scf_function_0
# Job info - HDEEM
JOB ID,17281565.11
Nodelist,taurusi5540
AVG Runtime of function [s],29.6709
MAX Runtime of function [s],29.6709
MIN Runtime of function [s],29.6709
# COUNTERS - HDEEM: 
AVG Energy consumption [J] (Stats structure),5510.42
MAX Energy consumption [J] (Stats structure),5510.42
MIN Energy consumption [J] (Stats structure),5510.42
SUM Energy consumption [J] (Stats structure),5510.42
# CALLTREE;init_0;Main-PWSCF_0;run-PWSCF_0;run-PWSCF-electrons_function_1;electrons-electrons_scf_function_0
# Job info - HDEEM
JOB ID,17281565.11
Nodelist,taurusi5540
AVG Runtime of function [s],29.0067
MAX Runtime of function [s],29.0067
MIN Runtime of function [s],29.0067
# COUNTERS - HDEEM: 
AVG Energy consumption [J] (Stats structure),5389.25
MAX Energy consumption [J] (Stats structure),5389.25
MIN Energy consumption [J] (Stats structure),5389.25
SUM Energy consumption [J] (Stats structure),5389.25
# CALLTREE;init_0;Main-PWSCF_0;run-PWSCF_0;run-PWSCF-electrons_function_1;electrons-electrons_scf_function_0
# Job info - HDEEM
JOB ID,17281565.11
Nodelist,taurusi5540
AVG Runtime of function [s],55.1282
MAX Runtime of function [s],55.1282
MIN Runtime of function [s],55.1282
# COUNTERS - HDEEM: 
AVG Energy consumption [J] (Stats structure),10219.7
MAX Energy consumption [J] (Stats structure),10219.7
MIN Energy consumption [J] (Stats structure),10219.7
SUM Energy consumption [J] (Stats structure),10219.7
# CALLTREE;init_0;Main-PWSCF_0;run-PWSCF_0;run-PWSCF-electrons_function_1;electrons-electrons_scf_function_0
# Job info - HDEEM
JOB ID,17281565.11
Nodelist,taurusi5540
AVG Runtime of function [s],53.7682
MAX Runtime of function [s],53.7682
MIN Runtime of function [s],53.7682
# COUNTERS - HDEEM: 
AVG Energy consumption [J] (Stats structure),9976.1
MAX Energy consumption [J] (Stats structure),9976.1
MIN Energy consumption [J] (Stats structure),9976.1
SUM Energy consumption [J] (Stats structure),9976.1
# CALLTREE;init_0;Main-PWSCF_0;run-PWSCF_0;run-PWSCF-electrons_function_1;electrons-electrons_scf_function_0
# Job info - HDEEM
JOB ID,17281565.11
Nodelist,taurusi5540
AVG Runtime of function [s],43.9257
MAX Runtime of function [s],43.9257
MIN Runtime of function [s],43.9257
# COUNTERS - HDEEM: 
AVG Energy consumption [J] (Stats structure),8144.2
MAX Energy consumption [J] (Stats structure),8144.2
MIN Energy consumption [J] (Stats structure),8144.2
SUM Energy consumption [J] (Stats structure),8144.2
# CALLTREE;init_0;Main-PWSCF_0;run-PWSCF_0;run-PWSCF-electrons_function_1;electrons-electrons_scf_function_0
# Job info - HDEEM
JOB ID,17281565.11
Nodelist,taurusi5540
AVG Runtime of function [s],38.0983
MAX Runtime of function [s],38.0983
MIN Runtime of function [s],38.0983
# COUNTERS - HDEEM: 
AVG Energy consumption [J] (Stats structure),7073.91
MAX Energy consumption [J] (Stats structure),7073.91
MIN Energy consumption [J] (Stats structure),7073.91
SUM Energy consumption [J] (Stats structure),7073.91
# CALLTREE;init_0;Main-PWSCF_0;run-PWSCF_0;run-PWSCF-electrons_function_1;electrons-electrons_scf_function_0
# Job info - HDEEM
JOB ID,17281565.11
Nodelist,taurusi5540
AVG Runtime of function [s],41.6255
MAX Runtime of function [s],41.6255
MIN Runtime of function [s],41.6255
# COUNTERS - HDEEM: 
AVG Energy consumption [J] (Stats structure),7743.04
MAX Energy consumption [J] (Stats structure),7743.04
MIN Energy consumption [J] (Stats structure),7743.04
SUM Energy consumption [J] (Stats structure),7743.04
# CALLTREE;init_0;Main-PWSCF_0;run-PWSCF_0;run-PWSCF-electrons_function_1;electrons-electrons_scf_function_0
# Job info - HDEEM
JOB ID,17281565.11
Nodelist,taurusi5540
AVG Runtime of function [s],41.5808
MAX Runtime of function [s],41.5808
MIN Runtime of function [s],41.5808
# COUNTERS - HDEEM: 
AVG Energy consumption [J] (Stats structure),7735.45
MAX Energy consumption [J] (Stats structure),7735.45
MIN Energy consumption [J] (Stats structure),7735.45
SUM Energy consumption [J] (Stats structure),7735.45
# CALLTREE;init_0;Main-PWSCF_0;run-PWSCF_0;run-PWSCF-electrons_function_1;electrons-electrons_scf_function_0
# Job info - HDEEM
JOB ID,17281565.11
Nodelist,taurusi5540
AVG Runtime of function [s],39.8743
MAX Runtime of function [s],39.8743
MIN Runtime of function [s],39.8743
# COUNTERS - HDEEM: 
AVG Energy consumption [J] (Stats structure),7421.07
MAX Energy consumption [J] (Stats structure),7421.07
MIN Energy consumption [J] (Stats structure),7421.07
SUM Energy consumption [J] (Stats structure),7421.07
# CALLTREE;init_0;Main-PWSCF_0;run-PWSCF_0;run-PWSCF-electrons_function_1;electrons-electrons_scf_function_0
# Job info - HDEEM
JOB ID,17281565.11
Nodelist,taurusi5540
AVG Runtime of function [s],39.7959
MAX Runtime of function [s],39.7959
MIN Runtime of function [s],39.7959
# COUNTERS - HDEEM: 
AVG Energy consumption [J] (Stats structure),7400.14
MAX Energy consumption [J] (Stats structure),7400.14
MIN Energy consumption [J] (Stats structure),7400.14
SUM Energy consumption [J] (Stats structure),7400.14
# CALLTREE;init_0;Main-PWSCF_0;run-PWSCF_0;run-PWSCF-electrons_function_1;electrons-electrons_scf_function_0
# Job info - HDEEM
JOB ID,17281565.11
Nodelist,taurusi5540
AVG Runtime of function [s],34.4338
MAX Runtime of function [s],34.4338
MIN Runtime of function [s],34.4338
# COUNTERS - HDEEM: 
AVG Energy consumption [J] (Stats structure),6393.55
MAX Energy consumption [J] (Stats structure),6393.55
MIN Energy consumption [J] (Stats structure),6393.55
SUM Energy consumption [J] (Stats structure),6393.55
# CALLTREE;init_0;Main-PWSCF_0;run-PWSCF_0;run-PWSCF-electrons_function_1;electrons-electrons_scf_function_0
# Job info - HDEEM
JOB ID,17281565.11
Nodelist,taurusi5540
AVG Runtime of function [s],42.987
MAX Runtime of function [s],42.987
MIN Runtime of function [s],42.987
# COUNTERS - HDEEM: 
AVG Energy consumption [J] (Stats structure),7997.15
MAX Energy consumption [J] (Stats structure),7997.15
MIN Energy consumption [J] (Stats structure),7997.15
SUM Energy consumption [J] (Stats structure),7997.15
# CALLTREE;init_0;Main-PWSCF_0;run-PWSCF_0;run-PWSCF-electrons_function_1;electrons-electrons_scf_function_0
# Job info - HDEEM
JOB ID,17281565.11
Nodelist,taurusi5540
AVG Runtime of function [s],40.524
MAX Runtime of function [s],40.524
MIN Runtime of function [s],40.524
# COUNTERS - HDEEM: 
AVG Energy consumption [J] (Stats structure),7544.41
MAX Energy consumption [J] (Stats structure),7544.41
MIN Energy consumption [J] (Stats structure),7544.41
SUM Energy consumption [J] (Stats structure),7544.41
# CALLTREE;init_0;Main-PWSCF_0;run-PWSCF_0;run-PWSCF-electrons_function_1;electrons-electrons_scf_function_0
# Job info - HDEEM
JOB ID,17281565.11
Nodelist,taurusi5540
AVG Runtime of function [s],29.18
MAX Runtime of function [s],29.18
MIN Runtime of function [s],29.18
# COUNTERS - HDEEM: 
AVG Energy consumption [J] (Stats structure),5422.51
MAX Energy consumption [J] (Stats structure),5422.51
MIN Energy consumption [J] (Stats structure),5422.51
SUM Energy consumption [J] (Stats structure),5422.51
# CALLTREE;init_0;Main-PWSCF_0;run-PWSCF_0;run-PWSCF-electrons_function_1;electrons-electrons_scf_function_0
# Job info - HDEEM
JOB ID,17281565.11
Nodelist,taurusi5540
AVG Runtime of function [s],29.0005
MAX Runtime of function [s],29.0005
MIN Runtime of function [s],29.0005
# COUNTERS - HDEEM: 
AVG Energy consumption [J] (Stats structure),5388.33
MAX Energy consumption [J] (Stats structure),5388.33
MIN Energy consumption [J] (Stats structure),5388.33
SUM Energy consumption [J] (Stats structure),5388.33
