# CALLTREE;init_0;Main-PWSCF_0;run-PWSCF_0;run-PWSCF-electrons_function_1;electrons-electrons_scf_function_0
# Job info - HDEEM
JOB ID,17281565.14
Nodelist,taurusi5540
AVG Runtime of function [s],46.8582
MAX Runtime of function [s],46.8582
MIN Runtime of function [s],46.8582
# COUNTERS - HDEEM: 
AVG Energy consumption [J] (Stats structure),7730.59
MAX Energy consumption [J] (Stats structure),7730.59
MIN Energy consumption [J] (Stats structure),7730.59
SUM Energy consumption [J] (Stats structure),7730.59
# CALLTREE;init_0;Main-PWSCF_0;run-PWSCF_0;run-PWSCF-electrons_function_1;electrons-electrons_scf_function_0
# Job info - HDEEM
JOB ID,17281565.14
Nodelist,taurusi5540
AVG Runtime of function [s],30.3739
MAX Runtime of function [s],30.3739
MIN Runtime of function [s],30.3739
# COUNTERS - HDEEM: 
AVG Energy consumption [J] (Stats structure),5005.36
MAX Energy consumption [J] (Stats structure),5005.36
MIN Energy consumption [J] (Stats structure),5005.36
SUM Energy consumption [J] (Stats structure),5005.36
# CALLTREE;init_0;Main-PWSCF_0;run-PWSCF_0;run-PWSCF-electrons_function_1;electrons-electrons_scf_function_0
# Job info - HDEEM
JOB ID,17281565.14
Nodelist,taurusi5540
AVG Runtime of function [s],29.7277
MAX Runtime of function [s],29.7277
MIN Runtime of function [s],29.7277
# COUNTERS - HDEEM: 
AVG Energy consumption [J] (Stats structure),4901.17
MAX Energy consumption [J] (Stats structure),4901.17
MIN Energy consumption [J] (Stats structure),4901.17
SUM Energy consumption [J] (Stats structure),4901.17
# CALLTREE;init_0;Main-PWSCF_0;run-PWSCF_0;run-PWSCF-electrons_function_1;electrons-electrons_scf_function_0
# Job info - HDEEM
JOB ID,17281565.14
Nodelist,taurusi5540
AVG Runtime of function [s],56.7644
MAX Runtime of function [s],56.7644
MIN Runtime of function [s],56.7644
# COUNTERS - HDEEM: 
AVG Energy consumption [J] (Stats structure),9332.44
MAX Energy consumption [J] (Stats structure),9332.44
MIN Energy consumption [J] (Stats structure),9332.44
SUM Energy consumption [J] (Stats structure),9332.44
# CALLTREE;init_0;Main-PWSCF_0;run-PWSCF_0;run-PWSCF-electrons_function_1;electrons-electrons_scf_function_0
# Job info - HDEEM
JOB ID,17281565.14
Nodelist,taurusi5540
AVG Runtime of function [s],55.391
MAX Runtime of function [s],55.391
MIN Runtime of function [s],55.391
# COUNTERS - HDEEM: 
AVG Energy consumption [J] (Stats structure),9114.36
MAX Energy consumption [J] (Stats structure),9114.36
MIN Energy consumption [J] (Stats structure),9114.36
SUM Energy consumption [J] (Stats structure),9114.36
# CALLTREE;init_0;Main-PWSCF_0;run-PWSCF_0;run-PWSCF-electrons_function_1;electrons-electrons_scf_function_0
# Job info - HDEEM
JOB ID,17281565.14
Nodelist,taurusi5540
AVG Runtime of function [s],45.2174
MAX Runtime of function [s],45.2174
MIN Runtime of function [s],45.2174
# COUNTERS - HDEEM: 
AVG Energy consumption [J] (Stats structure),7435.16
MAX Energy consumption [J] (Stats structure),7435.16
MIN Energy consumption [J] (Stats structure),7435.16
SUM Energy consumption [J] (Stats structure),7435.16
# CALLTREE;init_0;Main-PWSCF_0;run-PWSCF_0;run-PWSCF-electrons_function_1;electrons-electrons_scf_function_0
# Job info - HDEEM
JOB ID,17281565.14
Nodelist,taurusi5540
AVG Runtime of function [s],39.1335
MAX Runtime of function [s],39.1335
MIN Runtime of function [s],39.1335
# COUNTERS - HDEEM: 
AVG Energy consumption [J] (Stats structure),6446.57
MAX Energy consumption [J] (Stats structure),6446.57
MIN Energy consumption [J] (Stats structure),6446.57
SUM Energy consumption [J] (Stats structure),6446.57
# CALLTREE;init_0;Main-PWSCF_0;run-PWSCF_0;run-PWSCF-electrons_function_1;electrons-electrons_scf_function_0
# Job info - HDEEM
JOB ID,17281565.14
Nodelist,taurusi5540
AVG Runtime of function [s],42.7277
MAX Runtime of function [s],42.7277
MIN Runtime of function [s],42.7277
# COUNTERS - HDEEM: 
AVG Energy consumption [J] (Stats structure),7053.09
MAX Energy consumption [J] (Stats structure),7053.09
MIN Energy consumption [J] (Stats structure),7053.09
SUM Energy consumption [J] (Stats structure),7053.09
# CALLTREE;init_0;Main-PWSCF_0;run-PWSCF_0;run-PWSCF-electrons_function_1;electrons-electrons_scf_function_0
# Job info - HDEEM
JOB ID,17281565.14
Nodelist,taurusi5540
AVG Runtime of function [s],42.6145
MAX Runtime of function [s],42.6145
MIN Runtime of function [s],42.6145
# COUNTERS - HDEEM: 
AVG Energy consumption [J] (Stats structure),7034.18
MAX Energy consumption [J] (Stats structure),7034.18
MIN Energy consumption [J] (Stats structure),7034.18
SUM Energy consumption [J] (Stats structure),7034.18
# CALLTREE;init_0;Main-PWSCF_0;run-PWSCF_0;run-PWSCF-electrons_function_1;electrons-electrons_scf_function_0
# Job info - HDEEM
JOB ID,17281565.14
Nodelist,taurusi5540
AVG Runtime of function [s],40.9335
MAX Runtime of function [s],40.9335
MIN Runtime of function [s],40.9335
# COUNTERS - HDEEM: 
AVG Energy consumption [J] (Stats structure),6758.51
MAX Energy consumption [J] (Stats structure),6758.51
MIN Energy consumption [J] (Stats structure),6758.51
SUM Energy consumption [J] (Stats structure),6758.51
# CALLTREE;init_0;Main-PWSCF_0;run-PWSCF_0;run-PWSCF-electrons_function_1;electrons-electrons_scf_function_0
# Job info - HDEEM
JOB ID,17281565.14
Nodelist,taurusi5540
AVG Runtime of function [s],40.8114
MAX Runtime of function [s],40.8114
MIN Runtime of function [s],40.8114
# COUNTERS - HDEEM: 
AVG Energy consumption [J] (Stats structure),6732.22
MAX Energy consumption [J] (Stats structure),6732.22
MIN Energy consumption [J] (Stats structure),6732.22
SUM Energy consumption [J] (Stats structure),6732.22
# CALLTREE;init_0;Main-PWSCF_0;run-PWSCF_0;run-PWSCF-electrons_function_1;electrons-electrons_scf_function_0
# Job info - HDEEM
JOB ID,17281565.14
Nodelist,taurusi5540
AVG Runtime of function [s],35.3271
MAX Runtime of function [s],35.3271
MIN Runtime of function [s],35.3271
# COUNTERS - HDEEM: 
AVG Energy consumption [J] (Stats structure),5819.05
MAX Energy consumption [J] (Stats structure),5819.05
MIN Energy consumption [J] (Stats structure),5819.05
SUM Energy consumption [J] (Stats structure),5819.05
# CALLTREE;init_0;Main-PWSCF_0;run-PWSCF_0;run-PWSCF-electrons_function_1;electrons-electrons_scf_function_0
# Job info - HDEEM
JOB ID,17281565.14
Nodelist,taurusi5540
AVG Runtime of function [s],44.0749
MAX Runtime of function [s],44.0749
MIN Runtime of function [s],44.0749
# COUNTERS - HDEEM: 
AVG Energy consumption [J] (Stats structure),7274.99
MAX Energy consumption [J] (Stats structure),7274.99
MIN Energy consumption [J] (Stats structure),7274.99
SUM Energy consumption [J] (Stats structure),7274.99
# CALLTREE;init_0;Main-PWSCF_0;run-PWSCF_0;run-PWSCF-electrons_function_1;electrons-electrons_scf_function_0
# Job info - HDEEM
JOB ID,17281565.14
Nodelist,taurusi5540
AVG Runtime of function [s],41.5524
MAX Runtime of function [s],41.5524
MIN Runtime of function [s],41.5524
# COUNTERS - HDEEM: 
AVG Energy consumption [J] (Stats structure),6861.27
MAX Energy consumption [J] (Stats structure),6861.27
MIN Energy consumption [J] (Stats structure),6861.27
SUM Energy consumption [J] (Stats structure),6861.27
# CALLTREE;init_0;Main-PWSCF_0;run-PWSCF_0;run-PWSCF-electrons_function_1;electrons-electrons_scf_function_0
# Job info - HDEEM
JOB ID,17281565.14
Nodelist,taurusi5540
AVG Runtime of function [s],29.9187
MAX Runtime of function [s],29.9187
MIN Runtime of function [s],29.9187
# COUNTERS - HDEEM: 
AVG Energy consumption [J] (Stats structure),4933.03
MAX Energy consumption [J] (Stats structure),4933.03
MIN Energy consumption [J] (Stats structure),4933.03
SUM Energy consumption [J] (Stats structure),4933.03
# CALLTREE;init_0;Main-PWSCF_0;run-PWSCF_0;run-PWSCF-electrons_function_1;electrons-electrons_scf_function_0
# Job info - HDEEM
JOB ID,17281565.14
Nodelist,taurusi5540
AVG Runtime of function [s],30.4559
MAX Runtime of function [s],30.4559
MIN Runtime of function [s],30.4559
# COUNTERS - HDEEM: 
AVG Energy consumption [J] (Stats structure),5017.47
MAX Energy consumption [J] (Stats structure),5017.47
MIN Energy consumption [J] (Stats structure),5017.47
SUM Energy consumption [J] (Stats structure),5017.47
