# CALLTREE;init_0;Main-PWSCF_0;run-PWSCF_0;run-PWSCF-electrons_function_1;electrons-electrons_scf_function_0
# Job info - HDEEM
JOB ID,17281823.2
Nodelist,taurusi5610
AVG Runtime of function [s],0.0233367
MAX Runtime of function [s],0.0233367
MIN Runtime of function [s],0.0233367
# COUNTERS - HDEEM: 
AVG Energy consumption [J] (Stats structure),6.394
MAX Energy consumption [J] (Stats structure),6.394
MIN Energy consumption [J] (Stats structure),6.394
SUM Energy consumption [J] (Stats structure),6.394
# CALLTREE;init_0;Main-PWSCF_0;run-PWSCF_0;run-PWSCF-electrons_function_1;electrons-electrons_scf_function_0
# Job info - HDEEM
JOB ID,17281823.2
Nodelist,taurusi5610
AVG Runtime of function [s],0.0234424
MAX Runtime of function [s],0.0234424
MIN Runtime of function [s],0.0234424
# COUNTERS - HDEEM: 
AVG Energy consumption [J] (Stats structure),6.382
MAX Energy consumption [J] (Stats structure),6.382
MIN Energy consumption [J] (Stats structure),6.382
SUM Energy consumption [J] (Stats structure),6.382
# CALLTREE;init_0;Main-PWSCF_0;run-PWSCF_0;run-PWSCF-electrons_function_1;electrons-electrons_scf_function_0
# Job info - HDEEM
JOB ID,17281823.2
Nodelist,taurusi5610
AVG Runtime of function [s],0.0235723
MAX Runtime of function [s],0.0235723
MIN Runtime of function [s],0.0235723
# COUNTERS - HDEEM: 
AVG Energy consumption [J] (Stats structure),6.156
MAX Energy consumption [J] (Stats structure),6.156
MIN Energy consumption [J] (Stats structure),6.156
SUM Energy consumption [J] (Stats structure),6.156
# CALLTREE;init_0;Main-PWSCF_0;run-PWSCF_0;run-PWSCF-electrons_function_1;electrons-electrons_scf_function_0
# Job info - HDEEM
JOB ID,17281823.2
Nodelist,taurusi5610
AVG Runtime of function [s],0.0235953
MAX Runtime of function [s],0.0235953
MIN Runtime of function [s],0.0235953
# COUNTERS - HDEEM: 
AVG Energy consumption [J] (Stats structure),6.373
MAX Energy consumption [J] (Stats structure),6.373
MIN Energy consumption [J] (Stats structure),6.373
SUM Energy consumption [J] (Stats structure),6.373
# CALLTREE;init_0;Main-PWSCF_0;run-PWSCF_0;run-PWSCF-electrons_function_1;electrons-electrons_scf_function_0
# Job info - HDEEM
JOB ID,17281823.2
Nodelist,taurusi5610
AVG Runtime of function [s],0.0235409
MAX Runtime of function [s],0.0235409
MIN Runtime of function [s],0.0235409
# COUNTERS - HDEEM: 
AVG Energy consumption [J] (Stats structure),6.379
MAX Energy consumption [J] (Stats structure),6.379
MIN Energy consumption [J] (Stats structure),6.379
SUM Energy consumption [J] (Stats structure),6.379
# CALLTREE;init_0;Main-PWSCF_0;run-PWSCF_0;run-PWSCF-electrons_function_1;electrons-electrons_scf_function_0
# Job info - HDEEM
JOB ID,17281823.2
Nodelist,taurusi5610
AVG Runtime of function [s],0.0232484
MAX Runtime of function [s],0.0232484
MIN Runtime of function [s],0.0232484
# COUNTERS - HDEEM: 
AVG Energy consumption [J] (Stats structure),6.379
MAX Energy consumption [J] (Stats structure),6.379
MIN Energy consumption [J] (Stats structure),6.379
SUM Energy consumption [J] (Stats structure),6.379
# CALLTREE;init_0;Main-PWSCF_0;run-PWSCF_0;run-PWSCF-electrons_function_1;electrons-electrons_scf_function_0
# Job info - HDEEM
JOB ID,17281823.2
Nodelist,taurusi5610
AVG Runtime of function [s],0.0233118
MAX Runtime of function [s],0.0233118
MIN Runtime of function [s],0.0233118
# COUNTERS - HDEEM: 
AVG Energy consumption [J] (Stats structure),6.159
MAX Energy consumption [J] (Stats structure),6.159
MIN Energy consumption [J] (Stats structure),6.159
SUM Energy consumption [J] (Stats structure),6.159
# CALLTREE;init_0;Main-PWSCF_0;run-PWSCF_0;run-PWSCF-electrons_function_1;electrons-electrons_scf_function_0
# Job info - HDEEM
JOB ID,17281823.2
Nodelist,taurusi5610
AVG Runtime of function [s],0.0233422
MAX Runtime of function [s],0.0233422
MIN Runtime of function [s],0.0233422
# COUNTERS - HDEEM: 
AVG Energy consumption [J] (Stats structure),6.389
MAX Energy consumption [J] (Stats structure),6.389
MIN Energy consumption [J] (Stats structure),6.389
SUM Energy consumption [J] (Stats structure),6.389
# CALLTREE;init_0;Main-PWSCF_0;run-PWSCF_0;run-PWSCF-electrons_function_1;electrons-electrons_scf_function_0
# Job info - HDEEM
JOB ID,17281823.2
Nodelist,taurusi5610
AVG Runtime of function [s],0.0233856
MAX Runtime of function [s],0.0233856
MIN Runtime of function [s],0.0233856
# COUNTERS - HDEEM: 
AVG Energy consumption [J] (Stats structure),6.398
MAX Energy consumption [J] (Stats structure),6.398
MIN Energy consumption [J] (Stats structure),6.398
SUM Energy consumption [J] (Stats structure),6.398
# CALLTREE;init_0;Main-PWSCF_0;run-PWSCF_0;run-PWSCF-electrons_function_1;electrons-electrons_scf_function_0
# Job info - HDEEM
JOB ID,17281823.2
Nodelist,taurusi5610
AVG Runtime of function [s],0.0233055
MAX Runtime of function [s],0.0233055
MIN Runtime of function [s],0.0233055
# COUNTERS - HDEEM: 
AVG Energy consumption [J] (Stats structure),6.379
MAX Energy consumption [J] (Stats structure),6.379
MIN Energy consumption [J] (Stats structure),6.379
SUM Energy consumption [J] (Stats structure),6.379
# CALLTREE;init_0;Main-PWSCF_0;run-PWSCF_0;run-PWSCF-electrons_function_1;electrons-electrons_scf_function_0
# Job info - HDEEM
JOB ID,17281823.2
Nodelist,taurusi5610
AVG Runtime of function [s],0.02327
MAX Runtime of function [s],0.02327
MIN Runtime of function [s],0.02327
# COUNTERS - HDEEM: 
AVG Energy consumption [J] (Stats structure),6.389
MAX Energy consumption [J] (Stats structure),6.389
MIN Energy consumption [J] (Stats structure),6.389
SUM Energy consumption [J] (Stats structure),6.389
# CALLTREE;init_0;Main-PWSCF_0;run-PWSCF_0;run-PWSCF-electrons_function_1;electrons-electrons_scf_function_0
# Job info - HDEEM
JOB ID,17281823.2
Nodelist,taurusi5610
AVG Runtime of function [s],0.0232808
MAX Runtime of function [s],0.0232808
MIN Runtime of function [s],0.0232808
# COUNTERS - HDEEM: 
AVG Energy consumption [J] (Stats structure),6.386
MAX Energy consumption [J] (Stats structure),6.386
MIN Energy consumption [J] (Stats structure),6.386
SUM Energy consumption [J] (Stats structure),6.386
# CALLTREE;init_0;Main-PWSCF_0;run-PWSCF_0;run-PWSCF-electrons_function_1;electrons-electrons_scf_function_0
# Job info - HDEEM
JOB ID,17281823.2
Nodelist,taurusi5610
AVG Runtime of function [s],0.0233493
MAX Runtime of function [s],0.0233493
MIN Runtime of function [s],0.0233493
# COUNTERS - HDEEM: 
AVG Energy consumption [J] (Stats structure),6.16
MAX Energy consumption [J] (Stats structure),6.16
MIN Energy consumption [J] (Stats structure),6.16
SUM Energy consumption [J] (Stats structure),6.16
# CALLTREE;init_0;Main-PWSCF_0;run-PWSCF_0;run-PWSCF-electrons_function_1;electrons-electrons_scf_function_0
# Job info - HDEEM
JOB ID,17281823.2
Nodelist,taurusi5610
AVG Runtime of function [s],0.0239179
MAX Runtime of function [s],0.0239179
MIN Runtime of function [s],0.0239179
# COUNTERS - HDEEM: 
AVG Energy consumption [J] (Stats structure),6.378
MAX Energy consumption [J] (Stats structure),6.378
MIN Energy consumption [J] (Stats structure),6.378
SUM Energy consumption [J] (Stats structure),6.378
