# CALLTREE;init_0;Main-PWSCF_0;run-PWSCF_0;run-PWSCF-electrons_function_1;electrons-electrons_scf_function_0;c_bands_function_0
# Job info - HDEEM
JOB ID,17281565.16
Nodelist,taurusi5540
AVG Runtime of function [s],0.0118828
MAX Runtime of function [s],0.0118828
MIN Runtime of function [s],0.0118828
# COUNTERS - HDEEM: 
AVG Energy consumption [J] (Stats structure),3.284
MAX Energy consumption [J] (Stats structure),3.284
MIN Energy consumption [J] (Stats structure),3.284
SUM Energy consumption [J] (Stats structure),3.284
# CALLTREE;init_0;Main-PWSCF_0;run-PWSCF_0;run-PWSCF-electrons_function_1;electrons-electrons_scf_function_0;c_bands_function_0
# Job info - HDEEM
JOB ID,17281565.16
Nodelist,taurusi5540
AVG Runtime of function [s],0.011861
MAX Runtime of function [s],0.011861
MIN Runtime of function [s],0.011861
# COUNTERS - HDEEM: 
AVG Energy consumption [J] (Stats structure),3.624
MAX Energy consumption [J] (Stats structure),3.624
MIN Energy consumption [J] (Stats structure),3.624
SUM Energy consumption [J] (Stats structure),3.624
# CALLTREE;init_0;Main-PWSCF_0;run-PWSCF_0;run-PWSCF-electrons_function_1;electrons-electrons_scf_function_0;c_bands_function_0
# Job info - HDEEM
JOB ID,17281565.16
Nodelist,taurusi5540
AVG Runtime of function [s],0.0119203
MAX Runtime of function [s],0.0119203
MIN Runtime of function [s],0.0119203
# COUNTERS - HDEEM: 
AVG Energy consumption [J] (Stats structure),3.649
MAX Energy consumption [J] (Stats structure),3.649
MIN Energy consumption [J] (Stats structure),3.649
SUM Energy consumption [J] (Stats structure),3.649
# CALLTREE;init_0;Main-PWSCF_0;run-PWSCF_0;run-PWSCF-electrons_function_1;electrons-electrons_scf_function_0;c_bands_function_0
# Job info - HDEEM
JOB ID,17281565.16
Nodelist,taurusi5540
AVG Runtime of function [s],0.0118828
MAX Runtime of function [s],0.0118828
MIN Runtime of function [s],0.0118828
# COUNTERS - HDEEM: 
AVG Energy consumption [J] (Stats structure),3.611
MAX Energy consumption [J] (Stats structure),3.611
MIN Energy consumption [J] (Stats structure),3.611
SUM Energy consumption [J] (Stats structure),3.611
# CALLTREE;init_0;Main-PWSCF_0;run-PWSCF_0;run-PWSCF-electrons_function_1;electrons-electrons_scf_function_0;c_bands_function_1
# Job info - HDEEM
JOB ID,17281565.16
Nodelist,taurusi5540
AVG Runtime of function [s],0.0118171
MAX Runtime of function [s],0.0118171
MIN Runtime of function [s],0.0118171
# COUNTERS - HDEEM: 
AVG Energy consumption [J] (Stats structure),3.288
MAX Energy consumption [J] (Stats structure),3.288
MIN Energy consumption [J] (Stats structure),3.288
SUM Energy consumption [J] (Stats structure),3.288
# CALLTREE;init_0;Main-PWSCF_0;run-PWSCF_0;run-PWSCF-electrons_function_1;electrons-electrons_scf_function_0;c_bands_function_1
# Job info - HDEEM
JOB ID,17281565.16
Nodelist,taurusi5540
AVG Runtime of function [s],0.0118256
MAX Runtime of function [s],0.0118256
MIN Runtime of function [s],0.0118256
# COUNTERS - HDEEM: 
AVG Energy consumption [J] (Stats structure),3.291
MAX Energy consumption [J] (Stats structure),3.291
MIN Energy consumption [J] (Stats structure),3.291
SUM Energy consumption [J] (Stats structure),3.291
# CALLTREE;init_0;Main-PWSCF_0;run-PWSCF_0;run-PWSCF-electrons_function_1;electrons-electrons_scf_function_0;c_bands_function_1
# Job info - HDEEM
JOB ID,17281565.16
Nodelist,taurusi5540
AVG Runtime of function [s],0.0118765
MAX Runtime of function [s],0.0118765
MIN Runtime of function [s],0.0118765
# COUNTERS - HDEEM: 
AVG Energy consumption [J] (Stats structure),3.813
MAX Energy consumption [J] (Stats structure),3.813
MIN Energy consumption [J] (Stats structure),3.813
SUM Energy consumption [J] (Stats structure),3.813
# CALLTREE;init_0;Main-PWSCF_0;run-PWSCF_0;run-PWSCF-electrons_function_1;electrons-electrons_scf_function_0;c_bands_function_1
# Job info - HDEEM
JOB ID,17281565.16
Nodelist,taurusi5540
AVG Runtime of function [s],0.0118882
MAX Runtime of function [s],0.0118882
MIN Runtime of function [s],0.0118882
# COUNTERS - HDEEM: 
AVG Energy consumption [J] (Stats structure),3.409
MAX Energy consumption [J] (Stats structure),3.409
MIN Energy consumption [J] (Stats structure),3.409
SUM Energy consumption [J] (Stats structure),3.409
# CALLTREE;init_0;Main-PWSCF_0;run-PWSCF_0;run-PWSCF-electrons_function_1;electrons-electrons_scf_function_0;c_bands_function_2
# Job info - HDEEM
JOB ID,17281565.16
Nodelist,taurusi5540
AVG Runtime of function [s],0.0118167
MAX Runtime of function [s],0.0118167
MIN Runtime of function [s],0.0118167
# COUNTERS - HDEEM: 
AVG Energy consumption [J] (Stats structure),3.284
MAX Energy consumption [J] (Stats structure),3.284
MIN Energy consumption [J] (Stats structure),3.284
SUM Energy consumption [J] (Stats structure),3.284
# CALLTREE;init_0;Main-PWSCF_0;run-PWSCF_0;run-PWSCF-electrons_function_1;electrons-electrons_scf_function_0;c_bands_function_2
# Job info - HDEEM
JOB ID,17281565.16
Nodelist,taurusi5540
AVG Runtime of function [s],0.0118002
MAX Runtime of function [s],0.0118002
MIN Runtime of function [s],0.0118002
# COUNTERS - HDEEM: 
AVG Energy consumption [J] (Stats structure),3.601
MAX Energy consumption [J] (Stats structure),3.601
MIN Energy consumption [J] (Stats structure),3.601
SUM Energy consumption [J] (Stats structure),3.601
# CALLTREE;init_0;Main-PWSCF_0;run-PWSCF_0;run-PWSCF-electrons_function_1;electrons-electrons_scf_function_0;c_bands_function_2
# Job info - HDEEM
JOB ID,17281565.16
Nodelist,taurusi5540
AVG Runtime of function [s],0.0117882
MAX Runtime of function [s],0.0117882
MIN Runtime of function [s],0.0117882
# COUNTERS - HDEEM: 
AVG Energy consumption [J] (Stats structure),3.414
MAX Energy consumption [J] (Stats structure),3.414
MIN Energy consumption [J] (Stats structure),3.414
SUM Energy consumption [J] (Stats structure),3.414
# CALLTREE;init_0;Main-PWSCF_0;run-PWSCF_0;run-PWSCF-electrons_function_1;electrons-electrons_scf_function_0;c_bands_function_2
# Job info - HDEEM
JOB ID,17281565.16
Nodelist,taurusi5540
AVG Runtime of function [s],0.0117844
MAX Runtime of function [s],0.0117844
MIN Runtime of function [s],0.0117844
# COUNTERS - HDEEM: 
AVG Energy consumption [J] (Stats structure),3.502
MAX Energy consumption [J] (Stats structure),3.502
MIN Energy consumption [J] (Stats structure),3.502
SUM Energy consumption [J] (Stats structure),3.502
# CALLTREE;init_0;Main-PWSCF_0;run-PWSCF_0;run-PWSCF-electrons_function_1;electrons-electrons_scf_function_0;c_bands_function_3
# Job info - HDEEM
JOB ID,17281565.16
Nodelist,taurusi5540
AVG Runtime of function [s],0.00813705
MAX Runtime of function [s],0.00813705
MIN Runtime of function [s],0.00813705
# COUNTERS - HDEEM: 
AVG Energy consumption [J] (Stats structure),3.447
MAX Energy consumption [J] (Stats structure),3.447
MIN Energy consumption [J] (Stats structure),3.447
SUM Energy consumption [J] (Stats structure),3.447
# CALLTREE;init_0;Main-PWSCF_0;run-PWSCF_0;run-PWSCF-electrons_function_1;electrons-electrons_scf_function_0;c_bands_function_3
# Job info - HDEEM
JOB ID,17281565.16
Nodelist,taurusi5540
AVG Runtime of function [s],0.0118055
MAX Runtime of function [s],0.0118055
MIN Runtime of function [s],0.0118055
# COUNTERS - HDEEM: 
AVG Energy consumption [J] (Stats structure),3.415
MAX Energy consumption [J] (Stats structure),3.415
MIN Energy consumption [J] (Stats structure),3.415
SUM Energy consumption [J] (Stats structure),3.415
# CALLTREE;init_0;Main-PWSCF_0;run-PWSCF_0;run-PWSCF-electrons_function_1;electrons-electrons_scf_function_0;c_bands_function_3
# Job info - HDEEM
JOB ID,17281565.16
Nodelist,taurusi5540
AVG Runtime of function [s],0.0120891
MAX Runtime of function [s],0.0120891
MIN Runtime of function [s],0.0120891
# COUNTERS - HDEEM: 
AVG Energy consumption [J] (Stats structure),4.07
MAX Energy consumption [J] (Stats structure),4.07
MIN Energy consumption [J] (Stats structure),4.07
SUM Energy consumption [J] (Stats structure),4.07
# CALLTREE;init_0;Main-PWSCF_0;run-PWSCF_0;run-PWSCF-electrons_function_1;electrons-electrons_scf_function_0;c_bands_function_3
# Job info - HDEEM
JOB ID,17281565.16
Nodelist,taurusi5540
AVG Runtime of function [s],0.011832
MAX Runtime of function [s],0.011832
MIN Runtime of function [s],0.011832
# COUNTERS - HDEEM: 
AVG Energy consumption [J] (Stats structure),3.613
MAX Energy consumption [J] (Stats structure),3.613
MIN Energy consumption [J] (Stats structure),3.613
SUM Energy consumption [J] (Stats structure),3.613
# CALLTREE;init_0;Main-PWSCF_0;run-PWSCF_0;run-PWSCF-electrons_function_1;electrons-electrons_scf_function_0;c_bands_function_4
# Job info - HDEEM
JOB ID,17281565.16
Nodelist,taurusi5540
AVG Runtime of function [s],0.0120039
MAX Runtime of function [s],0.0120039
MIN Runtime of function [s],0.0120039
# COUNTERS - HDEEM: 
AVG Energy consumption [J] (Stats structure),3.314
MAX Energy consumption [J] (Stats structure),3.314
MIN Energy consumption [J] (Stats structure),3.314
SUM Energy consumption [J] (Stats structure),3.314
# CALLTREE;init_0;Main-PWSCF_0;run-PWSCF_0;run-PWSCF-electrons_function_1;electrons-electrons_scf_function_0;c_bands_function_4
# Job info - HDEEM
JOB ID,17281565.16
Nodelist,taurusi5540
AVG Runtime of function [s],0.0118735
MAX Runtime of function [s],0.0118735
MIN Runtime of function [s],0.0118735
# COUNTERS - HDEEM: 
AVG Energy consumption [J] (Stats structure),3.413
MAX Energy consumption [J] (Stats structure),3.413
MIN Energy consumption [J] (Stats structure),3.413
SUM Energy consumption [J] (Stats structure),3.413
# CALLTREE;init_0;Main-PWSCF_0;run-PWSCF_0;run-PWSCF-electrons_function_1;electrons-electrons_scf_function_0;c_bands_function_4
# Job info - HDEEM
JOB ID,17281565.16
Nodelist,taurusi5540
AVG Runtime of function [s],0.0118353
MAX Runtime of function [s],0.0118353
MIN Runtime of function [s],0.0118353
# COUNTERS - HDEEM: 
AVG Energy consumption [J] (Stats structure),3.405
MAX Energy consumption [J] (Stats structure),3.405
MIN Energy consumption [J] (Stats structure),3.405
SUM Energy consumption [J] (Stats structure),3.405
# CALLTREE;init_0;Main-PWSCF_0;run-PWSCF_0;run-PWSCF-electrons_function_1;electrons-electrons_scf_function_0;c_bands_function_4
# Job info - HDEEM
JOB ID,17281565.16
Nodelist,taurusi5540
AVG Runtime of function [s],0.0116539
MAX Runtime of function [s],0.0116539
MIN Runtime of function [s],0.0116539
# COUNTERS - HDEEM: 
AVG Energy consumption [J] (Stats structure),3.413
MAX Energy consumption [J] (Stats structure),3.413
MIN Energy consumption [J] (Stats structure),3.413
SUM Energy consumption [J] (Stats structure),3.413
# CALLTREE;init_0;Main-PWSCF_0;run-PWSCF_0;run-PWSCF-electrons_function_1;electrons-electrons_scf_function_0;c_bands_function_5
# Job info - HDEEM
JOB ID,17281565.16
Nodelist,taurusi5540
AVG Runtime of function [s],0.0118716
MAX Runtime of function [s],0.0118716
MIN Runtime of function [s],0.0118716
# COUNTERS - HDEEM: 
AVG Energy consumption [J] (Stats structure),3.543
MAX Energy consumption [J] (Stats structure),3.543
MIN Energy consumption [J] (Stats structure),3.543
SUM Energy consumption [J] (Stats structure),3.543
# CALLTREE;init_0;Main-PWSCF_0;run-PWSCF_0;run-PWSCF-electrons_function_1;electrons-electrons_scf_function_0;c_bands_function_5
# Job info - HDEEM
JOB ID,17281565.16
Nodelist,taurusi5540
AVG Runtime of function [s],0.0119201
MAX Runtime of function [s],0.0119201
MIN Runtime of function [s],0.0119201
# COUNTERS - HDEEM: 
AVG Energy consumption [J] (Stats structure),3.421
MAX Energy consumption [J] (Stats structure),3.421
MIN Energy consumption [J] (Stats structure),3.421
SUM Energy consumption [J] (Stats structure),3.421
# CALLTREE;init_0;Main-PWSCF_0;run-PWSCF_0;run-PWSCF-electrons_function_1;electrons-electrons_scf_function_0;c_bands_function_5
# Job info - HDEEM
JOB ID,17281565.16
Nodelist,taurusi5540
AVG Runtime of function [s],0.011839
MAX Runtime of function [s],0.011839
MIN Runtime of function [s],0.011839
# COUNTERS - HDEEM: 
AVG Energy consumption [J] (Stats structure),3.398
MAX Energy consumption [J] (Stats structure),3.398
MIN Energy consumption [J] (Stats structure),3.398
SUM Energy consumption [J] (Stats structure),3.398
# CALLTREE;init_0;Main-PWSCF_0;run-PWSCF_0;run-PWSCF-electrons_function_1;electrons-electrons_scf_function_0;c_bands_function_5
# Job info - HDEEM
JOB ID,17281565.16
Nodelist,taurusi5540
AVG Runtime of function [s],0.0117316
MAX Runtime of function [s],0.0117316
MIN Runtime of function [s],0.0117316
# COUNTERS - HDEEM: 
AVG Energy consumption [J] (Stats structure),3.611
MAX Energy consumption [J] (Stats structure),3.611
MIN Energy consumption [J] (Stats structure),3.611
SUM Energy consumption [J] (Stats structure),3.611
# CALLTREE;init_0;Main-PWSCF_0;run-PWSCF_0;run-PWSCF-electrons_function_1;electrons-electrons_scf_function_0;c_bands_function_6
# Job info - HDEEM
JOB ID,17281565.16
Nodelist,taurusi5540
AVG Runtime of function [s],0.0119158
MAX Runtime of function [s],0.0119158
MIN Runtime of function [s],0.0119158
# COUNTERS - HDEEM: 
AVG Energy consumption [J] (Stats structure),3.54
MAX Energy consumption [J] (Stats structure),3.54
MIN Energy consumption [J] (Stats structure),3.54
SUM Energy consumption [J] (Stats structure),3.54
# CALLTREE;init_0;Main-PWSCF_0;run-PWSCF_0;run-PWSCF-electrons_function_1;electrons-electrons_scf_function_0;c_bands_function_6
# Job info - HDEEM
JOB ID,17281565.16
Nodelist,taurusi5540
AVG Runtime of function [s],0.0118544
MAX Runtime of function [s],0.0118544
MIN Runtime of function [s],0.0118544
# COUNTERS - HDEEM: 
AVG Energy consumption [J] (Stats structure),3.626
MAX Energy consumption [J] (Stats structure),3.626
MIN Energy consumption [J] (Stats structure),3.626
SUM Energy consumption [J] (Stats structure),3.626
# CALLTREE;init_0;Main-PWSCF_0;run-PWSCF_0;run-PWSCF-electrons_function_1;electrons-electrons_scf_function_0;c_bands_function_6
# Job info - HDEEM
JOB ID,17281565.16
Nodelist,taurusi5540
AVG Runtime of function [s],0.0116097
MAX Runtime of function [s],0.0116097
MIN Runtime of function [s],0.0116097
# COUNTERS - HDEEM: 
AVG Energy consumption [J] (Stats structure),3.63
MAX Energy consumption [J] (Stats structure),3.63
MIN Energy consumption [J] (Stats structure),3.63
SUM Energy consumption [J] (Stats structure),3.63
# CALLTREE;init_0;Main-PWSCF_0;run-PWSCF_0;run-PWSCF-electrons_function_1;electrons-electrons_scf_function_0;c_bands_function_6
# Job info - HDEEM
JOB ID,17281565.16
Nodelist,taurusi5540
AVG Runtime of function [s],0.0119337
MAX Runtime of function [s],0.0119337
MIN Runtime of function [s],0.0119337
# COUNTERS - HDEEM: 
AVG Energy consumption [J] (Stats structure),3.411
MAX Energy consumption [J] (Stats structure),3.411
MIN Energy consumption [J] (Stats structure),3.411
SUM Energy consumption [J] (Stats structure),3.411
# CALLTREE;init_0;Main-PWSCF_0;run-PWSCF_0;run-PWSCF-electrons_function_1;electrons-electrons_scf_function_0;c_bands_function_7
# Job info - HDEEM
JOB ID,17281565.16
Nodelist,taurusi5540
AVG Runtime of function [s],0.0117498
MAX Runtime of function [s],0.0117498
MIN Runtime of function [s],0.0117498
# COUNTERS - HDEEM: 
AVG Energy consumption [J] (Stats structure),3.313
MAX Energy consumption [J] (Stats structure),3.313
MIN Energy consumption [J] (Stats structure),3.313
SUM Energy consumption [J] (Stats structure),3.313
# CALLTREE;init_0;Main-PWSCF_0;run-PWSCF_0;run-PWSCF-electrons_function_1;electrons-electrons_scf_function_0;c_bands_function_7
# Job info - HDEEM
JOB ID,17281565.16
Nodelist,taurusi5540
AVG Runtime of function [s],0.0140419
MAX Runtime of function [s],0.0140419
MIN Runtime of function [s],0.0140419
# COUNTERS - HDEEM: 
AVG Energy consumption [J] (Stats structure),3.959
MAX Energy consumption [J] (Stats structure),3.959
MIN Energy consumption [J] (Stats structure),3.959
SUM Energy consumption [J] (Stats structure),3.959
# CALLTREE;init_0;Main-PWSCF_0;run-PWSCF_0;run-PWSCF-electrons_function_1;electrons-electrons_scf_function_0;c_bands_function_7
# Job info - HDEEM
JOB ID,17281565.16
Nodelist,taurusi5540
AVG Runtime of function [s],0.0118046
MAX Runtime of function [s],0.0118046
MIN Runtime of function [s],0.0118046
# COUNTERS - HDEEM: 
AVG Energy consumption [J] (Stats structure),3.611
MAX Energy consumption [J] (Stats structure),3.611
MIN Energy consumption [J] (Stats structure),3.611
SUM Energy consumption [J] (Stats structure),3.611
# CALLTREE;init_0;Main-PWSCF_0;run-PWSCF_0;run-PWSCF-electrons_function_1;electrons-electrons_scf_function_0;c_bands_function_7
# Job info - HDEEM
JOB ID,17281565.16
Nodelist,taurusi5540
AVG Runtime of function [s],0.0118727
MAX Runtime of function [s],0.0118727
MIN Runtime of function [s],0.0118727
# COUNTERS - HDEEM: 
AVG Energy consumption [J] (Stats structure),3.418
MAX Energy consumption [J] (Stats structure),3.418
MIN Energy consumption [J] (Stats structure),3.418
SUM Energy consumption [J] (Stats structure),3.418
# CALLTREE;init_0;Main-PWSCF_0;run-PWSCF_0;run-PWSCF-electrons_function_1;electrons-electrons_scf_function_0;c_bands_function_8
# Job info - HDEEM
JOB ID,17281565.16
Nodelist,taurusi5540
AVG Runtime of function [s],0.0247802
MAX Runtime of function [s],0.0247802
MIN Runtime of function [s],0.0247802
# COUNTERS - HDEEM: 
AVG Energy consumption [J] (Stats structure),5.763
MAX Energy consumption [J] (Stats structure),5.763
MIN Energy consumption [J] (Stats structure),5.763
SUM Energy consumption [J] (Stats structure),5.763
# CALLTREE;init_0;Main-PWSCF_0;run-PWSCF_0;run-PWSCF-electrons_function_1;electrons-electrons_scf_function_0;c_bands_function_8
# Job info - HDEEM
JOB ID,17281565.16
Nodelist,taurusi5540
AVG Runtime of function [s],0.0118375
MAX Runtime of function [s],0.0118375
MIN Runtime of function [s],0.0118375
# COUNTERS - HDEEM: 
AVG Energy consumption [J] (Stats structure),3.622
MAX Energy consumption [J] (Stats structure),3.622
MIN Energy consumption [J] (Stats structure),3.622
SUM Energy consumption [J] (Stats structure),3.622
# CALLTREE;init_0;Main-PWSCF_0;run-PWSCF_0;run-PWSCF-electrons_function_1;electrons-electrons_scf_function_0;c_bands_function_8
# Job info - HDEEM
JOB ID,17281565.16
Nodelist,taurusi5540
AVG Runtime of function [s],0.0118199
MAX Runtime of function [s],0.0118199
MIN Runtime of function [s],0.0118199
# COUNTERS - HDEEM: 
AVG Energy consumption [J] (Stats structure),3.485
MAX Energy consumption [J] (Stats structure),3.485
MIN Energy consumption [J] (Stats structure),3.485
SUM Energy consumption [J] (Stats structure),3.485
# CALLTREE;init_0;Main-PWSCF_0;run-PWSCF_0;run-PWSCF-electrons_function_1;electrons-electrons_scf_function_0;c_bands_function_8
# Job info - HDEEM
JOB ID,17281565.16
Nodelist,taurusi5540
AVG Runtime of function [s],0.0117947
MAX Runtime of function [s],0.0117947
MIN Runtime of function [s],0.0117947
# COUNTERS - HDEEM: 
AVG Energy consumption [J] (Stats structure),3.625
MAX Energy consumption [J] (Stats structure),3.625
MIN Energy consumption [J] (Stats structure),3.625
SUM Energy consumption [J] (Stats structure),3.625
# CALLTREE;init_0;Main-PWSCF_0;run-PWSCF_0;run-PWSCF-electrons_function_1;electrons-electrons_scf_function_0;c_bands_function_9
# Job info - HDEEM
JOB ID,17281565.16
Nodelist,taurusi5540
AVG Runtime of function [s],0.0169081
MAX Runtime of function [s],0.0169081
MIN Runtime of function [s],0.0169081
# COUNTERS - HDEEM: 
AVG Energy consumption [J] (Stats structure),4.286
MAX Energy consumption [J] (Stats structure),4.286
MIN Energy consumption [J] (Stats structure),4.286
SUM Energy consumption [J] (Stats structure),4.286
# CALLTREE;init_0;Main-PWSCF_0;run-PWSCF_0;run-PWSCF-electrons_function_1;electrons-electrons_scf_function_0;c_bands_function_9
# Job info - HDEEM
JOB ID,17281565.16
Nodelist,taurusi5540
AVG Runtime of function [s],0.0118194
MAX Runtime of function [s],0.0118194
MIN Runtime of function [s],0.0118194
# COUNTERS - HDEEM: 
AVG Energy consumption [J] (Stats structure),3.618
MAX Energy consumption [J] (Stats structure),3.618
MIN Energy consumption [J] (Stats structure),3.618
SUM Energy consumption [J] (Stats structure),3.618
# CALLTREE;init_0;Main-PWSCF_0;run-PWSCF_0;run-PWSCF-electrons_function_1;electrons-electrons_scf_function_0;c_bands_function_9
# Job info - HDEEM
JOB ID,17281565.16
Nodelist,taurusi5540
AVG Runtime of function [s],0.0117774
MAX Runtime of function [s],0.0117774
MIN Runtime of function [s],0.0117774
# COUNTERS - HDEEM: 
AVG Energy consumption [J] (Stats structure),3.632
MAX Energy consumption [J] (Stats structure),3.632
MIN Energy consumption [J] (Stats structure),3.632
SUM Energy consumption [J] (Stats structure),3.632
# CALLTREE;init_0;Main-PWSCF_0;run-PWSCF_0;run-PWSCF-electrons_function_1;electrons-electrons_scf_function_0;c_bands_function_9
# Job info - HDEEM
JOB ID,17281565.16
Nodelist,taurusi5540
AVG Runtime of function [s],0.011757
MAX Runtime of function [s],0.011757
MIN Runtime of function [s],0.011757
# COUNTERS - HDEEM: 
AVG Energy consumption [J] (Stats structure),3.283
MAX Energy consumption [J] (Stats structure),3.283
MIN Energy consumption [J] (Stats structure),3.283
SUM Energy consumption [J] (Stats structure),3.283
# CALLTREE;init_0;Main-PWSCF_0;run-PWSCF_0;run-PWSCF-electrons_function_1;electrons-electrons_scf_function_0;c_bands_function_10
# Job info - HDEEM
JOB ID,17281565.16
Nodelist,taurusi5540
AVG Runtime of function [s],0.0118032
MAX Runtime of function [s],0.0118032
MIN Runtime of function [s],0.0118032
# COUNTERS - HDEEM: 
AVG Energy consumption [J] (Stats structure),3.316
MAX Energy consumption [J] (Stats structure),3.316
MIN Energy consumption [J] (Stats structure),3.316
SUM Energy consumption [J] (Stats structure),3.316
# CALLTREE;init_0;Main-PWSCF_0;run-PWSCF_0;run-PWSCF-electrons_function_1;electrons-electrons_scf_function_0;c_bands_function_10
# Job info - HDEEM
JOB ID,17281565.16
Nodelist,taurusi5540
AVG Runtime of function [s],0.0118289
MAX Runtime of function [s],0.0118289
MIN Runtime of function [s],0.0118289
# COUNTERS - HDEEM: 
AVG Energy consumption [J] (Stats structure),3.422
MAX Energy consumption [J] (Stats structure),3.422
MIN Energy consumption [J] (Stats structure),3.422
SUM Energy consumption [J] (Stats structure),3.422
# CALLTREE;init_0;Main-PWSCF_0;run-PWSCF_0;run-PWSCF-electrons_function_1;electrons-electrons_scf_function_0;c_bands_function_10
# Job info - HDEEM
JOB ID,17281565.16
Nodelist,taurusi5540
AVG Runtime of function [s],0.011824
MAX Runtime of function [s],0.011824
MIN Runtime of function [s],0.011824
# COUNTERS - HDEEM: 
AVG Energy consumption [J] (Stats structure),3.634
MAX Energy consumption [J] (Stats structure),3.634
MIN Energy consumption [J] (Stats structure),3.634
SUM Energy consumption [J] (Stats structure),3.634
# CALLTREE;init_0;Main-PWSCF_0;run-PWSCF_0;run-PWSCF-electrons_function_1;electrons-electrons_scf_function_0;c_bands_function_10
# Job info - HDEEM
JOB ID,17281565.16
Nodelist,taurusi5540
AVG Runtime of function [s],0.00768198
MAX Runtime of function [s],0.00768198
MIN Runtime of function [s],0.00768198
# COUNTERS - HDEEM: 
AVG Energy consumption [J] (Stats structure),4.264
MAX Energy consumption [J] (Stats structure),4.264
MIN Energy consumption [J] (Stats structure),4.264
SUM Energy consumption [J] (Stats structure),4.264
# CALLTREE;init_0;Main-PWSCF_0;run-PWSCF_0;run-PWSCF-electrons_function_1;electrons-electrons_scf_function_0;c_bands_function_11
# Job info - HDEEM
JOB ID,17281565.16
Nodelist,taurusi5540
AVG Runtime of function [s],0.0118966
MAX Runtime of function [s],0.0118966
MIN Runtime of function [s],0.0118966
# COUNTERS - HDEEM: 
AVG Energy consumption [J] (Stats structure),3.537
MAX Energy consumption [J] (Stats structure),3.537
MIN Energy consumption [J] (Stats structure),3.537
SUM Energy consumption [J] (Stats structure),3.537
# CALLTREE;init_0;Main-PWSCF_0;run-PWSCF_0;run-PWSCF-electrons_function_1;electrons-electrons_scf_function_0;c_bands_function_11
# Job info - HDEEM
JOB ID,17281565.16
Nodelist,taurusi5540
AVG Runtime of function [s],0.0118206
MAX Runtime of function [s],0.0118206
MIN Runtime of function [s],0.0118206
# COUNTERS - HDEEM: 
AVG Energy consumption [J] (Stats structure),3.633
MAX Energy consumption [J] (Stats structure),3.633
MIN Energy consumption [J] (Stats structure),3.633
SUM Energy consumption [J] (Stats structure),3.633
# CALLTREE;init_0;Main-PWSCF_0;run-PWSCF_0;run-PWSCF-electrons_function_1;electrons-electrons_scf_function_0;c_bands_function_11
# Job info - HDEEM
JOB ID,17281565.16
Nodelist,taurusi5540
AVG Runtime of function [s],0.0117405
MAX Runtime of function [s],0.0117405
MIN Runtime of function [s],0.0117405
# COUNTERS - HDEEM: 
AVG Energy consumption [J] (Stats structure),3.411
MAX Energy consumption [J] (Stats structure),3.411
MIN Energy consumption [J] (Stats structure),3.411
SUM Energy consumption [J] (Stats structure),3.411
# CALLTREE;init_0;Main-PWSCF_0;run-PWSCF_0;run-PWSCF-electrons_function_1;electrons-electrons_scf_function_0;c_bands_function_11
# Job info - HDEEM
JOB ID,17281565.16
Nodelist,taurusi5540
AVG Runtime of function [s],0.0117773
MAX Runtime of function [s],0.0117773
MIN Runtime of function [s],0.0117773
# COUNTERS - HDEEM: 
AVG Energy consumption [J] (Stats structure),3.408
MAX Energy consumption [J] (Stats structure),3.408
MIN Energy consumption [J] (Stats structure),3.408
SUM Energy consumption [J] (Stats structure),3.408
# CALLTREE;init_0;Main-PWSCF_0;run-PWSCF_0;run-PWSCF-electrons_function_1;electrons-electrons_scf_function_0;c_bands_function_12
# Job info - HDEEM
JOB ID,17281565.16
Nodelist,taurusi5540
AVG Runtime of function [s],0.0118795
MAX Runtime of function [s],0.0118795
MIN Runtime of function [s],0.0118795
# COUNTERS - HDEEM: 
AVG Energy consumption [J] (Stats structure),3.54
MAX Energy consumption [J] (Stats structure),3.54
MIN Energy consumption [J] (Stats structure),3.54
SUM Energy consumption [J] (Stats structure),3.54
# CALLTREE;init_0;Main-PWSCF_0;run-PWSCF_0;run-PWSCF-electrons_function_1;electrons-electrons_scf_function_0;c_bands_function_12
# Job info - HDEEM
JOB ID,17281565.16
Nodelist,taurusi5540
AVG Runtime of function [s],0.0117701
MAX Runtime of function [s],0.0117701
MIN Runtime of function [s],0.0117701
# COUNTERS - HDEEM: 
AVG Energy consumption [J] (Stats structure),3.317
MAX Energy consumption [J] (Stats structure),3.317
MIN Energy consumption [J] (Stats structure),3.317
SUM Energy consumption [J] (Stats structure),3.317
# CALLTREE;init_0;Main-PWSCF_0;run-PWSCF_0;run-PWSCF-electrons_function_1;electrons-electrons_scf_function_0;c_bands_function_12
# Job info - HDEEM
JOB ID,17281565.16
Nodelist,taurusi5540
AVG Runtime of function [s],0.0118185
MAX Runtime of function [s],0.0118185
MIN Runtime of function [s],0.0118185
# COUNTERS - HDEEM: 
AVG Energy consumption [J] (Stats structure),3.424
MAX Energy consumption [J] (Stats structure),3.424
MIN Energy consumption [J] (Stats structure),3.424
SUM Energy consumption [J] (Stats structure),3.424
# CALLTREE;init_0;Main-PWSCF_0;run-PWSCF_0;run-PWSCF-electrons_function_1;electrons-electrons_scf_function_0;c_bands_function_12
# Job info - HDEEM
JOB ID,17281565.16
Nodelist,taurusi5540
AVG Runtime of function [s],0.011843
MAX Runtime of function [s],0.011843
MIN Runtime of function [s],0.011843
# COUNTERS - HDEEM: 
AVG Energy consumption [J] (Stats structure),3.625
MAX Energy consumption [J] (Stats structure),3.625
MIN Energy consumption [J] (Stats structure),3.625
SUM Energy consumption [J] (Stats structure),3.625
# CALLTREE;init_0;Main-PWSCF_0;run-PWSCF_0;run-PWSCF-electrons_function_1;electrons-electrons_scf_function_0;c_bands_function_13
# Job info - HDEEM
JOB ID,17281565.16
Nodelist,taurusi5540
AVG Runtime of function [s],0.00918791
MAX Runtime of function [s],0.00918791
MIN Runtime of function [s],0.00918791
# COUNTERS - HDEEM: 
AVG Energy consumption [J] (Stats structure),3.099
MAX Energy consumption [J] (Stats structure),3.099
MIN Energy consumption [J] (Stats structure),3.099
SUM Energy consumption [J] (Stats structure),3.099
# CALLTREE;init_0;Main-PWSCF_0;run-PWSCF_0;run-PWSCF-electrons_function_1;electrons-electrons_scf_function_0;c_bands_function_13
# Job info - HDEEM
JOB ID,17281565.16
Nodelist,taurusi5540
AVG Runtime of function [s],0.0116406
MAX Runtime of function [s],0.0116406
MIN Runtime of function [s],0.0116406
# COUNTERS - HDEEM: 
AVG Energy consumption [J] (Stats structure),3.416
MAX Energy consumption [J] (Stats structure),3.416
MIN Energy consumption [J] (Stats structure),3.416
SUM Energy consumption [J] (Stats structure),3.416
# CALLTREE;init_0;Main-PWSCF_0;run-PWSCF_0;run-PWSCF-electrons_function_1;electrons-electrons_scf_function_0;c_bands_function_13
# Job info - HDEEM
JOB ID,17281565.16
Nodelist,taurusi5540
AVG Runtime of function [s],0.0117558
MAX Runtime of function [s],0.0117558
MIN Runtime of function [s],0.0117558
# COUNTERS - HDEEM: 
AVG Energy consumption [J] (Stats structure),3.363
MAX Energy consumption [J] (Stats structure),3.363
MIN Energy consumption [J] (Stats structure),3.363
SUM Energy consumption [J] (Stats structure),3.363
# CALLTREE;init_0;Main-PWSCF_0;run-PWSCF_0;run-PWSCF-electrons_function_1;electrons-electrons_scf_function_0;c_bands_function_13
# Job info - HDEEM
JOB ID,17281565.16
Nodelist,taurusi5540
AVG Runtime of function [s],0.0118553
MAX Runtime of function [s],0.0118553
MIN Runtime of function [s],0.0118553
# COUNTERS - HDEEM: 
AVG Energy consumption [J] (Stats structure),3.416
MAX Energy consumption [J] (Stats structure),3.416
MIN Energy consumption [J] (Stats structure),3.416
SUM Energy consumption [J] (Stats structure),3.416
# CALLTREE;init_0;Main-PWSCF_0;run-PWSCF_0;run-PWSCF-electrons_function_1;electrons-electrons_scf_function_0;c_bands_function_14
# Job info - HDEEM
JOB ID,17281565.16
Nodelist,taurusi5540
AVG Runtime of function [s],0.0118106
MAX Runtime of function [s],0.0118106
MIN Runtime of function [s],0.0118106
# COUNTERS - HDEEM: 
AVG Energy consumption [J] (Stats structure),3.267
MAX Energy consumption [J] (Stats structure),3.267
MIN Energy consumption [J] (Stats structure),3.267
SUM Energy consumption [J] (Stats structure),3.267
# CALLTREE;init_0;Main-PWSCF_0;run-PWSCF_0;run-PWSCF-electrons_function_1;electrons-electrons_scf_function_0;c_bands_function_14
# Job info - HDEEM
JOB ID,17281565.16
Nodelist,taurusi5540
AVG Runtime of function [s],0.011802
MAX Runtime of function [s],0.011802
MIN Runtime of function [s],0.011802
# COUNTERS - HDEEM: 
AVG Energy consumption [J] (Stats structure),3.411
MAX Energy consumption [J] (Stats structure),3.411
MIN Energy consumption [J] (Stats structure),3.411
SUM Energy consumption [J] (Stats structure),3.411
# CALLTREE;init_0;Main-PWSCF_0;run-PWSCF_0;run-PWSCF-electrons_function_1;electrons-electrons_scf_function_0;c_bands_function_14
# Job info - HDEEM
JOB ID,17281565.16
Nodelist,taurusi5540
AVG Runtime of function [s],0.0112044
MAX Runtime of function [s],0.0112044
MIN Runtime of function [s],0.0112044
# COUNTERS - HDEEM: 
AVG Energy consumption [J] (Stats structure),3.171
MAX Energy consumption [J] (Stats structure),3.171
MIN Energy consumption [J] (Stats structure),3.171
SUM Energy consumption [J] (Stats structure),3.171
# CALLTREE;init_0;Main-PWSCF_0;run-PWSCF_0;run-PWSCF-electrons_function_1;electrons-electrons_scf_function_0;c_bands_function_14
# Job info - HDEEM
JOB ID,17281565.16
Nodelist,taurusi5540
AVG Runtime of function [s],0.0118069
MAX Runtime of function [s],0.0118069
MIN Runtime of function [s],0.0118069
# COUNTERS - HDEEM: 
AVG Energy consumption [J] (Stats structure),3.615
MAX Energy consumption [J] (Stats structure),3.615
MIN Energy consumption [J] (Stats structure),3.615
SUM Energy consumption [J] (Stats structure),3.615
# CALLTREE;init_0;Main-PWSCF_0;run-PWSCF_0;run-PWSCF-electrons_function_1;electrons-electrons_scf_function_0;c_bands_function_15
# Job info - HDEEM
JOB ID,17281565.16
Nodelist,taurusi5540
AVG Runtime of function [s],0.0119419
MAX Runtime of function [s],0.0119419
MIN Runtime of function [s],0.0119419
# COUNTERS - HDEEM: 
AVG Energy consumption [J] (Stats structure),3.313
MAX Energy consumption [J] (Stats structure),3.313
MIN Energy consumption [J] (Stats structure),3.313
SUM Energy consumption [J] (Stats structure),3.313
# CALLTREE;init_0;Main-PWSCF_0;run-PWSCF_0;run-PWSCF-electrons_function_1;electrons-electrons_scf_function_0;c_bands_function_15
# Job info - HDEEM
JOB ID,17281565.16
Nodelist,taurusi5540
AVG Runtime of function [s],0.0135021
MAX Runtime of function [s],0.0135021
MIN Runtime of function [s],0.0135021
# COUNTERS - HDEEM: 
AVG Energy consumption [J] (Stats structure),3.864
MAX Energy consumption [J] (Stats structure),3.864
MIN Energy consumption [J] (Stats structure),3.864
SUM Energy consumption [J] (Stats structure),3.864
# CALLTREE;init_0;Main-PWSCF_0;run-PWSCF_0;run-PWSCF-electrons_function_1;electrons-electrons_scf_function_0;c_bands_function_15
# Job info - HDEEM
JOB ID,17281565.16
Nodelist,taurusi5540
AVG Runtime of function [s],0.0118273
MAX Runtime of function [s],0.0118273
MIN Runtime of function [s],0.0118273
# COUNTERS - HDEEM: 
AVG Energy consumption [J] (Stats structure),3.404
MAX Energy consumption [J] (Stats structure),3.404
MIN Energy consumption [J] (Stats structure),3.404
SUM Energy consumption [J] (Stats structure),3.404
# CALLTREE;init_0;Main-PWSCF_0;run-PWSCF_0;run-PWSCF-electrons_function_1;electrons-electrons_scf_function_0;c_bands_function_15
# Job info - HDEEM
JOB ID,17281565.16
Nodelist,taurusi5540
AVG Runtime of function [s],0.011778
MAX Runtime of function [s],0.011778
MIN Runtime of function [s],0.011778
# COUNTERS - HDEEM: 
AVG Energy consumption [J] (Stats structure),3.621
MAX Energy consumption [J] (Stats structure),3.621
MIN Energy consumption [J] (Stats structure),3.621
SUM Energy consumption [J] (Stats structure),3.621
