# CALLTREE;init_0;Main-PWSCF_0;run-PWSCF_0;run-PWSCF-electrons_function_1;electrons-electrons_scf_function_0;c_bands_function_0
# Job info - HDEEM
JOB ID,17281565.15
Nodelist,taurusi5540
AVG Runtime of function [s],0.011692
MAX Runtime of function [s],0.011692
MIN Runtime of function [s],0.011692
# COUNTERS - HDEEM: 
AVG Energy consumption [J] (Stats structure),3.474
MAX Energy consumption [J] (Stats structure),3.474
MIN Energy consumption [J] (Stats structure),3.474
SUM Energy consumption [J] (Stats structure),3.474
# CALLTREE;init_0;Main-PWSCF_0;run-PWSCF_0;run-PWSCF-electrons_function_1;electrons-electrons_scf_function_0;c_bands_function_0
# Job info - HDEEM
JOB ID,17281565.15
Nodelist,taurusi5540
AVG Runtime of function [s],0.00740192
MAX Runtime of function [s],0.00740192
MIN Runtime of function [s],0.00740192
# COUNTERS - HDEEM: 
AVG Energy consumption [J] (Stats structure),4.457
MAX Energy consumption [J] (Stats structure),4.457
MIN Energy consumption [J] (Stats structure),4.457
SUM Energy consumption [J] (Stats structure),4.457
# CALLTREE;init_0;Main-PWSCF_0;run-PWSCF_0;run-PWSCF-electrons_function_1;electrons-electrons_scf_function_0;c_bands_function_0
# Job info - HDEEM
JOB ID,17281565.15
Nodelist,taurusi5540
AVG Runtime of function [s],0.0116785
MAX Runtime of function [s],0.0116785
MIN Runtime of function [s],0.0116785
# COUNTERS - HDEEM: 
AVG Energy consumption [J] (Stats structure),3.834
MAX Energy consumption [J] (Stats structure),3.834
MIN Energy consumption [J] (Stats structure),3.834
SUM Energy consumption [J] (Stats structure),3.834
# CALLTREE;init_0;Main-PWSCF_0;run-PWSCF_0;run-PWSCF-electrons_function_1;electrons-electrons_scf_function_0;c_bands_function_0
# Job info - HDEEM
JOB ID,17281565.15
Nodelist,taurusi5540
AVG Runtime of function [s],0.0116461
MAX Runtime of function [s],0.0116461
MIN Runtime of function [s],0.0116461
# COUNTERS - HDEEM: 
AVG Energy consumption [J] (Stats structure),3.835
MAX Energy consumption [J] (Stats structure),3.835
MIN Energy consumption [J] (Stats structure),3.835
SUM Energy consumption [J] (Stats structure),3.835
# CALLTREE;init_0;Main-PWSCF_0;run-PWSCF_0;run-PWSCF-electrons_function_1;electrons-electrons_scf_function_0;c_bands_function_1
# Job info - HDEEM
JOB ID,17281565.15
Nodelist,taurusi5540
AVG Runtime of function [s],0.0116657
MAX Runtime of function [s],0.0116657
MIN Runtime of function [s],0.0116657
# COUNTERS - HDEEM: 
AVG Energy consumption [J] (Stats structure),3.461
MAX Energy consumption [J] (Stats structure),3.461
MIN Energy consumption [J] (Stats structure),3.461
SUM Energy consumption [J] (Stats structure),3.461
# CALLTREE;init_0;Main-PWSCF_0;run-PWSCF_0;run-PWSCF-electrons_function_1;electrons-electrons_scf_function_0;c_bands_function_1
# Job info - HDEEM
JOB ID,17281565.15
Nodelist,taurusi5540
AVG Runtime of function [s],0.011587
MAX Runtime of function [s],0.011587
MIN Runtime of function [s],0.011587
# COUNTERS - HDEEM: 
AVG Energy consumption [J] (Stats structure),3.464
MAX Energy consumption [J] (Stats structure),3.464
MIN Energy consumption [J] (Stats structure),3.464
SUM Energy consumption [J] (Stats structure),3.464
# CALLTREE;init_0;Main-PWSCF_0;run-PWSCF_0;run-PWSCF-electrons_function_1;electrons-electrons_scf_function_0;c_bands_function_1
# Job info - HDEEM
JOB ID,17281565.15
Nodelist,taurusi5540
AVG Runtime of function [s],0.0115655
MAX Runtime of function [s],0.0115655
MIN Runtime of function [s],0.0115655
# COUNTERS - HDEEM: 
AVG Energy consumption [J] (Stats structure),3.592
MAX Energy consumption [J] (Stats structure),3.592
MIN Energy consumption [J] (Stats structure),3.592
SUM Energy consumption [J] (Stats structure),3.592
# CALLTREE;init_0;Main-PWSCF_0;run-PWSCF_0;run-PWSCF-electrons_function_1;electrons-electrons_scf_function_0;c_bands_function_1
# Job info - HDEEM
JOB ID,17281565.15
Nodelist,taurusi5540
AVG Runtime of function [s],0.0117
MAX Runtime of function [s],0.0117
MIN Runtime of function [s],0.0117
# COUNTERS - HDEEM: 
AVG Energy consumption [J] (Stats structure),3.821
MAX Energy consumption [J] (Stats structure),3.821
MIN Energy consumption [J] (Stats structure),3.821
SUM Energy consumption [J] (Stats structure),3.821
# CALLTREE;init_0;Main-PWSCF_0;run-PWSCF_0;run-PWSCF-electrons_function_1;electrons-electrons_scf_function_0;c_bands_function_2
# Job info - HDEEM
JOB ID,17281565.15
Nodelist,taurusi5540
AVG Runtime of function [s],0.011746
MAX Runtime of function [s],0.011746
MIN Runtime of function [s],0.011746
# COUNTERS - HDEEM: 
AVG Energy consumption [J] (Stats structure),3.513
MAX Energy consumption [J] (Stats structure),3.513
MIN Energy consumption [J] (Stats structure),3.513
SUM Energy consumption [J] (Stats structure),3.513
# CALLTREE;init_0;Main-PWSCF_0;run-PWSCF_0;run-PWSCF-electrons_function_1;electrons-electrons_scf_function_0;c_bands_function_2
# Job info - HDEEM
JOB ID,17281565.15
Nodelist,taurusi5540
AVG Runtime of function [s],0.0117018
MAX Runtime of function [s],0.0117018
MIN Runtime of function [s],0.0117018
# COUNTERS - HDEEM: 
AVG Energy consumption [J] (Stats structure),3.607
MAX Energy consumption [J] (Stats structure),3.607
MIN Energy consumption [J] (Stats structure),3.607
SUM Energy consumption [J] (Stats structure),3.607
# CALLTREE;init_0;Main-PWSCF_0;run-PWSCF_0;run-PWSCF-electrons_function_1;electrons-electrons_scf_function_0;c_bands_function_2
# Job info - HDEEM
JOB ID,17281565.15
Nodelist,taurusi5540
AVG Runtime of function [s],0.0116032
MAX Runtime of function [s],0.0116032
MIN Runtime of function [s],0.0116032
# COUNTERS - HDEEM: 
AVG Energy consumption [J] (Stats structure),3.602
MAX Energy consumption [J] (Stats structure),3.602
MIN Energy consumption [J] (Stats structure),3.602
SUM Energy consumption [J] (Stats structure),3.602
# CALLTREE;init_0;Main-PWSCF_0;run-PWSCF_0;run-PWSCF-electrons_function_1;electrons-electrons_scf_function_0;c_bands_function_2
# Job info - HDEEM
JOB ID,17281565.15
Nodelist,taurusi5540
AVG Runtime of function [s],0.0116563
MAX Runtime of function [s],0.0116563
MIN Runtime of function [s],0.0116563
# COUNTERS - HDEEM: 
AVG Energy consumption [J] (Stats structure),3.832
MAX Energy consumption [J] (Stats structure),3.832
MIN Energy consumption [J] (Stats structure),3.832
SUM Energy consumption [J] (Stats structure),3.832
# CALLTREE;init_0;Main-PWSCF_0;run-PWSCF_0;run-PWSCF-electrons_function_1;electrons-electrons_scf_function_0;c_bands_function_3
# Job info - HDEEM
JOB ID,17281565.15
Nodelist,taurusi5540
AVG Runtime of function [s],0.0116362
MAX Runtime of function [s],0.0116362
MIN Runtime of function [s],0.0116362
# COUNTERS - HDEEM: 
AVG Energy consumption [J] (Stats structure),3.508
MAX Energy consumption [J] (Stats structure),3.508
MIN Energy consumption [J] (Stats structure),3.508
SUM Energy consumption [J] (Stats structure),3.508
# CALLTREE;init_0;Main-PWSCF_0;run-PWSCF_0;run-PWSCF-electrons_function_1;electrons-electrons_scf_function_0;c_bands_function_3
# Job info - HDEEM
JOB ID,17281565.15
Nodelist,taurusi5540
AVG Runtime of function [s],0.0115939
MAX Runtime of function [s],0.0115939
MIN Runtime of function [s],0.0115939
# COUNTERS - HDEEM: 
AVG Energy consumption [J] (Stats structure),3.605
MAX Energy consumption [J] (Stats structure),3.605
MIN Energy consumption [J] (Stats structure),3.605
SUM Energy consumption [J] (Stats structure),3.605
# CALLTREE;init_0;Main-PWSCF_0;run-PWSCF_0;run-PWSCF-electrons_function_1;electrons-electrons_scf_function_0;c_bands_function_3
# Job info - HDEEM
JOB ID,17281565.15
Nodelist,taurusi5540
AVG Runtime of function [s],0.0116667
MAX Runtime of function [s],0.0116667
MIN Runtime of function [s],0.0116667
# COUNTERS - HDEEM: 
AVG Energy consumption [J] (Stats structure),3.585
MAX Energy consumption [J] (Stats structure),3.585
MIN Energy consumption [J] (Stats structure),3.585
SUM Energy consumption [J] (Stats structure),3.585
# CALLTREE;init_0;Main-PWSCF_0;run-PWSCF_0;run-PWSCF-electrons_function_1;electrons-electrons_scf_function_0;c_bands_function_3
# Job info - HDEEM
JOB ID,17281565.15
Nodelist,taurusi5540
AVG Runtime of function [s],0.0116744
MAX Runtime of function [s],0.0116744
MIN Runtime of function [s],0.0116744
# COUNTERS - HDEEM: 
AVG Energy consumption [J] (Stats structure),3.834
MAX Energy consumption [J] (Stats structure),3.834
MIN Energy consumption [J] (Stats structure),3.834
SUM Energy consumption [J] (Stats structure),3.834
# CALLTREE;init_0;Main-PWSCF_0;run-PWSCF_0;run-PWSCF-electrons_function_1;electrons-electrons_scf_function_0;c_bands_function_4
# Job info - HDEEM
JOB ID,17281565.15
Nodelist,taurusi5540
AVG Runtime of function [s],0.0117441
MAX Runtime of function [s],0.0117441
MIN Runtime of function [s],0.0117441
# COUNTERS - HDEEM: 
AVG Energy consumption [J] (Stats structure),3.5
MAX Energy consumption [J] (Stats structure),3.5
MIN Energy consumption [J] (Stats structure),3.5
SUM Energy consumption [J] (Stats structure),3.5
# CALLTREE;init_0;Main-PWSCF_0;run-PWSCF_0;run-PWSCF-electrons_function_1;electrons-electrons_scf_function_0;c_bands_function_4
# Job info - HDEEM
JOB ID,17281565.15
Nodelist,taurusi5540
AVG Runtime of function [s],0.0116628
MAX Runtime of function [s],0.0116628
MIN Runtime of function [s],0.0116628
# COUNTERS - HDEEM: 
AVG Energy consumption [J] (Stats structure),3.608
MAX Energy consumption [J] (Stats structure),3.608
MIN Energy consumption [J] (Stats structure),3.608
SUM Energy consumption [J] (Stats structure),3.608
# CALLTREE;init_0;Main-PWSCF_0;run-PWSCF_0;run-PWSCF-electrons_function_1;electrons-electrons_scf_function_0;c_bands_function_4
# Job info - HDEEM
JOB ID,17281565.15
Nodelist,taurusi5540
AVG Runtime of function [s],0.0115927
MAX Runtime of function [s],0.0115927
MIN Runtime of function [s],0.0115927
# COUNTERS - HDEEM: 
AVG Energy consumption [J] (Stats structure),3.612
MAX Energy consumption [J] (Stats structure),3.612
MIN Energy consumption [J] (Stats structure),3.612
SUM Energy consumption [J] (Stats structure),3.612
# CALLTREE;init_0;Main-PWSCF_0;run-PWSCF_0;run-PWSCF-electrons_function_1;electrons-electrons_scf_function_0;c_bands_function_4
# Job info - HDEEM
JOB ID,17281565.15
Nodelist,taurusi5540
AVG Runtime of function [s],0.01164
MAX Runtime of function [s],0.01164
MIN Runtime of function [s],0.01164
# COUNTERS - HDEEM: 
AVG Energy consumption [J] (Stats structure),3.811
MAX Energy consumption [J] (Stats structure),3.811
MIN Energy consumption [J] (Stats structure),3.811
SUM Energy consumption [J] (Stats structure),3.811
# CALLTREE;init_0;Main-PWSCF_0;run-PWSCF_0;run-PWSCF-electrons_function_1;electrons-electrons_scf_function_0;c_bands_function_5
# Job info - HDEEM
JOB ID,17281565.15
Nodelist,taurusi5540
AVG Runtime of function [s],0.011729
MAX Runtime of function [s],0.011729
MIN Runtime of function [s],0.011729
# COUNTERS - HDEEM: 
AVG Energy consumption [J] (Stats structure),3.508
MAX Energy consumption [J] (Stats structure),3.508
MIN Energy consumption [J] (Stats structure),3.508
SUM Energy consumption [J] (Stats structure),3.508
# CALLTREE;init_0;Main-PWSCF_0;run-PWSCF_0;run-PWSCF-electrons_function_1;electrons-electrons_scf_function_0;c_bands_function_5
# Job info - HDEEM
JOB ID,17281565.15
Nodelist,taurusi5540
AVG Runtime of function [s],0.0116379
MAX Runtime of function [s],0.0116379
MIN Runtime of function [s],0.0116379
# COUNTERS - HDEEM: 
AVG Energy consumption [J] (Stats structure),3.597
MAX Energy consumption [J] (Stats structure),3.597
MIN Energy consumption [J] (Stats structure),3.597
SUM Energy consumption [J] (Stats structure),3.597
# CALLTREE;init_0;Main-PWSCF_0;run-PWSCF_0;run-PWSCF-electrons_function_1;electrons-electrons_scf_function_0;c_bands_function_5
# Job info - HDEEM
JOB ID,17281565.15
Nodelist,taurusi5540
AVG Runtime of function [s],0.0115949
MAX Runtime of function [s],0.0115949
MIN Runtime of function [s],0.0115949
# COUNTERS - HDEEM: 
AVG Energy consumption [J] (Stats structure),3.603
MAX Energy consumption [J] (Stats structure),3.603
MIN Energy consumption [J] (Stats structure),3.603
SUM Energy consumption [J] (Stats structure),3.603
# CALLTREE;init_0;Main-PWSCF_0;run-PWSCF_0;run-PWSCF-electrons_function_1;electrons-electrons_scf_function_0;c_bands_function_5
# Job info - HDEEM
JOB ID,17281565.15
Nodelist,taurusi5540
AVG Runtime of function [s],0.0117102
MAX Runtime of function [s],0.0117102
MIN Runtime of function [s],0.0117102
# COUNTERS - HDEEM: 
AVG Energy consumption [J] (Stats structure),3.583
MAX Energy consumption [J] (Stats structure),3.583
MIN Energy consumption [J] (Stats structure),3.583
SUM Energy consumption [J] (Stats structure),3.583
# CALLTREE;init_0;Main-PWSCF_0;run-PWSCF_0;run-PWSCF-electrons_function_1;electrons-electrons_scf_function_0;c_bands_function_6
# Job info - HDEEM
JOB ID,17281565.15
Nodelist,taurusi5540
AVG Runtime of function [s],0.0116995
MAX Runtime of function [s],0.0116995
MIN Runtime of function [s],0.0116995
# COUNTERS - HDEEM: 
AVG Energy consumption [J] (Stats structure),3.503
MAX Energy consumption [J] (Stats structure),3.503
MIN Energy consumption [J] (Stats structure),3.503
SUM Energy consumption [J] (Stats structure),3.503
# CALLTREE;init_0;Main-PWSCF_0;run-PWSCF_0;run-PWSCF-electrons_function_1;electrons-electrons_scf_function_0;c_bands_function_6
# Job info - HDEEM
JOB ID,17281565.15
Nodelist,taurusi5540
AVG Runtime of function [s],0.0115822
MAX Runtime of function [s],0.0115822
MIN Runtime of function [s],0.0115822
# COUNTERS - HDEEM: 
AVG Energy consumption [J] (Stats structure),3.62
MAX Energy consumption [J] (Stats structure),3.62
MIN Energy consumption [J] (Stats structure),3.62
SUM Energy consumption [J] (Stats structure),3.62
# CALLTREE;init_0;Main-PWSCF_0;run-PWSCF_0;run-PWSCF-electrons_function_1;electrons-electrons_scf_function_0;c_bands_function_6
# Job info - HDEEM
JOB ID,17281565.15
Nodelist,taurusi5540
AVG Runtime of function [s],0.0116354
MAX Runtime of function [s],0.0116354
MIN Runtime of function [s],0.0116354
# COUNTERS - HDEEM: 
AVG Energy consumption [J] (Stats structure),3.614
MAX Energy consumption [J] (Stats structure),3.614
MIN Energy consumption [J] (Stats structure),3.614
SUM Energy consumption [J] (Stats structure),3.614
# CALLTREE;init_0;Main-PWSCF_0;run-PWSCF_0;run-PWSCF-electrons_function_1;electrons-electrons_scf_function_0;c_bands_function_6
# Job info - HDEEM
JOB ID,17281565.15
Nodelist,taurusi5540
AVG Runtime of function [s],0.0116787
MAX Runtime of function [s],0.0116787
MIN Runtime of function [s],0.0116787
# COUNTERS - HDEEM: 
AVG Energy consumption [J] (Stats structure),3.837
MAX Energy consumption [J] (Stats structure),3.837
MIN Energy consumption [J] (Stats structure),3.837
SUM Energy consumption [J] (Stats structure),3.837
# CALLTREE;init_0;Main-PWSCF_0;run-PWSCF_0;run-PWSCF-electrons_function_1;electrons-electrons_scf_function_0;c_bands_function_7
# Job info - HDEEM
JOB ID,17281565.15
Nodelist,taurusi5540
AVG Runtime of function [s],0.0114929
MAX Runtime of function [s],0.0114929
MIN Runtime of function [s],0.0114929
# COUNTERS - HDEEM: 
AVG Energy consumption [J] (Stats structure),3.743
MAX Energy consumption [J] (Stats structure),3.743
MIN Energy consumption [J] (Stats structure),3.743
SUM Energy consumption [J] (Stats structure),3.743
# CALLTREE;init_0;Main-PWSCF_0;run-PWSCF_0;run-PWSCF-electrons_function_1;electrons-electrons_scf_function_0;c_bands_function_7
# Job info - HDEEM
JOB ID,17281565.15
Nodelist,taurusi5540
AVG Runtime of function [s],0.0144468
MAX Runtime of function [s],0.0144468
MIN Runtime of function [s],0.0144468
# COUNTERS - HDEEM: 
AVG Energy consumption [J] (Stats structure),4.46
MAX Energy consumption [J] (Stats structure),4.46
MIN Energy consumption [J] (Stats structure),4.46
SUM Energy consumption [J] (Stats structure),4.46
# CALLTREE;init_0;Main-PWSCF_0;run-PWSCF_0;run-PWSCF-electrons_function_1;electrons-electrons_scf_function_0;c_bands_function_7
# Job info - HDEEM
JOB ID,17281565.15
Nodelist,taurusi5540
AVG Runtime of function [s],0.0116787
MAX Runtime of function [s],0.0116787
MIN Runtime of function [s],0.0116787
# COUNTERS - HDEEM: 
AVG Energy consumption [J] (Stats structure),3.603
MAX Energy consumption [J] (Stats structure),3.603
MIN Energy consumption [J] (Stats structure),3.603
SUM Energy consumption [J] (Stats structure),3.603
# CALLTREE;init_0;Main-PWSCF_0;run-PWSCF_0;run-PWSCF-electrons_function_1;electrons-electrons_scf_function_0;c_bands_function_7
# Job info - HDEEM
JOB ID,17281565.15
Nodelist,taurusi5540
AVG Runtime of function [s],0.0115067
MAX Runtime of function [s],0.0115067
MIN Runtime of function [s],0.0115067
# COUNTERS - HDEEM: 
AVG Energy consumption [J] (Stats structure),3.849
MAX Energy consumption [J] (Stats structure),3.849
MIN Energy consumption [J] (Stats structure),3.849
SUM Energy consumption [J] (Stats structure),3.849
# CALLTREE;init_0;Main-PWSCF_0;run-PWSCF_0;run-PWSCF-electrons_function_1;electrons-electrons_scf_function_0;c_bands_function_8
# Job info - HDEEM
JOB ID,17281565.15
Nodelist,taurusi5540
AVG Runtime of function [s],0.024069
MAX Runtime of function [s],0.024069
MIN Runtime of function [s],0.024069
# COUNTERS - HDEEM: 
AVG Energy consumption [J] (Stats structure),5.893
MAX Energy consumption [J] (Stats structure),5.893
MIN Energy consumption [J] (Stats structure),5.893
SUM Energy consumption [J] (Stats structure),5.893
# CALLTREE;init_0;Main-PWSCF_0;run-PWSCF_0;run-PWSCF-electrons_function_1;electrons-electrons_scf_function_0;c_bands_function_8
# Job info - HDEEM
JOB ID,17281565.15
Nodelist,taurusi5540
AVG Runtime of function [s],0.011699
MAX Runtime of function [s],0.011699
MIN Runtime of function [s],0.011699
# COUNTERS - HDEEM: 
AVG Energy consumption [J] (Stats structure),3.618
MAX Energy consumption [J] (Stats structure),3.618
MIN Energy consumption [J] (Stats structure),3.618
SUM Energy consumption [J] (Stats structure),3.618
# CALLTREE;init_0;Main-PWSCF_0;run-PWSCF_0;run-PWSCF-electrons_function_1;electrons-electrons_scf_function_0;c_bands_function_8
# Job info - HDEEM
JOB ID,17281565.15
Nodelist,taurusi5540
AVG Runtime of function [s],0.011584
MAX Runtime of function [s],0.011584
MIN Runtime of function [s],0.011584
# COUNTERS - HDEEM: 
AVG Energy consumption [J] (Stats structure),3.75
MAX Energy consumption [J] (Stats structure),3.75
MIN Energy consumption [J] (Stats structure),3.75
SUM Energy consumption [J] (Stats structure),3.75
# CALLTREE;init_0;Main-PWSCF_0;run-PWSCF_0;run-PWSCF-electrons_function_1;electrons-electrons_scf_function_0;c_bands_function_8
# Job info - HDEEM
JOB ID,17281565.15
Nodelist,taurusi5540
AVG Runtime of function [s],0.0117581
MAX Runtime of function [s],0.0117581
MIN Runtime of function [s],0.0117581
# COUNTERS - HDEEM: 
AVG Energy consumption [J] (Stats structure),3.607
MAX Energy consumption [J] (Stats structure),3.607
MIN Energy consumption [J] (Stats structure),3.607
SUM Energy consumption [J] (Stats structure),3.607
# CALLTREE;init_0;Main-PWSCF_0;run-PWSCF_0;run-PWSCF-electrons_function_1;electrons-electrons_scf_function_0;c_bands_function_9
# Job info - HDEEM
JOB ID,17281565.15
Nodelist,taurusi5540
AVG Runtime of function [s],0.0165257
MAX Runtime of function [s],0.0165257
MIN Runtime of function [s],0.0165257
# COUNTERS - HDEEM: 
AVG Energy consumption [J] (Stats structure),4.732
MAX Energy consumption [J] (Stats structure),4.732
MIN Energy consumption [J] (Stats structure),4.732
SUM Energy consumption [J] (Stats structure),4.732
# CALLTREE;init_0;Main-PWSCF_0;run-PWSCF_0;run-PWSCF-electrons_function_1;electrons-electrons_scf_function_0;c_bands_function_9
# Job info - HDEEM
JOB ID,17281565.15
Nodelist,taurusi5540
AVG Runtime of function [s],0.0116784
MAX Runtime of function [s],0.0116784
MIN Runtime of function [s],0.0116784
# COUNTERS - HDEEM: 
AVG Energy consumption [J] (Stats structure),3.831
MAX Energy consumption [J] (Stats structure),3.831
MIN Energy consumption [J] (Stats structure),3.831
SUM Energy consumption [J] (Stats structure),3.831
# CALLTREE;init_0;Main-PWSCF_0;run-PWSCF_0;run-PWSCF-electrons_function_1;electrons-electrons_scf_function_0;c_bands_function_9
# Job info - HDEEM
JOB ID,17281565.15
Nodelist,taurusi5540
AVG Runtime of function [s],0.0116147
MAX Runtime of function [s],0.0116147
MIN Runtime of function [s],0.0116147
# COUNTERS - HDEEM: 
AVG Energy consumption [J] (Stats structure),3.622
MAX Energy consumption [J] (Stats structure),3.622
MIN Energy consumption [J] (Stats structure),3.622
SUM Energy consumption [J] (Stats structure),3.622
# CALLTREE;init_0;Main-PWSCF_0;run-PWSCF_0;run-PWSCF-electrons_function_1;electrons-electrons_scf_function_0;c_bands_function_9
# Job info - HDEEM
JOB ID,17281565.15
Nodelist,taurusi5540
AVG Runtime of function [s],0.0116903
MAX Runtime of function [s],0.0116903
MIN Runtime of function [s],0.0116903
# COUNTERS - HDEEM: 
AVG Energy consumption [J] (Stats structure),3.489
MAX Energy consumption [J] (Stats structure),3.489
MIN Energy consumption [J] (Stats structure),3.489
SUM Energy consumption [J] (Stats structure),3.489
# CALLTREE;init_0;Main-PWSCF_0;run-PWSCF_0;run-PWSCF-electrons_function_1;electrons-electrons_scf_function_0;c_bands_function_10
# Job info - HDEEM
JOB ID,17281565.15
Nodelist,taurusi5540
AVG Runtime of function [s],0.0116644
MAX Runtime of function [s],0.0116644
MIN Runtime of function [s],0.0116644
# COUNTERS - HDEEM: 
AVG Energy consumption [J] (Stats structure),3.51
MAX Energy consumption [J] (Stats structure),3.51
MIN Energy consumption [J] (Stats structure),3.51
SUM Energy consumption [J] (Stats structure),3.51
# CALLTREE;init_0;Main-PWSCF_0;run-PWSCF_0;run-PWSCF-electrons_function_1;electrons-electrons_scf_function_0;c_bands_function_10
# Job info - HDEEM
JOB ID,17281565.15
Nodelist,taurusi5540
AVG Runtime of function [s],0.0116531
MAX Runtime of function [s],0.0116531
MIN Runtime of function [s],0.0116531
# COUNTERS - HDEEM: 
AVG Energy consumption [J] (Stats structure),3.837
MAX Energy consumption [J] (Stats structure),3.837
MIN Energy consumption [J] (Stats structure),3.837
SUM Energy consumption [J] (Stats structure),3.837
# CALLTREE;init_0;Main-PWSCF_0;run-PWSCF_0;run-PWSCF-electrons_function_1;electrons-electrons_scf_function_0;c_bands_function_10
# Job info - HDEEM
JOB ID,17281565.15
Nodelist,taurusi5540
AVG Runtime of function [s],0.0117085
MAX Runtime of function [s],0.0117085
MIN Runtime of function [s],0.0117085
# COUNTERS - HDEEM: 
AVG Energy consumption [J] (Stats structure),3.831
MAX Energy consumption [J] (Stats structure),3.831
MIN Energy consumption [J] (Stats structure),3.831
SUM Energy consumption [J] (Stats structure),3.831
# CALLTREE;init_0;Main-PWSCF_0;run-PWSCF_0;run-PWSCF-electrons_function_1;electrons-electrons_scf_function_0;c_bands_function_10
# Job info - HDEEM
JOB ID,17281565.15
Nodelist,taurusi5540
AVG Runtime of function [s],0.0116532
MAX Runtime of function [s],0.0116532
MIN Runtime of function [s],0.0116532
# COUNTERS - HDEEM: 
AVG Energy consumption [J] (Stats structure),3.836
MAX Energy consumption [J] (Stats structure),3.836
MIN Energy consumption [J] (Stats structure),3.836
SUM Energy consumption [J] (Stats structure),3.836
# CALLTREE;init_0;Main-PWSCF_0;run-PWSCF_0;run-PWSCF-electrons_function_1;electrons-electrons_scf_function_0;c_bands_function_11
# Job info - HDEEM
JOB ID,17281565.15
Nodelist,taurusi5540
AVG Runtime of function [s],0.0117492
MAX Runtime of function [s],0.0117492
MIN Runtime of function [s],0.0117492
# COUNTERS - HDEEM: 
AVG Energy consumption [J] (Stats structure),3.73
MAX Energy consumption [J] (Stats structure),3.73
MIN Energy consumption [J] (Stats structure),3.73
SUM Energy consumption [J] (Stats structure),3.73
# CALLTREE;init_0;Main-PWSCF_0;run-PWSCF_0;run-PWSCF-electrons_function_1;electrons-electrons_scf_function_0;c_bands_function_11
# Job info - HDEEM
JOB ID,17281565.15
Nodelist,taurusi5540
AVG Runtime of function [s],0.0117309
MAX Runtime of function [s],0.0117309
MIN Runtime of function [s],0.0117309
# COUNTERS - HDEEM: 
AVG Energy consumption [J] (Stats structure),3.839
MAX Energy consumption [J] (Stats structure),3.839
MIN Energy consumption [J] (Stats structure),3.839
SUM Energy consumption [J] (Stats structure),3.839
# CALLTREE;init_0;Main-PWSCF_0;run-PWSCF_0;run-PWSCF-electrons_function_1;electrons-electrons_scf_function_0;c_bands_function_11
# Job info - HDEEM
JOB ID,17281565.15
Nodelist,taurusi5540
AVG Runtime of function [s],0.0117093
MAX Runtime of function [s],0.0117093
MIN Runtime of function [s],0.0117093
# COUNTERS - HDEEM: 
AVG Energy consumption [J] (Stats structure),3.829
MAX Energy consumption [J] (Stats structure),3.829
MIN Energy consumption [J] (Stats structure),3.829
SUM Energy consumption [J] (Stats structure),3.829
# CALLTREE;init_0;Main-PWSCF_0;run-PWSCF_0;run-PWSCF-electrons_function_1;electrons-electrons_scf_function_0;c_bands_function_11
# Job info - HDEEM
JOB ID,17281565.15
Nodelist,taurusi5540
AVG Runtime of function [s],0.0116716
MAX Runtime of function [s],0.0116716
MIN Runtime of function [s],0.0116716
# COUNTERS - HDEEM: 
AVG Energy consumption [J] (Stats structure),3.604
MAX Energy consumption [J] (Stats structure),3.604
MIN Energy consumption [J] (Stats structure),3.604
SUM Energy consumption [J] (Stats structure),3.604
# CALLTREE;init_0;Main-PWSCF_0;run-PWSCF_0;run-PWSCF-electrons_function_1;electrons-electrons_scf_function_0;c_bands_function_12
# Job info - HDEEM
JOB ID,17281565.15
Nodelist,taurusi5540
AVG Runtime of function [s],0.0116901
MAX Runtime of function [s],0.0116901
MIN Runtime of function [s],0.0116901
# COUNTERS - HDEEM: 
AVG Energy consumption [J] (Stats structure),3.514
MAX Energy consumption [J] (Stats structure),3.514
MIN Energy consumption [J] (Stats structure),3.514
SUM Energy consumption [J] (Stats structure),3.514
# CALLTREE;init_0;Main-PWSCF_0;run-PWSCF_0;run-PWSCF-electrons_function_1;electrons-electrons_scf_function_0;c_bands_function_12
# Job info - HDEEM
JOB ID,17281565.15
Nodelist,taurusi5540
AVG Runtime of function [s],0.0116288
MAX Runtime of function [s],0.0116288
MIN Runtime of function [s],0.0116288
# COUNTERS - HDEEM: 
AVG Energy consumption [J] (Stats structure),3.723
MAX Energy consumption [J] (Stats structure),3.723
MIN Energy consumption [J] (Stats structure),3.723
SUM Energy consumption [J] (Stats structure),3.723
# CALLTREE;init_0;Main-PWSCF_0;run-PWSCF_0;run-PWSCF-electrons_function_1;electrons-electrons_scf_function_0;c_bands_function_12
# Job info - HDEEM
JOB ID,17281565.15
Nodelist,taurusi5540
AVG Runtime of function [s],0.0115688
MAX Runtime of function [s],0.0115688
MIN Runtime of function [s],0.0115688
# COUNTERS - HDEEM: 
AVG Energy consumption [J] (Stats structure),3.839
MAX Energy consumption [J] (Stats structure),3.839
MIN Energy consumption [J] (Stats structure),3.839
SUM Energy consumption [J] (Stats structure),3.839
# CALLTREE;init_0;Main-PWSCF_0;run-PWSCF_0;run-PWSCF-electrons_function_1;electrons-electrons_scf_function_0;c_bands_function_12
# Job info - HDEEM
JOB ID,17281565.15
Nodelist,taurusi5540
AVG Runtime of function [s],0.0116251
MAX Runtime of function [s],0.0116251
MIN Runtime of function [s],0.0116251
# COUNTERS - HDEEM: 
AVG Energy consumption [J] (Stats structure),3.616
MAX Energy consumption [J] (Stats structure),3.616
MIN Energy consumption [J] (Stats structure),3.616
SUM Energy consumption [J] (Stats structure),3.616
# CALLTREE;init_0;Main-PWSCF_0;run-PWSCF_0;run-PWSCF-electrons_function_1;electrons-electrons_scf_function_0;c_bands_function_13
# Job info - HDEEM
JOB ID,17281565.15
Nodelist,taurusi5540
AVG Runtime of function [s],0.0117376
MAX Runtime of function [s],0.0117376
MIN Runtime of function [s],0.0117376
# COUNTERS - HDEEM: 
AVG Energy consumption [J] (Stats structure),3.73
MAX Energy consumption [J] (Stats structure),3.73
MIN Energy consumption [J] (Stats structure),3.73
SUM Energy consumption [J] (Stats structure),3.73
# CALLTREE;init_0;Main-PWSCF_0;run-PWSCF_0;run-PWSCF-electrons_function_1;electrons-electrons_scf_function_0;c_bands_function_13
# Job info - HDEEM
JOB ID,17281565.15
Nodelist,taurusi5540
AVG Runtime of function [s],0.01166
MAX Runtime of function [s],0.01166
MIN Runtime of function [s],0.01166
# COUNTERS - HDEEM: 
AVG Energy consumption [J] (Stats structure),3.609
MAX Energy consumption [J] (Stats structure),3.609
MIN Energy consumption [J] (Stats structure),3.609
SUM Energy consumption [J] (Stats structure),3.609
# CALLTREE;init_0;Main-PWSCF_0;run-PWSCF_0;run-PWSCF-electrons_function_1;electrons-electrons_scf_function_0;c_bands_function_13
# Job info - HDEEM
JOB ID,17281565.15
Nodelist,taurusi5540
AVG Runtime of function [s],0.0116254
MAX Runtime of function [s],0.0116254
MIN Runtime of function [s],0.0116254
# COUNTERS - HDEEM: 
AVG Energy consumption [J] (Stats structure),3.559
MAX Energy consumption [J] (Stats structure),3.559
MIN Energy consumption [J] (Stats structure),3.559
SUM Energy consumption [J] (Stats structure),3.559
# CALLTREE;init_0;Main-PWSCF_0;run-PWSCF_0;run-PWSCF-electrons_function_1;electrons-electrons_scf_function_0;c_bands_function_13
# Job info - HDEEM
JOB ID,17281565.15
Nodelist,taurusi5540
AVG Runtime of function [s],0.0116469
MAX Runtime of function [s],0.0116469
MIN Runtime of function [s],0.0116469
# COUNTERS - HDEEM: 
AVG Energy consumption [J] (Stats structure),3.625
MAX Energy consumption [J] (Stats structure),3.625
MIN Energy consumption [J] (Stats structure),3.625
SUM Energy consumption [J] (Stats structure),3.625
# CALLTREE;init_0;Main-PWSCF_0;run-PWSCF_0;run-PWSCF-electrons_function_1;electrons-electrons_scf_function_0;c_bands_function_14
# Job info - HDEEM
JOB ID,17281565.15
Nodelist,taurusi5540
AVG Runtime of function [s],0.0116775
MAX Runtime of function [s],0.0116775
MIN Runtime of function [s],0.0116775
# COUNTERS - HDEEM: 
AVG Energy consumption [J] (Stats structure),3.74
MAX Energy consumption [J] (Stats structure),3.74
MIN Energy consumption [J] (Stats structure),3.74
SUM Energy consumption [J] (Stats structure),3.74
# CALLTREE;init_0;Main-PWSCF_0;run-PWSCF_0;run-PWSCF-electrons_function_1;electrons-electrons_scf_function_0;c_bands_function_14
# Job info - HDEEM
JOB ID,17281565.15
Nodelist,taurusi5540
AVG Runtime of function [s],0.01162
MAX Runtime of function [s],0.01162
MIN Runtime of function [s],0.01162
# COUNTERS - HDEEM: 
AVG Energy consumption [J] (Stats structure),3.607
MAX Energy consumption [J] (Stats structure),3.607
MIN Energy consumption [J] (Stats structure),3.607
SUM Energy consumption [J] (Stats structure),3.607
# CALLTREE;init_0;Main-PWSCF_0;run-PWSCF_0;run-PWSCF-electrons_function_1;electrons-electrons_scf_function_0;c_bands_function_14
# Job info - HDEEM
JOB ID,17281565.15
Nodelist,taurusi5540
AVG Runtime of function [s],0.0116912
MAX Runtime of function [s],0.0116912
MIN Runtime of function [s],0.0116912
# COUNTERS - HDEEM: 
AVG Energy consumption [J] (Stats structure),3.826
MAX Energy consumption [J] (Stats structure),3.826
MIN Energy consumption [J] (Stats structure),3.826
SUM Energy consumption [J] (Stats structure),3.826
# CALLTREE;init_0;Main-PWSCF_0;run-PWSCF_0;run-PWSCF-electrons_function_1;electrons-electrons_scf_function_0;c_bands_function_14
# Job info - HDEEM
JOB ID,17281565.15
Nodelist,taurusi5540
AVG Runtime of function [s],0.0116248
MAX Runtime of function [s],0.0116248
MIN Runtime of function [s],0.0116248
# COUNTERS - HDEEM: 
AVG Energy consumption [J] (Stats structure),3.612
MAX Energy consumption [J] (Stats structure),3.612
MIN Energy consumption [J] (Stats structure),3.612
SUM Energy consumption [J] (Stats structure),3.612
# CALLTREE;init_0;Main-PWSCF_0;run-PWSCF_0;run-PWSCF-electrons_function_1;electrons-electrons_scf_function_0;c_bands_function_15
# Job info - HDEEM
JOB ID,17281565.15
Nodelist,taurusi5540
AVG Runtime of function [s],0.0117176
MAX Runtime of function [s],0.0117176
MIN Runtime of function [s],0.0117176
# COUNTERS - HDEEM: 
AVG Energy consumption [J] (Stats structure),3.507
MAX Energy consumption [J] (Stats structure),3.507
MIN Energy consumption [J] (Stats structure),3.507
SUM Energy consumption [J] (Stats structure),3.507
# CALLTREE;init_0;Main-PWSCF_0;run-PWSCF_0;run-PWSCF-electrons_function_1;electrons-electrons_scf_function_0;c_bands_function_15
# Job info - HDEEM
JOB ID,17281565.15
Nodelist,taurusi5540
AVG Runtime of function [s],0.0133643
MAX Runtime of function [s],0.0133643
MIN Runtime of function [s],0.0133643
# COUNTERS - HDEEM: 
AVG Energy consumption [J] (Stats structure),4.084
MAX Energy consumption [J] (Stats structure),4.084
MIN Energy consumption [J] (Stats structure),4.084
SUM Energy consumption [J] (Stats structure),4.084
# CALLTREE;init_0;Main-PWSCF_0;run-PWSCF_0;run-PWSCF-electrons_function_1;electrons-electrons_scf_function_0;c_bands_function_15
# Job info - HDEEM
JOB ID,17281565.15
Nodelist,taurusi5540
AVG Runtime of function [s],0.0117188
MAX Runtime of function [s],0.0117188
MIN Runtime of function [s],0.0117188
# COUNTERS - HDEEM: 
AVG Energy consumption [J] (Stats structure),3.823
MAX Energy consumption [J] (Stats structure),3.823
MIN Energy consumption [J] (Stats structure),3.823
SUM Energy consumption [J] (Stats structure),3.823
# CALLTREE;init_0;Main-PWSCF_0;run-PWSCF_0;run-PWSCF-electrons_function_1;electrons-electrons_scf_function_0;c_bands_function_15
# Job info - HDEEM
JOB ID,17281565.15
Nodelist,taurusi5540
AVG Runtime of function [s],0.0115192
MAX Runtime of function [s],0.0115192
MIN Runtime of function [s],0.0115192
# COUNTERS - HDEEM: 
AVG Energy consumption [J] (Stats structure),3.584
MAX Energy consumption [J] (Stats structure),3.584
MIN Energy consumption [J] (Stats structure),3.584
SUM Energy consumption [J] (Stats structure),3.584
