# CALLTREE;init_0;Main-PWSCF_0;run-PWSCF_0;run-PWSCF-electrons_function_1;electrons-electrons_scf_function_0;c_bands_function_0
# Job info - HDEEM
JOB ID,17281565.8
Nodelist,taurusi5540
AVG Runtime of function [s],0.0117264
MAX Runtime of function [s],0.0117264
MIN Runtime of function [s],0.0117264
# COUNTERS - HDEEM: 
AVG Energy consumption [J] (Stats structure),3.525
MAX Energy consumption [J] (Stats structure),3.525
MIN Energy consumption [J] (Stats structure),3.525
SUM Energy consumption [J] (Stats structure),3.525
# CALLTREE;init_0;Main-PWSCF_0;run-PWSCF_0;run-PWSCF-electrons_function_1;electrons-electrons_scf_function_0;c_bands_function_0
# Job info - HDEEM
JOB ID,17281565.8
Nodelist,taurusi5540
AVG Runtime of function [s],0.0117214
MAX Runtime of function [s],0.0117214
MIN Runtime of function [s],0.0117214
# COUNTERS - HDEEM: 
AVG Energy consumption [J] (Stats structure),3.644
MAX Energy consumption [J] (Stats structure),3.644
MIN Energy consumption [J] (Stats structure),3.644
SUM Energy consumption [J] (Stats structure),3.644
# CALLTREE;init_0;Main-PWSCF_0;run-PWSCF_0;run-PWSCF-electrons_function_1;electrons-electrons_scf_function_0;c_bands_function_0
# Job info - HDEEM
JOB ID,17281565.8
Nodelist,taurusi5540
AVG Runtime of function [s],0.0118016
MAX Runtime of function [s],0.0118016
MIN Runtime of function [s],0.0118016
# COUNTERS - HDEEM: 
AVG Energy consumption [J] (Stats structure),3.641
MAX Energy consumption [J] (Stats structure),3.641
MIN Energy consumption [J] (Stats structure),3.641
SUM Energy consumption [J] (Stats structure),3.641
# CALLTREE;init_0;Main-PWSCF_0;run-PWSCF_0;run-PWSCF-electrons_function_1;electrons-electrons_scf_function_0;c_bands_function_0
# Job info - HDEEM
JOB ID,17281565.8
Nodelist,taurusi5540
AVG Runtime of function [s],0.0117387
MAX Runtime of function [s],0.0117387
MIN Runtime of function [s],0.0117387
# COUNTERS - HDEEM: 
AVG Energy consumption [J] (Stats structure),3.587
MAX Energy consumption [J] (Stats structure),3.587
MIN Energy consumption [J] (Stats structure),3.587
SUM Energy consumption [J] (Stats structure),3.587
# CALLTREE;init_0;Main-PWSCF_0;run-PWSCF_0;run-PWSCF-electrons_function_1;electrons-electrons_scf_function_0;c_bands_function_1
# Job info - HDEEM
JOB ID,17281565.8
Nodelist,taurusi5540
AVG Runtime of function [s],0.0117586
MAX Runtime of function [s],0.0117586
MIN Runtime of function [s],0.0117586
# COUNTERS - HDEEM: 
AVG Energy consumption [J] (Stats structure),3.522
MAX Energy consumption [J] (Stats structure),3.522
MIN Energy consumption [J] (Stats structure),3.522
SUM Energy consumption [J] (Stats structure),3.522
# CALLTREE;init_0;Main-PWSCF_0;run-PWSCF_0;run-PWSCF-electrons_function_1;electrons-electrons_scf_function_0;c_bands_function_1
# Job info - HDEEM
JOB ID,17281565.8
Nodelist,taurusi5540
AVG Runtime of function [s],0.0118017
MAX Runtime of function [s],0.0118017
MIN Runtime of function [s],0.0118017
# COUNTERS - HDEEM: 
AVG Energy consumption [J] (Stats structure),3.601
MAX Energy consumption [J] (Stats structure),3.601
MIN Energy consumption [J] (Stats structure),3.601
SUM Energy consumption [J] (Stats structure),3.601
# CALLTREE;init_0;Main-PWSCF_0;run-PWSCF_0;run-PWSCF-electrons_function_1;electrons-electrons_scf_function_0;c_bands_function_1
# Job info - HDEEM
JOB ID,17281565.8
Nodelist,taurusi5540
AVG Runtime of function [s],0.011773
MAX Runtime of function [s],0.011773
MIN Runtime of function [s],0.011773
# COUNTERS - HDEEM: 
AVG Energy consumption [J] (Stats structure),3.626
MAX Energy consumption [J] (Stats structure),3.626
MIN Energy consumption [J] (Stats structure),3.626
SUM Energy consumption [J] (Stats structure),3.626
# CALLTREE;init_0;Main-PWSCF_0;run-PWSCF_0;run-PWSCF-electrons_function_1;electrons-electrons_scf_function_0;c_bands_function_1
# Job info - HDEEM
JOB ID,17281565.8
Nodelist,taurusi5540
AVG Runtime of function [s],0.0118071
MAX Runtime of function [s],0.0118071
MIN Runtime of function [s],0.0118071
# COUNTERS - HDEEM: 
AVG Energy consumption [J] (Stats structure),3.623
MAX Energy consumption [J] (Stats structure),3.623
MIN Energy consumption [J] (Stats structure),3.623
SUM Energy consumption [J] (Stats structure),3.623
# CALLTREE;init_0;Main-PWSCF_0;run-PWSCF_0;run-PWSCF-electrons_function_1;electrons-electrons_scf_function_0;c_bands_function_2
# Job info - HDEEM
JOB ID,17281565.8
Nodelist,taurusi5540
AVG Runtime of function [s],0.0117867
MAX Runtime of function [s],0.0117867
MIN Runtime of function [s],0.0117867
# COUNTERS - HDEEM: 
AVG Energy consumption [J] (Stats structure),3.551
MAX Energy consumption [J] (Stats structure),3.551
MIN Energy consumption [J] (Stats structure),3.551
SUM Energy consumption [J] (Stats structure),3.551
# CALLTREE;init_0;Main-PWSCF_0;run-PWSCF_0;run-PWSCF-electrons_function_1;electrons-electrons_scf_function_0;c_bands_function_2
# Job info - HDEEM
JOB ID,17281565.8
Nodelist,taurusi5540
AVG Runtime of function [s],0.0118065
MAX Runtime of function [s],0.0118065
MIN Runtime of function [s],0.0118065
# COUNTERS - HDEEM: 
AVG Energy consumption [J] (Stats structure),3.575
MAX Energy consumption [J] (Stats structure),3.575
MIN Energy consumption [J] (Stats structure),3.575
SUM Energy consumption [J] (Stats structure),3.575
# CALLTREE;init_0;Main-PWSCF_0;run-PWSCF_0;run-PWSCF-electrons_function_1;electrons-electrons_scf_function_0;c_bands_function_2
# Job info - HDEEM
JOB ID,17281565.8
Nodelist,taurusi5540
AVG Runtime of function [s],0.0117568
MAX Runtime of function [s],0.0117568
MIN Runtime of function [s],0.0117568
# COUNTERS - HDEEM: 
AVG Energy consumption [J] (Stats structure),3.631
MAX Energy consumption [J] (Stats structure),3.631
MIN Energy consumption [J] (Stats structure),3.631
SUM Energy consumption [J] (Stats structure),3.631
# CALLTREE;init_0;Main-PWSCF_0;run-PWSCF_0;run-PWSCF-electrons_function_1;electrons-electrons_scf_function_0;c_bands_function_2
# Job info - HDEEM
JOB ID,17281565.8
Nodelist,taurusi5540
AVG Runtime of function [s],0.011807
MAX Runtime of function [s],0.011807
MIN Runtime of function [s],0.011807
# COUNTERS - HDEEM: 
AVG Energy consumption [J] (Stats structure),3.622
MAX Energy consumption [J] (Stats structure),3.622
MIN Energy consumption [J] (Stats structure),3.622
SUM Energy consumption [J] (Stats structure),3.622
# CALLTREE;init_0;Main-PWSCF_0;run-PWSCF_0;run-PWSCF-electrons_function_1;electrons-electrons_scf_function_0;c_bands_function_3
# Job info - HDEEM
JOB ID,17281565.8
Nodelist,taurusi5540
AVG Runtime of function [s],0.011831
MAX Runtime of function [s],0.011831
MIN Runtime of function [s],0.011831
# COUNTERS - HDEEM: 
AVG Energy consumption [J] (Stats structure),3.547
MAX Energy consumption [J] (Stats structure),3.547
MIN Energy consumption [J] (Stats structure),3.547
SUM Energy consumption [J] (Stats structure),3.547
# CALLTREE;init_0;Main-PWSCF_0;run-PWSCF_0;run-PWSCF-electrons_function_1;electrons-electrons_scf_function_0;c_bands_function_3
# Job info - HDEEM
JOB ID,17281565.8
Nodelist,taurusi5540
AVG Runtime of function [s],0.0117542
MAX Runtime of function [s],0.0117542
MIN Runtime of function [s],0.0117542
# COUNTERS - HDEEM: 
AVG Energy consumption [J] (Stats structure),3.836
MAX Energy consumption [J] (Stats structure),3.836
MIN Energy consumption [J] (Stats structure),3.836
SUM Energy consumption [J] (Stats structure),3.836
# CALLTREE;init_0;Main-PWSCF_0;run-PWSCF_0;run-PWSCF-electrons_function_1;electrons-electrons_scf_function_0;c_bands_function_3
# Job info - HDEEM
JOB ID,17281565.8
Nodelist,taurusi5540
AVG Runtime of function [s],0.0118053
MAX Runtime of function [s],0.0118053
MIN Runtime of function [s],0.0118053
# COUNTERS - HDEEM: 
AVG Energy consumption [J] (Stats structure),3.84
MAX Energy consumption [J] (Stats structure),3.84
MIN Energy consumption [J] (Stats structure),3.84
SUM Energy consumption [J] (Stats structure),3.84
# CALLTREE;init_0;Main-PWSCF_0;run-PWSCF_0;run-PWSCF-electrons_function_1;electrons-electrons_scf_function_0;c_bands_function_3
# Job info - HDEEM
JOB ID,17281565.8
Nodelist,taurusi5540
AVG Runtime of function [s],0.0062634
MAX Runtime of function [s],0.0062634
MIN Runtime of function [s],0.0062634
# COUNTERS - HDEEM: 
AVG Energy consumption [J] (Stats structure),4.269
MAX Energy consumption [J] (Stats structure),4.269
MIN Energy consumption [J] (Stats structure),4.269
SUM Energy consumption [J] (Stats structure),4.269
# CALLTREE;init_0;Main-PWSCF_0;run-PWSCF_0;run-PWSCF-electrons_function_1;electrons-electrons_scf_function_0;c_bands_function_4
# Job info - HDEEM
JOB ID,17281565.8
Nodelist,taurusi5540
AVG Runtime of function [s],0.01178
MAX Runtime of function [s],0.01178
MIN Runtime of function [s],0.01178
# COUNTERS - HDEEM: 
AVG Energy consumption [J] (Stats structure),3.54
MAX Energy consumption [J] (Stats structure),3.54
MIN Energy consumption [J] (Stats structure),3.54
SUM Energy consumption [J] (Stats structure),3.54
# CALLTREE;init_0;Main-PWSCF_0;run-PWSCF_0;run-PWSCF-electrons_function_1;electrons-electrons_scf_function_0;c_bands_function_4
# Job info - HDEEM
JOB ID,17281565.8
Nodelist,taurusi5540
AVG Runtime of function [s],0.0117939
MAX Runtime of function [s],0.0117939
MIN Runtime of function [s],0.0117939
# COUNTERS - HDEEM: 
AVG Energy consumption [J] (Stats structure),3.62
MAX Energy consumption [J] (Stats structure),3.62
MIN Energy consumption [J] (Stats structure),3.62
SUM Energy consumption [J] (Stats structure),3.62
# CALLTREE;init_0;Main-PWSCF_0;run-PWSCF_0;run-PWSCF-electrons_function_1;electrons-electrons_scf_function_0;c_bands_function_4
# Job info - HDEEM
JOB ID,17281565.8
Nodelist,taurusi5540
AVG Runtime of function [s],0.0117739
MAX Runtime of function [s],0.0117739
MIN Runtime of function [s],0.0117739
# COUNTERS - HDEEM: 
AVG Energy consumption [J] (Stats structure),3.63
MAX Energy consumption [J] (Stats structure),3.63
MIN Energy consumption [J] (Stats structure),3.63
SUM Energy consumption [J] (Stats structure),3.63
# CALLTREE;init_0;Main-PWSCF_0;run-PWSCF_0;run-PWSCF-electrons_function_1;electrons-electrons_scf_function_0;c_bands_function_4
# Job info - HDEEM
JOB ID,17281565.8
Nodelist,taurusi5540
AVG Runtime of function [s],0.0115441
MAX Runtime of function [s],0.0115441
MIN Runtime of function [s],0.0115441
# COUNTERS - HDEEM: 
AVG Energy consumption [J] (Stats structure),3.801
MAX Energy consumption [J] (Stats structure),3.801
MIN Energy consumption [J] (Stats structure),3.801
SUM Energy consumption [J] (Stats structure),3.801
# CALLTREE;init_0;Main-PWSCF_0;run-PWSCF_0;run-PWSCF-electrons_function_1;electrons-electrons_scf_function_0;c_bands_function_5
# Job info - HDEEM
JOB ID,17281565.8
Nodelist,taurusi5540
AVG Runtime of function [s],0.0117212
MAX Runtime of function [s],0.0117212
MIN Runtime of function [s],0.0117212
# COUNTERS - HDEEM: 
AVG Energy consumption [J] (Stats structure),3.551
MAX Energy consumption [J] (Stats structure),3.551
MIN Energy consumption [J] (Stats structure),3.551
SUM Energy consumption [J] (Stats structure),3.551
# CALLTREE;init_0;Main-PWSCF_0;run-PWSCF_0;run-PWSCF-electrons_function_1;electrons-electrons_scf_function_0;c_bands_function_5
# Job info - HDEEM
JOB ID,17281565.8
Nodelist,taurusi5540
AVG Runtime of function [s],0.0117425
MAX Runtime of function [s],0.0117425
MIN Runtime of function [s],0.0117425
# COUNTERS - HDEEM: 
AVG Energy consumption [J] (Stats structure),3.857
MAX Energy consumption [J] (Stats structure),3.857
MIN Energy consumption [J] (Stats structure),3.857
SUM Energy consumption [J] (Stats structure),3.857
# CALLTREE;init_0;Main-PWSCF_0;run-PWSCF_0;run-PWSCF-electrons_function_1;electrons-electrons_scf_function_0;c_bands_function_5
# Job info - HDEEM
JOB ID,17281565.8
Nodelist,taurusi5540
AVG Runtime of function [s],0.0111716
MAX Runtime of function [s],0.0111716
MIN Runtime of function [s],0.0111716
# COUNTERS - HDEEM: 
AVG Energy consumption [J] (Stats structure),3.64
MAX Energy consumption [J] (Stats structure),3.64
MIN Energy consumption [J] (Stats structure),3.64
SUM Energy consumption [J] (Stats structure),3.64
# CALLTREE;init_0;Main-PWSCF_0;run-PWSCF_0;run-PWSCF-electrons_function_1;electrons-electrons_scf_function_0;c_bands_function_5
# Job info - HDEEM
JOB ID,17281565.8
Nodelist,taurusi5540
AVG Runtime of function [s],0.0117868
MAX Runtime of function [s],0.0117868
MIN Runtime of function [s],0.0117868
# COUNTERS - HDEEM: 
AVG Energy consumption [J] (Stats structure),3.632
MAX Energy consumption [J] (Stats structure),3.632
MIN Energy consumption [J] (Stats structure),3.632
SUM Energy consumption [J] (Stats structure),3.632
# CALLTREE;init_0;Main-PWSCF_0;run-PWSCF_0;run-PWSCF-electrons_function_1;electrons-electrons_scf_function_0;c_bands_function_6
# Job info - HDEEM
JOB ID,17281565.8
Nodelist,taurusi5540
AVG Runtime of function [s],0.0117199
MAX Runtime of function [s],0.0117199
MIN Runtime of function [s],0.0117199
# COUNTERS - HDEEM: 
AVG Energy consumption [J] (Stats structure),3.555
MAX Energy consumption [J] (Stats structure),3.555
MIN Energy consumption [J] (Stats structure),3.555
SUM Energy consumption [J] (Stats structure),3.555
# CALLTREE;init_0;Main-PWSCF_0;run-PWSCF_0;run-PWSCF-electrons_function_1;electrons-electrons_scf_function_0;c_bands_function_6
# Job info - HDEEM
JOB ID,17281565.8
Nodelist,taurusi5540
AVG Runtime of function [s],0.0118127
MAX Runtime of function [s],0.0118127
MIN Runtime of function [s],0.0118127
# COUNTERS - HDEEM: 
AVG Energy consumption [J] (Stats structure),3.624
MAX Energy consumption [J] (Stats structure),3.624
MIN Energy consumption [J] (Stats structure),3.624
SUM Energy consumption [J] (Stats structure),3.624
# CALLTREE;init_0;Main-PWSCF_0;run-PWSCF_0;run-PWSCF-electrons_function_1;electrons-electrons_scf_function_0;c_bands_function_6
# Job info - HDEEM
JOB ID,17281565.8
Nodelist,taurusi5540
AVG Runtime of function [s],0.0117935
MAX Runtime of function [s],0.0117935
MIN Runtime of function [s],0.0117935
# COUNTERS - HDEEM: 
AVG Energy consumption [J] (Stats structure),3.852
MAX Energy consumption [J] (Stats structure),3.852
MIN Energy consumption [J] (Stats structure),3.852
SUM Energy consumption [J] (Stats structure),3.852
# CALLTREE;init_0;Main-PWSCF_0;run-PWSCF_0;run-PWSCF-electrons_function_1;electrons-electrons_scf_function_0;c_bands_function_6
# Job info - HDEEM
JOB ID,17281565.8
Nodelist,taurusi5540
AVG Runtime of function [s],0.0118123
MAX Runtime of function [s],0.0118123
MIN Runtime of function [s],0.0118123
# COUNTERS - HDEEM: 
AVG Energy consumption [J] (Stats structure),3.627
MAX Energy consumption [J] (Stats structure),3.627
MIN Energy consumption [J] (Stats structure),3.627
SUM Energy consumption [J] (Stats structure),3.627
# CALLTREE;init_0;Main-PWSCF_0;run-PWSCF_0;run-PWSCF-electrons_function_1;electrons-electrons_scf_function_0;c_bands_function_7
# Job info - HDEEM
JOB ID,17281565.8
Nodelist,taurusi5540
AVG Runtime of function [s],0.0116864
MAX Runtime of function [s],0.0116864
MIN Runtime of function [s],0.0116864
# COUNTERS - HDEEM: 
AVG Energy consumption [J] (Stats structure),3.786
MAX Energy consumption [J] (Stats structure),3.786
MIN Energy consumption [J] (Stats structure),3.786
SUM Energy consumption [J] (Stats structure),3.786
# CALLTREE;init_0;Main-PWSCF_0;run-PWSCF_0;run-PWSCF-electrons_function_1;electrons-electrons_scf_function_0;c_bands_function_7
# Job info - HDEEM
JOB ID,17281565.8
Nodelist,taurusi5540
AVG Runtime of function [s],0.0141921
MAX Runtime of function [s],0.0141921
MIN Runtime of function [s],0.0141921
# COUNTERS - HDEEM: 
AVG Energy consumption [J] (Stats structure),4.03
MAX Energy consumption [J] (Stats structure),4.03
MIN Energy consumption [J] (Stats structure),4.03
SUM Energy consumption [J] (Stats structure),4.03
# CALLTREE;init_0;Main-PWSCF_0;run-PWSCF_0;run-PWSCF-electrons_function_1;electrons-electrons_scf_function_0;c_bands_function_7
# Job info - HDEEM
JOB ID,17281565.8
Nodelist,taurusi5540
AVG Runtime of function [s],0.0118168
MAX Runtime of function [s],0.0118168
MIN Runtime of function [s],0.0118168
# COUNTERS - HDEEM: 
AVG Energy consumption [J] (Stats structure),3.842
MAX Energy consumption [J] (Stats structure),3.842
MIN Energy consumption [J] (Stats structure),3.842
SUM Energy consumption [J] (Stats structure),3.842
# CALLTREE;init_0;Main-PWSCF_0;run-PWSCF_0;run-PWSCF-electrons_function_1;electrons-electrons_scf_function_0;c_bands_function_7
# Job info - HDEEM
JOB ID,17281565.8
Nodelist,taurusi5540
AVG Runtime of function [s],0.0116993
MAX Runtime of function [s],0.0116993
MIN Runtime of function [s],0.0116993
# COUNTERS - HDEEM: 
AVG Energy consumption [J] (Stats structure),3.624
MAX Energy consumption [J] (Stats structure),3.624
MIN Energy consumption [J] (Stats structure),3.624
SUM Energy consumption [J] (Stats structure),3.624
# CALLTREE;init_0;Main-PWSCF_0;run-PWSCF_0;run-PWSCF-electrons_function_1;electrons-electrons_scf_function_0;c_bands_function_8
# Job info - HDEEM
JOB ID,17281565.8
Nodelist,taurusi5540
AVG Runtime of function [s],0.0207295
MAX Runtime of function [s],0.0207295
MIN Runtime of function [s],0.0207295
# COUNTERS - HDEEM: 
AVG Energy consumption [J] (Stats structure),5.265
MAX Energy consumption [J] (Stats structure),5.265
MIN Energy consumption [J] (Stats structure),5.265
SUM Energy consumption [J] (Stats structure),5.265
# CALLTREE;init_0;Main-PWSCF_0;run-PWSCF_0;run-PWSCF-electrons_function_1;electrons-electrons_scf_function_0;c_bands_function_8
# Job info - HDEEM
JOB ID,17281565.8
Nodelist,taurusi5540
AVG Runtime of function [s],0.0117714
MAX Runtime of function [s],0.0117714
MIN Runtime of function [s],0.0117714
# COUNTERS - HDEEM: 
AVG Energy consumption [J] (Stats structure),3.616
MAX Energy consumption [J] (Stats structure),3.616
MIN Energy consumption [J] (Stats structure),3.616
SUM Energy consumption [J] (Stats structure),3.616
# CALLTREE;init_0;Main-PWSCF_0;run-PWSCF_0;run-PWSCF-electrons_function_1;electrons-electrons_scf_function_0;c_bands_function_8
# Job info - HDEEM
JOB ID,17281565.8
Nodelist,taurusi5540
AVG Runtime of function [s],0.011366
MAX Runtime of function [s],0.011366
MIN Runtime of function [s],0.011366
# COUNTERS - HDEEM: 
AVG Energy consumption [J] (Stats structure),3.646
MAX Energy consumption [J] (Stats structure),3.646
MIN Energy consumption [J] (Stats structure),3.646
SUM Energy consumption [J] (Stats structure),3.646
# CALLTREE;init_0;Main-PWSCF_0;run-PWSCF_0;run-PWSCF-electrons_function_1;electrons-electrons_scf_function_0;c_bands_function_8
# Job info - HDEEM
JOB ID,17281565.8
Nodelist,taurusi5540
AVG Runtime of function [s],0.011717
MAX Runtime of function [s],0.011717
MIN Runtime of function [s],0.011717
# COUNTERS - HDEEM: 
AVG Energy consumption [J] (Stats structure),3.578
MAX Energy consumption [J] (Stats structure),3.578
MIN Energy consumption [J] (Stats structure),3.578
SUM Energy consumption [J] (Stats structure),3.578
# CALLTREE;init_0;Main-PWSCF_0;run-PWSCF_0;run-PWSCF-electrons_function_1;electrons-electrons_scf_function_0;c_bands_function_9
# Job info - HDEEM
JOB ID,17281565.8
Nodelist,taurusi5540
AVG Runtime of function [s],0.0136634
MAX Runtime of function [s],0.0136634
MIN Runtime of function [s],0.0136634
# COUNTERS - HDEEM: 
AVG Energy consumption [J] (Stats structure),4.231
MAX Energy consumption [J] (Stats structure),4.231
MIN Energy consumption [J] (Stats structure),4.231
SUM Energy consumption [J] (Stats structure),4.231
# CALLTREE;init_0;Main-PWSCF_0;run-PWSCF_0;run-PWSCF-electrons_function_1;electrons-electrons_scf_function_0;c_bands_function_9
# Job info - HDEEM
JOB ID,17281565.8
Nodelist,taurusi5540
AVG Runtime of function [s],0.0117391
MAX Runtime of function [s],0.0117391
MIN Runtime of function [s],0.0117391
# COUNTERS - HDEEM: 
AVG Energy consumption [J] (Stats structure),3.843
MAX Energy consumption [J] (Stats structure),3.843
MIN Energy consumption [J] (Stats structure),3.843
SUM Energy consumption [J] (Stats structure),3.843
# CALLTREE;init_0;Main-PWSCF_0;run-PWSCF_0;run-PWSCF-electrons_function_1;electrons-electrons_scf_function_0;c_bands_function_9
# Job info - HDEEM
JOB ID,17281565.8
Nodelist,taurusi5540
AVG Runtime of function [s],0.0118032
MAX Runtime of function [s],0.0118032
MIN Runtime of function [s],0.0118032
# COUNTERS - HDEEM: 
AVG Energy consumption [J] (Stats structure),3.619
MAX Energy consumption [J] (Stats structure),3.619
MIN Energy consumption [J] (Stats structure),3.619
SUM Energy consumption [J] (Stats structure),3.619
# CALLTREE;init_0;Main-PWSCF_0;run-PWSCF_0;run-PWSCF-electrons_function_1;electrons-electrons_scf_function_0;c_bands_function_9
# Job info - HDEEM
JOB ID,17281565.8
Nodelist,taurusi5540
AVG Runtime of function [s],0.0118096
MAX Runtime of function [s],0.0118096
MIN Runtime of function [s],0.0118096
# COUNTERS - HDEEM: 
AVG Energy consumption [J] (Stats structure),3.637
MAX Energy consumption [J] (Stats structure),3.637
MIN Energy consumption [J] (Stats structure),3.637
SUM Energy consumption [J] (Stats structure),3.637
# CALLTREE;init_0;Main-PWSCF_0;run-PWSCF_0;run-PWSCF-electrons_function_1;electrons-electrons_scf_function_0;c_bands_function_10
# Job info - HDEEM
JOB ID,17281565.8
Nodelist,taurusi5540
AVG Runtime of function [s],0.0117553
MAX Runtime of function [s],0.0117553
MIN Runtime of function [s],0.0117553
# COUNTERS - HDEEM: 
AVG Energy consumption [J] (Stats structure),3.776
MAX Energy consumption [J] (Stats structure),3.776
MIN Energy consumption [J] (Stats structure),3.776
SUM Energy consumption [J] (Stats structure),3.776
# CALLTREE;init_0;Main-PWSCF_0;run-PWSCF_0;run-PWSCF-electrons_function_1;electrons-electrons_scf_function_0;c_bands_function_10
# Job info - HDEEM
JOB ID,17281565.8
Nodelist,taurusi5540
AVG Runtime of function [s],0.0117637
MAX Runtime of function [s],0.0117637
MIN Runtime of function [s],0.0117637
# COUNTERS - HDEEM: 
AVG Energy consumption [J] (Stats structure),3.844
MAX Energy consumption [J] (Stats structure),3.844
MIN Energy consumption [J] (Stats structure),3.844
SUM Energy consumption [J] (Stats structure),3.844
# CALLTREE;init_0;Main-PWSCF_0;run-PWSCF_0;run-PWSCF-electrons_function_1;electrons-electrons_scf_function_0;c_bands_function_10
# Job info - HDEEM
JOB ID,17281565.8
Nodelist,taurusi5540
AVG Runtime of function [s],0.0117744
MAX Runtime of function [s],0.0117744
MIN Runtime of function [s],0.0117744
# COUNTERS - HDEEM: 
AVG Energy consumption [J] (Stats structure),3.614
MAX Energy consumption [J] (Stats structure),3.614
MIN Energy consumption [J] (Stats structure),3.614
SUM Energy consumption [J] (Stats structure),3.614
# CALLTREE;init_0;Main-PWSCF_0;run-PWSCF_0;run-PWSCF-electrons_function_1;electrons-electrons_scf_function_0;c_bands_function_10
# Job info - HDEEM
JOB ID,17281565.8
Nodelist,taurusi5540
AVG Runtime of function [s],0.011755
MAX Runtime of function [s],0.011755
MIN Runtime of function [s],0.011755
# COUNTERS - HDEEM: 
AVG Energy consumption [J] (Stats structure),3.633
MAX Energy consumption [J] (Stats structure),3.633
MIN Energy consumption [J] (Stats structure),3.633
SUM Energy consumption [J] (Stats structure),3.633
# CALLTREE;init_0;Main-PWSCF_0;run-PWSCF_0;run-PWSCF-electrons_function_1;electrons-electrons_scf_function_0;c_bands_function_11
# Job info - HDEEM
JOB ID,17281565.8
Nodelist,taurusi5540
AVG Runtime of function [s],0.0117654
MAX Runtime of function [s],0.0117654
MIN Runtime of function [s],0.0117654
# COUNTERS - HDEEM: 
AVG Energy consumption [J] (Stats structure),3.556
MAX Energy consumption [J] (Stats structure),3.556
MIN Energy consumption [J] (Stats structure),3.556
SUM Energy consumption [J] (Stats structure),3.556
# CALLTREE;init_0;Main-PWSCF_0;run-PWSCF_0;run-PWSCF-electrons_function_1;electrons-electrons_scf_function_0;c_bands_function_11
# Job info - HDEEM
JOB ID,17281565.8
Nodelist,taurusi5540
AVG Runtime of function [s],0.0117432
MAX Runtime of function [s],0.0117432
MIN Runtime of function [s],0.0117432
# COUNTERS - HDEEM: 
AVG Energy consumption [J] (Stats structure),3.63
MAX Energy consumption [J] (Stats structure),3.63
MIN Energy consumption [J] (Stats structure),3.63
SUM Energy consumption [J] (Stats structure),3.63
# CALLTREE;init_0;Main-PWSCF_0;run-PWSCF_0;run-PWSCF-electrons_function_1;electrons-electrons_scf_function_0;c_bands_function_11
# Job info - HDEEM
JOB ID,17281565.8
Nodelist,taurusi5540
AVG Runtime of function [s],0.011578
MAX Runtime of function [s],0.011578
MIN Runtime of function [s],0.011578
# COUNTERS - HDEEM: 
AVG Energy consumption [J] (Stats structure),3.539
MAX Energy consumption [J] (Stats structure),3.539
MIN Energy consumption [J] (Stats structure),3.539
SUM Energy consumption [J] (Stats structure),3.539
# CALLTREE;init_0;Main-PWSCF_0;run-PWSCF_0;run-PWSCF-electrons_function_1;electrons-electrons_scf_function_0;c_bands_function_11
# Job info - HDEEM
JOB ID,17281565.8
Nodelist,taurusi5540
AVG Runtime of function [s],0.0117867
MAX Runtime of function [s],0.0117867
MIN Runtime of function [s],0.0117867
# COUNTERS - HDEEM: 
AVG Energy consumption [J] (Stats structure),3.843
MAX Energy consumption [J] (Stats structure),3.843
MIN Energy consumption [J] (Stats structure),3.843
SUM Energy consumption [J] (Stats structure),3.843
# CALLTREE;init_0;Main-PWSCF_0;run-PWSCF_0;run-PWSCF-electrons_function_1;electrons-electrons_scf_function_0;c_bands_function_12
# Job info - HDEEM
JOB ID,17281565.8
Nodelist,taurusi5540
AVG Runtime of function [s],0.0118213
MAX Runtime of function [s],0.0118213
MIN Runtime of function [s],0.0118213
# COUNTERS - HDEEM: 
AVG Energy consumption [J] (Stats structure),3.776
MAX Energy consumption [J] (Stats structure),3.776
MIN Energy consumption [J] (Stats structure),3.776
SUM Energy consumption [J] (Stats structure),3.776
# CALLTREE;init_0;Main-PWSCF_0;run-PWSCF_0;run-PWSCF-electrons_function_1;electrons-electrons_scf_function_0;c_bands_function_12
# Job info - HDEEM
JOB ID,17281565.8
Nodelist,taurusi5540
AVG Runtime of function [s],0.0118412
MAX Runtime of function [s],0.0118412
MIN Runtime of function [s],0.0118412
# COUNTERS - HDEEM: 
AVG Energy consumption [J] (Stats structure),3.648
MAX Energy consumption [J] (Stats structure),3.648
MIN Energy consumption [J] (Stats structure),3.648
SUM Energy consumption [J] (Stats structure),3.648
# CALLTREE;init_0;Main-PWSCF_0;run-PWSCF_0;run-PWSCF-electrons_function_1;electrons-electrons_scf_function_0;c_bands_function_12
# Job info - HDEEM
JOB ID,17281565.8
Nodelist,taurusi5540
AVG Runtime of function [s],0.0118203
MAX Runtime of function [s],0.0118203
MIN Runtime of function [s],0.0118203
# COUNTERS - HDEEM: 
AVG Energy consumption [J] (Stats structure),3.621
MAX Energy consumption [J] (Stats structure),3.621
MIN Energy consumption [J] (Stats structure),3.621
SUM Energy consumption [J] (Stats structure),3.621
# CALLTREE;init_0;Main-PWSCF_0;run-PWSCF_0;run-PWSCF-electrons_function_1;electrons-electrons_scf_function_0;c_bands_function_12
# Job info - HDEEM
JOB ID,17281565.8
Nodelist,taurusi5540
AVG Runtime of function [s],0.0118113
MAX Runtime of function [s],0.0118113
MIN Runtime of function [s],0.0118113
# COUNTERS - HDEEM: 
AVG Energy consumption [J] (Stats structure),3.844
MAX Energy consumption [J] (Stats structure),3.844
MIN Energy consumption [J] (Stats structure),3.844
SUM Energy consumption [J] (Stats structure),3.844
# CALLTREE;init_0;Main-PWSCF_0;run-PWSCF_0;run-PWSCF-electrons_function_1;electrons-electrons_scf_function_0;c_bands_function_13
# Job info - HDEEM
JOB ID,17281565.8
Nodelist,taurusi5540
AVG Runtime of function [s],0.0117571
MAX Runtime of function [s],0.0117571
MIN Runtime of function [s],0.0117571
# COUNTERS - HDEEM: 
AVG Energy consumption [J] (Stats structure),3.553
MAX Energy consumption [J] (Stats structure),3.553
MIN Energy consumption [J] (Stats structure),3.553
SUM Energy consumption [J] (Stats structure),3.553
# CALLTREE;init_0;Main-PWSCF_0;run-PWSCF_0;run-PWSCF-electrons_function_1;electrons-electrons_scf_function_0;c_bands_function_13
# Job info - HDEEM
JOB ID,17281565.8
Nodelist,taurusi5540
AVG Runtime of function [s],0.0117948
MAX Runtime of function [s],0.0117948
MIN Runtime of function [s],0.0117948
# COUNTERS - HDEEM: 
AVG Energy consumption [J] (Stats structure),3.642
MAX Energy consumption [J] (Stats structure),3.642
MIN Energy consumption [J] (Stats structure),3.642
SUM Energy consumption [J] (Stats structure),3.642
# CALLTREE;init_0;Main-PWSCF_0;run-PWSCF_0;run-PWSCF-electrons_function_1;electrons-electrons_scf_function_0;c_bands_function_13
# Job info - HDEEM
JOB ID,17281565.8
Nodelist,taurusi5540
AVG Runtime of function [s],0.0118174
MAX Runtime of function [s],0.0118174
MIN Runtime of function [s],0.0118174
# COUNTERS - HDEEM: 
AVG Energy consumption [J] (Stats structure),3.841
MAX Energy consumption [J] (Stats structure),3.841
MIN Energy consumption [J] (Stats structure),3.841
SUM Energy consumption [J] (Stats structure),3.841
# CALLTREE;init_0;Main-PWSCF_0;run-PWSCF_0;run-PWSCF-electrons_function_1;electrons-electrons_scf_function_0;c_bands_function_13
# Job info - HDEEM
JOB ID,17281565.8
Nodelist,taurusi5540
AVG Runtime of function [s],0.01179
MAX Runtime of function [s],0.01179
MIN Runtime of function [s],0.01179
# COUNTERS - HDEEM: 
AVG Energy consumption [J] (Stats structure),3.845
MAX Energy consumption [J] (Stats structure),3.845
MIN Energy consumption [J] (Stats structure),3.845
SUM Energy consumption [J] (Stats structure),3.845
# CALLTREE;init_0;Main-PWSCF_0;run-PWSCF_0;run-PWSCF-electrons_function_1;electrons-electrons_scf_function_0;c_bands_function_14
# Job info - HDEEM
JOB ID,17281565.8
Nodelist,taurusi5540
AVG Runtime of function [s],0.0117952
MAX Runtime of function [s],0.0117952
MIN Runtime of function [s],0.0117952
# COUNTERS - HDEEM: 
AVG Energy consumption [J] (Stats structure),3.549
MAX Energy consumption [J] (Stats structure),3.549
MIN Energy consumption [J] (Stats structure),3.549
SUM Energy consumption [J] (Stats structure),3.549
# CALLTREE;init_0;Main-PWSCF_0;run-PWSCF_0;run-PWSCF-electrons_function_1;electrons-electrons_scf_function_0;c_bands_function_14
# Job info - HDEEM
JOB ID,17281565.8
Nodelist,taurusi5540
AVG Runtime of function [s],0.0117647
MAX Runtime of function [s],0.0117647
MIN Runtime of function [s],0.0117647
# COUNTERS - HDEEM: 
AVG Energy consumption [J] (Stats structure),3.579
MAX Energy consumption [J] (Stats structure),3.579
MIN Energy consumption [J] (Stats structure),3.579
SUM Energy consumption [J] (Stats structure),3.579
# CALLTREE;init_0;Main-PWSCF_0;run-PWSCF_0;run-PWSCF-electrons_function_1;electrons-electrons_scf_function_0;c_bands_function_14
# Job info - HDEEM
JOB ID,17281565.8
Nodelist,taurusi5540
AVG Runtime of function [s],0.0118052
MAX Runtime of function [s],0.0118052
MIN Runtime of function [s],0.0118052
# COUNTERS - HDEEM: 
AVG Energy consumption [J] (Stats structure),3.635
MAX Energy consumption [J] (Stats structure),3.635
MIN Energy consumption [J] (Stats structure),3.635
SUM Energy consumption [J] (Stats structure),3.635
# CALLTREE;init_0;Main-PWSCF_0;run-PWSCF_0;run-PWSCF-electrons_function_1;electrons-electrons_scf_function_0;c_bands_function_14
# Job info - HDEEM
JOB ID,17281565.8
Nodelist,taurusi5540
AVG Runtime of function [s],0.0117916
MAX Runtime of function [s],0.0117916
MIN Runtime of function [s],0.0117916
# COUNTERS - HDEEM: 
AVG Energy consumption [J] (Stats structure),3.837
MAX Energy consumption [J] (Stats structure),3.837
MIN Energy consumption [J] (Stats structure),3.837
SUM Energy consumption [J] (Stats structure),3.837
# CALLTREE;init_0;Main-PWSCF_0;run-PWSCF_0;run-PWSCF-electrons_function_1;electrons-electrons_scf_function_0;c_bands_function_15
# Job info - HDEEM
JOB ID,17281565.8
Nodelist,taurusi5540
AVG Runtime of function [s],0.011747
MAX Runtime of function [s],0.011747
MIN Runtime of function [s],0.011747
# COUNTERS - HDEEM: 
AVG Energy consumption [J] (Stats structure),3.539
MAX Energy consumption [J] (Stats structure),3.539
MIN Energy consumption [J] (Stats structure),3.539
SUM Energy consumption [J] (Stats structure),3.539
# CALLTREE;init_0;Main-PWSCF_0;run-PWSCF_0;run-PWSCF-electrons_function_1;electrons-electrons_scf_function_0;c_bands_function_15
# Job info - HDEEM
JOB ID,17281565.8
Nodelist,taurusi5540
AVG Runtime of function [s],0.0126848
MAX Runtime of function [s],0.0126848
MIN Runtime of function [s],0.0126848
# COUNTERS - HDEEM: 
AVG Energy consumption [J] (Stats structure),3.863
MAX Energy consumption [J] (Stats structure),3.863
MIN Energy consumption [J] (Stats structure),3.863
SUM Energy consumption [J] (Stats structure),3.863
# CALLTREE;init_0;Main-PWSCF_0;run-PWSCF_0;run-PWSCF-electrons_function_1;electrons-electrons_scf_function_0;c_bands_function_15
# Job info - HDEEM
JOB ID,17281565.8
Nodelist,taurusi5540
AVG Runtime of function [s],0.0119344
MAX Runtime of function [s],0.0119344
MIN Runtime of function [s],0.0119344
# COUNTERS - HDEEM: 
AVG Energy consumption [J] (Stats structure),3.867
MAX Energy consumption [J] (Stats structure),3.867
MIN Energy consumption [J] (Stats structure),3.867
SUM Energy consumption [J] (Stats structure),3.867
# CALLTREE;init_0;Main-PWSCF_0;run-PWSCF_0;run-PWSCF-electrons_function_1;electrons-electrons_scf_function_0;c_bands_function_15
# Job info - HDEEM
JOB ID,17281565.8
Nodelist,taurusi5540
AVG Runtime of function [s],0.0118121
MAX Runtime of function [s],0.0118121
MIN Runtime of function [s],0.0118121
# COUNTERS - HDEEM: 
AVG Energy consumption [J] (Stats structure),3.624
MAX Energy consumption [J] (Stats structure),3.624
MIN Energy consumption [J] (Stats structure),3.624
SUM Energy consumption [J] (Stats structure),3.624
