# CALLTREE;init_0;Main-PWSCF_0;run-PWSCF_0;run-PWSCF-electrons_function_1;electrons-electrons_scf_function_0
# Job info - HDEEM
JOB ID,17280379.10
Nodelist,taurusi5525
AVG Runtime of function [s],269.353
MAX Runtime of function [s],269.353
MIN Runtime of function [s],269.353
# COUNTERS - HDEEM: 
AVG Energy consumption [J] (Stats structure),35869.5
MAX Energy consumption [J] (Stats structure),35869.5
MIN Energy consumption [J] (Stats structure),35869.5
SUM Energy consumption [J] (Stats structure),35869.5
# CALLTREE;init_0;Main-PWSCF_0;run-PWSCF_0;run-PWSCF-electrons_function_1;electrons-electrons_scf_function_0
# Job info - HDEEM
JOB ID,17280379.10
Nodelist,taurusi5525
AVG Runtime of function [s],178.208
MAX Runtime of function [s],178.208
MIN Runtime of function [s],178.208
# COUNTERS - HDEEM: 
AVG Energy consumption [J] (Stats structure),23723.8
MAX Energy consumption [J] (Stats structure),23723.8
MIN Energy consumption [J] (Stats structure),23723.8
SUM Energy consumption [J] (Stats structure),23723.8
# CALLTREE;init_0;Main-PWSCF_0;run-PWSCF_0;run-PWSCF-electrons_function_1;electrons-electrons_scf_function_0
# Job info - HDEEM
JOB ID,17280379.10
Nodelist,taurusi5525
AVG Runtime of function [s],176.22
MAX Runtime of function [s],176.22
MIN Runtime of function [s],176.22
# COUNTERS - HDEEM: 
AVG Energy consumption [J] (Stats structure),23455.2
MAX Energy consumption [J] (Stats structure),23455.2
MIN Energy consumption [J] (Stats structure),23455.2
SUM Energy consumption [J] (Stats structure),23455.2
# CALLTREE;init_0;Main-PWSCF_0;run-PWSCF_0;run-PWSCF-electrons_function_1;electrons-electrons_scf_function_0
# Job info - HDEEM
JOB ID,17280379.10
Nodelist,taurusi5525
AVG Runtime of function [s],304.178
MAX Runtime of function [s],304.178
MIN Runtime of function [s],304.178
# COUNTERS - HDEEM: 
AVG Energy consumption [J] (Stats structure),40553.9
MAX Energy consumption [J] (Stats structure),40553.9
MIN Energy consumption [J] (Stats structure),40553.9
SUM Energy consumption [J] (Stats structure),40553.9
# CALLTREE;init_0;Main-PWSCF_0;run-PWSCF_0;run-PWSCF-electrons_function_1;electrons-electrons_scf_function_0
# Job info - HDEEM
JOB ID,17280379.10
Nodelist,taurusi5525
AVG Runtime of function [s],301.341
MAX Runtime of function [s],301.341
MIN Runtime of function [s],301.341
# COUNTERS - HDEEM: 
AVG Energy consumption [J] (Stats structure),40163.9
MAX Energy consumption [J] (Stats structure),40163.9
MIN Energy consumption [J] (Stats structure),40163.9
SUM Energy consumption [J] (Stats structure),40163.9
# CALLTREE;init_0;Main-PWSCF_0;run-PWSCF_0;run-PWSCF-electrons_function_1;electrons-electrons_scf_function_0
# Job info - HDEEM
JOB ID,17280379.10
Nodelist,taurusi5525
AVG Runtime of function [s],251.426
MAX Runtime of function [s],251.426
MIN Runtime of function [s],251.426
# COUNTERS - HDEEM: 
AVG Energy consumption [J] (Stats structure),33500.8
MAX Energy consumption [J] (Stats structure),33500.8
MIN Energy consumption [J] (Stats structure),33500.8
SUM Energy consumption [J] (Stats structure),33500.8
# CALLTREE;init_0;Main-PWSCF_0;run-PWSCF_0;run-PWSCF-electrons_function_1;electrons-electrons_scf_function_0
# Job info - HDEEM
JOB ID,17280379.10
Nodelist,taurusi5525
AVG Runtime of function [s],227.925
MAX Runtime of function [s],227.925
MIN Runtime of function [s],227.925
# COUNTERS - HDEEM: 
AVG Energy consumption [J] (Stats structure),30373.9
MAX Energy consumption [J] (Stats structure),30373.9
MIN Energy consumption [J] (Stats structure),30373.9
SUM Energy consumption [J] (Stats structure),30373.9
# CALLTREE;init_0;Main-PWSCF_0;run-PWSCF_0;run-PWSCF-electrons_function_1;electrons-electrons_scf_function_0
# Job info - HDEEM
JOB ID,17280379.10
Nodelist,taurusi5525
AVG Runtime of function [s],245.592
MAX Runtime of function [s],245.592
MIN Runtime of function [s],245.592
# COUNTERS - HDEEM: 
AVG Energy consumption [J] (Stats structure),32727.6
MAX Energy consumption [J] (Stats structure),32727.6
MIN Energy consumption [J] (Stats structure),32727.6
SUM Energy consumption [J] (Stats structure),32727.6
# CALLTREE;init_0;Main-PWSCF_0;run-PWSCF_0;run-PWSCF-electrons_function_1;electrons-electrons_scf_function_0
# Job info - HDEEM
JOB ID,17280379.10
Nodelist,taurusi5525
AVG Runtime of function [s],246.487
MAX Runtime of function [s],246.487
MIN Runtime of function [s],246.487
# COUNTERS - HDEEM: 
AVG Energy consumption [J] (Stats structure),32842.1
MAX Energy consumption [J] (Stats structure),32842.1
MIN Energy consumption [J] (Stats structure),32842.1
SUM Energy consumption [J] (Stats structure),32842.1
# CALLTREE;init_0;Main-PWSCF_0;run-PWSCF_0;run-PWSCF-electrons_function_1;electrons-electrons_scf_function_0
# Job info - HDEEM
JOB ID,17280379.10
Nodelist,taurusi5525
AVG Runtime of function [s],236.711
MAX Runtime of function [s],236.711
MIN Runtime of function [s],236.711
# COUNTERS - HDEEM: 
AVG Energy consumption [J] (Stats structure),31533.4
MAX Energy consumption [J] (Stats structure),31533.4
MIN Energy consumption [J] (Stats structure),31533.4
SUM Energy consumption [J] (Stats structure),31533.4
# CALLTREE;init_0;Main-PWSCF_0;run-PWSCF_0;run-PWSCF-electrons_function_1;electrons-electrons_scf_function_0
# Job info - HDEEM
JOB ID,17280379.10
Nodelist,taurusi5525
AVG Runtime of function [s],234.11
MAX Runtime of function [s],234.11
MIN Runtime of function [s],234.11
# COUNTERS - HDEEM: 
AVG Energy consumption [J] (Stats structure),31188.8
MAX Energy consumption [J] (Stats structure),31188.8
MIN Energy consumption [J] (Stats structure),31188.8
SUM Energy consumption [J] (Stats structure),31188.8
# CALLTREE;init_0;Main-PWSCF_0;run-PWSCF_0;run-PWSCF-electrons_function_1;electrons-electrons_scf_function_0
# Job info - HDEEM
JOB ID,17280379.10
Nodelist,taurusi5525
AVG Runtime of function [s],204.547
MAX Runtime of function [s],204.547
MIN Runtime of function [s],204.547
# COUNTERS - HDEEM: 
AVG Energy consumption [J] (Stats structure),27254.4
MAX Energy consumption [J] (Stats structure),27254.4
MIN Energy consumption [J] (Stats structure),27254.4
SUM Energy consumption [J] (Stats structure),27254.4
# CALLTREE;init_0;Main-PWSCF_0;run-PWSCF_0;run-PWSCF-electrons_function_1;electrons-electrons_scf_function_0
# Job info - HDEEM
JOB ID,17280379.10
Nodelist,taurusi5525
AVG Runtime of function [s],256.635
MAX Runtime of function [s],256.635
MIN Runtime of function [s],256.635
# COUNTERS - HDEEM: 
AVG Energy consumption [J] (Stats structure),34181
MAX Energy consumption [J] (Stats structure),34181
MIN Energy consumption [J] (Stats structure),34181
SUM Energy consumption [J] (Stats structure),34181
# CALLTREE;init_0;Main-PWSCF_0;run-PWSCF_0;run-PWSCF-electrons_function_1;electrons-electrons_scf_function_0
# Job info - HDEEM
JOB ID,17280379.10
Nodelist,taurusi5525
AVG Runtime of function [s],243.079
MAX Runtime of function [s],243.079
MIN Runtime of function [s],243.079
# COUNTERS - HDEEM: 
AVG Energy consumption [J] (Stats structure),32388.7
MAX Energy consumption [J] (Stats structure),32388.7
MIN Energy consumption [J] (Stats structure),32388.7
SUM Energy consumption [J] (Stats structure),32388.7
# CALLTREE;init_0;Main-PWSCF_0;run-PWSCF_0;run-PWSCF-electrons_function_1;electrons-electrons_scf_function_0
# Job info - HDEEM
JOB ID,17280379.10
Nodelist,taurusi5525
AVG Runtime of function [s],177.271
MAX Runtime of function [s],177.271
MIN Runtime of function [s],177.271
# COUNTERS - HDEEM: 
AVG Energy consumption [J] (Stats structure),23608.1
MAX Energy consumption [J] (Stats structure),23608.1
MIN Energy consumption [J] (Stats structure),23608.1
SUM Energy consumption [J] (Stats structure),23608.1
