# CALLTREE;init_0;Main-PWSCF_0;run-PWSCF_0;run-PWSCF-electrons_function_1;electrons-electrons_scf_function_0;sum_band_function_0
# Job info - HDEEM
JOB ID,17281565.9
Nodelist,taurusi5540
AVG Runtime of function [s],0.850166
MAX Runtime of function [s],0.850166
MIN Runtime of function [s],0.850166
# COUNTERS - HDEEM: 
AVG Energy consumption [J] (Stats structure),181.064
MAX Energy consumption [J] (Stats structure),181.064
MIN Energy consumption [J] (Stats structure),181.064
SUM Energy consumption [J] (Stats structure),181.064
# CALLTREE;init_0;Main-PWSCF_0;run-PWSCF_0;run-PWSCF-electrons_function_1;electrons-electrons_scf_function_0;sum_band_function_1
# Job info - HDEEM
JOB ID,17281565.9
Nodelist,taurusi5540
AVG Runtime of function [s],0.823475
MAX Runtime of function [s],0.823475
MIN Runtime of function [s],0.823475
# COUNTERS - HDEEM: 
AVG Energy consumption [J] (Stats structure),176.241
MAX Energy consumption [J] (Stats structure),176.241
MIN Energy consumption [J] (Stats structure),176.241
SUM Energy consumption [J] (Stats structure),176.241
# CALLTREE;init_0;Main-PWSCF_0;run-PWSCF_0;run-PWSCF-electrons_function_1;electrons-electrons_scf_function_0;sum_band_function_2
# Job info - HDEEM
JOB ID,17281565.9
Nodelist,taurusi5540
AVG Runtime of function [s],0.847138
MAX Runtime of function [s],0.847138
MIN Runtime of function [s],0.847138
# COUNTERS - HDEEM: 
AVG Energy consumption [J] (Stats structure),180.4
MAX Energy consumption [J] (Stats structure),180.4
MIN Energy consumption [J] (Stats structure),180.4
SUM Energy consumption [J] (Stats structure),180.4
# CALLTREE;init_0;Main-PWSCF_0;run-PWSCF_0;run-PWSCF-electrons_function_1;electrons-electrons_scf_function_0;sum_band_function_3
# Job info - HDEEM
JOB ID,17281565.9
Nodelist,taurusi5540
AVG Runtime of function [s],0.847272
MAX Runtime of function [s],0.847272
MIN Runtime of function [s],0.847272
# COUNTERS - HDEEM: 
AVG Energy consumption [J] (Stats structure),180.383
MAX Energy consumption [J] (Stats structure),180.383
MIN Energy consumption [J] (Stats structure),180.383
SUM Energy consumption [J] (Stats structure),180.383
# CALLTREE;init_0;Main-PWSCF_0;run-PWSCF_0;run-PWSCF-electrons_function_1;electrons-electrons_scf_function_0;sum_band_function_4
# Job info - HDEEM
JOB ID,17281565.9
Nodelist,taurusi5540
AVG Runtime of function [s],0.84441
MAX Runtime of function [s],0.84441
MIN Runtime of function [s],0.84441
# COUNTERS - HDEEM: 
AVG Energy consumption [J] (Stats structure),179.871
MAX Energy consumption [J] (Stats structure),179.871
MIN Energy consumption [J] (Stats structure),179.871
SUM Energy consumption [J] (Stats structure),179.871
# CALLTREE;init_0;Main-PWSCF_0;run-PWSCF_0;run-PWSCF-electrons_function_1;electrons-electrons_scf_function_0;sum_band_function_5
# Job info - HDEEM
JOB ID,17281565.9
Nodelist,taurusi5540
AVG Runtime of function [s],0.834083
MAX Runtime of function [s],0.834083
MIN Runtime of function [s],0.834083
# COUNTERS - HDEEM: 
AVG Energy consumption [J] (Stats structure),178.385
MAX Energy consumption [J] (Stats structure),178.385
MIN Energy consumption [J] (Stats structure),178.385
SUM Energy consumption [J] (Stats structure),178.385
# CALLTREE;init_0;Main-PWSCF_0;run-PWSCF_0;run-PWSCF-electrons_function_1;electrons-electrons_scf_function_0;sum_band_function_6
# Job info - HDEEM
JOB ID,17281565.9
Nodelist,taurusi5540
AVG Runtime of function [s],0.838451
MAX Runtime of function [s],0.838451
MIN Runtime of function [s],0.838451
# COUNTERS - HDEEM: 
AVG Energy consumption [J] (Stats structure),179.333
MAX Energy consumption [J] (Stats structure),179.333
MIN Energy consumption [J] (Stats structure),179.333
SUM Energy consumption [J] (Stats structure),179.333
# CALLTREE;init_0;Main-PWSCF_0;run-PWSCF_0;run-PWSCF-electrons_function_1;electrons-electrons_scf_function_0;sum_band_function_7
# Job info - HDEEM
JOB ID,17281565.9
Nodelist,taurusi5540
AVG Runtime of function [s],0.840221
MAX Runtime of function [s],0.840221
MIN Runtime of function [s],0.840221
# COUNTERS - HDEEM: 
AVG Energy consumption [J] (Stats structure),179.445
MAX Energy consumption [J] (Stats structure),179.445
MIN Energy consumption [J] (Stats structure),179.445
SUM Energy consumption [J] (Stats structure),179.445
# CALLTREE;init_0;Main-PWSCF_0;run-PWSCF_0;run-PWSCF-electrons_function_1;electrons-electrons_scf_function_0;sum_band_function_8
# Job info - HDEEM
JOB ID,17281565.9
Nodelist,taurusi5540
AVG Runtime of function [s],0.842438
MAX Runtime of function [s],0.842438
MIN Runtime of function [s],0.842438
# COUNTERS - HDEEM: 
AVG Energy consumption [J] (Stats structure),179.817
MAX Energy consumption [J] (Stats structure),179.817
MIN Energy consumption [J] (Stats structure),179.817
SUM Energy consumption [J] (Stats structure),179.817
# CALLTREE;init_0;Main-PWSCF_0;run-PWSCF_0;run-PWSCF-electrons_function_1;electrons-electrons_scf_function_0;sum_band_function_9
# Job info - HDEEM
JOB ID,17281565.9
Nodelist,taurusi5540
AVG Runtime of function [s],0.837655
MAX Runtime of function [s],0.837655
MIN Runtime of function [s],0.837655
# COUNTERS - HDEEM: 
AVG Energy consumption [J] (Stats structure),179.333
MAX Energy consumption [J] (Stats structure),179.333
MIN Energy consumption [J] (Stats structure),179.333
SUM Energy consumption [J] (Stats structure),179.333
# CALLTREE;init_0;Main-PWSCF_0;run-PWSCF_0;run-PWSCF-electrons_function_1;electrons-electrons_scf_function_0;sum_band_function_10
# Job info - HDEEM
JOB ID,17281565.9
Nodelist,taurusi5540
AVG Runtime of function [s],0.83992
MAX Runtime of function [s],0.83992
MIN Runtime of function [s],0.83992
# COUNTERS - HDEEM: 
AVG Energy consumption [J] (Stats structure),179.472
MAX Energy consumption [J] (Stats structure),179.472
MIN Energy consumption [J] (Stats structure),179.472
SUM Energy consumption [J] (Stats structure),179.472
# CALLTREE;init_0;Main-PWSCF_0;run-PWSCF_0;run-PWSCF-electrons_function_1;electrons-electrons_scf_function_0;sum_band_function_11
# Job info - HDEEM
JOB ID,17281565.9
Nodelist,taurusi5540
AVG Runtime of function [s],0.813769
MAX Runtime of function [s],0.813769
MIN Runtime of function [s],0.813769
# COUNTERS - HDEEM: 
AVG Energy consumption [J] (Stats structure),174.715
MAX Energy consumption [J] (Stats structure),174.715
MIN Energy consumption [J] (Stats structure),174.715
SUM Energy consumption [J] (Stats structure),174.715
# CALLTREE;init_0;Main-PWSCF_0;run-PWSCF_0;run-PWSCF-electrons_function_1;electrons-electrons_scf_function_0;sum_band_function_12
# Job info - HDEEM
JOB ID,17281565.9
Nodelist,taurusi5540
AVG Runtime of function [s],0.797735
MAX Runtime of function [s],0.797735
MIN Runtime of function [s],0.797735
# COUNTERS - HDEEM: 
AVG Energy consumption [J] (Stats structure),171.868
MAX Energy consumption [J] (Stats structure),171.868
MIN Energy consumption [J] (Stats structure),171.868
SUM Energy consumption [J] (Stats structure),171.868
# CALLTREE;init_0;Main-PWSCF_0;run-PWSCF_0;run-PWSCF-electrons_function_1;electrons-electrons_scf_function_0;sum_band_function_13
# Job info - HDEEM
JOB ID,17281565.9
Nodelist,taurusi5540
AVG Runtime of function [s],0.799996
MAX Runtime of function [s],0.799996
MIN Runtime of function [s],0.799996
# COUNTERS - HDEEM: 
AVG Energy consumption [J] (Stats structure),172.411
MAX Energy consumption [J] (Stats structure),172.411
MIN Energy consumption [J] (Stats structure),172.411
SUM Energy consumption [J] (Stats structure),172.411
# CALLTREE;init_0;Main-PWSCF_0;run-PWSCF_0;run-PWSCF-electrons_function_1;electrons-electrons_scf_function_0;sum_band_function_14
# Job info - HDEEM
JOB ID,17281565.9
Nodelist,taurusi5540
AVG Runtime of function [s],0.820154
MAX Runtime of function [s],0.820154
MIN Runtime of function [s],0.820154
# COUNTERS - HDEEM: 
AVG Energy consumption [J] (Stats structure),176.259
MAX Energy consumption [J] (Stats structure),176.259
MIN Energy consumption [J] (Stats structure),176.259
SUM Energy consumption [J] (Stats structure),176.259
# CALLTREE;init_0;Main-PWSCF_0;run-PWSCF_0;run-PWSCF-electrons_function_1;electrons-electrons_scf_function_0;sum_band_function_15
# Job info - HDEEM
JOB ID,17281565.9
Nodelist,taurusi5540
AVG Runtime of function [s],0.8209
MAX Runtime of function [s],0.8209
MIN Runtime of function [s],0.8209
# COUNTERS - HDEEM: 
AVG Energy consumption [J] (Stats structure),176.125
MAX Energy consumption [J] (Stats structure),176.125
MIN Energy consumption [J] (Stats structure),176.125
SUM Energy consumption [J] (Stats structure),176.125
