Plain Run

==== HDEEM_VERSION 2.2.6 ====

BMC structure version        : 0x2
Synchro capability           : GPIO
Buffer dump through          : PCIe
Blade sensors
       Number of sensors     : 1
       Names                 : BLADE, 
       Clock skew            : 5.600 ms
       Frequency             : 1000
VR    sensors
       Number of sensors     : 6
       Names                 : CPU0, CPU1, DDR_AB, DDR_CD, DDR_EF, DDR_GH, 
       Clock skew            : 35.000 ms
       Frequency             : 100

==== HDEEM status at 2018-08-27 16:06:46.763 ====
HDEEM State                         : BMC & FPGA Polling
BMC polling                         : 1
FPGA polling                        : 1
Uploading session                   : 0

==== Status of last data collection ====
Last polling start time for blade   : 2018-08-27 15:24:45.917
Last polling start time for vr      : 2018-08-27 15:24:45.888
Polling started by                  : GPIO
BMC overflow                        : 0
FPGA blade overflow                 : 0
FPGA vr overflow                    : 0
Total blade values                  : 2520352
Pending blade in BMC                : 2520352
Total VR values                     : 252035
Pending VR in BMC                   : 252035

==== Instantaneous values ====
   BLADE 128.375
    CPU0  33.250
    CPU1  26.000
  DDR_AB   1.750
  DDR_CD   4.000
  DDR_EF   1.250
  DDR_GH   0.250

==== HDEEM statistics ====
Time of statistics for blade        : 2018-08-27 16:06:46.761
Time of statistics for vr           : 2018-08-27 16:06:46.732
Blade values for stats              : 2520809
VR    values for stats              : 252080
Duration     for stats          (s) : 2520.843
Real blade freq        (#Measure/s) : 999.986147
Real vr    freq        (#Measure/s) : 99.998258

            Max (W)        Min (W)        Average (W)        Energy (J)
   BLADE    218.375         69.625        137.091        345581.158
    CPU0     63.500         11.750         41.279        104056.490
    CPU1     45.375          3.750         27.357         68961.492
  DDR_AB      3.750          0.000          1.715          4322.160
  DDR_CD      6.125          2.125          4.070         10258.433
  DDR_EF      3.750          0.000          0.564          1420.657
  DDR_GH      2.500          0.000          0.040           100.858


==== HDEEM statistics total from power awake ====
Time of total stats for blade       : 2018-08-27 16:06:46.765
Time of total stats for vr          : 2018-08-27 16:06:46.736
Blade values total                  : 7144877694
VR    values total                  : 714482609

            Average (W)        Energy (J)
   BLADE        157.967      1128658395.447

    CPU0         48.558      346938276.238
    CPU1         38.226      273116065.755
  DDR_AB          0.946       6760184.358
  DDR_CD          3.250      23219726.430
  DDR_EF          1.014       7246452.317
  DDR_GH          0.449       3208038.397

RRL-runed Run (1)

==== HDEEM_VERSION 2.2.6 ====

BMC structure version        : 0x2
Synchro capability           : GPIO
Buffer dump through          : PCIe
Blade sensors
       Number of sensors     : 1
       Names                 : BLADE, 
       Clock skew            : 5.600 ms
       Frequency             : 1000
VR    sensors
       Number of sensors     : 6
       Names                 : CPU0, CPU1, DDR_AB, DDR_CD, DDR_EF, DDR_GH, 
       Clock skew            : 35.000 ms
       Frequency             : 100

==== HDEEM status at 2018-08-27 16:48:27.588 ====
HDEEM State                         : BMC & FPGA Polling
BMC polling                         : 1
FPGA polling                        : 1
Uploading session                   : 0

==== Status of last data collection ====
Last polling start time for blade   : 2018-08-27 16:06:47.345
Last polling start time for vr      : 2018-08-27 16:06:47.316
Polling started by                  : GPIO
BMC overflow                        : 0
FPGA blade overflow                 : 0
FPGA vr overflow                    : 0
Total blade values                  : 2500062
Pending blade in BMC                : 2500062
Total VR values                     : 250006
Pending VR in BMC                   : 250006

==== Instantaneous values ====
   BLADE 135.750
    CPU0  28.625
    CPU1  24.250
  DDR_AB   0.500
  DDR_CD   2.875
  DDR_EF   1.625
  DDR_GH   0.375

==== HDEEM statistics ====
Time of statistics for blade        : 2018-08-27 16:48:27.586
Time of statistics for vr           : 2018-08-27 16:48:27.556
Blade values for stats              : 2500205
VR    values for stats              : 250021
Duration     for stats          (s) : 2500.240
Real blade freq        (#Measure/s) : 999.985754
Real vr    freq        (#Measure/s) : 99.998775

            Max (W)        Min (W)        Average (W)        Energy (J)
   BLADE    218.375         70.250        137.065        342690.397
    CPU0     63.250         12.500         41.683        104215.675
    CPU1     45.625          4.875         26.902         67259.446
  DDR_AB      3.750          0.000          1.750          4374.663
  DDR_CD      6.000          2.125          4.091         10227.547
  DDR_EF      3.750          0.000          0.522          1305.172
  DDR_GH      2.500          0.000          0.020            50.561


==== HDEEM statistics total from power awake ====
Time of total stats for blade       : 2018-08-27 16:48:27.590
Time of total stats for vr          : 2018-08-27 16:48:27.561
Blade values total                  : 7147378487
VR    values total                  : 714732688

            Average (W)        Energy (J)
   BLADE        157.960      1129001149.727

    CPU0         48.556      347042507.865
    CPU1         38.222      273183334.671
  DDR_AB          0.946       6764559.836
  DDR_CD          3.250      23229956.163
  DDR_EF          1.014       7247757.987
  DDR_GH          0.449       3208088.977

RRL-runed Run (2)

==== HDEEM_VERSION 2.2.6 ====

BMC structure version        : 0x2
Synchro capability           : GPIO
Buffer dump through          : PCIe
Blade sensors
       Number of sensors     : 1
       Names                 : BLADE, 
       Clock skew            : 5.600 ms
       Frequency             : 1000
VR    sensors
       Number of sensors     : 6
       Names                 : CPU0, CPU1, DDR_AB, DDR_CD, DDR_EF, DDR_GH, 
       Clock skew            : 35.000 ms
       Frequency             : 100

==== HDEEM status at 2018-08-27 17:30:06.628 ====
HDEEM State                         : BMC Polling
BMC polling                         : 1
FPGA polling                        : 0
Uploading session                   : 0

==== Status of last data collection ====
Last polling start time for blade   : 2018-08-27 16:48:28.475
Last polling start time for vr      : 2018-08-27 16:48:28.446
Polling started by                  : GPIO
Last polling stop time for blade    : 2018-08-27 17:30:06.600
Last polling stop time for VR       : 2018-08-27 17:30:06.570
Polling duration                (s) : 2498.124
BMC overflow                        : 0
FPGA blade overflow                 : 0
FPGA vr overflow                    : 0
Total blade values                  : 2498028
Pending blade in BMC                : 2498028
Total VR values                     : 249803
Pending VR in BMC                   : 249803

==== Instantaneous values ====
   BLADE 127.000
    CPU0  36.125
    CPU1  29.250
  DDR_AB   1.625
  DDR_CD   4.000
  DDR_EF   1.625
  DDR_GH   0.375

==== HDEEM statistics ====
Time of statistics for blade        : 2018-08-27 17:30:06.625
Time of statistics for vr           : 2018-08-27 17:30:06.596
Blade values for stats              : 2498093
VR    values for stats              : 249809
Duration     for stats          (s) : 2498.124
Real blade freq        (#Measure/s) : 999.987236
Real vr    freq        (#Measure/s) : 99.998603

            Max (W)        Min (W)        Average (W)        Energy (J)
   BLADE    217.000         79.000        137.162        342642.966
    CPU0     63.500         18.750         41.885        104631.662
    CPU1     44.750         12.625         26.745         66812.425
  DDR_AB      3.750          0.250          1.749          4368.455
  DDR_CD      6.000          2.750          4.095         10228.870
  DDR_EF      3.875          0.000          0.523          1307.737
  DDR_GH      2.500          0.000          0.030            74.181


==== HDEEM statistics total from power awake ====
Time of total stats for blade       : 2018-08-27 17:30:06.630
Time of total stats for vr          : 2018-08-27 17:30:06.600
Blade values total                  : 7149877494
VR    values total                  : 714982589

            Average (W)        Energy (J)
   BLADE        157.953      1129343891.768

    CPU0         48.553      347147161.748
    CPU1         38.218      273250164.277
  DDR_AB          0.947       6768929.553
  DDR_CD          3.250      23240188.507
  DDR_EF          1.014       7249066.723
  DDR_GH          0.449       3208163.197

