Plain Run

==== HDEEM_VERSION 2.2.6 ====

BMC structure version        : 0x2
Synchro capability           : GPIO
Buffer dump through          : PCIe
Blade sensors
       Number of sensors     : 1
       Names                 : BLADE, 
       Clock skew            : 5.600 ms
       Frequency             : 1000
VR    sensors
       Number of sensors     : 6
       Names                 : CPU0, CPU1, DDR_AB, DDR_CD, DDR_EF, DDR_GH, 
       Clock skew            : 35.000 ms
       Frequency             : 100

==== HDEEM status at 2018-08-28 17:04:43.944 ====
HDEEM State                         : BMC & FPGA Polling
BMC polling                         : 1
FPGA polling                        : 1
Uploading session                   : 0

==== Status of last data collection ====
Last polling start time for blade   : 2018-08-28 16:23:13.869
Last polling start time for vr      : 2018-08-28 16:23:13.840
Polling started by                  : GPIO
BMC overflow                        : 0
FPGA blade overflow                 : 0
FPGA vr overflow                    : 0
Total blade values                  : 2489826
Pending blade in BMC                : 2489826
Total VR values                     : 248983
Pending VR in BMC                   : 248983

==== Instantaneous values ====
   BLADE 116.750
    CPU0  31.000
    CPU1  26.125
  DDR_AB   0.250
  DDR_CD   0.000
  DDR_EF   0.500
  DDR_GH   0.000

==== HDEEM statistics ====
Time of statistics for blade        : 2018-08-28 17:04:43.942
Time of statistics for vr           : 2018-08-28 17:04:43.913
Blade values for stats              : 2490041
VR    values for stats              : 249004
Duration     for stats          (s) : 2490.072
Real blade freq        (#Measure/s) : 999.987165
Real vr    freq        (#Measure/s) : 99.998676

            Max (W)        Min (W)        Average (W)        Energy (J)
   BLADE    215.875         64.750        132.932        331006.412
    CPU0     62.375         11.250         41.416        103126.825
    CPU1     49.125          4.125         29.777         74145.707
  DDR_AB      2.500          0.000          0.499          1241.796
  DDR_CD      1.500          0.000          0.042           103.518
  DDR_EF      3.125          0.000          0.069           173.026
  DDR_GH      1.875          0.000          0.004             9.411


==== HDEEM statistics total from power awake ====
Time of total stats for blade       : 2018-08-28 17:04:43.946
Time of total stats for vr          : 2018-08-28 17:04:43.917
Blade values total                  : 7201404488
VR    values total                  : 720135288

            Average (W)        Energy (J)
   BLADE        134.633      969547368.625

    CPU0         38.655      278367604.072
    CPU1         33.671      242473587.071
  DDR_AB          0.409       2944007.545
  DDR_CD          0.236       1699382.441
  DDR_EF          0.535       3852301.553
  DDR_GH          0.270       1945800.172

RRL-runed Run (1) without filtering

==== HDEEM_VERSION 2.2.6 ====

BMC structure version        : 0x2
Synchro capability           : GPIO
Buffer dump through          : PCIe
Blade sensors
       Number of sensors     : 1
       Names                 : BLADE, 
       Clock skew            : 5.600 ms
       Frequency             : 1000
VR    sensors
       Number of sensors     : 6
       Names                 : CPU0, CPU1, DDR_AB, DDR_CD, DDR_EF, DDR_GH, 
       Clock skew            : 35.000 ms
       Frequency             : 100

==== HDEEM status at 2018-08-28 18:04:48.311 ====
HDEEM State                         : BMC & FPGA Polling
BMC polling                         : 1
FPGA polling                        : 1
Uploading session                   : 0

==== Status of last data collection ====
Last polling start time for blade   : 2018-08-28 17:04:44.771
Last polling start time for vr      : 2018-08-28 17:04:44.742
Polling started by                  : GPIO
BMC overflow                        : 0
FPGA blade overflow                 : 0
FPGA vr overflow                    : 0
Total blade values                  : 3603338
Pending blade in BMC                : 3603338
Total VR values                     : 360334
Pending VR in BMC                   : 360334

==== Instantaneous values ====
   BLADE 143.750
    CPU0  31.125
    CPU1  27.250
  DDR_AB   0.000
  DDR_CD   0.000
  DDR_EF   0.000
  DDR_GH   0.000

==== HDEEM statistics ====
Time of statistics for blade        : 2018-08-28 18:04:48.309
Time of statistics for vr           : 2018-08-28 18:04:48.280
Blade values for stats              : 3603494
VR    values for stats              : 360350
Duration     for stats          (s) : 3603.538
Real blade freq        (#Measure/s) : 999.987763
Real vr    freq        (#Measure/s) : 99.998943

            Max (W)        Min (W)        Average (W)        Energy (J)
   BLADE    158.625         65.125        108.445        390781.449
    CPU0     40.375         12.875         27.139         97795.388
    CPU1     35.250          6.750         21.798         78548.301
  DDR_AB      2.000          0.000          0.345          1244.987
  DDR_CD      1.125          0.000          0.007            24.457
  DDR_EF      2.625          0.000          0.274           987.901
  DDR_GH      1.750          0.000          0.035           127.036


==== HDEEM statistics total from power awake ====
Time of total stats for blade       : 2018-08-28 18:04:48.313
Time of total stats for vr          : 2018-08-28 18:04:48.284
Blade values total                  : 7205008813
VR    values total                  : 720495720

            Average (W)        Energy (J)
   BLADE        134.620      969938232.616

    CPU0         38.649      278465419.093
    CPU1         33.665      242552149.883
  DDR_AB          0.409       2945252.676
  DDR_CD          0.236       1699406.898
  DDR_EF          0.535       3853289.585
  DDR_GH          0.270       1945927.208

RRL-runed Run (2) with filter

==== HDEEM_VERSION 2.2.6 ====

BMC structure version        : 0x2
Synchro capability           : GPIO
Buffer dump through          : PCIe
Blade sensors
       Number of sensors     : 1
       Names                 : BLADE, 
       Clock skew            : 5.600 ms
       Frequency             : 1000
VR    sensors
       Number of sensors     : 6
       Names                 : CPU0, CPU1, DDR_AB, DDR_CD, DDR_EF, DDR_GH, 
       Clock skew            : 35.000 ms
       Frequency             : 100

==== HDEEM status at 2018-08-28 19:04:46.695 ====
HDEEM State                         : BMC Polling
BMC polling                         : 1
FPGA polling                        : 0
Uploading session                   : 0

==== Status of last data collection ====
Last polling start time for blade   : 2018-08-28 18:04:49.197
Last polling start time for vr      : 2018-08-28 18:04:49.167
Polling started by                  : GPIO
Last polling stop time for blade    : 2018-08-28 19:04:46.669
Last polling stop time for VR       : 2018-08-28 19:04:46.640
Polling duration                (s) : 3597.472
BMC overflow                        : 0
FPGA blade overflow                 : 0
FPGA vr overflow                    : 0
Total blade values                  : 3597408
Pending blade in BMC                : 3597408
Total VR values                     : 359741
Pending VR in BMC                   : 359741

==== Instantaneous values ====
   BLADE 125.125
    CPU0  39.875
    CPU1  30.875
  DDR_AB   0.375
  DDR_CD   0.000
  DDR_EF   0.125
  DDR_GH   0.000

==== HDEEM statistics ====
Time of statistics for blade        : 2018-08-28 19:04:46.693
Time of statistics for vr           : 2018-08-28 19:04:46.663
Blade values for stats              : 3597431
VR    values for stats              : 359743
Duration     for stats          (s) : 3597.472
Real blade freq        (#Measure/s) : 999.988571
Real vr    freq        (#Measure/s) : 99.998829

            Max (W)        Min (W)        Average (W)        Energy (J)
   BLADE    158.875         63.375        108.287        389553.408
    CPU0     40.375         11.500         27.429         98673.158
    CPU1     34.500          4.375         21.645         77866.647
  DDR_AB      2.000          0.000          0.401          1442.251
  DDR_CD      1.125          0.000          0.017            59.452
  DDR_EF      2.625          0.000          0.169           607.095
  DDR_GH      1.875          0.000          0.009            31.497


==== HDEEM statistics total from power awake ====
Time of total stats for blade       : 2018-08-28 19:04:46.697
Time of total stats for vr          : 2018-08-28 19:04:46.668
Blade values total                  : 7208607155
VR    values total                  : 720855554

            Average (W)        Energy (J)
   BLADE        134.607      970327877.440

    CPU0         38.644      278564115.072
    CPU1         33.659      242630033.247
  DDR_AB          0.409       2946695.126
  DDR_CD          0.236       1699466.351
  DDR_EF          0.535       3853896.742
  DDR_GH          0.270       1945958.706

