# CALLTREE;init_0;Main-PWSCF_0;run-PWSCF_0;run-PWSCF-electrons_function_1;electrons-electrons_scf_function_0;c_bands_function_0
# Job info - HDEEM
JOB ID,17281823.2
Nodelist,taurusi5610
AVG Runtime of function [s],10.1632
MAX Runtime of function [s],10.1632
MIN Runtime of function [s],10.1632
# COUNTERS - HDEEM: 
AVG Energy consumption [J] (Stats structure),2353.88
MAX Energy consumption [J] (Stats structure),2353.88
MIN Energy consumption [J] (Stats structure),2353.88
SUM Energy consumption [J] (Stats structure),2353.88
# CALLTREE;init_0;Main-PWSCF_0;run-PWSCF_0;run-PWSCF-electrons_function_1;electrons-electrons_scf_function_0;c_bands_function_0
# Job info - HDEEM
JOB ID,17281823.2
Nodelist,taurusi5610
AVG Runtime of function [s],10.4827
MAX Runtime of function [s],10.4827
MIN Runtime of function [s],10.4827
# COUNTERS - HDEEM: 
AVG Energy consumption [J] (Stats structure),2427.75
MAX Energy consumption [J] (Stats structure),2427.75
MIN Energy consumption [J] (Stats structure),2427.75
SUM Energy consumption [J] (Stats structure),2427.75
# CALLTREE;init_0;Main-PWSCF_0;run-PWSCF_0;run-PWSCF-electrons_function_1;electrons-electrons_scf_function_0;c_bands_function_0
# Job info - HDEEM
JOB ID,17281823.2
Nodelist,taurusi5610
AVG Runtime of function [s],10.6059
MAX Runtime of function [s],10.6059
MIN Runtime of function [s],10.6059
# COUNTERS - HDEEM: 
AVG Energy consumption [J] (Stats structure),2457.7
MAX Energy consumption [J] (Stats structure),2457.7
MIN Energy consumption [J] (Stats structure),2457.7
SUM Energy consumption [J] (Stats structure),2457.7
# CALLTREE;init_0;Main-PWSCF_0;run-PWSCF_0;run-PWSCF-electrons_function_1;electrons-electrons_scf_function_0;c_bands_function_0
# Job info - HDEEM
JOB ID,17281823.2
Nodelist,taurusi5610
AVG Runtime of function [s],10.5979
MAX Runtime of function [s],10.5979
MIN Runtime of function [s],10.5979
# COUNTERS - HDEEM: 
AVG Energy consumption [J] (Stats structure),2455.71
MAX Energy consumption [J] (Stats structure),2455.71
MIN Energy consumption [J] (Stats structure),2455.71
SUM Energy consumption [J] (Stats structure),2455.71
# CALLTREE;init_0;Main-PWSCF_0;run-PWSCF_0;run-PWSCF-electrons_function_1;electrons-electrons_scf_function_0;c_bands_function_1
# Job info - HDEEM
JOB ID,17281823.2
Nodelist,taurusi5610
AVG Runtime of function [s],6.98419
MAX Runtime of function [s],6.98419
MIN Runtime of function [s],6.98419
# COUNTERS - HDEEM: 
AVG Energy consumption [J] (Stats structure),1613.36
MAX Energy consumption [J] (Stats structure),1613.36
MIN Energy consumption [J] (Stats structure),1613.36
SUM Energy consumption [J] (Stats structure),1613.36
# CALLTREE;init_0;Main-PWSCF_0;run-PWSCF_0;run-PWSCF-electrons_function_1;electrons-electrons_scf_function_0;c_bands_function_1
# Job info - HDEEM
JOB ID,17281823.2
Nodelist,taurusi5610
AVG Runtime of function [s],7.04643
MAX Runtime of function [s],7.04643
MIN Runtime of function [s],7.04643
# COUNTERS - HDEEM: 
AVG Energy consumption [J] (Stats structure),1627.5
MAX Energy consumption [J] (Stats structure),1627.5
MIN Energy consumption [J] (Stats structure),1627.5
SUM Energy consumption [J] (Stats structure),1627.5
# CALLTREE;init_0;Main-PWSCF_0;run-PWSCF_0;run-PWSCF-electrons_function_1;electrons-electrons_scf_function_0;c_bands_function_1
# Job info - HDEEM
JOB ID,17281823.2
Nodelist,taurusi5610
AVG Runtime of function [s],6.65831
MAX Runtime of function [s],6.65831
MIN Runtime of function [s],6.65831
# COUNTERS - HDEEM: 
AVG Energy consumption [J] (Stats structure),1539.93
MAX Energy consumption [J] (Stats structure),1539.93
MIN Energy consumption [J] (Stats structure),1539.93
SUM Energy consumption [J] (Stats structure),1539.93
# CALLTREE;init_0;Main-PWSCF_0;run-PWSCF_0;run-PWSCF-electrons_function_1;electrons-electrons_scf_function_0;c_bands_function_1
# Job info - HDEEM
JOB ID,17281823.2
Nodelist,taurusi5610
AVG Runtime of function [s],6.67339
MAX Runtime of function [s],6.67339
MIN Runtime of function [s],6.67339
# COUNTERS - HDEEM: 
AVG Energy consumption [J] (Stats structure),1543.12
MAX Energy consumption [J] (Stats structure),1543.12
MIN Energy consumption [J] (Stats structure),1543.12
SUM Energy consumption [J] (Stats structure),1543.12
# CALLTREE;init_0;Main-PWSCF_0;run-PWSCF_0;run-PWSCF-electrons_function_1;electrons-electrons_scf_function_0;c_bands_function_2
# Job info - HDEEM
JOB ID,17281823.2
Nodelist,taurusi5610
AVG Runtime of function [s],6.73699
MAX Runtime of function [s],6.73699
MIN Runtime of function [s],6.73699
# COUNTERS - HDEEM: 
AVG Energy consumption [J] (Stats structure),1557.19
MAX Energy consumption [J] (Stats structure),1557.19
MIN Energy consumption [J] (Stats structure),1557.19
SUM Energy consumption [J] (Stats structure),1557.19
# CALLTREE;init_0;Main-PWSCF_0;run-PWSCF_0;run-PWSCF-electrons_function_1;electrons-electrons_scf_function_0;c_bands_function_2
# Job info - HDEEM
JOB ID,17281823.2
Nodelist,taurusi5610
AVG Runtime of function [s],6.71071
MAX Runtime of function [s],6.71071
MIN Runtime of function [s],6.71071
# COUNTERS - HDEEM: 
AVG Energy consumption [J] (Stats structure),1551.76
MAX Energy consumption [J] (Stats structure),1551.76
MIN Energy consumption [J] (Stats structure),1551.76
SUM Energy consumption [J] (Stats structure),1551.76
# CALLTREE;init_0;Main-PWSCF_0;run-PWSCF_0;run-PWSCF-electrons_function_1;electrons-electrons_scf_function_0;c_bands_function_2
# Job info - HDEEM
JOB ID,17281823.2
Nodelist,taurusi5610
AVG Runtime of function [s],6.70226
MAX Runtime of function [s],6.70226
MIN Runtime of function [s],6.70226
# COUNTERS - HDEEM: 
AVG Energy consumption [J] (Stats structure),1550.22
MAX Energy consumption [J] (Stats structure),1550.22
MIN Energy consumption [J] (Stats structure),1550.22
SUM Energy consumption [J] (Stats structure),1550.22
# CALLTREE;init_0;Main-PWSCF_0;run-PWSCF_0;run-PWSCF-electrons_function_1;electrons-electrons_scf_function_0;c_bands_function_2
# Job info - HDEEM
JOB ID,17281823.2
Nodelist,taurusi5610
AVG Runtime of function [s],6.70931
MAX Runtime of function [s],6.70931
MIN Runtime of function [s],6.70931
# COUNTERS - HDEEM: 
AVG Energy consumption [J] (Stats structure),1553.4
MAX Energy consumption [J] (Stats structure),1553.4
MIN Energy consumption [J] (Stats structure),1553.4
SUM Energy consumption [J] (Stats structure),1553.4
# CALLTREE;init_0;Main-PWSCF_0;run-PWSCF_0;run-PWSCF-electrons_function_1;electrons-electrons_scf_function_0;c_bands_function_3
# Job info - HDEEM
JOB ID,17281823.2
Nodelist,taurusi5610
AVG Runtime of function [s],10.6389
MAX Runtime of function [s],10.6389
MIN Runtime of function [s],10.6389
# COUNTERS - HDEEM: 
AVG Energy consumption [J] (Stats structure),2458.53
MAX Energy consumption [J] (Stats structure),2458.53
MIN Energy consumption [J] (Stats structure),2458.53
SUM Energy consumption [J] (Stats structure),2458.53
# CALLTREE;init_0;Main-PWSCF_0;run-PWSCF_0;run-PWSCF-electrons_function_1;electrons-electrons_scf_function_0;c_bands_function_3
# Job info - HDEEM
JOB ID,17281823.2
Nodelist,taurusi5610
AVG Runtime of function [s],12.5271
MAX Runtime of function [s],12.5271
MIN Runtime of function [s],12.5271
# COUNTERS - HDEEM: 
AVG Energy consumption [J] (Stats structure),2894.31
MAX Energy consumption [J] (Stats structure),2894.31
MIN Energy consumption [J] (Stats structure),2894.31
SUM Energy consumption [J] (Stats structure),2894.31
# CALLTREE;init_0;Main-PWSCF_0;run-PWSCF_0;run-PWSCF-electrons_function_1;electrons-electrons_scf_function_0;c_bands_function_3
# Job info - HDEEM
JOB ID,17281823.2
Nodelist,taurusi5610
AVG Runtime of function [s],13.461
MAX Runtime of function [s],13.461
MIN Runtime of function [s],13.461
# COUNTERS - HDEEM: 
AVG Energy consumption [J] (Stats structure),3102.88
MAX Energy consumption [J] (Stats structure),3102.88
MIN Energy consumption [J] (Stats structure),3102.88
SUM Energy consumption [J] (Stats structure),3102.88
# CALLTREE;init_0;Main-PWSCF_0;run-PWSCF_0;run-PWSCF-electrons_function_1;electrons-electrons_scf_function_0;c_bands_function_3
# Job info - HDEEM
JOB ID,17281823.2
Nodelist,taurusi5610
AVG Runtime of function [s],12.7918
MAX Runtime of function [s],12.7918
MIN Runtime of function [s],12.7918
# COUNTERS - HDEEM: 
AVG Energy consumption [J] (Stats structure),2955
MAX Energy consumption [J] (Stats structure),2955
MIN Energy consumption [J] (Stats structure),2955
SUM Energy consumption [J] (Stats structure),2955
# CALLTREE;init_0;Main-PWSCF_0;run-PWSCF_0;run-PWSCF-electrons_function_1;electrons-electrons_scf_function_0;c_bands_function_4
# Job info - HDEEM
JOB ID,17281823.2
Nodelist,taurusi5610
AVG Runtime of function [s],12.5154
MAX Runtime of function [s],12.5154
MIN Runtime of function [s],12.5154
# COUNTERS - HDEEM: 
AVG Energy consumption [J] (Stats structure),2890.78
MAX Energy consumption [J] (Stats structure),2890.78
MIN Energy consumption [J] (Stats structure),2890.78
SUM Energy consumption [J] (Stats structure),2890.78
# CALLTREE;init_0;Main-PWSCF_0;run-PWSCF_0;run-PWSCF-electrons_function_1;electrons-electrons_scf_function_0;c_bands_function_4
# Job info - HDEEM
JOB ID,17281823.2
Nodelist,taurusi5610
AVG Runtime of function [s],12.717
MAX Runtime of function [s],12.717
MIN Runtime of function [s],12.717
# COUNTERS - HDEEM: 
AVG Energy consumption [J] (Stats structure),2935.17
MAX Energy consumption [J] (Stats structure),2935.17
MIN Energy consumption [J] (Stats structure),2935.17
SUM Energy consumption [J] (Stats structure),2935.17
# CALLTREE;init_0;Main-PWSCF_0;run-PWSCF_0;run-PWSCF-electrons_function_1;electrons-electrons_scf_function_0;c_bands_function_4
# Job info - HDEEM
JOB ID,17281823.2
Nodelist,taurusi5610
AVG Runtime of function [s],12.8499
MAX Runtime of function [s],12.8499
MIN Runtime of function [s],12.8499
# COUNTERS - HDEEM: 
AVG Energy consumption [J] (Stats structure),2969.2
MAX Energy consumption [J] (Stats structure),2969.2
MIN Energy consumption [J] (Stats structure),2969.2
SUM Energy consumption [J] (Stats structure),2969.2
# CALLTREE;init_0;Main-PWSCF_0;run-PWSCF_0;run-PWSCF-electrons_function_1;electrons-electrons_scf_function_0;c_bands_function_4
# Job info - HDEEM
JOB ID,17281823.2
Nodelist,taurusi5610
AVG Runtime of function [s],11.1473
MAX Runtime of function [s],11.1473
MIN Runtime of function [s],11.1473
# COUNTERS - HDEEM: 
AVG Energy consumption [J] (Stats structure),2581.03
MAX Energy consumption [J] (Stats structure),2581.03
MIN Energy consumption [J] (Stats structure),2581.03
SUM Energy consumption [J] (Stats structure),2581.03
# CALLTREE;init_0;Main-PWSCF_0;run-PWSCF_0;run-PWSCF-electrons_function_1;electrons-electrons_scf_function_0;c_bands_function_5
# Job info - HDEEM
JOB ID,17281823.2
Nodelist,taurusi5610
AVG Runtime of function [s],9.14062
MAX Runtime of function [s],9.14062
MIN Runtime of function [s],9.14062
# COUNTERS - HDEEM: 
AVG Energy consumption [J] (Stats structure),2109.29
MAX Energy consumption [J] (Stats structure),2109.29
MIN Energy consumption [J] (Stats structure),2109.29
SUM Energy consumption [J] (Stats structure),2109.29
# CALLTREE;init_0;Main-PWSCF_0;run-PWSCF_0;run-PWSCF-electrons_function_1;electrons-electrons_scf_function_0;c_bands_function_5
# Job info - HDEEM
JOB ID,17281823.2
Nodelist,taurusi5610
AVG Runtime of function [s],10.9981
MAX Runtime of function [s],10.9981
MIN Runtime of function [s],10.9981
# COUNTERS - HDEEM: 
AVG Energy consumption [J] (Stats structure),2534.38
MAX Energy consumption [J] (Stats structure),2534.38
MIN Energy consumption [J] (Stats structure),2534.38
SUM Energy consumption [J] (Stats structure),2534.38
# CALLTREE;init_0;Main-PWSCF_0;run-PWSCF_0;run-PWSCF-electrons_function_1;electrons-electrons_scf_function_0;c_bands_function_5
# Job info - HDEEM
JOB ID,17281823.2
Nodelist,taurusi5610
AVG Runtime of function [s],10.7576
MAX Runtime of function [s],10.7576
MIN Runtime of function [s],10.7576
# COUNTERS - HDEEM: 
AVG Energy consumption [J] (Stats structure),2480.22
MAX Energy consumption [J] (Stats structure),2480.22
MIN Energy consumption [J] (Stats structure),2480.22
SUM Energy consumption [J] (Stats structure),2480.22
# CALLTREE;init_0;Main-PWSCF_0;run-PWSCF_0;run-PWSCF-electrons_function_1;electrons-electrons_scf_function_0;c_bands_function_5
# Job info - HDEEM
JOB ID,17281823.2
Nodelist,taurusi5610
AVG Runtime of function [s],9.45388
MAX Runtime of function [s],9.45388
MIN Runtime of function [s],9.45388
# COUNTERS - HDEEM: 
AVG Energy consumption [J] (Stats structure),2184.7
MAX Energy consumption [J] (Stats structure),2184.7
MIN Energy consumption [J] (Stats structure),2184.7
SUM Energy consumption [J] (Stats structure),2184.7
# CALLTREE;init_0;Main-PWSCF_0;run-PWSCF_0;run-PWSCF-electrons_function_1;electrons-electrons_scf_function_0;c_bands_function_6
# Job info - HDEEM
JOB ID,17281823.2
Nodelist,taurusi5610
AVG Runtime of function [s],8.7288
MAX Runtime of function [s],8.7288
MIN Runtime of function [s],8.7288
# COUNTERS - HDEEM: 
AVG Energy consumption [J] (Stats structure),2016.97
MAX Energy consumption [J] (Stats structure),2016.97
MIN Energy consumption [J] (Stats structure),2016.97
SUM Energy consumption [J] (Stats structure),2016.97
# CALLTREE;init_0;Main-PWSCF_0;run-PWSCF_0;run-PWSCF-electrons_function_1;electrons-electrons_scf_function_0;c_bands_function_6
# Job info - HDEEM
JOB ID,17281823.2
Nodelist,taurusi5610
AVG Runtime of function [s],8.81852
MAX Runtime of function [s],8.81852
MIN Runtime of function [s],8.81852
# COUNTERS - HDEEM: 
AVG Energy consumption [J] (Stats structure),2039.61
MAX Energy consumption [J] (Stats structure),2039.61
MIN Energy consumption [J] (Stats structure),2039.61
SUM Energy consumption [J] (Stats structure),2039.61
# CALLTREE;init_0;Main-PWSCF_0;run-PWSCF_0;run-PWSCF-electrons_function_1;electrons-electrons_scf_function_0;c_bands_function_6
# Job info - HDEEM
JOB ID,17281823.2
Nodelist,taurusi5610
AVG Runtime of function [s],8.89485
MAX Runtime of function [s],8.89485
MIN Runtime of function [s],8.89485
# COUNTERS - HDEEM: 
AVG Energy consumption [J] (Stats structure),2058.05
MAX Energy consumption [J] (Stats structure),2058.05
MIN Energy consumption [J] (Stats structure),2058.05
SUM Energy consumption [J] (Stats structure),2058.05
# CALLTREE;init_0;Main-PWSCF_0;run-PWSCF_0;run-PWSCF-electrons_function_1;electrons-electrons_scf_function_0;c_bands_function_6
# Job info - HDEEM
JOB ID,17281823.2
Nodelist,taurusi5610
AVG Runtime of function [s],8.61263
MAX Runtime of function [s],8.61263
MIN Runtime of function [s],8.61263
# COUNTERS - HDEEM: 
AVG Energy consumption [J] (Stats structure),1993.1
MAX Energy consumption [J] (Stats structure),1993.1
MIN Energy consumption [J] (Stats structure),1993.1
SUM Energy consumption [J] (Stats structure),1993.1
# CALLTREE;init_0;Main-PWSCF_0;run-PWSCF_0;run-PWSCF-electrons_function_1;electrons-electrons_scf_function_0;c_bands_function_7
# Job info - HDEEM
JOB ID,17281823.2
Nodelist,taurusi5610
AVG Runtime of function [s],9.46278
MAX Runtime of function [s],9.46278
MIN Runtime of function [s],9.46278
# COUNTERS - HDEEM: 
AVG Energy consumption [J] (Stats structure),2190.87
MAX Energy consumption [J] (Stats structure),2190.87
MIN Energy consumption [J] (Stats structure),2190.87
SUM Energy consumption [J] (Stats structure),2190.87
# CALLTREE;init_0;Main-PWSCF_0;run-PWSCF_0;run-PWSCF-electrons_function_1;electrons-electrons_scf_function_0;c_bands_function_7
# Job info - HDEEM
JOB ID,17281823.2
Nodelist,taurusi5610
AVG Runtime of function [s],9.37687
MAX Runtime of function [s],9.37687
MIN Runtime of function [s],9.37687
# COUNTERS - HDEEM: 
AVG Energy consumption [J] (Stats structure),2171.5
MAX Energy consumption [J] (Stats structure),2171.5
MIN Energy consumption [J] (Stats structure),2171.5
SUM Energy consumption [J] (Stats structure),2171.5
# CALLTREE;init_0;Main-PWSCF_0;run-PWSCF_0;run-PWSCF-electrons_function_1;electrons-electrons_scf_function_0;c_bands_function_7
# Job info - HDEEM
JOB ID,17281823.2
Nodelist,taurusi5610
AVG Runtime of function [s],9.47406
MAX Runtime of function [s],9.47406
MIN Runtime of function [s],9.47406
# COUNTERS - HDEEM: 
AVG Energy consumption [J] (Stats structure),2195.43
MAX Energy consumption [J] (Stats structure),2195.43
MIN Energy consumption [J] (Stats structure),2195.43
SUM Energy consumption [J] (Stats structure),2195.43
# CALLTREE;init_0;Main-PWSCF_0;run-PWSCF_0;run-PWSCF-electrons_function_1;electrons-electrons_scf_function_0;c_bands_function_7
# Job info - HDEEM
JOB ID,17281823.2
Nodelist,taurusi5610
AVG Runtime of function [s],10.0566
MAX Runtime of function [s],10.0566
MIN Runtime of function [s],10.0566
# COUNTERS - HDEEM: 
AVG Energy consumption [J] (Stats structure),2329.8
MAX Energy consumption [J] (Stats structure),2329.8
MIN Energy consumption [J] (Stats structure),2329.8
SUM Energy consumption [J] (Stats structure),2329.8
# CALLTREE;init_0;Main-PWSCF_0;run-PWSCF_0;run-PWSCF-electrons_function_1;electrons-electrons_scf_function_0;c_bands_function_8
# Job info - HDEEM
JOB ID,17281823.2
Nodelist,taurusi5610
AVG Runtime of function [s],9.53984
MAX Runtime of function [s],9.53984
MIN Runtime of function [s],9.53984
# COUNTERS - HDEEM: 
AVG Energy consumption [J] (Stats structure),2210.23
MAX Energy consumption [J] (Stats structure),2210.23
MIN Energy consumption [J] (Stats structure),2210.23
SUM Energy consumption [J] (Stats structure),2210.23
# CALLTREE;init_0;Main-PWSCF_0;run-PWSCF_0;run-PWSCF-electrons_function_1;electrons-electrons_scf_function_0;c_bands_function_8
# Job info - HDEEM
JOB ID,17281823.2
Nodelist,taurusi5610
AVG Runtime of function [s],9.76164
MAX Runtime of function [s],9.76164
MIN Runtime of function [s],9.76164
# COUNTERS - HDEEM: 
AVG Energy consumption [J] (Stats structure),2261.35
MAX Energy consumption [J] (Stats structure),2261.35
MIN Energy consumption [J] (Stats structure),2261.35
SUM Energy consumption [J] (Stats structure),2261.35
# CALLTREE;init_0;Main-PWSCF_0;run-PWSCF_0;run-PWSCF-electrons_function_1;electrons-electrons_scf_function_0;c_bands_function_8
# Job info - HDEEM
JOB ID,17281823.2
Nodelist,taurusi5610
AVG Runtime of function [s],9.75774
MAX Runtime of function [s],9.75774
MIN Runtime of function [s],9.75774
# COUNTERS - HDEEM: 
AVG Energy consumption [J] (Stats structure),2261.01
MAX Energy consumption [J] (Stats structure),2261.01
MIN Energy consumption [J] (Stats structure),2261.01
SUM Energy consumption [J] (Stats structure),2261.01
# CALLTREE;init_0;Main-PWSCF_0;run-PWSCF_0;run-PWSCF-electrons_function_1;electrons-electrons_scf_function_0;c_bands_function_8
# Job info - HDEEM
JOB ID,17281823.2
Nodelist,taurusi5610
AVG Runtime of function [s],9.22966
MAX Runtime of function [s],9.22966
MIN Runtime of function [s],9.22966
# COUNTERS - HDEEM: 
AVG Energy consumption [J] (Stats structure),2138.27
MAX Energy consumption [J] (Stats structure),2138.27
MIN Energy consumption [J] (Stats structure),2138.27
SUM Energy consumption [J] (Stats structure),2138.27
# CALLTREE;init_0;Main-PWSCF_0;run-PWSCF_0;run-PWSCF-electrons_function_1;electrons-electrons_scf_function_0;c_bands_function_9
# Job info - HDEEM
JOB ID,17281823.2
Nodelist,taurusi5610
AVG Runtime of function [s],9.19265
MAX Runtime of function [s],9.19265
MIN Runtime of function [s],9.19265
# COUNTERS - HDEEM: 
AVG Energy consumption [J] (Stats structure),2129.75
MAX Energy consumption [J] (Stats structure),2129.75
MIN Energy consumption [J] (Stats structure),2129.75
SUM Energy consumption [J] (Stats structure),2129.75
# CALLTREE;init_0;Main-PWSCF_0;run-PWSCF_0;run-PWSCF-electrons_function_1;electrons-electrons_scf_function_0;c_bands_function_9
# Job info - HDEEM
JOB ID,17281823.2
Nodelist,taurusi5610
AVG Runtime of function [s],9.21024
MAX Runtime of function [s],9.21024
MIN Runtime of function [s],9.21024
# COUNTERS - HDEEM: 
AVG Energy consumption [J] (Stats structure),2133.82
MAX Energy consumption [J] (Stats structure),2133.82
MIN Energy consumption [J] (Stats structure),2133.82
SUM Energy consumption [J] (Stats structure),2133.82
# CALLTREE;init_0;Main-PWSCF_0;run-PWSCF_0;run-PWSCF-electrons_function_1;electrons-electrons_scf_function_0;c_bands_function_9
# Job info - HDEEM
JOB ID,17281823.2
Nodelist,taurusi5610
AVG Runtime of function [s],9.18882
MAX Runtime of function [s],9.18882
MIN Runtime of function [s],9.18882
# COUNTERS - HDEEM: 
AVG Energy consumption [J] (Stats structure),2129.25
MAX Energy consumption [J] (Stats structure),2129.25
MIN Energy consumption [J] (Stats structure),2129.25
SUM Energy consumption [J] (Stats structure),2129.25
# CALLTREE;init_0;Main-PWSCF_0;run-PWSCF_0;run-PWSCF-electrons_function_1;electrons-electrons_scf_function_0;c_bands_function_9
# Job info - HDEEM
JOB ID,17281823.2
Nodelist,taurusi5610
AVG Runtime of function [s],9.13926
MAX Runtime of function [s],9.13926
MIN Runtime of function [s],9.13926
# COUNTERS - HDEEM: 
AVG Energy consumption [J] (Stats structure),2117.38
MAX Energy consumption [J] (Stats structure),2117.38
MIN Energy consumption [J] (Stats structure),2117.38
SUM Energy consumption [J] (Stats structure),2117.38
# CALLTREE;init_0;Main-PWSCF_0;run-PWSCF_0;run-PWSCF-electrons_function_1;electrons-electrons_scf_function_0;c_bands_function_10
# Job info - HDEEM
JOB ID,17281823.2
Nodelist,taurusi5610
AVG Runtime of function [s],9.22367
MAX Runtime of function [s],9.22367
MIN Runtime of function [s],9.22367
# COUNTERS - HDEEM: 
AVG Energy consumption [J] (Stats structure),2136.83
MAX Energy consumption [J] (Stats structure),2136.83
MIN Energy consumption [J] (Stats structure),2136.83
SUM Energy consumption [J] (Stats structure),2136.83
# CALLTREE;init_0;Main-PWSCF_0;run-PWSCF_0;run-PWSCF-electrons_function_1;electrons-electrons_scf_function_0;c_bands_function_10
# Job info - HDEEM
JOB ID,17281823.2
Nodelist,taurusi5610
AVG Runtime of function [s],9.03267
MAX Runtime of function [s],9.03267
MIN Runtime of function [s],9.03267
# COUNTERS - HDEEM: 
AVG Energy consumption [J] (Stats structure),2088.43
MAX Energy consumption [J] (Stats structure),2088.43
MIN Energy consumption [J] (Stats structure),2088.43
SUM Energy consumption [J] (Stats structure),2088.43
# CALLTREE;init_0;Main-PWSCF_0;run-PWSCF_0;run-PWSCF-electrons_function_1;electrons-electrons_scf_function_0;c_bands_function_10
# Job info - HDEEM
JOB ID,17281823.2
Nodelist,taurusi5610
AVG Runtime of function [s],9.40022
MAX Runtime of function [s],9.40022
MIN Runtime of function [s],9.40022
# COUNTERS - HDEEM: 
AVG Energy consumption [J] (Stats structure),2178.21
MAX Energy consumption [J] (Stats structure),2178.21
MIN Energy consumption [J] (Stats structure),2178.21
SUM Energy consumption [J] (Stats structure),2178.21
# CALLTREE;init_0;Main-PWSCF_0;run-PWSCF_0;run-PWSCF-electrons_function_1;electrons-electrons_scf_function_0;c_bands_function_10
# Job info - HDEEM
JOB ID,17281823.2
Nodelist,taurusi5610
AVG Runtime of function [s],9.0251
MAX Runtime of function [s],9.0251
MIN Runtime of function [s],9.0251
# COUNTERS - HDEEM: 
AVG Energy consumption [J] (Stats structure),2087.41
MAX Energy consumption [J] (Stats structure),2087.41
MIN Energy consumption [J] (Stats structure),2087.41
SUM Energy consumption [J] (Stats structure),2087.41
# CALLTREE;init_0;Main-PWSCF_0;run-PWSCF_0;run-PWSCF-electrons_function_1;electrons-electrons_scf_function_0;c_bands_function_11
# Job info - HDEEM
JOB ID,17281823.2
Nodelist,taurusi5610
AVG Runtime of function [s],7.99919
MAX Runtime of function [s],7.99919
MIN Runtime of function [s],7.99919
# COUNTERS - HDEEM: 
AVG Energy consumption [J] (Stats structure),1846.67
MAX Energy consumption [J] (Stats structure),1846.67
MIN Energy consumption [J] (Stats structure),1846.67
SUM Energy consumption [J] (Stats structure),1846.67
# CALLTREE;init_0;Main-PWSCF_0;run-PWSCF_0;run-PWSCF-electrons_function_1;electrons-electrons_scf_function_0;c_bands_function_11
# Job info - HDEEM
JOB ID,17281823.2
Nodelist,taurusi5610
AVG Runtime of function [s],8.02941
MAX Runtime of function [s],8.02941
MIN Runtime of function [s],8.02941
# COUNTERS - HDEEM: 
AVG Energy consumption [J] (Stats structure),1855.72
MAX Energy consumption [J] (Stats structure),1855.72
MIN Energy consumption [J] (Stats structure),1855.72
SUM Energy consumption [J] (Stats structure),1855.72
# CALLTREE;init_0;Main-PWSCF_0;run-PWSCF_0;run-PWSCF-electrons_function_1;electrons-electrons_scf_function_0;c_bands_function_11
# Job info - HDEEM
JOB ID,17281823.2
Nodelist,taurusi5610
AVG Runtime of function [s],7.90936
MAX Runtime of function [s],7.90936
MIN Runtime of function [s],7.90936
# COUNTERS - HDEEM: 
AVG Energy consumption [J] (Stats structure),1828.45
MAX Energy consumption [J] (Stats structure),1828.45
MIN Energy consumption [J] (Stats structure),1828.45
SUM Energy consumption [J] (Stats structure),1828.45
# CALLTREE;init_0;Main-PWSCF_0;run-PWSCF_0;run-PWSCF-electrons_function_1;electrons-electrons_scf_function_0;c_bands_function_11
# Job info - HDEEM
JOB ID,17281823.2
Nodelist,taurusi5610
AVG Runtime of function [s],7.83924
MAX Runtime of function [s],7.83924
MIN Runtime of function [s],7.83924
# COUNTERS - HDEEM: 
AVG Energy consumption [J] (Stats structure),1810.99
MAX Energy consumption [J] (Stats structure),1810.99
MIN Energy consumption [J] (Stats structure),1810.99
SUM Energy consumption [J] (Stats structure),1810.99
# CALLTREE;init_0;Main-PWSCF_0;run-PWSCF_0;run-PWSCF-electrons_function_1;electrons-electrons_scf_function_0;c_bands_function_12
# Job info - HDEEM
JOB ID,17281823.2
Nodelist,taurusi5610
AVG Runtime of function [s],10.2037
MAX Runtime of function [s],10.2037
MIN Runtime of function [s],10.2037
# COUNTERS - HDEEM: 
AVG Energy consumption [J] (Stats structure),2361.98
MAX Energy consumption [J] (Stats structure),2361.98
MIN Energy consumption [J] (Stats structure),2361.98
SUM Energy consumption [J] (Stats structure),2361.98
# CALLTREE;init_0;Main-PWSCF_0;run-PWSCF_0;run-PWSCF-electrons_function_1;electrons-electrons_scf_function_0;c_bands_function_12
# Job info - HDEEM
JOB ID,17281823.2
Nodelist,taurusi5610
AVG Runtime of function [s],9.72002
MAX Runtime of function [s],9.72002
MIN Runtime of function [s],9.72002
# COUNTERS - HDEEM: 
AVG Energy consumption [J] (Stats structure),2250.93
MAX Energy consumption [J] (Stats structure),2250.93
MIN Energy consumption [J] (Stats structure),2250.93
SUM Energy consumption [J] (Stats structure),2250.93
# CALLTREE;init_0;Main-PWSCF_0;run-PWSCF_0;run-PWSCF-electrons_function_1;electrons-electrons_scf_function_0;c_bands_function_12
# Job info - HDEEM
JOB ID,17281823.2
Nodelist,taurusi5610
AVG Runtime of function [s],9.58209
MAX Runtime of function [s],9.58209
MIN Runtime of function [s],9.58209
# COUNTERS - HDEEM: 
AVG Energy consumption [J] (Stats structure),2220.15
MAX Energy consumption [J] (Stats structure),2220.15
MIN Energy consumption [J] (Stats structure),2220.15
SUM Energy consumption [J] (Stats structure),2220.15
# CALLTREE;init_0;Main-PWSCF_0;run-PWSCF_0;run-PWSCF-electrons_function_1;electrons-electrons_scf_function_0;c_bands_function_12
# Job info - HDEEM
JOB ID,17281823.2
Nodelist,taurusi5610
AVG Runtime of function [s],10.0184
MAX Runtime of function [s],10.0184
MIN Runtime of function [s],10.0184
# COUNTERS - HDEEM: 
AVG Energy consumption [J] (Stats structure),2320.96
MAX Energy consumption [J] (Stats structure),2320.96
MIN Energy consumption [J] (Stats structure),2320.96
SUM Energy consumption [J] (Stats structure),2320.96
# CALLTREE;init_0;Main-PWSCF_0;run-PWSCF_0;run-PWSCF-electrons_function_1;electrons-electrons_scf_function_0;c_bands_function_13
# Job info - HDEEM
JOB ID,17281823.2
Nodelist,taurusi5610
AVG Runtime of function [s],8.92385
MAX Runtime of function [s],8.92385
MIN Runtime of function [s],8.92385
# COUNTERS - HDEEM: 
AVG Energy consumption [J] (Stats structure),2067.39
MAX Energy consumption [J] (Stats structure),2067.39
MIN Energy consumption [J] (Stats structure),2067.39
SUM Energy consumption [J] (Stats structure),2067.39
# CALLTREE;init_0;Main-PWSCF_0;run-PWSCF_0;run-PWSCF-electrons_function_1;electrons-electrons_scf_function_0;c_bands_function_13
# Job info - HDEEM
JOB ID,17281823.2
Nodelist,taurusi5610
AVG Runtime of function [s],9.5184
MAX Runtime of function [s],9.5184
MIN Runtime of function [s],9.5184
# COUNTERS - HDEEM: 
AVG Energy consumption [J] (Stats structure),2204.19
MAX Energy consumption [J] (Stats structure),2204.19
MIN Energy consumption [J] (Stats structure),2204.19
SUM Energy consumption [J] (Stats structure),2204.19
# CALLTREE;init_0;Main-PWSCF_0;run-PWSCF_0;run-PWSCF-electrons_function_1;electrons-electrons_scf_function_0;c_bands_function_13
# Job info - HDEEM
JOB ID,17281823.2
Nodelist,taurusi5610
AVG Runtime of function [s],9.57922
MAX Runtime of function [s],9.57922
MIN Runtime of function [s],9.57922
# COUNTERS - HDEEM: 
AVG Energy consumption [J] (Stats structure),2219.09
MAX Energy consumption [J] (Stats structure),2219.09
MIN Energy consumption [J] (Stats structure),2219.09
SUM Energy consumption [J] (Stats structure),2219.09
# CALLTREE;init_0;Main-PWSCF_0;run-PWSCF_0;run-PWSCF-electrons_function_1;electrons-electrons_scf_function_0;c_bands_function_13
# Job info - HDEEM
JOB ID,17281823.2
Nodelist,taurusi5610
AVG Runtime of function [s],9.34151
MAX Runtime of function [s],9.34151
MIN Runtime of function [s],9.34151
# COUNTERS - HDEEM: 
AVG Energy consumption [J] (Stats structure),2164.87
MAX Energy consumption [J] (Stats structure),2164.87
MIN Energy consumption [J] (Stats structure),2164.87
SUM Energy consumption [J] (Stats structure),2164.87
# CALLTREE;init_0;Main-PWSCF_0;run-PWSCF_0;run-PWSCF-electrons_function_1;electrons-electrons_scf_function_0;c_bands_function_14
# Job info - HDEEM
JOB ID,17281823.2
Nodelist,taurusi5610
AVG Runtime of function [s],6.69796
MAX Runtime of function [s],6.69796
MIN Runtime of function [s],6.69796
# COUNTERS - HDEEM: 
AVG Energy consumption [J] (Stats structure),1548.18
MAX Energy consumption [J] (Stats structure),1548.18
MIN Energy consumption [J] (Stats structure),1548.18
SUM Energy consumption [J] (Stats structure),1548.18
# CALLTREE;init_0;Main-PWSCF_0;run-PWSCF_0;run-PWSCF-electrons_function_1;electrons-electrons_scf_function_0;c_bands_function_14
# Job info - HDEEM
JOB ID,17281823.2
Nodelist,taurusi5610
AVG Runtime of function [s],6.68959
MAX Runtime of function [s],6.68959
MIN Runtime of function [s],6.68959
# COUNTERS - HDEEM: 
AVG Energy consumption [J] (Stats structure),1546.58
MAX Energy consumption [J] (Stats structure),1546.58
MIN Energy consumption [J] (Stats structure),1546.58
SUM Energy consumption [J] (Stats structure),1546.58
# CALLTREE;init_0;Main-PWSCF_0;run-PWSCF_0;run-PWSCF-electrons_function_1;electrons-electrons_scf_function_0;c_bands_function_14
# Job info - HDEEM
JOB ID,17281823.2
Nodelist,taurusi5610
AVG Runtime of function [s],6.68607
MAX Runtime of function [s],6.68607
MIN Runtime of function [s],6.68607
# COUNTERS - HDEEM: 
AVG Energy consumption [J] (Stats structure),1546.03
MAX Energy consumption [J] (Stats structure),1546.03
MIN Energy consumption [J] (Stats structure),1546.03
SUM Energy consumption [J] (Stats structure),1546.03
# CALLTREE;init_0;Main-PWSCF_0;run-PWSCF_0;run-PWSCF-electrons_function_1;electrons-electrons_scf_function_0;c_bands_function_14
# Job info - HDEEM
JOB ID,17281823.2
Nodelist,taurusi5610
AVG Runtime of function [s],6.87812
MAX Runtime of function [s],6.87812
MIN Runtime of function [s],6.87812
# COUNTERS - HDEEM: 
AVG Energy consumption [J] (Stats structure),1590.44
MAX Energy consumption [J] (Stats structure),1590.44
MIN Energy consumption [J] (Stats structure),1590.44
SUM Energy consumption [J] (Stats structure),1590.44
# CALLTREE;init_0;Main-PWSCF_0;run-PWSCF_0;run-PWSCF-electrons_function_1;electrons-electrons_scf_function_0;c_bands_function_15
# Job info - HDEEM
JOB ID,17281823.2
Nodelist,taurusi5610
AVG Runtime of function [s],6.75235
MAX Runtime of function [s],6.75235
MIN Runtime of function [s],6.75235
# COUNTERS - HDEEM: 
AVG Energy consumption [J] (Stats structure),1559.4
MAX Energy consumption [J] (Stats structure),1559.4
MIN Energy consumption [J] (Stats structure),1559.4
SUM Energy consumption [J] (Stats structure),1559.4
# CALLTREE;init_0;Main-PWSCF_0;run-PWSCF_0;run-PWSCF-electrons_function_1;electrons-electrons_scf_function_0;c_bands_function_15
# Job info - HDEEM
JOB ID,17281823.2
Nodelist,taurusi5610
AVG Runtime of function [s],6.67573
MAX Runtime of function [s],6.67573
MIN Runtime of function [s],6.67573
# COUNTERS - HDEEM: 
AVG Energy consumption [J] (Stats structure),1543.04
MAX Energy consumption [J] (Stats structure),1543.04
MIN Energy consumption [J] (Stats structure),1543.04
SUM Energy consumption [J] (Stats structure),1543.04
# CALLTREE;init_0;Main-PWSCF_0;run-PWSCF_0;run-PWSCF-electrons_function_1;electrons-electrons_scf_function_0;c_bands_function_15
# Job info - HDEEM
JOB ID,17281823.2
Nodelist,taurusi5610
AVG Runtime of function [s],6.6844
MAX Runtime of function [s],6.6844
MIN Runtime of function [s],6.6844
# COUNTERS - HDEEM: 
AVG Energy consumption [J] (Stats structure),1544.98
MAX Energy consumption [J] (Stats structure),1544.98
MIN Energy consumption [J] (Stats structure),1544.98
SUM Energy consumption [J] (Stats structure),1544.98
# CALLTREE;init_0;Main-PWSCF_0;run-PWSCF_0;run-PWSCF-electrons_function_1;electrons-electrons_scf_function_0;c_bands_function_15
# Job info - HDEEM
JOB ID,17281823.2
Nodelist,taurusi5610
AVG Runtime of function [s],6.68484
MAX Runtime of function [s],6.68484
MIN Runtime of function [s],6.68484
# COUNTERS - HDEEM: 
AVG Energy consumption [J] (Stats structure),1545.34
MAX Energy consumption [J] (Stats structure),1545.34
MIN Energy consumption [J] (Stats structure),1545.34
SUM Energy consumption [J] (Stats structure),1545.34
# CALLTREE;init_1;Main-PWSCF_0;run-PWSCF_0;run-PWSCF-electrons_function_1;electrons-electrons_scf_function_0;c_bands_function_0
# Job info - HDEEM
JOB ID,17281896.2
Nodelist,taurusi5610
AVG Runtime of function [s],2.47078
MAX Runtime of function [s],2.47078
MIN Runtime of function [s],2.47078
# COUNTERS - HDEEM: 
AVG Energy consumption [J] (Stats structure),715.818
MAX Energy consumption [J] (Stats structure),715.818
MIN Energy consumption [J] (Stats structure),715.818
SUM Energy consumption [J] (Stats structure),715.818
# CALLTREE;init_1;Main-PWSCF_0;run-PWSCF_0;run-PWSCF-electrons_function_1;electrons-electrons_scf_function_0;c_bands_function_0
# Job info - HDEEM
JOB ID,17281896.2
Nodelist,taurusi5610
AVG Runtime of function [s],2.53706
MAX Runtime of function [s],2.53706
MIN Runtime of function [s],2.53706
# COUNTERS - HDEEM: 
AVG Energy consumption [J] (Stats structure),734.725
MAX Energy consumption [J] (Stats structure),734.725
MIN Energy consumption [J] (Stats structure),734.725
SUM Energy consumption [J] (Stats structure),734.725
# CALLTREE;init_1;Main-PWSCF_0;run-PWSCF_0;run-PWSCF-electrons_function_1;electrons-electrons_scf_function_0;c_bands_function_0
# Job info - HDEEM
JOB ID,17281896.2
Nodelist,taurusi5610
AVG Runtime of function [s],2.54623
MAX Runtime of function [s],2.54623
MIN Runtime of function [s],2.54623
# COUNTERS - HDEEM: 
AVG Energy consumption [J] (Stats structure),740.168
MAX Energy consumption [J] (Stats structure),740.168
MIN Energy consumption [J] (Stats structure),740.168
SUM Energy consumption [J] (Stats structure),740.168
# CALLTREE;init_1;Main-PWSCF_0;run-PWSCF_0;run-PWSCF-electrons_function_1;electrons-electrons_scf_function_0;c_bands_function_0
# Job info - HDEEM
JOB ID,17281896.2
Nodelist,taurusi5610
AVG Runtime of function [s],2.5464
MAX Runtime of function [s],2.5464
MIN Runtime of function [s],2.5464
# COUNTERS - HDEEM: 
AVG Energy consumption [J] (Stats structure),740.174
MAX Energy consumption [J] (Stats structure),740.174
MIN Energy consumption [J] (Stats structure),740.174
SUM Energy consumption [J] (Stats structure),740.174
# CALLTREE;init_1;Main-PWSCF_0;run-PWSCF_0;run-PWSCF-electrons_function_1;electrons-electrons_scf_function_0;c_bands_function_1
# Job info - HDEEM
JOB ID,17281896.2
Nodelist,taurusi5610
AVG Runtime of function [s],1.6457
MAX Runtime of function [s],1.6457
MIN Runtime of function [s],1.6457
# COUNTERS - HDEEM: 
AVG Energy consumption [J] (Stats structure),476.753
MAX Energy consumption [J] (Stats structure),476.753
MIN Energy consumption [J] (Stats structure),476.753
SUM Energy consumption [J] (Stats structure),476.753
# CALLTREE;init_1;Main-PWSCF_0;run-PWSCF_0;run-PWSCF-electrons_function_1;electrons-electrons_scf_function_0;c_bands_function_1
# Job info - HDEEM
JOB ID,17281896.2
Nodelist,taurusi5610
AVG Runtime of function [s],1.75873
MAX Runtime of function [s],1.75873
MIN Runtime of function [s],1.75873
# COUNTERS - HDEEM: 
AVG Energy consumption [J] (Stats structure),501.456
MAX Energy consumption [J] (Stats structure),501.456
MIN Energy consumption [J] (Stats structure),501.456
SUM Energy consumption [J] (Stats structure),501.456
# CALLTREE;init_1;Main-PWSCF_0;run-PWSCF_0;run-PWSCF-electrons_function_1;electrons-electrons_scf_function_0;c_bands_function_1
# Job info - HDEEM
JOB ID,17281896.2
Nodelist,taurusi5610
AVG Runtime of function [s],1.45138
MAX Runtime of function [s],1.45138
MIN Runtime of function [s],1.45138
# COUNTERS - HDEEM: 
AVG Energy consumption [J] (Stats structure),430.732
MAX Energy consumption [J] (Stats structure),430.732
MIN Energy consumption [J] (Stats structure),430.732
SUM Energy consumption [J] (Stats structure),430.732
# CALLTREE;init_1;Main-PWSCF_0;run-PWSCF_0;run-PWSCF-electrons_function_1;electrons-electrons_scf_function_0;c_bands_function_1
# Job info - HDEEM
JOB ID,17281896.2
Nodelist,taurusi5610
AVG Runtime of function [s],1.45239
MAX Runtime of function [s],1.45239
MIN Runtime of function [s],1.45239
# COUNTERS - HDEEM: 
AVG Energy consumption [J] (Stats structure),431.113
MAX Energy consumption [J] (Stats structure),431.113
MIN Energy consumption [J] (Stats structure),431.113
SUM Energy consumption [J] (Stats structure),431.113
# CALLTREE;init_1;Main-PWSCF_0;run-PWSCF_0;run-PWSCF-electrons_function_1;electrons-electrons_scf_function_0;c_bands_function_2
# Job info - HDEEM
JOB ID,17281896.2
Nodelist,taurusi5610
AVG Runtime of function [s],1.5215
MAX Runtime of function [s],1.5215
MIN Runtime of function [s],1.5215
# COUNTERS - HDEEM: 
AVG Energy consumption [J] (Stats structure),445.99
MAX Energy consumption [J] (Stats structure),445.99
MIN Energy consumption [J] (Stats structure),445.99
SUM Energy consumption [J] (Stats structure),445.99
# CALLTREE;init_1;Main-PWSCF_0;run-PWSCF_0;run-PWSCF-electrons_function_1;electrons-electrons_scf_function_0;c_bands_function_2
# Job info - HDEEM
JOB ID,17281896.2
Nodelist,taurusi5610
AVG Runtime of function [s],1.47316
MAX Runtime of function [s],1.47316
MIN Runtime of function [s],1.47316
# COUNTERS - HDEEM: 
AVG Energy consumption [J] (Stats structure),435.876
MAX Energy consumption [J] (Stats structure),435.876
MIN Energy consumption [J] (Stats structure),435.876
SUM Energy consumption [J] (Stats structure),435.876
# CALLTREE;init_1;Main-PWSCF_0;run-PWSCF_0;run-PWSCF-electrons_function_1;electrons-electrons_scf_function_0;c_bands_function_2
# Job info - HDEEM
JOB ID,17281896.2
Nodelist,taurusi5610
AVG Runtime of function [s],1.46886
MAX Runtime of function [s],1.46886
MIN Runtime of function [s],1.46886
# COUNTERS - HDEEM: 
AVG Energy consumption [J] (Stats structure),435.796
MAX Energy consumption [J] (Stats structure),435.796
MIN Energy consumption [J] (Stats structure),435.796
SUM Energy consumption [J] (Stats structure),435.796
# CALLTREE;init_1;Main-PWSCF_0;run-PWSCF_0;run-PWSCF-electrons_function_1;electrons-electrons_scf_function_0;c_bands_function_2
# Job info - HDEEM
JOB ID,17281896.2
Nodelist,taurusi5610
AVG Runtime of function [s],1.47155
MAX Runtime of function [s],1.47155
MIN Runtime of function [s],1.47155
# COUNTERS - HDEEM: 
AVG Energy consumption [J] (Stats structure),435.975
MAX Energy consumption [J] (Stats structure),435.975
MIN Energy consumption [J] (Stats structure),435.975
SUM Energy consumption [J] (Stats structure),435.975
# CALLTREE;init_1;Main-PWSCF_0;run-PWSCF_0;run-PWSCF-electrons_function_1;electrons-electrons_scf_function_0;c_bands_function_3
# Job info - HDEEM
JOB ID,17281896.2
Nodelist,taurusi5610
AVG Runtime of function [s],3.39878
MAX Runtime of function [s],3.39878
MIN Runtime of function [s],3.39878
# COUNTERS - HDEEM: 
AVG Energy consumption [J] (Stats structure),917.917
MAX Energy consumption [J] (Stats structure),917.917
MIN Energy consumption [J] (Stats structure),917.917
SUM Energy consumption [J] (Stats structure),917.917
# CALLTREE;init_1;Main-PWSCF_0;run-PWSCF_0;run-PWSCF-electrons_function_1;electrons-electrons_scf_function_0;c_bands_function_3
# Job info - HDEEM
JOB ID,17281896.2
Nodelist,taurusi5610
AVG Runtime of function [s],3.91717
MAX Runtime of function [s],3.91717
MIN Runtime of function [s],3.91717
# COUNTERS - HDEEM: 
AVG Energy consumption [J] (Stats structure),1061.6
MAX Energy consumption [J] (Stats structure),1061.6
MIN Energy consumption [J] (Stats structure),1061.6
SUM Energy consumption [J] (Stats structure),1061.6
# CALLTREE;init_1;Main-PWSCF_0;run-PWSCF_0;run-PWSCF-electrons_function_1;electrons-electrons_scf_function_0;c_bands_function_3
# Job info - HDEEM
JOB ID,17281896.2
Nodelist,taurusi5610
AVG Runtime of function [s],5.02185
MAX Runtime of function [s],5.02185
MIN Runtime of function [s],5.02185
# COUNTERS - HDEEM: 
AVG Energy consumption [J] (Stats structure),1309.16
MAX Energy consumption [J] (Stats structure),1309.16
MIN Energy consumption [J] (Stats structure),1309.16
SUM Energy consumption [J] (Stats structure),1309.16
# CALLTREE;init_1;Main-PWSCF_0;run-PWSCF_0;run-PWSCF-electrons_function_1;electrons-electrons_scf_function_0;c_bands_function_3
# Job info - HDEEM
JOB ID,17281896.2
Nodelist,taurusi5610
AVG Runtime of function [s],4.14519
MAX Runtime of function [s],4.14519
MIN Runtime of function [s],4.14519
# COUNTERS - HDEEM: 
AVG Energy consumption [J] (Stats structure),1114.84
MAX Energy consumption [J] (Stats structure),1114.84
MIN Energy consumption [J] (Stats structure),1114.84
SUM Energy consumption [J] (Stats structure),1114.84
# CALLTREE;init_1;Main-PWSCF_0;run-PWSCF_0;run-PWSCF-electrons_function_1;electrons-electrons_scf_function_0;c_bands_function_4
# Job info - HDEEM
JOB ID,17281896.2
Nodelist,taurusi5610
AVG Runtime of function [s],3.93425
MAX Runtime of function [s],3.93425
MIN Runtime of function [s],3.93425
# COUNTERS - HDEEM: 
AVG Energy consumption [J] (Stats structure),1064.74
MAX Energy consumption [J] (Stats structure),1064.74
MIN Energy consumption [J] (Stats structure),1064.74
SUM Energy consumption [J] (Stats structure),1064.74
# CALLTREE;init_1;Main-PWSCF_0;run-PWSCF_0;run-PWSCF-electrons_function_1;electrons-electrons_scf_function_0;c_bands_function_4
# Job info - HDEEM
JOB ID,17281896.2
Nodelist,taurusi5610
AVG Runtime of function [s],4.17131
MAX Runtime of function [s],4.17131
MIN Runtime of function [s],4.17131
# COUNTERS - HDEEM: 
AVG Energy consumption [J] (Stats structure),1116.81
MAX Energy consumption [J] (Stats structure),1116.81
MIN Energy consumption [J] (Stats structure),1116.81
SUM Energy consumption [J] (Stats structure),1116.81
# CALLTREE;init_1;Main-PWSCF_0;run-PWSCF_0;run-PWSCF-electrons_function_1;electrons-electrons_scf_function_0;c_bands_function_4
# Job info - HDEEM
JOB ID,17281896.2
Nodelist,taurusi5610
AVG Runtime of function [s],4.0488
MAX Runtime of function [s],4.0488
MIN Runtime of function [s],4.0488
# COUNTERS - HDEEM: 
AVG Energy consumption [J] (Stats structure),1095.91
MAX Energy consumption [J] (Stats structure),1095.91
MIN Energy consumption [J] (Stats structure),1095.91
SUM Energy consumption [J] (Stats structure),1095.91
# CALLTREE;init_1;Main-PWSCF_0;run-PWSCF_0;run-PWSCF-electrons_function_1;electrons-electrons_scf_function_0;c_bands_function_4
# Job info - HDEEM
JOB ID,17281896.2
Nodelist,taurusi5610
AVG Runtime of function [s],2.77053
MAX Runtime of function [s],2.77053
MIN Runtime of function [s],2.77053
# COUNTERS - HDEEM: 
AVG Energy consumption [J] (Stats structure),790.784
MAX Energy consumption [J] (Stats structure),790.784
MIN Energy consumption [J] (Stats structure),790.784
SUM Energy consumption [J] (Stats structure),790.784
# CALLTREE;init_1;Main-PWSCF_0;run-PWSCF_0;run-PWSCF-electrons_function_1;electrons-electrons_scf_function_0;c_bands_function_5
# Job info - HDEEM
JOB ID,17281896.2
Nodelist,taurusi5610
AVG Runtime of function [s],2.22087
MAX Runtime of function [s],2.22087
MIN Runtime of function [s],2.22087
# COUNTERS - HDEEM: 
AVG Energy consumption [J] (Stats structure),635.708
MAX Energy consumption [J] (Stats structure),635.708
MIN Energy consumption [J] (Stats structure),635.708
SUM Energy consumption [J] (Stats structure),635.708
# CALLTREE;init_1;Main-PWSCF_0;run-PWSCF_0;run-PWSCF-electrons_function_1;electrons-electrons_scf_function_0;c_bands_function_5
# Job info - HDEEM
JOB ID,17281896.2
Nodelist,taurusi5610
AVG Runtime of function [s],3.61328
MAX Runtime of function [s],3.61328
MIN Runtime of function [s],3.61328
# COUNTERS - HDEEM: 
AVG Energy consumption [J] (Stats structure),964.433
MAX Energy consumption [J] (Stats structure),964.433
MIN Energy consumption [J] (Stats structure),964.433
SUM Energy consumption [J] (Stats structure),964.433
# CALLTREE;init_1;Main-PWSCF_0;run-PWSCF_0;run-PWSCF-electrons_function_1;electrons-electrons_scf_function_0;c_bands_function_5
# Job info - HDEEM
JOB ID,17281896.2
Nodelist,taurusi5610
AVG Runtime of function [s],3.54268
MAX Runtime of function [s],3.54268
MIN Runtime of function [s],3.54268
# COUNTERS - HDEEM: 
AVG Energy consumption [J] (Stats structure),945.282
MAX Energy consumption [J] (Stats structure),945.282
MIN Energy consumption [J] (Stats structure),945.282
SUM Energy consumption [J] (Stats structure),945.282
# CALLTREE;init_1;Main-PWSCF_0;run-PWSCF_0;run-PWSCF-electrons_function_1;electrons-electrons_scf_function_0;c_bands_function_5
# Job info - HDEEM
JOB ID,17281896.2
Nodelist,taurusi5610
AVG Runtime of function [s],2.43428
MAX Runtime of function [s],2.43428
MIN Runtime of function [s],2.43428
# COUNTERS - HDEEM: 
AVG Energy consumption [J] (Stats structure),689.54
MAX Energy consumption [J] (Stats structure),689.54
MIN Energy consumption [J] (Stats structure),689.54
SUM Energy consumption [J] (Stats structure),689.54
# CALLTREE;init_1;Main-PWSCF_0;run-PWSCF_0;run-PWSCF-electrons_function_1;electrons-electrons_scf_function_0;c_bands_function_6
# Job info - HDEEM
JOB ID,17281896.2
Nodelist,taurusi5610
AVG Runtime of function [s],2.16292
MAX Runtime of function [s],2.16292
MIN Runtime of function [s],2.16292
# COUNTERS - HDEEM: 
AVG Energy consumption [J] (Stats structure),618.967
MAX Energy consumption [J] (Stats structure),618.967
MIN Energy consumption [J] (Stats structure),618.967
SUM Energy consumption [J] (Stats structure),618.967
# CALLTREE;init_1;Main-PWSCF_0;run-PWSCF_0;run-PWSCF-electrons_function_1;electrons-electrons_scf_function_0;c_bands_function_6
# Job info - HDEEM
JOB ID,17281896.2
Nodelist,taurusi5610
AVG Runtime of function [s],2.17266
MAX Runtime of function [s],2.17266
MIN Runtime of function [s],2.17266
# COUNTERS - HDEEM: 
AVG Energy consumption [J] (Stats structure),623.917
MAX Energy consumption [J] (Stats structure),623.917
MIN Energy consumption [J] (Stats structure),623.917
SUM Energy consumption [J] (Stats structure),623.917
# CALLTREE;init_1;Main-PWSCF_0;run-PWSCF_0;run-PWSCF-electrons_function_1;electrons-electrons_scf_function_0;c_bands_function_6
# Job info - HDEEM
JOB ID,17281896.2
Nodelist,taurusi5610
AVG Runtime of function [s],2.19348
MAX Runtime of function [s],2.19348
MIN Runtime of function [s],2.19348
# COUNTERS - HDEEM: 
AVG Energy consumption [J] (Stats structure),630.726
MAX Energy consumption [J] (Stats structure),630.726
MIN Energy consumption [J] (Stats structure),630.726
SUM Energy consumption [J] (Stats structure),630.726
# CALLTREE;init_1;Main-PWSCF_0;run-PWSCF_0;run-PWSCF-electrons_function_1;electrons-electrons_scf_function_0;c_bands_function_6
# Job info - HDEEM
JOB ID,17281896.2
Nodelist,taurusi5610
AVG Runtime of function [s],1.96724
MAX Runtime of function [s],1.96724
MIN Runtime of function [s],1.96724
# COUNTERS - HDEEM: 
AVG Energy consumption [J] (Stats structure),578.018
MAX Energy consumption [J] (Stats structure),578.018
MIN Energy consumption [J] (Stats structure),578.018
SUM Energy consumption [J] (Stats structure),578.018
# CALLTREE;init_1;Main-PWSCF_0;run-PWSCF_0;run-PWSCF-electrons_function_1;electrons-electrons_scf_function_0;c_bands_function_7
# Job info - HDEEM
JOB ID,17281896.2
Nodelist,taurusi5610
AVG Runtime of function [s],2.33618
MAX Runtime of function [s],2.33618
MIN Runtime of function [s],2.33618
# COUNTERS - HDEEM: 
AVG Energy consumption [J] (Stats structure),672.913
MAX Energy consumption [J] (Stats structure),672.913
MIN Energy consumption [J] (Stats structure),672.913
SUM Energy consumption [J] (Stats structure),672.913
# CALLTREE;init_1;Main-PWSCF_0;run-PWSCF_0;run-PWSCF-electrons_function_1;electrons-electrons_scf_function_0;c_bands_function_7
# Job info - HDEEM
JOB ID,17281896.2
Nodelist,taurusi5610
AVG Runtime of function [s],2.30061
MAX Runtime of function [s],2.30061
MIN Runtime of function [s],2.30061
# COUNTERS - HDEEM: 
AVG Energy consumption [J] (Stats structure),665.037
MAX Energy consumption [J] (Stats structure),665.037
MIN Energy consumption [J] (Stats structure),665.037
SUM Energy consumption [J] (Stats structure),665.037
# CALLTREE;init_1;Main-PWSCF_0;run-PWSCF_0;run-PWSCF-electrons_function_1;electrons-electrons_scf_function_0;c_bands_function_7
# Job info - HDEEM
JOB ID,17281896.2
Nodelist,taurusi5610
AVG Runtime of function [s],2.31124
MAX Runtime of function [s],2.31124
MIN Runtime of function [s],2.31124
# COUNTERS - HDEEM: 
AVG Energy consumption [J] (Stats structure),670.461
MAX Energy consumption [J] (Stats structure),670.461
MIN Energy consumption [J] (Stats structure),670.461
SUM Energy consumption [J] (Stats structure),670.461
# CALLTREE;init_1;Main-PWSCF_0;run-PWSCF_0;run-PWSCF-electrons_function_1;electrons-electrons_scf_function_0;c_bands_function_7
# Job info - HDEEM
JOB ID,17281896.2
Nodelist,taurusi5610
AVG Runtime of function [s],2.41663
MAX Runtime of function [s],2.41663
MIN Runtime of function [s],2.41663
# COUNTERS - HDEEM: 
AVG Energy consumption [J] (Stats structure),703.387
MAX Energy consumption [J] (Stats structure),703.387
MIN Energy consumption [J] (Stats structure),703.387
SUM Energy consumption [J] (Stats structure),703.387
# CALLTREE;init_1;Main-PWSCF_0;run-PWSCF_0;run-PWSCF-electrons_function_1;electrons-electrons_scf_function_0;c_bands_function_8
# Job info - HDEEM
JOB ID,17281896.2
Nodelist,taurusi5610
AVG Runtime of function [s],2.33692
MAX Runtime of function [s],2.33692
MIN Runtime of function [s],2.33692
# COUNTERS - HDEEM: 
AVG Energy consumption [J] (Stats structure),676.193
MAX Energy consumption [J] (Stats structure),676.193
MIN Energy consumption [J] (Stats structure),676.193
SUM Energy consumption [J] (Stats structure),676.193
# CALLTREE;init_1;Main-PWSCF_0;run-PWSCF_0;run-PWSCF-electrons_function_1;electrons-electrons_scf_function_0;c_bands_function_8
# Job info - HDEEM
JOB ID,17281896.2
Nodelist,taurusi5610
AVG Runtime of function [s],2.37229
MAX Runtime of function [s],2.37229
MIN Runtime of function [s],2.37229
# COUNTERS - HDEEM: 
AVG Energy consumption [J] (Stats structure),687.598
MAX Energy consumption [J] (Stats structure),687.598
MIN Energy consumption [J] (Stats structure),687.598
SUM Energy consumption [J] (Stats structure),687.598
# CALLTREE;init_1;Main-PWSCF_0;run-PWSCF_0;run-PWSCF-electrons_function_1;electrons-electrons_scf_function_0;c_bands_function_8
# Job info - HDEEM
JOB ID,17281896.2
Nodelist,taurusi5610
AVG Runtime of function [s],2.36216
MAX Runtime of function [s],2.36216
MIN Runtime of function [s],2.36216
# COUNTERS - HDEEM: 
AVG Energy consumption [J] (Stats structure),686.216
MAX Energy consumption [J] (Stats structure),686.216
MIN Energy consumption [J] (Stats structure),686.216
SUM Energy consumption [J] (Stats structure),686.216
# CALLTREE;init_1;Main-PWSCF_0;run-PWSCF_0;run-PWSCF-electrons_function_1;electrons-electrons_scf_function_0;c_bands_function_8
# Job info - HDEEM
JOB ID,17281896.2
Nodelist,taurusi5610
AVG Runtime of function [s],2.244
MAX Runtime of function [s],2.244
MIN Runtime of function [s],2.244
# COUNTERS - HDEEM: 
AVG Energy consumption [J] (Stats structure),651.377
MAX Energy consumption [J] (Stats structure),651.377
MIN Energy consumption [J] (Stats structure),651.377
SUM Energy consumption [J] (Stats structure),651.377
# CALLTREE;init_1;Main-PWSCF_0;run-PWSCF_0;run-PWSCF-electrons_function_1;electrons-electrons_scf_function_0;c_bands_function_9
# Job info - HDEEM
JOB ID,17281896.2
Nodelist,taurusi5610
AVG Runtime of function [s],2.28415
MAX Runtime of function [s],2.28415
MIN Runtime of function [s],2.28415
# COUNTERS - HDEEM: 
AVG Energy consumption [J] (Stats structure),659.14
MAX Energy consumption [J] (Stats structure),659.14
MIN Energy consumption [J] (Stats structure),659.14
SUM Energy consumption [J] (Stats structure),659.14
# CALLTREE;init_1;Main-PWSCF_0;run-PWSCF_0;run-PWSCF-electrons_function_1;electrons-electrons_scf_function_0;c_bands_function_9
# Job info - HDEEM
JOB ID,17281896.2
Nodelist,taurusi5610
AVG Runtime of function [s],2.25375
MAX Runtime of function [s],2.25375
MIN Runtime of function [s],2.25375
# COUNTERS - HDEEM: 
AVG Energy consumption [J] (Stats structure),652.522
MAX Energy consumption [J] (Stats structure),652.522
MIN Energy consumption [J] (Stats structure),652.522
SUM Energy consumption [J] (Stats structure),652.522
# CALLTREE;init_1;Main-PWSCF_0;run-PWSCF_0;run-PWSCF-electrons_function_1;electrons-electrons_scf_function_0;c_bands_function_9
# Job info - HDEEM
JOB ID,17281896.2
Nodelist,taurusi5610
AVG Runtime of function [s],2.25366
MAX Runtime of function [s],2.25366
MIN Runtime of function [s],2.25366
# COUNTERS - HDEEM: 
AVG Energy consumption [J] (Stats structure),653.174
MAX Energy consumption [J] (Stats structure),653.174
MIN Energy consumption [J] (Stats structure),653.174
SUM Energy consumption [J] (Stats structure),653.174
# CALLTREE;init_1;Main-PWSCF_0;run-PWSCF_0;run-PWSCF-electrons_function_1;electrons-electrons_scf_function_0;c_bands_function_9
# Job info - HDEEM
JOB ID,17281896.2
Nodelist,taurusi5610
AVG Runtime of function [s],2.22821
MAX Runtime of function [s],2.22821
MIN Runtime of function [s],2.22821
# COUNTERS - HDEEM: 
AVG Energy consumption [J] (Stats structure),646.187
MAX Energy consumption [J] (Stats structure),646.187
MIN Energy consumption [J] (Stats structure),646.187
SUM Energy consumption [J] (Stats structure),646.187
# CALLTREE;init_1;Main-PWSCF_0;run-PWSCF_0;run-PWSCF-electrons_function_1;electrons-electrons_scf_function_0;c_bands_function_10
# Job info - HDEEM
JOB ID,17281896.2
Nodelist,taurusi5610
AVG Runtime of function [s],2.27447
MAX Runtime of function [s],2.27447
MIN Runtime of function [s],2.27447
# COUNTERS - HDEEM: 
AVG Energy consumption [J] (Stats structure),657.047
MAX Energy consumption [J] (Stats structure),657.047
MIN Energy consumption [J] (Stats structure),657.047
SUM Energy consumption [J] (Stats structure),657.047
# CALLTREE;init_1;Main-PWSCF_0;run-PWSCF_0;run-PWSCF-electrons_function_1;electrons-electrons_scf_function_0;c_bands_function_10
# Job info - HDEEM
JOB ID,17281896.2
Nodelist,taurusi5610
AVG Runtime of function [s],2.19421
MAX Runtime of function [s],2.19421
MIN Runtime of function [s],2.19421
# COUNTERS - HDEEM: 
AVG Energy consumption [J] (Stats structure),633.075
MAX Energy consumption [J] (Stats structure),633.075
MIN Energy consumption [J] (Stats structure),633.075
SUM Energy consumption [J] (Stats structure),633.075
# CALLTREE;init_1;Main-PWSCF_0;run-PWSCF_0;run-PWSCF-electrons_function_1;electrons-electrons_scf_function_0;c_bands_function_10
# Job info - HDEEM
JOB ID,17281896.2
Nodelist,taurusi5610
AVG Runtime of function [s],2.30154
MAX Runtime of function [s],2.30154
MIN Runtime of function [s],2.30154
# COUNTERS - HDEEM: 
AVG Energy consumption [J] (Stats structure),666.912
MAX Energy consumption [J] (Stats structure),666.912
MIN Energy consumption [J] (Stats structure),666.912
SUM Energy consumption [J] (Stats structure),666.912
# CALLTREE;init_1;Main-PWSCF_0;run-PWSCF_0;run-PWSCF-electrons_function_1;electrons-electrons_scf_function_0;c_bands_function_10
# Job info - HDEEM
JOB ID,17281896.2
Nodelist,taurusi5610
AVG Runtime of function [s],2.19514
MAX Runtime of function [s],2.19514
MIN Runtime of function [s],2.19514
# COUNTERS - HDEEM: 
AVG Energy consumption [J] (Stats structure),634.587
MAX Energy consumption [J] (Stats structure),634.587
MIN Energy consumption [J] (Stats structure),634.587
SUM Energy consumption [J] (Stats structure),634.587
# CALLTREE;init_1;Main-PWSCF_0;run-PWSCF_0;run-PWSCF-electrons_function_1;electrons-electrons_scf_function_0;c_bands_function_11
# Job info - HDEEM
JOB ID,17281896.2
Nodelist,taurusi5610
AVG Runtime of function [s],2.26215
MAX Runtime of function [s],2.26215
MIN Runtime of function [s],2.26215
# COUNTERS - HDEEM: 
AVG Energy consumption [J] (Stats structure),627.096
MAX Energy consumption [J] (Stats structure),627.096
MIN Energy consumption [J] (Stats structure),627.096
SUM Energy consumption [J] (Stats structure),627.096
# CALLTREE;init_1;Main-PWSCF_0;run-PWSCF_0;run-PWSCF-electrons_function_1;electrons-electrons_scf_function_0;c_bands_function_11
# Job info - HDEEM
JOB ID,17281896.2
Nodelist,taurusi5610
AVG Runtime of function [s],1.84054
MAX Runtime of function [s],1.84054
MIN Runtime of function [s],1.84054
# COUNTERS - HDEEM: 
AVG Energy consumption [J] (Stats structure),538.368
MAX Energy consumption [J] (Stats structure),538.368
MIN Energy consumption [J] (Stats structure),538.368
SUM Energy consumption [J] (Stats structure),538.368
# CALLTREE;init_1;Main-PWSCF_0;run-PWSCF_0;run-PWSCF-electrons_function_1;electrons-electrons_scf_function_0;c_bands_function_11
# Job info - HDEEM
JOB ID,17281896.2
Nodelist,taurusi5610
AVG Runtime of function [s],1.82769
MAX Runtime of function [s],1.82769
MIN Runtime of function [s],1.82769
# COUNTERS - HDEEM: 
AVG Energy consumption [J] (Stats structure),533.578
MAX Energy consumption [J] (Stats structure),533.578
MIN Energy consumption [J] (Stats structure),533.578
SUM Energy consumption [J] (Stats structure),533.578
# CALLTREE;init_1;Main-PWSCF_0;run-PWSCF_0;run-PWSCF-electrons_function_1;electrons-electrons_scf_function_0;c_bands_function_11
# Job info - HDEEM
JOB ID,17281896.2
Nodelist,taurusi5610
AVG Runtime of function [s],1.93563
MAX Runtime of function [s],1.93563
MIN Runtime of function [s],1.93563
# COUNTERS - HDEEM: 
AVG Energy consumption [J] (Stats structure),554.619
MAX Energy consumption [J] (Stats structure),554.619
MIN Energy consumption [J] (Stats structure),554.619
SUM Energy consumption [J] (Stats structure),554.619
# CALLTREE;init_1;Main-PWSCF_0;run-PWSCF_0;run-PWSCF-electrons_function_1;electrons-electrons_scf_function_0;c_bands_function_12
# Job info - HDEEM
JOB ID,17281896.2
Nodelist,taurusi5610
AVG Runtime of function [s],2.4654
MAX Runtime of function [s],2.4654
MIN Runtime of function [s],2.4654
# COUNTERS - HDEEM: 
AVG Energy consumption [J] (Stats structure),714.704
MAX Energy consumption [J] (Stats structure),714.704
MIN Energy consumption [J] (Stats structure),714.704
SUM Energy consumption [J] (Stats structure),714.704
# CALLTREE;init_1;Main-PWSCF_0;run-PWSCF_0;run-PWSCF-electrons_function_1;electrons-electrons_scf_function_0;c_bands_function_12
# Job info - HDEEM
JOB ID,17281896.2
Nodelist,taurusi5610
AVG Runtime of function [s],2.33706
MAX Runtime of function [s],2.33706
MIN Runtime of function [s],2.33706
# COUNTERS - HDEEM: 
AVG Energy consumption [J] (Stats structure),680.428
MAX Energy consumption [J] (Stats structure),680.428
MIN Energy consumption [J] (Stats structure),680.428
SUM Energy consumption [J] (Stats structure),680.428
# CALLTREE;init_1;Main-PWSCF_0;run-PWSCF_0;run-PWSCF-electrons_function_1;electrons-electrons_scf_function_0;c_bands_function_12
# Job info - HDEEM
JOB ID,17281896.2
Nodelist,taurusi5610
AVG Runtime of function [s],2.33446
MAX Runtime of function [s],2.33446
MIN Runtime of function [s],2.33446
# COUNTERS - HDEEM: 
AVG Energy consumption [J] (Stats structure),677.469
MAX Energy consumption [J] (Stats structure),677.469
MIN Energy consumption [J] (Stats structure),677.469
SUM Energy consumption [J] (Stats structure),677.469
# CALLTREE;init_1;Main-PWSCF_0;run-PWSCF_0;run-PWSCF-electrons_function_1;electrons-electrons_scf_function_0;c_bands_function_12
# Job info - HDEEM
JOB ID,17281896.2
Nodelist,taurusi5610
AVG Runtime of function [s],2.408
MAX Runtime of function [s],2.408
MIN Runtime of function [s],2.408
# COUNTERS - HDEEM: 
AVG Energy consumption [J] (Stats structure),700.889
MAX Energy consumption [J] (Stats structure),700.889
MIN Energy consumption [J] (Stats structure),700.889
SUM Energy consumption [J] (Stats structure),700.889
# CALLTREE;init_1;Main-PWSCF_0;run-PWSCF_0;run-PWSCF-electrons_function_1;electrons-electrons_scf_function_0;c_bands_function_13
# Job info - HDEEM
JOB ID,17281896.2
Nodelist,taurusi5610
AVG Runtime of function [s],2.05706
MAX Runtime of function [s],2.05706
MIN Runtime of function [s],2.05706
# COUNTERS - HDEEM: 
AVG Energy consumption [J] (Stats structure),605.984
MAX Energy consumption [J] (Stats structure),605.984
MIN Energy consumption [J] (Stats structure),605.984
SUM Energy consumption [J] (Stats structure),605.984
# CALLTREE;init_1;Main-PWSCF_0;run-PWSCF_0;run-PWSCF-electrons_function_1;electrons-electrons_scf_function_0;c_bands_function_13
# Job info - HDEEM
JOB ID,17281896.2
Nodelist,taurusi5610
AVG Runtime of function [s],2.35015
MAX Runtime of function [s],2.35015
MIN Runtime of function [s],2.35015
# COUNTERS - HDEEM: 
AVG Energy consumption [J] (Stats structure),678.908
MAX Energy consumption [J] (Stats structure),678.908
MIN Energy consumption [J] (Stats structure),678.908
SUM Energy consumption [J] (Stats structure),678.908
# CALLTREE;init_1;Main-PWSCF_0;run-PWSCF_0;run-PWSCF-electrons_function_1;electrons-electrons_scf_function_0;c_bands_function_13
# Job info - HDEEM
JOB ID,17281896.2
Nodelist,taurusi5610
AVG Runtime of function [s],2.33077
MAX Runtime of function [s],2.33077
MIN Runtime of function [s],2.33077
# COUNTERS - HDEEM: 
AVG Energy consumption [J] (Stats structure),676.559
MAX Energy consumption [J] (Stats structure),676.559
MIN Energy consumption [J] (Stats structure),676.559
SUM Energy consumption [J] (Stats structure),676.559
# CALLTREE;init_1;Main-PWSCF_0;run-PWSCF_0;run-PWSCF-electrons_function_1;electrons-electrons_scf_function_0;c_bands_function_13
# Job info - HDEEM
JOB ID,17281896.2
Nodelist,taurusi5610
AVG Runtime of function [s],2.2648
MAX Runtime of function [s],2.2648
MIN Runtime of function [s],2.2648
# COUNTERS - HDEEM: 
AVG Energy consumption [J] (Stats structure),658.791
MAX Energy consumption [J] (Stats structure),658.791
MIN Energy consumption [J] (Stats structure),658.791
SUM Energy consumption [J] (Stats structure),658.791
# CALLTREE;init_1;Main-PWSCF_0;run-PWSCF_0;run-PWSCF-electrons_function_1;electrons-electrons_scf_function_0;c_bands_function_14
# Job info - HDEEM
JOB ID,17281896.2
Nodelist,taurusi5610
AVG Runtime of function [s],1.50425
MAX Runtime of function [s],1.50425
MIN Runtime of function [s],1.50425
# COUNTERS - HDEEM: 
AVG Energy consumption [J] (Stats structure),442.642
MAX Energy consumption [J] (Stats structure),442.642
MIN Energy consumption [J] (Stats structure),442.642
SUM Energy consumption [J] (Stats structure),442.642
# CALLTREE;init_1;Main-PWSCF_0;run-PWSCF_0;run-PWSCF-electrons_function_1;electrons-electrons_scf_function_0;c_bands_function_14
# Job info - HDEEM
JOB ID,17281896.2
Nodelist,taurusi5610
AVG Runtime of function [s],1.46542
MAX Runtime of function [s],1.46542
MIN Runtime of function [s],1.46542
# COUNTERS - HDEEM: 
AVG Energy consumption [J] (Stats structure),433.926
MAX Energy consumption [J] (Stats structure),433.926
MIN Energy consumption [J] (Stats structure),433.926
SUM Energy consumption [J] (Stats structure),433.926
# CALLTREE;init_1;Main-PWSCF_0;run-PWSCF_0;run-PWSCF-electrons_function_1;electrons-electrons_scf_function_0;c_bands_function_14
# Job info - HDEEM
JOB ID,17281896.2
Nodelist,taurusi5610
AVG Runtime of function [s],1.47
MAX Runtime of function [s],1.47
MIN Runtime of function [s],1.47
# COUNTERS - HDEEM: 
AVG Energy consumption [J] (Stats structure),436.316
MAX Energy consumption [J] (Stats structure),436.316
MIN Energy consumption [J] (Stats structure),436.316
SUM Energy consumption [J] (Stats structure),436.316
# CALLTREE;init_1;Main-PWSCF_0;run-PWSCF_0;run-PWSCF-electrons_function_1;electrons-electrons_scf_function_0;c_bands_function_14
# Job info - HDEEM
JOB ID,17281896.2
Nodelist,taurusi5610
AVG Runtime of function [s],1.62923
MAX Runtime of function [s],1.62923
MIN Runtime of function [s],1.62923
# COUNTERS - HDEEM: 
AVG Energy consumption [J] (Stats structure),473.554
MAX Energy consumption [J] (Stats structure),473.554
MIN Energy consumption [J] (Stats structure),473.554
SUM Energy consumption [J] (Stats structure),473.554
# CALLTREE;init_1;Main-PWSCF_0;run-PWSCF_0;run-PWSCF-electrons_function_1;electrons-electrons_scf_function_0;c_bands_function_15
# Job info - HDEEM
JOB ID,17281896.2
Nodelist,taurusi5610
AVG Runtime of function [s],1.50721
MAX Runtime of function [s],1.50721
MIN Runtime of function [s],1.50721
# COUNTERS - HDEEM: 
AVG Energy consumption [J] (Stats structure),443.255
MAX Energy consumption [J] (Stats structure),443.255
MIN Energy consumption [J] (Stats structure),443.255
SUM Energy consumption [J] (Stats structure),443.255
# CALLTREE;init_1;Main-PWSCF_0;run-PWSCF_0;run-PWSCF-electrons_function_1;electrons-electrons_scf_function_0;c_bands_function_15
# Job info - HDEEM
JOB ID,17281896.2
Nodelist,taurusi5610
AVG Runtime of function [s],1.47192
MAX Runtime of function [s],1.47192
MIN Runtime of function [s],1.47192
# COUNTERS - HDEEM: 
AVG Energy consumption [J] (Stats structure),435.822
MAX Energy consumption [J] (Stats structure),435.822
MIN Energy consumption [J] (Stats structure),435.822
SUM Energy consumption [J] (Stats structure),435.822
# CALLTREE;init_1;Main-PWSCF_0;run-PWSCF_0;run-PWSCF-electrons_function_1;electrons-electrons_scf_function_0;c_bands_function_15
# Job info - HDEEM
JOB ID,17281896.2
Nodelist,taurusi5610
AVG Runtime of function [s],1.46814
MAX Runtime of function [s],1.46814
MIN Runtime of function [s],1.46814
# COUNTERS - HDEEM: 
AVG Energy consumption [J] (Stats structure),435.335
MAX Energy consumption [J] (Stats structure),435.335
MIN Energy consumption [J] (Stats structure),435.335
SUM Energy consumption [J] (Stats structure),435.335
# CALLTREE;init_1;Main-PWSCF_0;run-PWSCF_0;run-PWSCF-electrons_function_1;electrons-electrons_scf_function_0;c_bands_function_15
# Job info - HDEEM
JOB ID,17281896.2
Nodelist,taurusi5610
AVG Runtime of function [s],1.46892
MAX Runtime of function [s],1.46892
MIN Runtime of function [s],1.46892
# COUNTERS - HDEEM: 
AVG Energy consumption [J] (Stats structure),435.458
MAX Energy consumption [J] (Stats structure),435.458
MIN Energy consumption [J] (Stats structure),435.458
SUM Energy consumption [J] (Stats structure),435.458
