# CALLTREE;init_0;Main-PWSCF_0;run-PWSCF_0;run-PWSCF-electrons_function_1;electrons-electrons_scf_function_0;c_bands_function_0
# Job info - HDEEM
JOB ID,17281896.18
Nodelist,taurusi5610
AVG Runtime of function [s],4.29327
MAX Runtime of function [s],4.29327
MIN Runtime of function [s],4.29327
# COUNTERS - HDEEM: 
AVG Energy consumption [J] (Stats structure),750.919
MAX Energy consumption [J] (Stats structure),750.919
MIN Energy consumption [J] (Stats structure),750.919
SUM Energy consumption [J] (Stats structure),750.919
# CALLTREE;init_0;Main-PWSCF_0;run-PWSCF_0;run-PWSCF-electrons_function_1;electrons-electrons_scf_function_0;c_bands_function_0
# Job info - HDEEM
JOB ID,17281896.18
Nodelist,taurusi5610
AVG Runtime of function [s],4.2659
MAX Runtime of function [s],4.2659
MIN Runtime of function [s],4.2659
# COUNTERS - HDEEM: 
AVG Energy consumption [J] (Stats structure),749.927
MAX Energy consumption [J] (Stats structure),749.927
MIN Energy consumption [J] (Stats structure),749.927
SUM Energy consumption [J] (Stats structure),749.927
# CALLTREE;init_0;Main-PWSCF_0;run-PWSCF_0;run-PWSCF-electrons_function_1;electrons-electrons_scf_function_0;c_bands_function_0
# Job info - HDEEM
JOB ID,17281896.18
Nodelist,taurusi5610
AVG Runtime of function [s],4.29838
MAX Runtime of function [s],4.29838
MIN Runtime of function [s],4.29838
# COUNTERS - HDEEM: 
AVG Energy consumption [J] (Stats structure),757.002
MAX Energy consumption [J] (Stats structure),757.002
MIN Energy consumption [J] (Stats structure),757.002
SUM Energy consumption [J] (Stats structure),757.002
# CALLTREE;init_0;Main-PWSCF_0;run-PWSCF_0;run-PWSCF-electrons_function_1;electrons-electrons_scf_function_0;c_bands_function_0
# Job info - HDEEM
JOB ID,17281896.18
Nodelist,taurusi5610
AVG Runtime of function [s],4.29614
MAX Runtime of function [s],4.29614
MIN Runtime of function [s],4.29614
# COUNTERS - HDEEM: 
AVG Energy consumption [J] (Stats structure),756.501
MAX Energy consumption [J] (Stats structure),756.501
MIN Energy consumption [J] (Stats structure),756.501
SUM Energy consumption [J] (Stats structure),756.501
# CALLTREE;init_0;Main-PWSCF_0;run-PWSCF_0;run-PWSCF-electrons_function_1;electrons-electrons_scf_function_0;c_bands_function_1
# Job info - HDEEM
JOB ID,17281896.18
Nodelist,taurusi5610
AVG Runtime of function [s],2.75808
MAX Runtime of function [s],2.75808
MIN Runtime of function [s],2.75808
# COUNTERS - HDEEM: 
AVG Energy consumption [J] (Stats structure),485.093
MAX Energy consumption [J] (Stats structure),485.093
MIN Energy consumption [J] (Stats structure),485.093
SUM Energy consumption [J] (Stats structure),485.093
# CALLTREE;init_0;Main-PWSCF_0;run-PWSCF_0;run-PWSCF-electrons_function_1;electrons-electrons_scf_function_0;c_bands_function_1
# Job info - HDEEM
JOB ID,17281896.18
Nodelist,taurusi5610
AVG Runtime of function [s],2.88605
MAX Runtime of function [s],2.88605
MIN Runtime of function [s],2.88605
# COUNTERS - HDEEM: 
AVG Energy consumption [J] (Stats structure),504.987
MAX Energy consumption [J] (Stats structure),504.987
MIN Energy consumption [J] (Stats structure),504.987
SUM Energy consumption [J] (Stats structure),504.987
# CALLTREE;init_0;Main-PWSCF_0;run-PWSCF_0;run-PWSCF-electrons_function_1;electrons-electrons_scf_function_0;c_bands_function_1
# Job info - HDEEM
JOB ID,17281896.18
Nodelist,taurusi5610
AVG Runtime of function [s],2.45224
MAX Runtime of function [s],2.45224
MIN Runtime of function [s],2.45224
# COUNTERS - HDEEM: 
AVG Energy consumption [J] (Stats structure),437.174
MAX Energy consumption [J] (Stats structure),437.174
MIN Energy consumption [J] (Stats structure),437.174
SUM Energy consumption [J] (Stats structure),437.174
# CALLTREE;init_0;Main-PWSCF_0;run-PWSCF_0;run-PWSCF-electrons_function_1;electrons-electrons_scf_function_0;c_bands_function_1
# Job info - HDEEM
JOB ID,17281896.18
Nodelist,taurusi5610
AVG Runtime of function [s],2.46524
MAX Runtime of function [s],2.46524
MIN Runtime of function [s],2.46524
# COUNTERS - HDEEM: 
AVG Energy consumption [J] (Stats structure),439.39
MAX Energy consumption [J] (Stats structure),439.39
MIN Energy consumption [J] (Stats structure),439.39
SUM Energy consumption [J] (Stats structure),439.39
# CALLTREE;init_0;Main-PWSCF_0;run-PWSCF_0;run-PWSCF-electrons_function_1;electrons-electrons_scf_function_0;c_bands_function_2
# Job info - HDEEM
JOB ID,17281896.18
Nodelist,taurusi5610
AVG Runtime of function [s],2.58054
MAX Runtime of function [s],2.58054
MIN Runtime of function [s],2.58054
# COUNTERS - HDEEM: 
AVG Energy consumption [J] (Stats structure),456.098
MAX Energy consumption [J] (Stats structure),456.098
MIN Energy consumption [J] (Stats structure),456.098
SUM Energy consumption [J] (Stats structure),456.098
# CALLTREE;init_0;Main-PWSCF_0;run-PWSCF_0;run-PWSCF-electrons_function_1;electrons-electrons_scf_function_0;c_bands_function_2
# Job info - HDEEM
JOB ID,17281896.18
Nodelist,taurusi5610
AVG Runtime of function [s],2.4785
MAX Runtime of function [s],2.4785
MIN Runtime of function [s],2.4785
# COUNTERS - HDEEM: 
AVG Energy consumption [J] (Stats structure),441.016
MAX Energy consumption [J] (Stats structure),441.016
MIN Energy consumption [J] (Stats structure),441.016
SUM Energy consumption [J] (Stats structure),441.016
# CALLTREE;init_0;Main-PWSCF_0;run-PWSCF_0;run-PWSCF-electrons_function_1;electrons-electrons_scf_function_0;c_bands_function_2
# Job info - HDEEM
JOB ID,17281896.18
Nodelist,taurusi5610
AVG Runtime of function [s],2.48557
MAX Runtime of function [s],2.48557
MIN Runtime of function [s],2.48557
# COUNTERS - HDEEM: 
AVG Energy consumption [J] (Stats structure),442.426
MAX Energy consumption [J] (Stats structure),442.426
MIN Energy consumption [J] (Stats structure),442.426
SUM Energy consumption [J] (Stats structure),442.426
# CALLTREE;init_0;Main-PWSCF_0;run-PWSCF_0;run-PWSCF-electrons_function_1;electrons-electrons_scf_function_0;c_bands_function_2
# Job info - HDEEM
JOB ID,17281896.18
Nodelist,taurusi5610
AVG Runtime of function [s],2.4812
MAX Runtime of function [s],2.4812
MIN Runtime of function [s],2.4812
# COUNTERS - HDEEM: 
AVG Energy consumption [J] (Stats structure),441.882
MAX Energy consumption [J] (Stats structure),441.882
MIN Energy consumption [J] (Stats structure),441.882
SUM Energy consumption [J] (Stats structure),441.882
# CALLTREE;init_0;Main-PWSCF_0;run-PWSCF_0;run-PWSCF-electrons_function_1;electrons-electrons_scf_function_0;c_bands_function_3
# Job info - HDEEM
JOB ID,17281896.18
Nodelist,taurusi5610
AVG Runtime of function [s],5.49161
MAX Runtime of function [s],5.49161
MIN Runtime of function [s],5.49161
# COUNTERS - HDEEM: 
AVG Energy consumption [J] (Stats structure),932.513
MAX Energy consumption [J] (Stats structure),932.513
MIN Energy consumption [J] (Stats structure),932.513
SUM Energy consumption [J] (Stats structure),932.513
# CALLTREE;init_0;Main-PWSCF_0;run-PWSCF_0;run-PWSCF-electrons_function_1;electrons-electrons_scf_function_0;c_bands_function_3
# Job info - HDEEM
JOB ID,17281896.18
Nodelist,taurusi5610
AVG Runtime of function [s],6.40765
MAX Runtime of function [s],6.40765
MIN Runtime of function [s],6.40765
# COUNTERS - HDEEM: 
AVG Energy consumption [J] (Stats structure),1087.62
MAX Energy consumption [J] (Stats structure),1087.62
MIN Energy consumption [J] (Stats structure),1087.62
SUM Energy consumption [J] (Stats structure),1087.62
# CALLTREE;init_0;Main-PWSCF_0;run-PWSCF_0;run-PWSCF-electrons_function_1;electrons-electrons_scf_function_0;c_bands_function_3
# Job info - HDEEM
JOB ID,17281896.18
Nodelist,taurusi5610
AVG Runtime of function [s],8.07449
MAX Runtime of function [s],8.07449
MIN Runtime of function [s],8.07449
# COUNTERS - HDEEM: 
AVG Energy consumption [J] (Stats structure),1342.19
MAX Energy consumption [J] (Stats structure),1342.19
MIN Energy consumption [J] (Stats structure),1342.19
SUM Energy consumption [J] (Stats structure),1342.19
# CALLTREE;init_0;Main-PWSCF_0;run-PWSCF_0;run-PWSCF-electrons_function_1;electrons-electrons_scf_function_0;c_bands_function_3
# Job info - HDEEM
JOB ID,17281896.18
Nodelist,taurusi5610
AVG Runtime of function [s],6.72578
MAX Runtime of function [s],6.72578
MIN Runtime of function [s],6.72578
# COUNTERS - HDEEM: 
AVG Energy consumption [J] (Stats structure),1137.03
MAX Energy consumption [J] (Stats structure),1137.03
MIN Energy consumption [J] (Stats structure),1137.03
SUM Energy consumption [J] (Stats structure),1137.03
# CALLTREE;init_0;Main-PWSCF_0;run-PWSCF_0;run-PWSCF-electrons_function_1;electrons-electrons_scf_function_0;c_bands_function_4
# Job info - HDEEM
JOB ID,17281896.18
Nodelist,taurusi5610
AVG Runtime of function [s],6.45192
MAX Runtime of function [s],6.45192
MIN Runtime of function [s],6.45192
# COUNTERS - HDEEM: 
AVG Energy consumption [J] (Stats structure),1093.22
MAX Energy consumption [J] (Stats structure),1093.22
MIN Energy consumption [J] (Stats structure),1093.22
SUM Energy consumption [J] (Stats structure),1093.22
# CALLTREE;init_0;Main-PWSCF_0;run-PWSCF_0;run-PWSCF-electrons_function_1;electrons-electrons_scf_function_0;c_bands_function_4
# Job info - HDEEM
JOB ID,17281896.18
Nodelist,taurusi5610
AVG Runtime of function [s],6.80317
MAX Runtime of function [s],6.80317
MIN Runtime of function [s],6.80317
# COUNTERS - HDEEM: 
AVG Energy consumption [J] (Stats structure),1146.28
MAX Energy consumption [J] (Stats structure),1146.28
MIN Energy consumption [J] (Stats structure),1146.28
SUM Energy consumption [J] (Stats structure),1146.28
# CALLTREE;init_0;Main-PWSCF_0;run-PWSCF_0;run-PWSCF-electrons_function_1;electrons-electrons_scf_function_0;c_bands_function_4
# Job info - HDEEM
JOB ID,17281896.18
Nodelist,taurusi5610
AVG Runtime of function [s],6.70957
MAX Runtime of function [s],6.70957
MIN Runtime of function [s],6.70957
# COUNTERS - HDEEM: 
AVG Energy consumption [J] (Stats structure),1135.07
MAX Energy consumption [J] (Stats structure),1135.07
MIN Energy consumption [J] (Stats structure),1135.07
SUM Energy consumption [J] (Stats structure),1135.07
# CALLTREE;init_0;Main-PWSCF_0;run-PWSCF_0;run-PWSCF-electrons_function_1;electrons-electrons_scf_function_0;c_bands_function_4
# Job info - HDEEM
JOB ID,17281896.18
Nodelist,taurusi5610
AVG Runtime of function [s],4.61739
MAX Runtime of function [s],4.61739
MIN Runtime of function [s],4.61739
# COUNTERS - HDEEM: 
AVG Energy consumption [J] (Stats structure),805.593
MAX Energy consumption [J] (Stats structure),805.593
MIN Energy consumption [J] (Stats structure),805.593
SUM Energy consumption [J] (Stats structure),805.593
# CALLTREE;init_0;Main-PWSCF_0;run-PWSCF_0;run-PWSCF-electrons_function_1;electrons-electrons_scf_function_0;c_bands_function_5
# Job info - HDEEM
JOB ID,17281896.18
Nodelist,taurusi5610
AVG Runtime of function [s],3.72225
MAX Runtime of function [s],3.72225
MIN Runtime of function [s],3.72225
# COUNTERS - HDEEM: 
AVG Energy consumption [J] (Stats structure),649.254
MAX Energy consumption [J] (Stats structure),649.254
MIN Energy consumption [J] (Stats structure),649.254
SUM Energy consumption [J] (Stats structure),649.254
# CALLTREE;init_0;Main-PWSCF_0;run-PWSCF_0;run-PWSCF-electrons_function_1;electrons-electrons_scf_function_0;c_bands_function_5
# Job info - HDEEM
JOB ID,17281896.18
Nodelist,taurusi5610
AVG Runtime of function [s],5.81025
MAX Runtime of function [s],5.81025
MIN Runtime of function [s],5.81025
# COUNTERS - HDEEM: 
AVG Energy consumption [J] (Stats structure),978.518
MAX Energy consumption [J] (Stats structure),978.518
MIN Energy consumption [J] (Stats structure),978.518
SUM Energy consumption [J] (Stats structure),978.518
# CALLTREE;init_0;Main-PWSCF_0;run-PWSCF_0;run-PWSCF-electrons_function_1;electrons-electrons_scf_function_0;c_bands_function_5
# Job info - HDEEM
JOB ID,17281896.18
Nodelist,taurusi5610
AVG Runtime of function [s],5.67662
MAX Runtime of function [s],5.67662
MIN Runtime of function [s],5.67662
# COUNTERS - HDEEM: 
AVG Energy consumption [J] (Stats structure),957.258
MAX Energy consumption [J] (Stats structure),957.258
MIN Energy consumption [J] (Stats structure),957.258
SUM Energy consumption [J] (Stats structure),957.258
# CALLTREE;init_0;Main-PWSCF_0;run-PWSCF_0;run-PWSCF-electrons_function_1;electrons-electrons_scf_function_0;c_bands_function_5
# Job info - HDEEM
JOB ID,17281896.18
Nodelist,taurusi5610
AVG Runtime of function [s],4.02714
MAX Runtime of function [s],4.02714
MIN Runtime of function [s],4.02714
# COUNTERS - HDEEM: 
AVG Energy consumption [J] (Stats structure),700.156
MAX Energy consumption [J] (Stats structure),700.156
MIN Energy consumption [J] (Stats structure),700.156
SUM Energy consumption [J] (Stats structure),700.156
# CALLTREE;init_0;Main-PWSCF_0;run-PWSCF_0;run-PWSCF-electrons_function_1;electrons-electrons_scf_function_0;c_bands_function_6
# Job info - HDEEM
JOB ID,17281896.18
Nodelist,taurusi5610
AVG Runtime of function [s],3.6159
MAX Runtime of function [s],3.6159
MIN Runtime of function [s],3.6159
# COUNTERS - HDEEM: 
AVG Energy consumption [J] (Stats structure),631.064
MAX Energy consumption [J] (Stats structure),631.064
MIN Energy consumption [J] (Stats structure),631.064
SUM Energy consumption [J] (Stats structure),631.064
# CALLTREE;init_0;Main-PWSCF_0;run-PWSCF_0;run-PWSCF-electrons_function_1;electrons-electrons_scf_function_0;c_bands_function_6
# Job info - HDEEM
JOB ID,17281896.18
Nodelist,taurusi5610
AVG Runtime of function [s],3.5971
MAX Runtime of function [s],3.5971
MIN Runtime of function [s],3.5971
# COUNTERS - HDEEM: 
AVG Energy consumption [J] (Stats structure),630.195
MAX Energy consumption [J] (Stats structure),630.195
MIN Energy consumption [J] (Stats structure),630.195
SUM Energy consumption [J] (Stats structure),630.195
# CALLTREE;init_0;Main-PWSCF_0;run-PWSCF_0;run-PWSCF-electrons_function_1;electrons-electrons_scf_function_0;c_bands_function_6
# Job info - HDEEM
JOB ID,17281896.18
Nodelist,taurusi5610
AVG Runtime of function [s],3.64275
MAX Runtime of function [s],3.64275
MIN Runtime of function [s],3.64275
# COUNTERS - HDEEM: 
AVG Energy consumption [J] (Stats structure),638.041
MAX Energy consumption [J] (Stats structure),638.041
MIN Energy consumption [J] (Stats structure),638.041
SUM Energy consumption [J] (Stats structure),638.041
# CALLTREE;init_0;Main-PWSCF_0;run-PWSCF_0;run-PWSCF-electrons_function_1;electrons-electrons_scf_function_0;c_bands_function_6
# Job info - HDEEM
JOB ID,17281896.18
Nodelist,taurusi5610
AVG Runtime of function [s],3.32001
MAX Runtime of function [s],3.32001
MIN Runtime of function [s],3.32001
# COUNTERS - HDEEM: 
AVG Energy consumption [J] (Stats structure),587.829
MAX Energy consumption [J] (Stats structure),587.829
MIN Energy consumption [J] (Stats structure),587.829
SUM Energy consumption [J] (Stats structure),587.829
# CALLTREE;init_0;Main-PWSCF_0;run-PWSCF_0;run-PWSCF-electrons_function_1;electrons-electrons_scf_function_0;c_bands_function_7
# Job info - HDEEM
JOB ID,17281896.18
Nodelist,taurusi5610
AVG Runtime of function [s],3.88935
MAX Runtime of function [s],3.88935
MIN Runtime of function [s],3.88935
# COUNTERS - HDEEM: 
AVG Energy consumption [J] (Stats structure),682.994
MAX Energy consumption [J] (Stats structure),682.994
MIN Energy consumption [J] (Stats structure),682.994
SUM Energy consumption [J] (Stats structure),682.994
# CALLTREE;init_0;Main-PWSCF_0;run-PWSCF_0;run-PWSCF-electrons_function_1;electrons-electrons_scf_function_0;c_bands_function_7
# Job info - HDEEM
JOB ID,17281896.18
Nodelist,taurusi5610
AVG Runtime of function [s],3.87164
MAX Runtime of function [s],3.87164
MIN Runtime of function [s],3.87164
# COUNTERS - HDEEM: 
AVG Energy consumption [J] (Stats structure),680.02
MAX Energy consumption [J] (Stats structure),680.02
MIN Energy consumption [J] (Stats structure),680.02
SUM Energy consumption [J] (Stats structure),680.02
# CALLTREE;init_0;Main-PWSCF_0;run-PWSCF_0;run-PWSCF-electrons_function_1;electrons-electrons_scf_function_0;c_bands_function_7
# Job info - HDEEM
JOB ID,17281896.18
Nodelist,taurusi5610
AVG Runtime of function [s],3.85073
MAX Runtime of function [s],3.85073
MIN Runtime of function [s],3.85073
# COUNTERS - HDEEM: 
AVG Energy consumption [J] (Stats structure),678.649
MAX Energy consumption [J] (Stats structure),678.649
MIN Energy consumption [J] (Stats structure),678.649
SUM Energy consumption [J] (Stats structure),678.649
# CALLTREE;init_0;Main-PWSCF_0;run-PWSCF_0;run-PWSCF-electrons_function_1;electrons-electrons_scf_function_0;c_bands_function_7
# Job info - HDEEM
JOB ID,17281896.18
Nodelist,taurusi5610
AVG Runtime of function [s],4.061
MAX Runtime of function [s],4.061
MIN Runtime of function [s],4.061
# COUNTERS - HDEEM: 
AVG Energy consumption [J] (Stats structure),716.031
MAX Energy consumption [J] (Stats structure),716.031
MIN Energy consumption [J] (Stats structure),716.031
SUM Energy consumption [J] (Stats structure),716.031
# CALLTREE;init_0;Main-PWSCF_0;run-PWSCF_0;run-PWSCF-electrons_function_1;electrons-electrons_scf_function_0;c_bands_function_8
# Job info - HDEEM
JOB ID,17281896.18
Nodelist,taurusi5610
AVG Runtime of function [s],3.91181
MAX Runtime of function [s],3.91181
MIN Runtime of function [s],3.91181
# COUNTERS - HDEEM: 
AVG Energy consumption [J] (Stats structure),687.914
MAX Energy consumption [J] (Stats structure),687.914
MIN Energy consumption [J] (Stats structure),687.914
SUM Energy consumption [J] (Stats structure),687.914
# CALLTREE;init_0;Main-PWSCF_0;run-PWSCF_0;run-PWSCF-electrons_function_1;electrons-electrons_scf_function_0;c_bands_function_8
# Job info - HDEEM
JOB ID,17281896.18
Nodelist,taurusi5610
AVG Runtime of function [s],3.95965
MAX Runtime of function [s],3.95965
MIN Runtime of function [s],3.95965
# COUNTERS - HDEEM: 
AVG Energy consumption [J] (Stats structure),697.339
MAX Energy consumption [J] (Stats structure),697.339
MIN Energy consumption [J] (Stats structure),697.339
SUM Energy consumption [J] (Stats structure),697.339
# CALLTREE;init_0;Main-PWSCF_0;run-PWSCF_0;run-PWSCF-electrons_function_1;electrons-electrons_scf_function_0;c_bands_function_8
# Job info - HDEEM
JOB ID,17281896.18
Nodelist,taurusi5610
AVG Runtime of function [s],3.95822
MAX Runtime of function [s],3.95822
MIN Runtime of function [s],3.95822
# COUNTERS - HDEEM: 
AVG Energy consumption [J] (Stats structure),697.507
MAX Energy consumption [J] (Stats structure),697.507
MIN Energy consumption [J] (Stats structure),697.507
SUM Energy consumption [J] (Stats structure),697.507
# CALLTREE;init_0;Main-PWSCF_0;run-PWSCF_0;run-PWSCF-electrons_function_1;electrons-electrons_scf_function_0;c_bands_function_8
# Job info - HDEEM
JOB ID,17281896.18
Nodelist,taurusi5610
AVG Runtime of function [s],3.7348
MAX Runtime of function [s],3.7348
MIN Runtime of function [s],3.7348
# COUNTERS - HDEEM: 
AVG Energy consumption [J] (Stats structure),658.668
MAX Energy consumption [J] (Stats structure),658.668
MIN Energy consumption [J] (Stats structure),658.668
SUM Energy consumption [J] (Stats structure),658.668
# CALLTREE;init_0;Main-PWSCF_0;run-PWSCF_0;run-PWSCF-electrons_function_1;electrons-electrons_scf_function_0;c_bands_function_9
# Job info - HDEEM
JOB ID,17281896.18
Nodelist,taurusi5610
AVG Runtime of function [s],3.78578
MAX Runtime of function [s],3.78578
MIN Runtime of function [s],3.78578
# COUNTERS - HDEEM: 
AVG Energy consumption [J] (Stats structure),665.644
MAX Energy consumption [J] (Stats structure),665.644
MIN Energy consumption [J] (Stats structure),665.644
SUM Energy consumption [J] (Stats structure),665.644
# CALLTREE;init_0;Main-PWSCF_0;run-PWSCF_0;run-PWSCF-electrons_function_1;electrons-electrons_scf_function_0;c_bands_function_9
# Job info - HDEEM
JOB ID,17281896.18
Nodelist,taurusi5610
AVG Runtime of function [s],3.74919
MAX Runtime of function [s],3.74919
MIN Runtime of function [s],3.74919
# COUNTERS - HDEEM: 
AVG Energy consumption [J] (Stats structure),660.331
MAX Energy consumption [J] (Stats structure),660.331
MIN Energy consumption [J] (Stats structure),660.331
SUM Energy consumption [J] (Stats structure),660.331
# CALLTREE;init_0;Main-PWSCF_0;run-PWSCF_0;run-PWSCF-electrons_function_1;electrons-electrons_scf_function_0;c_bands_function_9
# Job info - HDEEM
JOB ID,17281896.18
Nodelist,taurusi5610
AVG Runtime of function [s],3.73353
MAX Runtime of function [s],3.73353
MIN Runtime of function [s],3.73353
# COUNTERS - HDEEM: 
AVG Energy consumption [J] (Stats structure),658.106
MAX Energy consumption [J] (Stats structure),658.106
MIN Energy consumption [J] (Stats structure),658.106
SUM Energy consumption [J] (Stats structure),658.106
# CALLTREE;init_0;Main-PWSCF_0;run-PWSCF_0;run-PWSCF-electrons_function_1;electrons-electrons_scf_function_0;c_bands_function_9
# Job info - HDEEM
JOB ID,17281896.18
Nodelist,taurusi5610
AVG Runtime of function [s],3.71006
MAX Runtime of function [s],3.71006
MIN Runtime of function [s],3.71006
# COUNTERS - HDEEM: 
AVG Energy consumption [J] (Stats structure),654.283
MAX Energy consumption [J] (Stats structure),654.283
MIN Energy consumption [J] (Stats structure),654.283
SUM Energy consumption [J] (Stats structure),654.283
# CALLTREE;init_0;Main-PWSCF_0;run-PWSCF_0;run-PWSCF-electrons_function_1;electrons-electrons_scf_function_0;c_bands_function_10
# Job info - HDEEM
JOB ID,17281896.18
Nodelist,taurusi5610
AVG Runtime of function [s],3.79821
MAX Runtime of function [s],3.79821
MIN Runtime of function [s],3.79821
# COUNTERS - HDEEM: 
AVG Energy consumption [J] (Stats structure),667.766
MAX Energy consumption [J] (Stats structure),667.766
MIN Energy consumption [J] (Stats structure),667.766
SUM Energy consumption [J] (Stats structure),667.766
# CALLTREE;init_0;Main-PWSCF_0;run-PWSCF_0;run-PWSCF-electrons_function_1;electrons-electrons_scf_function_0;c_bands_function_10
# Job info - HDEEM
JOB ID,17281896.18
Nodelist,taurusi5610
AVG Runtime of function [s],3.6805
MAX Runtime of function [s],3.6805
MIN Runtime of function [s],3.6805
# COUNTERS - HDEEM: 
AVG Energy consumption [J] (Stats structure),644.936
MAX Energy consumption [J] (Stats structure),644.936
MIN Energy consumption [J] (Stats structure),644.936
SUM Energy consumption [J] (Stats structure),644.936
# CALLTREE;init_0;Main-PWSCF_0;run-PWSCF_0;run-PWSCF-electrons_function_1;electrons-electrons_scf_function_0;c_bands_function_10
# Job info - HDEEM
JOB ID,17281896.18
Nodelist,taurusi5610
AVG Runtime of function [s],3.88513
MAX Runtime of function [s],3.88513
MIN Runtime of function [s],3.88513
# COUNTERS - HDEEM: 
AVG Energy consumption [J] (Stats structure),683.26
MAX Energy consumption [J] (Stats structure),683.26
MIN Energy consumption [J] (Stats structure),683.26
SUM Energy consumption [J] (Stats structure),683.26
# CALLTREE;init_0;Main-PWSCF_0;run-PWSCF_0;run-PWSCF-electrons_function_1;electrons-electrons_scf_function_0;c_bands_function_10
# Job info - HDEEM
JOB ID,17281896.18
Nodelist,taurusi5610
AVG Runtime of function [s],3.64867
MAX Runtime of function [s],3.64867
MIN Runtime of function [s],3.64867
# COUNTERS - HDEEM: 
AVG Energy consumption [J] (Stats structure),641.116
MAX Energy consumption [J] (Stats structure),641.116
MIN Energy consumption [J] (Stats structure),641.116
SUM Energy consumption [J] (Stats structure),641.116
# CALLTREE;init_0;Main-PWSCF_0;run-PWSCF_0;run-PWSCF-electrons_function_1;electrons-electrons_scf_function_0;c_bands_function_11
# Job info - HDEEM
JOB ID,17281896.18
Nodelist,taurusi5610
AVG Runtime of function [s],3.30009
MAX Runtime of function [s],3.30009
MIN Runtime of function [s],3.30009
# COUNTERS - HDEEM: 
AVG Energy consumption [J] (Stats structure),575.973
MAX Energy consumption [J] (Stats structure),575.973
MIN Energy consumption [J] (Stats structure),575.973
SUM Energy consumption [J] (Stats structure),575.973
# CALLTREE;init_0;Main-PWSCF_0;run-PWSCF_0;run-PWSCF-electrons_function_1;electrons-electrons_scf_function_0;c_bands_function_11
# Job info - HDEEM
JOB ID,17281896.18
Nodelist,taurusi5610
AVG Runtime of function [s],3.09563
MAX Runtime of function [s],3.09563
MIN Runtime of function [s],3.09563
# COUNTERS - HDEEM: 
AVG Energy consumption [J] (Stats structure),546.605
MAX Energy consumption [J] (Stats structure),546.605
MIN Energy consumption [J] (Stats structure),546.605
SUM Energy consumption [J] (Stats structure),546.605
# CALLTREE;init_0;Main-PWSCF_0;run-PWSCF_0;run-PWSCF-electrons_function_1;electrons-electrons_scf_function_0;c_bands_function_11
# Job info - HDEEM
JOB ID,17281896.18
Nodelist,taurusi5610
AVG Runtime of function [s],3.07529
MAX Runtime of function [s],3.07529
MIN Runtime of function [s],3.07529
# COUNTERS - HDEEM: 
AVG Energy consumption [J] (Stats structure),542.582
MAX Energy consumption [J] (Stats structure),542.582
MIN Energy consumption [J] (Stats structure),542.582
SUM Energy consumption [J] (Stats structure),542.582
# CALLTREE;init_0;Main-PWSCF_0;run-PWSCF_0;run-PWSCF-electrons_function_1;electrons-electrons_scf_function_0;c_bands_function_11
# Job info - HDEEM
JOB ID,17281896.18
Nodelist,taurusi5610
AVG Runtime of function [s],3.1862
MAX Runtime of function [s],3.1862
MIN Runtime of function [s],3.1862
# COUNTERS - HDEEM: 
AVG Energy consumption [J] (Stats structure),558.458
MAX Energy consumption [J] (Stats structure),558.458
MIN Energy consumption [J] (Stats structure),558.458
SUM Energy consumption [J] (Stats structure),558.458
# CALLTREE;init_0;Main-PWSCF_0;run-PWSCF_0;run-PWSCF-electrons_function_1;electrons-electrons_scf_function_0;c_bands_function_12
# Job info - HDEEM
JOB ID,17281896.18
Nodelist,taurusi5610
AVG Runtime of function [s],4.14171
MAX Runtime of function [s],4.14171
MIN Runtime of function [s],4.14171
# COUNTERS - HDEEM: 
AVG Energy consumption [J] (Stats structure),728.539
MAX Energy consumption [J] (Stats structure),728.539
MIN Energy consumption [J] (Stats structure),728.539
SUM Energy consumption [J] (Stats structure),728.539
# CALLTREE;init_0;Main-PWSCF_0;run-PWSCF_0;run-PWSCF-electrons_function_1;electrons-electrons_scf_function_0;c_bands_function_12
# Job info - HDEEM
JOB ID,17281896.18
Nodelist,taurusi5610
AVG Runtime of function [s],3.92988
MAX Runtime of function [s],3.92988
MIN Runtime of function [s],3.92988
# COUNTERS - HDEEM: 
AVG Energy consumption [J] (Stats structure),692.596
MAX Energy consumption [J] (Stats structure),692.596
MIN Energy consumption [J] (Stats structure),692.596
SUM Energy consumption [J] (Stats structure),692.596
# CALLTREE;init_0;Main-PWSCF_0;run-PWSCF_0;run-PWSCF-electrons_function_1;electrons-electrons_scf_function_0;c_bands_function_12
# Job info - HDEEM
JOB ID,17281896.18
Nodelist,taurusi5610
AVG Runtime of function [s],3.887
MAX Runtime of function [s],3.887
MIN Runtime of function [s],3.887
# COUNTERS - HDEEM: 
AVG Energy consumption [J] (Stats structure),685.207
MAX Energy consumption [J] (Stats structure),685.207
MIN Energy consumption [J] (Stats structure),685.207
SUM Energy consumption [J] (Stats structure),685.207
# CALLTREE;init_0;Main-PWSCF_0;run-PWSCF_0;run-PWSCF-electrons_function_1;electrons-electrons_scf_function_0;c_bands_function_12
# Job info - HDEEM
JOB ID,17281896.18
Nodelist,taurusi5610
AVG Runtime of function [s],4.01294
MAX Runtime of function [s],4.01294
MIN Runtime of function [s],4.01294
# COUNTERS - HDEEM: 
AVG Energy consumption [J] (Stats structure),708.682
MAX Energy consumption [J] (Stats structure),708.682
MIN Energy consumption [J] (Stats structure),708.682
SUM Energy consumption [J] (Stats structure),708.682
# CALLTREE;init_0;Main-PWSCF_0;run-PWSCF_0;run-PWSCF-electrons_function_1;electrons-electrons_scf_function_0;c_bands_function_13
# Job info - HDEEM
JOB ID,17281896.18
Nodelist,taurusi5610
AVG Runtime of function [s],3.46751
MAX Runtime of function [s],3.46751
MIN Runtime of function [s],3.46751
# COUNTERS - HDEEM: 
AVG Energy consumption [J] (Stats structure),615.579
MAX Energy consumption [J] (Stats structure),615.579
MIN Energy consumption [J] (Stats structure),615.579
SUM Energy consumption [J] (Stats structure),615.579
# CALLTREE;init_0;Main-PWSCF_0;run-PWSCF_0;run-PWSCF-electrons_function_1;electrons-electrons_scf_function_0;c_bands_function_13
# Job info - HDEEM
JOB ID,17281896.18
Nodelist,taurusi5610
AVG Runtime of function [s],3.85668
MAX Runtime of function [s],3.85668
MIN Runtime of function [s],3.85668
# COUNTERS - HDEEM: 
AVG Energy consumption [J] (Stats structure),679.62
MAX Energy consumption [J] (Stats structure),679.62
MIN Energy consumption [J] (Stats structure),679.62
SUM Energy consumption [J] (Stats structure),679.62
# CALLTREE;init_0;Main-PWSCF_0;run-PWSCF_0;run-PWSCF-electrons_function_1;electrons-electrons_scf_function_0;c_bands_function_13
# Job info - HDEEM
JOB ID,17281896.18
Nodelist,taurusi5610
AVG Runtime of function [s],3.8895
MAX Runtime of function [s],3.8895
MIN Runtime of function [s],3.8895
# COUNTERS - HDEEM: 
AVG Energy consumption [J] (Stats structure),685.585
MAX Energy consumption [J] (Stats structure),685.585
MIN Energy consumption [J] (Stats structure),685.585
SUM Energy consumption [J] (Stats structure),685.585
# CALLTREE;init_0;Main-PWSCF_0;run-PWSCF_0;run-PWSCF-electrons_function_1;electrons-electrons_scf_function_0;c_bands_function_13
# Job info - HDEEM
JOB ID,17281896.18
Nodelist,taurusi5610
AVG Runtime of function [s],3.81945
MAX Runtime of function [s],3.81945
MIN Runtime of function [s],3.81945
# COUNTERS - HDEEM: 
AVG Energy consumption [J] (Stats structure),673.046
MAX Energy consumption [J] (Stats structure),673.046
MIN Energy consumption [J] (Stats structure),673.046
SUM Energy consumption [J] (Stats structure),673.046
# CALLTREE;init_0;Main-PWSCF_0;run-PWSCF_0;run-PWSCF-electrons_function_1;electrons-electrons_scf_function_0;c_bands_function_14
# Job info - HDEEM
JOB ID,17281896.18
Nodelist,taurusi5610
AVG Runtime of function [s],2.55619
MAX Runtime of function [s],2.55619
MIN Runtime of function [s],2.55619
# COUNTERS - HDEEM: 
AVG Energy consumption [J] (Stats structure),452.845
MAX Energy consumption [J] (Stats structure),452.845
MIN Energy consumption [J] (Stats structure),452.845
SUM Energy consumption [J] (Stats structure),452.845
# CALLTREE;init_0;Main-PWSCF_0;run-PWSCF_0;run-PWSCF-electrons_function_1;electrons-electrons_scf_function_0;c_bands_function_14
# Job info - HDEEM
JOB ID,17281896.18
Nodelist,taurusi5610
AVG Runtime of function [s],2.47306
MAX Runtime of function [s],2.47306
MIN Runtime of function [s],2.47306
# COUNTERS - HDEEM: 
AVG Energy consumption [J] (Stats structure),440.53
MAX Energy consumption [J] (Stats structure),440.53
MIN Energy consumption [J] (Stats structure),440.53
SUM Energy consumption [J] (Stats structure),440.53
# CALLTREE;init_0;Main-PWSCF_0;run-PWSCF_0;run-PWSCF-electrons_function_1;electrons-electrons_scf_function_0;c_bands_function_14
# Job info - HDEEM
JOB ID,17281896.18
Nodelist,taurusi5610
AVG Runtime of function [s],2.47353
MAX Runtime of function [s],2.47353
MIN Runtime of function [s],2.47353
# COUNTERS - HDEEM: 
AVG Energy consumption [J] (Stats structure),440.878
MAX Energy consumption [J] (Stats structure),440.878
MIN Energy consumption [J] (Stats structure),440.878
SUM Energy consumption [J] (Stats structure),440.878
# CALLTREE;init_0;Main-PWSCF_0;run-PWSCF_0;run-PWSCF-electrons_function_1;electrons-electrons_scf_function_0;c_bands_function_14
# Job info - HDEEM
JOB ID,17281896.18
Nodelist,taurusi5610
AVG Runtime of function [s],2.69807
MAX Runtime of function [s],2.69807
MIN Runtime of function [s],2.69807
# COUNTERS - HDEEM: 
AVG Energy consumption [J] (Stats structure),476.716
MAX Energy consumption [J] (Stats structure),476.716
MIN Energy consumption [J] (Stats structure),476.716
SUM Energy consumption [J] (Stats structure),476.716
# CALLTREE;init_0;Main-PWSCF_0;run-PWSCF_0;run-PWSCF-electrons_function_1;electrons-electrons_scf_function_0;c_bands_function_15
# Job info - HDEEM
JOB ID,17281896.18
Nodelist,taurusi5610
AVG Runtime of function [s],2.55035
MAX Runtime of function [s],2.55035
MIN Runtime of function [s],2.55035
# COUNTERS - HDEEM: 
AVG Energy consumption [J] (Stats structure),451.88
MAX Energy consumption [J] (Stats structure),451.88
MIN Energy consumption [J] (Stats structure),451.88
SUM Energy consumption [J] (Stats structure),451.88
# CALLTREE;init_0;Main-PWSCF_0;run-PWSCF_0;run-PWSCF-electrons_function_1;electrons-electrons_scf_function_0;c_bands_function_15
# Job info - HDEEM
JOB ID,17281896.18
Nodelist,taurusi5610
AVG Runtime of function [s],2.4898
MAX Runtime of function [s],2.4898
MIN Runtime of function [s],2.4898
# COUNTERS - HDEEM: 
AVG Energy consumption [J] (Stats structure),442.848
MAX Energy consumption [J] (Stats structure),442.848
MIN Energy consumption [J] (Stats structure),442.848
SUM Energy consumption [J] (Stats structure),442.848
# CALLTREE;init_0;Main-PWSCF_0;run-PWSCF_0;run-PWSCF-electrons_function_1;electrons-electrons_scf_function_0;c_bands_function_15
# Job info - HDEEM
JOB ID,17281896.18
Nodelist,taurusi5610
AVG Runtime of function [s],2.47105
MAX Runtime of function [s],2.47105
MIN Runtime of function [s],2.47105
# COUNTERS - HDEEM: 
AVG Energy consumption [J] (Stats structure),440.623
MAX Energy consumption [J] (Stats structure),440.623
MIN Energy consumption [J] (Stats structure),440.623
SUM Energy consumption [J] (Stats structure),440.623
# CALLTREE;init_0;Main-PWSCF_0;run-PWSCF_0;run-PWSCF-electrons_function_1;electrons-electrons_scf_function_0;c_bands_function_15
# Job info - HDEEM
JOB ID,17281896.18
Nodelist,taurusi5610
AVG Runtime of function [s],2.47313
MAX Runtime of function [s],2.47313
MIN Runtime of function [s],2.47313
# COUNTERS - HDEEM: 
AVG Energy consumption [J] (Stats structure),440.778
MAX Energy consumption [J] (Stats structure),440.778
MIN Energy consumption [J] (Stats structure),440.778
SUM Energy consumption [J] (Stats structure),440.778
