# CALLTREE;init_0;Main-PWSCF_0;run-PWSCF_0;run-PWSCF-electrons_function_1;electrons-electrons_scf_function_0;c_bands_function_0
# Job info - HDEEM
JOB ID,17281823.0
Nodelist,taurusi5610
AVG Runtime of function [s],10.1088
MAX Runtime of function [s],10.1088
MIN Runtime of function [s],10.1088
# COUNTERS - HDEEM: 
AVG Energy consumption [J] (Stats structure),2517.12
MAX Energy consumption [J] (Stats structure),2517.12
MIN Energy consumption [J] (Stats structure),2517.12
SUM Energy consumption [J] (Stats structure),2517.12
# CALLTREE;init_0;Main-PWSCF_0;run-PWSCF_0;run-PWSCF-electrons_function_1;electrons-electrons_scf_function_0;c_bands_function_0
# Job info - HDEEM
JOB ID,17281823.0
Nodelist,taurusi5610
AVG Runtime of function [s],10.4017
MAX Runtime of function [s],10.4017
MIN Runtime of function [s],10.4017
# COUNTERS - HDEEM: 
AVG Energy consumption [J] (Stats structure),2593.47
MAX Energy consumption [J] (Stats structure),2593.47
MIN Energy consumption [J] (Stats structure),2593.47
SUM Energy consumption [J] (Stats structure),2593.47
# CALLTREE;init_0;Main-PWSCF_0;run-PWSCF_0;run-PWSCF-electrons_function_1;electrons-electrons_scf_function_0;c_bands_function_0
# Job info - HDEEM
JOB ID,17281823.0
Nodelist,taurusi5610
AVG Runtime of function [s],10.5609
MAX Runtime of function [s],10.5609
MIN Runtime of function [s],10.5609
# COUNTERS - HDEEM: 
AVG Energy consumption [J] (Stats structure),2635.83
MAX Energy consumption [J] (Stats structure),2635.83
MIN Energy consumption [J] (Stats structure),2635.83
SUM Energy consumption [J] (Stats structure),2635.83
# CALLTREE;init_0;Main-PWSCF_0;run-PWSCF_0;run-PWSCF-electrons_function_1;electrons-electrons_scf_function_0;c_bands_function_0
# Job info - HDEEM
JOB ID,17281823.0
Nodelist,taurusi5610
AVG Runtime of function [s],10.547
MAX Runtime of function [s],10.547
MIN Runtime of function [s],10.547
# COUNTERS - HDEEM: 
AVG Energy consumption [J] (Stats structure),2634.49
MAX Energy consumption [J] (Stats structure),2634.49
MIN Energy consumption [J] (Stats structure),2634.49
SUM Energy consumption [J] (Stats structure),2634.49
# CALLTREE;init_0;Main-PWSCF_0;run-PWSCF_0;run-PWSCF-electrons_function_1;electrons-electrons_scf_function_0;c_bands_function_1
# Job info - HDEEM
JOB ID,17281823.0
Nodelist,taurusi5610
AVG Runtime of function [s],6.94071
MAX Runtime of function [s],6.94071
MIN Runtime of function [s],6.94071
# COUNTERS - HDEEM: 
AVG Energy consumption [J] (Stats structure),1732.28
MAX Energy consumption [J] (Stats structure),1732.28
MIN Energy consumption [J] (Stats structure),1732.28
SUM Energy consumption [J] (Stats structure),1732.28
# CALLTREE;init_0;Main-PWSCF_0;run-PWSCF_0;run-PWSCF-electrons_function_1;electrons-electrons_scf_function_0;c_bands_function_1
# Job info - HDEEM
JOB ID,17281823.0
Nodelist,taurusi5610
AVG Runtime of function [s],6.9603
MAX Runtime of function [s],6.9603
MIN Runtime of function [s],6.9603
# COUNTERS - HDEEM: 
AVG Energy consumption [J] (Stats structure),1737.85
MAX Energy consumption [J] (Stats structure),1737.85
MIN Energy consumption [J] (Stats structure),1737.85
SUM Energy consumption [J] (Stats structure),1737.85
# CALLTREE;init_0;Main-PWSCF_0;run-PWSCF_0;run-PWSCF-electrons_function_1;electrons-electrons_scf_function_0;c_bands_function_1
# Job info - HDEEM
JOB ID,17281823.0
Nodelist,taurusi5610
AVG Runtime of function [s],6.62348
MAX Runtime of function [s],6.62348
MIN Runtime of function [s],6.62348
# COUNTERS - HDEEM: 
AVG Energy consumption [J] (Stats structure),1654.25
MAX Energy consumption [J] (Stats structure),1654.25
MIN Energy consumption [J] (Stats structure),1654.25
SUM Energy consumption [J] (Stats structure),1654.25
# CALLTREE;init_0;Main-PWSCF_0;run-PWSCF_0;run-PWSCF-electrons_function_1;electrons-electrons_scf_function_0;c_bands_function_1
# Job info - HDEEM
JOB ID,17281823.0
Nodelist,taurusi5610
AVG Runtime of function [s],6.64981
MAX Runtime of function [s],6.64981
MIN Runtime of function [s],6.64981
# COUNTERS - HDEEM: 
AVG Energy consumption [J] (Stats structure),1661.35
MAX Energy consumption [J] (Stats structure),1661.35
MIN Energy consumption [J] (Stats structure),1661.35
SUM Energy consumption [J] (Stats structure),1661.35
# CALLTREE;init_0;Main-PWSCF_0;run-PWSCF_0;run-PWSCF-electrons_function_1;electrons-electrons_scf_function_0;c_bands_function_2
# Job info - HDEEM
JOB ID,17281823.0
Nodelist,taurusi5610
AVG Runtime of function [s],6.67692
MAX Runtime of function [s],6.67692
MIN Runtime of function [s],6.67692
# COUNTERS - HDEEM: 
AVG Energy consumption [J] (Stats structure),1669.23
MAX Energy consumption [J] (Stats structure),1669.23
MIN Energy consumption [J] (Stats structure),1669.23
SUM Energy consumption [J] (Stats structure),1669.23
# CALLTREE;init_0;Main-PWSCF_0;run-PWSCF_0;run-PWSCF-electrons_function_1;electrons-electrons_scf_function_0;c_bands_function_2
# Job info - HDEEM
JOB ID,17281823.0
Nodelist,taurusi5610
AVG Runtime of function [s],6.64461
MAX Runtime of function [s],6.64461
MIN Runtime of function [s],6.64461
# COUNTERS - HDEEM: 
AVG Energy consumption [J] (Stats structure),1661.9
MAX Energy consumption [J] (Stats structure),1661.9
MIN Energy consumption [J] (Stats structure),1661.9
SUM Energy consumption [J] (Stats structure),1661.9
# CALLTREE;init_0;Main-PWSCF_0;run-PWSCF_0;run-PWSCF-electrons_function_1;electrons-electrons_scf_function_0;c_bands_function_2
# Job info - HDEEM
JOB ID,17281823.0
Nodelist,taurusi5610
AVG Runtime of function [s],6.64621
MAX Runtime of function [s],6.64621
MIN Runtime of function [s],6.64621
# COUNTERS - HDEEM: 
AVG Energy consumption [J] (Stats structure),1663.46
MAX Energy consumption [J] (Stats structure),1663.46
MIN Energy consumption [J] (Stats structure),1663.46
SUM Energy consumption [J] (Stats structure),1663.46
# CALLTREE;init_0;Main-PWSCF_0;run-PWSCF_0;run-PWSCF-electrons_function_1;electrons-electrons_scf_function_0;c_bands_function_2
# Job info - HDEEM
JOB ID,17281823.0
Nodelist,taurusi5610
AVG Runtime of function [s],6.64342
MAX Runtime of function [s],6.64342
MIN Runtime of function [s],6.64342
# COUNTERS - HDEEM: 
AVG Energy consumption [J] (Stats structure),1662.41
MAX Energy consumption [J] (Stats structure),1662.41
MIN Energy consumption [J] (Stats structure),1662.41
SUM Energy consumption [J] (Stats structure),1662.41
# CALLTREE;init_0;Main-PWSCF_0;run-PWSCF_0;run-PWSCF-electrons_function_1;electrons-electrons_scf_function_0;c_bands_function_3
# Job info - HDEEM
JOB ID,17281823.0
Nodelist,taurusi5610
AVG Runtime of function [s],10.5526
MAX Runtime of function [s],10.5526
MIN Runtime of function [s],10.5526
# COUNTERS - HDEEM: 
AVG Energy consumption [J] (Stats structure),2642.32
MAX Energy consumption [J] (Stats structure),2642.32
MIN Energy consumption [J] (Stats structure),2642.32
SUM Energy consumption [J] (Stats structure),2642.32
# CALLTREE;init_0;Main-PWSCF_0;run-PWSCF_0;run-PWSCF-electrons_function_1;electrons-electrons_scf_function_0;c_bands_function_3
# Job info - HDEEM
JOB ID,17281823.0
Nodelist,taurusi5610
AVG Runtime of function [s],12.3913
MAX Runtime of function [s],12.3913
MIN Runtime of function [s],12.3913
# COUNTERS - HDEEM: 
AVG Energy consumption [J] (Stats structure),3104.52
MAX Energy consumption [J] (Stats structure),3104.52
MIN Energy consumption [J] (Stats structure),3104.52
SUM Energy consumption [J] (Stats structure),3104.52
# CALLTREE;init_0;Main-PWSCF_0;run-PWSCF_0;run-PWSCF-electrons_function_1;electrons-electrons_scf_function_0;c_bands_function_3
# Job info - HDEEM
JOB ID,17281823.0
Nodelist,taurusi5610
AVG Runtime of function [s],13.3159
MAX Runtime of function [s],13.3159
MIN Runtime of function [s],13.3159
# COUNTERS - HDEEM: 
AVG Energy consumption [J] (Stats structure),3332.39
MAX Energy consumption [J] (Stats structure),3332.39
MIN Energy consumption [J] (Stats structure),3332.39
SUM Energy consumption [J] (Stats structure),3332.39
# CALLTREE;init_0;Main-PWSCF_0;run-PWSCF_0;run-PWSCF-electrons_function_1;electrons-electrons_scf_function_0;c_bands_function_3
# Job info - HDEEM
JOB ID,17281823.0
Nodelist,taurusi5610
AVG Runtime of function [s],12.6917
MAX Runtime of function [s],12.6917
MIN Runtime of function [s],12.6917
# COUNTERS - HDEEM: 
AVG Energy consumption [J] (Stats structure),3180.4
MAX Energy consumption [J] (Stats structure),3180.4
MIN Energy consumption [J] (Stats structure),3180.4
SUM Energy consumption [J] (Stats structure),3180.4
# CALLTREE;init_0;Main-PWSCF_0;run-PWSCF_0;run-PWSCF-electrons_function_1;electrons-electrons_scf_function_0;c_bands_function_4
# Job info - HDEEM
JOB ID,17281823.0
Nodelist,taurusi5610
AVG Runtime of function [s],12.4116
MAX Runtime of function [s],12.4116
MIN Runtime of function [s],12.4116
# COUNTERS - HDEEM: 
AVG Energy consumption [J] (Stats structure),3110.2
MAX Energy consumption [J] (Stats structure),3110.2
MIN Energy consumption [J] (Stats structure),3110.2
SUM Energy consumption [J] (Stats structure),3110.2
# CALLTREE;init_0;Main-PWSCF_0;run-PWSCF_0;run-PWSCF-electrons_function_1;electrons-electrons_scf_function_0;c_bands_function_4
# Job info - HDEEM
JOB ID,17281823.0
Nodelist,taurusi5610
AVG Runtime of function [s],12.5815
MAX Runtime of function [s],12.5815
MIN Runtime of function [s],12.5815
# COUNTERS - HDEEM: 
AVG Energy consumption [J] (Stats structure),3151.75
MAX Energy consumption [J] (Stats structure),3151.75
MIN Energy consumption [J] (Stats structure),3151.75
SUM Energy consumption [J] (Stats structure),3151.75
# CALLTREE;init_0;Main-PWSCF_0;run-PWSCF_0;run-PWSCF-electrons_function_1;electrons-electrons_scf_function_0;c_bands_function_4
# Job info - HDEEM
JOB ID,17281823.0
Nodelist,taurusi5610
AVG Runtime of function [s],12.7819
MAX Runtime of function [s],12.7819
MIN Runtime of function [s],12.7819
# COUNTERS - HDEEM: 
AVG Energy consumption [J] (Stats structure),3204
MAX Energy consumption [J] (Stats structure),3204
MIN Energy consumption [J] (Stats structure),3204
SUM Energy consumption [J] (Stats structure),3204
# CALLTREE;init_0;Main-PWSCF_0;run-PWSCF_0;run-PWSCF-electrons_function_1;electrons-electrons_scf_function_0;c_bands_function_4
# Job info - HDEEM
JOB ID,17281823.0
Nodelist,taurusi5610
AVG Runtime of function [s],10.7572
MAX Runtime of function [s],10.7572
MIN Runtime of function [s],10.7572
# COUNTERS - HDEEM: 
AVG Energy consumption [J] (Stats structure),2700.72
MAX Energy consumption [J] (Stats structure),2700.72
MIN Energy consumption [J] (Stats structure),2700.72
SUM Energy consumption [J] (Stats structure),2700.72
# CALLTREE;init_0;Main-PWSCF_0;run-PWSCF_0;run-PWSCF-electrons_function_1;electrons-electrons_scf_function_0;c_bands_function_5
# Job info - HDEEM
JOB ID,17281823.0
Nodelist,taurusi5610
AVG Runtime of function [s],8.91988
MAX Runtime of function [s],8.91988
MIN Runtime of function [s],8.91988
# COUNTERS - HDEEM: 
AVG Energy consumption [J] (Stats structure),2237.32
MAX Energy consumption [J] (Stats structure),2237.32
MIN Energy consumption [J] (Stats structure),2237.32
SUM Energy consumption [J] (Stats structure),2237.32
# CALLTREE;init_0;Main-PWSCF_0;run-PWSCF_0;run-PWSCF-electrons_function_1;electrons-electrons_scf_function_0;c_bands_function_5
# Job info - HDEEM
JOB ID,17281823.0
Nodelist,taurusi5610
AVG Runtime of function [s],10.8864
MAX Runtime of function [s],10.8864
MIN Runtime of function [s],10.8864
# COUNTERS - HDEEM: 
AVG Energy consumption [J] (Stats structure),2726.73
MAX Energy consumption [J] (Stats structure),2726.73
MIN Energy consumption [J] (Stats structure),2726.73
SUM Energy consumption [J] (Stats structure),2726.73
# CALLTREE;init_0;Main-PWSCF_0;run-PWSCF_0;run-PWSCF-electrons_function_1;electrons-electrons_scf_function_0;c_bands_function_5
# Job info - HDEEM
JOB ID,17281823.0
Nodelist,taurusi5610
AVG Runtime of function [s],10.6662
MAX Runtime of function [s],10.6662
MIN Runtime of function [s],10.6662
# COUNTERS - HDEEM: 
AVG Energy consumption [J] (Stats structure),2672.24
MAX Energy consumption [J] (Stats structure),2672.24
MIN Energy consumption [J] (Stats structure),2672.24
SUM Energy consumption [J] (Stats structure),2672.24
# CALLTREE;init_0;Main-PWSCF_0;run-PWSCF_0;run-PWSCF-electrons_function_1;electrons-electrons_scf_function_0;c_bands_function_5
# Job info - HDEEM
JOB ID,17281823.0
Nodelist,taurusi5610
AVG Runtime of function [s],9.35568
MAX Runtime of function [s],9.35568
MIN Runtime of function [s],9.35568
# COUNTERS - HDEEM: 
AVG Energy consumption [J] (Stats structure),2347.21
MAX Energy consumption [J] (Stats structure),2347.21
MIN Energy consumption [J] (Stats structure),2347.21
SUM Energy consumption [J] (Stats structure),2347.21
# CALLTREE;init_0;Main-PWSCF_0;run-PWSCF_0;run-PWSCF-electrons_function_1;electrons-electrons_scf_function_0;c_bands_function_6
# Job info - HDEEM
JOB ID,17281823.0
Nodelist,taurusi5610
AVG Runtime of function [s],8.64842
MAX Runtime of function [s],8.64842
MIN Runtime of function [s],8.64842
# COUNTERS - HDEEM: 
AVG Energy consumption [J] (Stats structure),2169.69
MAX Energy consumption [J] (Stats structure),2169.69
MIN Energy consumption [J] (Stats structure),2169.69
SUM Energy consumption [J] (Stats structure),2169.69
# CALLTREE;init_0;Main-PWSCF_0;run-PWSCF_0;run-PWSCF-electrons_function_1;electrons-electrons_scf_function_0;c_bands_function_6
# Job info - HDEEM
JOB ID,17281823.0
Nodelist,taurusi5610
AVG Runtime of function [s],8.79712
MAX Runtime of function [s],8.79712
MIN Runtime of function [s],8.79712
# COUNTERS - HDEEM: 
AVG Energy consumption [J] (Stats structure),2206.42
MAX Energy consumption [J] (Stats structure),2206.42
MIN Energy consumption [J] (Stats structure),2206.42
SUM Energy consumption [J] (Stats structure),2206.42
# CALLTREE;init_0;Main-PWSCF_0;run-PWSCF_0;run-PWSCF-electrons_function_1;electrons-electrons_scf_function_0;c_bands_function_6
# Job info - HDEEM
JOB ID,17281823.0
Nodelist,taurusi5610
AVG Runtime of function [s],8.87242
MAX Runtime of function [s],8.87242
MIN Runtime of function [s],8.87242
# COUNTERS - HDEEM: 
AVG Energy consumption [J] (Stats structure),2227.32
MAX Energy consumption [J] (Stats structure),2227.32
MIN Energy consumption [J] (Stats structure),2227.32
SUM Energy consumption [J] (Stats structure),2227.32
# CALLTREE;init_0;Main-PWSCF_0;run-PWSCF_0;run-PWSCF-electrons_function_1;electrons-electrons_scf_function_0;c_bands_function_6
# Job info - HDEEM
JOB ID,17281823.0
Nodelist,taurusi5610
AVG Runtime of function [s],8.58258
MAX Runtime of function [s],8.58258
MIN Runtime of function [s],8.58258
# COUNTERS - HDEEM: 
AVG Energy consumption [J] (Stats structure),2154.53
MAX Energy consumption [J] (Stats structure),2154.53
MIN Energy consumption [J] (Stats structure),2154.53
SUM Energy consumption [J] (Stats structure),2154.53
# CALLTREE;init_0;Main-PWSCF_0;run-PWSCF_0;run-PWSCF-electrons_function_1;electrons-electrons_scf_function_0;c_bands_function_7
# Job info - HDEEM
JOB ID,17281823.0
Nodelist,taurusi5610
AVG Runtime of function [s],9.36939
MAX Runtime of function [s],9.36939
MIN Runtime of function [s],9.36939
# COUNTERS - HDEEM: 
AVG Energy consumption [J] (Stats structure),2354.02
MAX Energy consumption [J] (Stats structure),2354.02
MIN Energy consumption [J] (Stats structure),2354.02
SUM Energy consumption [J] (Stats structure),2354.02
# CALLTREE;init_0;Main-PWSCF_0;run-PWSCF_0;run-PWSCF-electrons_function_1;electrons-electrons_scf_function_0;c_bands_function_7
# Job info - HDEEM
JOB ID,17281823.0
Nodelist,taurusi5610
AVG Runtime of function [s],9.29772
MAX Runtime of function [s],9.29772
MIN Runtime of function [s],9.29772
# COUNTERS - HDEEM: 
AVG Energy consumption [J] (Stats structure),2335.42
MAX Energy consumption [J] (Stats structure),2335.42
MIN Energy consumption [J] (Stats structure),2335.42
SUM Energy consumption [J] (Stats structure),2335.42
# CALLTREE;init_0;Main-PWSCF_0;run-PWSCF_0;run-PWSCF-electrons_function_1;electrons-electrons_scf_function_0;c_bands_function_7
# Job info - HDEEM
JOB ID,17281823.0
Nodelist,taurusi5610
AVG Runtime of function [s],9.45008
MAX Runtime of function [s],9.45008
MIN Runtime of function [s],9.45008
# COUNTERS - HDEEM: 
AVG Energy consumption [J] (Stats structure),2374.45
MAX Energy consumption [J] (Stats structure),2374.45
MIN Energy consumption [J] (Stats structure),2374.45
SUM Energy consumption [J] (Stats structure),2374.45
# CALLTREE;init_0;Main-PWSCF_0;run-PWSCF_0;run-PWSCF-electrons_function_1;electrons-electrons_scf_function_0;c_bands_function_7
# Job info - HDEEM
JOB ID,17281823.0
Nodelist,taurusi5610
AVG Runtime of function [s],9.99378
MAX Runtime of function [s],9.99378
MIN Runtime of function [s],9.99378
# COUNTERS - HDEEM: 
AVG Energy consumption [J] (Stats structure),2511.76
MAX Energy consumption [J] (Stats structure),2511.76
MIN Energy consumption [J] (Stats structure),2511.76
SUM Energy consumption [J] (Stats structure),2511.76
# CALLTREE;init_0;Main-PWSCF_0;run-PWSCF_0;run-PWSCF-electrons_function_1;electrons-electrons_scf_function_0;c_bands_function_8
# Job info - HDEEM
JOB ID,17281823.0
Nodelist,taurusi5610
AVG Runtime of function [s],9.49445
MAX Runtime of function [s],9.49445
MIN Runtime of function [s],9.49445
# COUNTERS - HDEEM: 
AVG Energy consumption [J] (Stats structure),2385.26
MAX Energy consumption [J] (Stats structure),2385.26
MIN Energy consumption [J] (Stats structure),2385.26
SUM Energy consumption [J] (Stats structure),2385.26
# CALLTREE;init_0;Main-PWSCF_0;run-PWSCF_0;run-PWSCF-electrons_function_1;electrons-electrons_scf_function_0;c_bands_function_8
# Job info - HDEEM
JOB ID,17281823.0
Nodelist,taurusi5610
AVG Runtime of function [s],9.74415
MAX Runtime of function [s],9.74415
MIN Runtime of function [s],9.74415
# COUNTERS - HDEEM: 
AVG Energy consumption [J] (Stats structure),2447.68
MAX Energy consumption [J] (Stats structure),2447.68
MIN Energy consumption [J] (Stats structure),2447.68
SUM Energy consumption [J] (Stats structure),2447.68
# CALLTREE;init_0;Main-PWSCF_0;run-PWSCF_0;run-PWSCF-electrons_function_1;electrons-electrons_scf_function_0;c_bands_function_8
# Job info - HDEEM
JOB ID,17281823.0
Nodelist,taurusi5610
AVG Runtime of function [s],9.71412
MAX Runtime of function [s],9.71412
MIN Runtime of function [s],9.71412
# COUNTERS - HDEEM: 
AVG Energy consumption [J] (Stats structure),2441.64
MAX Energy consumption [J] (Stats structure),2441.64
MIN Energy consumption [J] (Stats structure),2441.64
SUM Energy consumption [J] (Stats structure),2441.64
# CALLTREE;init_0;Main-PWSCF_0;run-PWSCF_0;run-PWSCF-electrons_function_1;electrons-electrons_scf_function_0;c_bands_function_8
# Job info - HDEEM
JOB ID,17281823.0
Nodelist,taurusi5610
AVG Runtime of function [s],9.15481
MAX Runtime of function [s],9.15481
MIN Runtime of function [s],9.15481
# COUNTERS - HDEEM: 
AVG Energy consumption [J] (Stats structure),2301.07
MAX Energy consumption [J] (Stats structure),2301.07
MIN Energy consumption [J] (Stats structure),2301.07
SUM Energy consumption [J] (Stats structure),2301.07
# CALLTREE;init_0;Main-PWSCF_0;run-PWSCF_0;run-PWSCF-electrons_function_1;electrons-electrons_scf_function_0;c_bands_function_9
# Job info - HDEEM
JOB ID,17281823.0
Nodelist,taurusi5610
AVG Runtime of function [s],9.14058
MAX Runtime of function [s],9.14058
MIN Runtime of function [s],9.14058
# COUNTERS - HDEEM: 
AVG Energy consumption [J] (Stats structure),2297.29
MAX Energy consumption [J] (Stats structure),2297.29
MIN Energy consumption [J] (Stats structure),2297.29
SUM Energy consumption [J] (Stats structure),2297.29
# CALLTREE;init_0;Main-PWSCF_0;run-PWSCF_0;run-PWSCF-electrons_function_1;electrons-electrons_scf_function_0;c_bands_function_9
# Job info - HDEEM
JOB ID,17281823.0
Nodelist,taurusi5610
AVG Runtime of function [s],9.1617
MAX Runtime of function [s],9.1617
MIN Runtime of function [s],9.1617
# COUNTERS - HDEEM: 
AVG Energy consumption [J] (Stats structure),2302.29
MAX Energy consumption [J] (Stats structure),2302.29
MIN Energy consumption [J] (Stats structure),2302.29
SUM Energy consumption [J] (Stats structure),2302.29
# CALLTREE;init_0;Main-PWSCF_0;run-PWSCF_0;run-PWSCF-electrons_function_1;electrons-electrons_scf_function_0;c_bands_function_9
# Job info - HDEEM
JOB ID,17281823.0
Nodelist,taurusi5610
AVG Runtime of function [s],9.14083
MAX Runtime of function [s],9.14083
MIN Runtime of function [s],9.14083
# COUNTERS - HDEEM: 
AVG Energy consumption [J] (Stats structure),2298.04
MAX Energy consumption [J] (Stats structure),2298.04
MIN Energy consumption [J] (Stats structure),2298.04
SUM Energy consumption [J] (Stats structure),2298.04
# CALLTREE;init_0;Main-PWSCF_0;run-PWSCF_0;run-PWSCF-electrons_function_1;electrons-electrons_scf_function_0;c_bands_function_9
# Job info - HDEEM
JOB ID,17281823.0
Nodelist,taurusi5610
AVG Runtime of function [s],9.06523
MAX Runtime of function [s],9.06523
MIN Runtime of function [s],9.06523
# COUNTERS - HDEEM: 
AVG Energy consumption [J] (Stats structure),2279.95
MAX Energy consumption [J] (Stats structure),2279.95
MIN Energy consumption [J] (Stats structure),2279.95
SUM Energy consumption [J] (Stats structure),2279.95
# CALLTREE;init_0;Main-PWSCF_0;run-PWSCF_0;run-PWSCF-electrons_function_1;electrons-electrons_scf_function_0;c_bands_function_10
# Job info - HDEEM
JOB ID,17281823.0
Nodelist,taurusi5610
AVG Runtime of function [s],9.17237
MAX Runtime of function [s],9.17237
MIN Runtime of function [s],9.17237
# COUNTERS - HDEEM: 
AVG Energy consumption [J] (Stats structure),2304.82
MAX Energy consumption [J] (Stats structure),2304.82
MIN Energy consumption [J] (Stats structure),2304.82
SUM Energy consumption [J] (Stats structure),2304.82
# CALLTREE;init_0;Main-PWSCF_0;run-PWSCF_0;run-PWSCF-electrons_function_1;electrons-electrons_scf_function_0;c_bands_function_10
# Job info - HDEEM
JOB ID,17281823.0
Nodelist,taurusi5610
AVG Runtime of function [s],8.95282
MAX Runtime of function [s],8.95282
MIN Runtime of function [s],8.95282
# COUNTERS - HDEEM: 
AVG Energy consumption [J] (Stats structure),2247.5
MAX Energy consumption [J] (Stats structure),2247.5
MIN Energy consumption [J] (Stats structure),2247.5
SUM Energy consumption [J] (Stats structure),2247.5
# CALLTREE;init_0;Main-PWSCF_0;run-PWSCF_0;run-PWSCF-electrons_function_1;electrons-electrons_scf_function_0;c_bands_function_10
# Job info - HDEEM
JOB ID,17281823.0
Nodelist,taurusi5610
AVG Runtime of function [s],9.36968
MAX Runtime of function [s],9.36968
MIN Runtime of function [s],9.36968
# COUNTERS - HDEEM: 
AVG Energy consumption [J] (Stats structure),2355.69
MAX Energy consumption [J] (Stats structure),2355.69
MIN Energy consumption [J] (Stats structure),2355.69
SUM Energy consumption [J] (Stats structure),2355.69
# CALLTREE;init_0;Main-PWSCF_0;run-PWSCF_0;run-PWSCF-electrons_function_1;electrons-electrons_scf_function_0;c_bands_function_10
# Job info - HDEEM
JOB ID,17281823.0
Nodelist,taurusi5610
AVG Runtime of function [s],8.96899
MAX Runtime of function [s],8.96899
MIN Runtime of function [s],8.96899
# COUNTERS - HDEEM: 
AVG Energy consumption [J] (Stats structure),2252.81
MAX Energy consumption [J] (Stats structure),2252.81
MIN Energy consumption [J] (Stats structure),2252.81
SUM Energy consumption [J] (Stats structure),2252.81
# CALLTREE;init_0;Main-PWSCF_0;run-PWSCF_0;run-PWSCF-electrons_function_1;electrons-electrons_scf_function_0;c_bands_function_11
# Job info - HDEEM
JOB ID,17281823.0
Nodelist,taurusi5610
AVG Runtime of function [s],8.03274
MAX Runtime of function [s],8.03274
MIN Runtime of function [s],8.03274
# COUNTERS - HDEEM: 
AVG Energy consumption [J] (Stats structure),2019.55
MAX Energy consumption [J] (Stats structure),2019.55
MIN Energy consumption [J] (Stats structure),2019.55
SUM Energy consumption [J] (Stats structure),2019.55
# CALLTREE;init_0;Main-PWSCF_0;run-PWSCF_0;run-PWSCF-electrons_function_1;electrons-electrons_scf_function_0;c_bands_function_11
# Job info - HDEEM
JOB ID,17281823.0
Nodelist,taurusi5610
AVG Runtime of function [s],8.0701
MAX Runtime of function [s],8.0701
MIN Runtime of function [s],8.0701
# COUNTERS - HDEEM: 
AVG Energy consumption [J] (Stats structure),2024.96
MAX Energy consumption [J] (Stats structure),2024.96
MIN Energy consumption [J] (Stats structure),2024.96
SUM Energy consumption [J] (Stats structure),2024.96
# CALLTREE;init_0;Main-PWSCF_0;run-PWSCF_0;run-PWSCF-electrons_function_1;electrons-electrons_scf_function_0;c_bands_function_11
# Job info - HDEEM
JOB ID,17281823.0
Nodelist,taurusi5610
AVG Runtime of function [s],8.04729
MAX Runtime of function [s],8.04729
MIN Runtime of function [s],8.04729
# COUNTERS - HDEEM: 
AVG Energy consumption [J] (Stats structure),2016.68
MAX Energy consumption [J] (Stats structure),2016.68
MIN Energy consumption [J] (Stats structure),2016.68
SUM Energy consumption [J] (Stats structure),2016.68
# CALLTREE;init_0;Main-PWSCF_0;run-PWSCF_0;run-PWSCF-electrons_function_1;electrons-electrons_scf_function_0;c_bands_function_11
# Job info - HDEEM
JOB ID,17281823.0
Nodelist,taurusi5610
AVG Runtime of function [s],7.77429
MAX Runtime of function [s],7.77429
MIN Runtime of function [s],7.77429
# COUNTERS - HDEEM: 
AVG Energy consumption [J] (Stats structure),1951.38
MAX Energy consumption [J] (Stats structure),1951.38
MIN Energy consumption [J] (Stats structure),1951.38
SUM Energy consumption [J] (Stats structure),1951.38
# CALLTREE;init_0;Main-PWSCF_0;run-PWSCF_0;run-PWSCF-electrons_function_1;electrons-electrons_scf_function_0;c_bands_function_12
# Job info - HDEEM
JOB ID,17281823.0
Nodelist,taurusi5610
AVG Runtime of function [s],10.1197
MAX Runtime of function [s],10.1197
MIN Runtime of function [s],10.1197
# COUNTERS - HDEEM: 
AVG Energy consumption [J] (Stats structure),2545.17
MAX Energy consumption [J] (Stats structure),2545.17
MIN Energy consumption [J] (Stats structure),2545.17
SUM Energy consumption [J] (Stats structure),2545.17
# CALLTREE;init_0;Main-PWSCF_0;run-PWSCF_0;run-PWSCF-electrons_function_1;electrons-electrons_scf_function_0;c_bands_function_12
# Job info - HDEEM
JOB ID,17281823.0
Nodelist,taurusi5610
AVG Runtime of function [s],9.68861
MAX Runtime of function [s],9.68861
MIN Runtime of function [s],9.68861
# COUNTERS - HDEEM: 
AVG Energy consumption [J] (Stats structure),2436.23
MAX Energy consumption [J] (Stats structure),2436.23
MIN Energy consumption [J] (Stats structure),2436.23
SUM Energy consumption [J] (Stats structure),2436.23
# CALLTREE;init_0;Main-PWSCF_0;run-PWSCF_0;run-PWSCF-electrons_function_1;electrons-electrons_scf_function_0;c_bands_function_12
# Job info - HDEEM
JOB ID,17281823.0
Nodelist,taurusi5610
AVG Runtime of function [s],9.54129
MAX Runtime of function [s],9.54129
MIN Runtime of function [s],9.54129
# COUNTERS - HDEEM: 
AVG Energy consumption [J] (Stats structure),2399.46
MAX Energy consumption [J] (Stats structure),2399.46
MIN Energy consumption [J] (Stats structure),2399.46
SUM Energy consumption [J] (Stats structure),2399.46
# CALLTREE;init_0;Main-PWSCF_0;run-PWSCF_0;run-PWSCF-electrons_function_1;electrons-electrons_scf_function_0;c_bands_function_12
# Job info - HDEEM
JOB ID,17281823.0
Nodelist,taurusi5610
AVG Runtime of function [s],9.9499
MAX Runtime of function [s],9.9499
MIN Runtime of function [s],9.9499
# COUNTERS - HDEEM: 
AVG Energy consumption [J] (Stats structure),2503.61
MAX Energy consumption [J] (Stats structure),2503.61
MIN Energy consumption [J] (Stats structure),2503.61
SUM Energy consumption [J] (Stats structure),2503.61
# CALLTREE;init_0;Main-PWSCF_0;run-PWSCF_0;run-PWSCF-electrons_function_1;electrons-electrons_scf_function_0;c_bands_function_13
# Job info - HDEEM
JOB ID,17281823.0
Nodelist,taurusi5610
AVG Runtime of function [s],8.84098
MAX Runtime of function [s],8.84098
MIN Runtime of function [s],8.84098
# COUNTERS - HDEEM: 
AVG Energy consumption [J] (Stats structure),2224.42
MAX Energy consumption [J] (Stats structure),2224.42
MIN Energy consumption [J] (Stats structure),2224.42
SUM Energy consumption [J] (Stats structure),2224.42
# CALLTREE;init_0;Main-PWSCF_0;run-PWSCF_0;run-PWSCF-electrons_function_1;electrons-electrons_scf_function_0;c_bands_function_13
# Job info - HDEEM
JOB ID,17281823.0
Nodelist,taurusi5610
AVG Runtime of function [s],9.46775
MAX Runtime of function [s],9.46775
MIN Runtime of function [s],9.46775
# COUNTERS - HDEEM: 
AVG Energy consumption [J] (Stats structure),2380.23
MAX Energy consumption [J] (Stats structure),2380.23
MIN Energy consumption [J] (Stats structure),2380.23
SUM Energy consumption [J] (Stats structure),2380.23
# CALLTREE;init_0;Main-PWSCF_0;run-PWSCF_0;run-PWSCF-electrons_function_1;electrons-electrons_scf_function_0;c_bands_function_13
# Job info - HDEEM
JOB ID,17281823.0
Nodelist,taurusi5610
AVG Runtime of function [s],9.48382
MAX Runtime of function [s],9.48382
MIN Runtime of function [s],9.48382
# COUNTERS - HDEEM: 
AVG Energy consumption [J] (Stats structure),2385.55
MAX Energy consumption [J] (Stats structure),2385.55
MIN Energy consumption [J] (Stats structure),2385.55
SUM Energy consumption [J] (Stats structure),2385.55
# CALLTREE;init_0;Main-PWSCF_0;run-PWSCF_0;run-PWSCF-electrons_function_1;electrons-electrons_scf_function_0;c_bands_function_13
# Job info - HDEEM
JOB ID,17281823.0
Nodelist,taurusi5610
AVG Runtime of function [s],9.29593
MAX Runtime of function [s],9.29593
MIN Runtime of function [s],9.29593
# COUNTERS - HDEEM: 
AVG Energy consumption [J] (Stats structure),2338.73
MAX Energy consumption [J] (Stats structure),2338.73
MIN Energy consumption [J] (Stats structure),2338.73
SUM Energy consumption [J] (Stats structure),2338.73
# CALLTREE;init_0;Main-PWSCF_0;run-PWSCF_0;run-PWSCF-electrons_function_1;electrons-electrons_scf_function_0;c_bands_function_14
# Job info - HDEEM
JOB ID,17281823.0
Nodelist,taurusi5610
AVG Runtime of function [s],6.70252
MAX Runtime of function [s],6.70252
MIN Runtime of function [s],6.70252
# COUNTERS - HDEEM: 
AVG Energy consumption [J] (Stats structure),1680.95
MAX Energy consumption [J] (Stats structure),1680.95
MIN Energy consumption [J] (Stats structure),1680.95
SUM Energy consumption [J] (Stats structure),1680.95
# CALLTREE;init_0;Main-PWSCF_0;run-PWSCF_0;run-PWSCF-electrons_function_1;electrons-electrons_scf_function_0;c_bands_function_14
# Job info - HDEEM
JOB ID,17281823.0
Nodelist,taurusi5610
AVG Runtime of function [s],6.63782
MAX Runtime of function [s],6.63782
MIN Runtime of function [s],6.63782
# COUNTERS - HDEEM: 
AVG Energy consumption [J] (Stats structure),1666.08
MAX Energy consumption [J] (Stats structure),1666.08
MIN Energy consumption [J] (Stats structure),1666.08
SUM Energy consumption [J] (Stats structure),1666.08
# CALLTREE;init_0;Main-PWSCF_0;run-PWSCF_0;run-PWSCF-electrons_function_1;electrons-electrons_scf_function_0;c_bands_function_14
# Job info - HDEEM
JOB ID,17281823.0
Nodelist,taurusi5610
AVG Runtime of function [s],6.70325
MAX Runtime of function [s],6.70325
MIN Runtime of function [s],6.70325
# COUNTERS - HDEEM: 
AVG Energy consumption [J] (Stats structure),1682.47
MAX Energy consumption [J] (Stats structure),1682.47
MIN Energy consumption [J] (Stats structure),1682.47
SUM Energy consumption [J] (Stats structure),1682.47
# CALLTREE;init_0;Main-PWSCF_0;run-PWSCF_0;run-PWSCF-electrons_function_1;electrons-electrons_scf_function_0;c_bands_function_14
# Job info - HDEEM
JOB ID,17281823.0
Nodelist,taurusi5610
AVG Runtime of function [s],6.87149
MAX Runtime of function [s],6.87149
MIN Runtime of function [s],6.87149
# COUNTERS - HDEEM: 
AVG Energy consumption [J] (Stats structure),1725.27
MAX Energy consumption [J] (Stats structure),1725.27
MIN Energy consumption [J] (Stats structure),1725.27
SUM Energy consumption [J] (Stats structure),1725.27
# CALLTREE;init_0;Main-PWSCF_0;run-PWSCF_0;run-PWSCF-electrons_function_1;electrons-electrons_scf_function_0;c_bands_function_15
# Job info - HDEEM
JOB ID,17281823.0
Nodelist,taurusi5610
AVG Runtime of function [s],6.70457
MAX Runtime of function [s],6.70457
MIN Runtime of function [s],6.70457
# COUNTERS - HDEEM: 
AVG Energy consumption [J] (Stats structure),1681.49
MAX Energy consumption [J] (Stats structure),1681.49
MIN Energy consumption [J] (Stats structure),1681.49
SUM Energy consumption [J] (Stats structure),1681.49
# CALLTREE;init_0;Main-PWSCF_0;run-PWSCF_0;run-PWSCF-electrons_function_1;electrons-electrons_scf_function_0;c_bands_function_15
# Job info - HDEEM
JOB ID,17281823.0
Nodelist,taurusi5610
AVG Runtime of function [s],6.67654
MAX Runtime of function [s],6.67654
MIN Runtime of function [s],6.67654
# COUNTERS - HDEEM: 
AVG Energy consumption [J] (Stats structure),1675.09
MAX Energy consumption [J] (Stats structure),1675.09
MIN Energy consumption [J] (Stats structure),1675.09
SUM Energy consumption [J] (Stats structure),1675.09
# CALLTREE;init_0;Main-PWSCF_0;run-PWSCF_0;run-PWSCF-electrons_function_1;electrons-electrons_scf_function_0;c_bands_function_15
# Job info - HDEEM
JOB ID,17281823.0
Nodelist,taurusi5610
AVG Runtime of function [s],6.66909
MAX Runtime of function [s],6.66909
MIN Runtime of function [s],6.66909
# COUNTERS - HDEEM: 
AVG Energy consumption [J] (Stats structure),1674.7
MAX Energy consumption [J] (Stats structure),1674.7
MIN Energy consumption [J] (Stats structure),1674.7
SUM Energy consumption [J] (Stats structure),1674.7
# CALLTREE;init_0;Main-PWSCF_0;run-PWSCF_0;run-PWSCF-electrons_function_1;electrons-electrons_scf_function_0;c_bands_function_15
# Job info - HDEEM
JOB ID,17281823.0
Nodelist,taurusi5610
AVG Runtime of function [s],6.61885
MAX Runtime of function [s],6.61885
MIN Runtime of function [s],6.61885
# COUNTERS - HDEEM: 
AVG Energy consumption [J] (Stats structure),1663.33
MAX Energy consumption [J] (Stats structure),1663.33
MIN Energy consumption [J] (Stats structure),1663.33
SUM Energy consumption [J] (Stats structure),1663.33
# CALLTREE;init_1;Main-PWSCF_0;run-PWSCF_0;run-PWSCF-electrons_function_1;electrons-electrons_scf_function_0;c_bands_function_0
# Job info - HDEEM
JOB ID,17281896.0
Nodelist,taurusi5610
AVG Runtime of function [s],2.44216
MAX Runtime of function [s],2.44216
MIN Runtime of function [s],2.44216
# COUNTERS - HDEEM: 
AVG Energy consumption [J] (Stats structure),745.672
MAX Energy consumption [J] (Stats structure),745.672
MIN Energy consumption [J] (Stats structure),745.672
SUM Energy consumption [J] (Stats structure),745.672
# CALLTREE;init_1;Main-PWSCF_0;run-PWSCF_0;run-PWSCF-electrons_function_1;electrons-electrons_scf_function_0;c_bands_function_0
# Job info - HDEEM
JOB ID,17281896.0
Nodelist,taurusi5610
AVG Runtime of function [s],2.50683
MAX Runtime of function [s],2.50683
MIN Runtime of function [s],2.50683
# COUNTERS - HDEEM: 
AVG Energy consumption [J] (Stats structure),766.335
MAX Energy consumption [J] (Stats structure),766.335
MIN Energy consumption [J] (Stats structure),766.335
SUM Energy consumption [J] (Stats structure),766.335
# CALLTREE;init_1;Main-PWSCF_0;run-PWSCF_0;run-PWSCF-electrons_function_1;electrons-electrons_scf_function_0;c_bands_function_0
# Job info - HDEEM
JOB ID,17281896.0
Nodelist,taurusi5610
AVG Runtime of function [s],2.52321
MAX Runtime of function [s],2.52321
MIN Runtime of function [s],2.52321
# COUNTERS - HDEEM: 
AVG Energy consumption [J] (Stats structure),773.406
MAX Energy consumption [J] (Stats structure),773.406
MIN Energy consumption [J] (Stats structure),773.406
SUM Energy consumption [J] (Stats structure),773.406
# CALLTREE;init_1;Main-PWSCF_0;run-PWSCF_0;run-PWSCF-electrons_function_1;electrons-electrons_scf_function_0;c_bands_function_0
# Job info - HDEEM
JOB ID,17281896.0
Nodelist,taurusi5610
AVG Runtime of function [s],2.5253
MAX Runtime of function [s],2.5253
MIN Runtime of function [s],2.5253
# COUNTERS - HDEEM: 
AVG Energy consumption [J] (Stats structure),774.058
MAX Energy consumption [J] (Stats structure),774.058
MIN Energy consumption [J] (Stats structure),774.058
SUM Energy consumption [J] (Stats structure),774.058
# CALLTREE;init_1;Main-PWSCF_0;run-PWSCF_0;run-PWSCF-electrons_function_1;electrons-electrons_scf_function_0;c_bands_function_1
# Job info - HDEEM
JOB ID,17281896.0
Nodelist,taurusi5610
AVG Runtime of function [s],1.63029
MAX Runtime of function [s],1.63029
MIN Runtime of function [s],1.63029
# COUNTERS - HDEEM: 
AVG Energy consumption [J] (Stats structure),499.537
MAX Energy consumption [J] (Stats structure),499.537
MIN Energy consumption [J] (Stats structure),499.537
SUM Energy consumption [J] (Stats structure),499.537
# CALLTREE;init_1;Main-PWSCF_0;run-PWSCF_0;run-PWSCF-electrons_function_1;electrons-electrons_scf_function_0;c_bands_function_1
# Job info - HDEEM
JOB ID,17281896.0
Nodelist,taurusi5610
AVG Runtime of function [s],1.74024
MAX Runtime of function [s],1.74024
MIN Runtime of function [s],1.74024
# COUNTERS - HDEEM: 
AVG Energy consumption [J] (Stats structure),525.055
MAX Energy consumption [J] (Stats structure),525.055
MIN Energy consumption [J] (Stats structure),525.055
SUM Energy consumption [J] (Stats structure),525.055
# CALLTREE;init_1;Main-PWSCF_0;run-PWSCF_0;run-PWSCF-electrons_function_1;electrons-electrons_scf_function_0;c_bands_function_1
# Job info - HDEEM
JOB ID,17281896.0
Nodelist,taurusi5610
AVG Runtime of function [s],1.43626
MAX Runtime of function [s],1.43626
MIN Runtime of function [s],1.43626
# COUNTERS - HDEEM: 
AVG Energy consumption [J] (Stats structure),449.924
MAX Energy consumption [J] (Stats structure),449.924
MIN Energy consumption [J] (Stats structure),449.924
SUM Energy consumption [J] (Stats structure),449.924
# CALLTREE;init_1;Main-PWSCF_0;run-PWSCF_0;run-PWSCF-electrons_function_1;electrons-electrons_scf_function_0;c_bands_function_1
# Job info - HDEEM
JOB ID,17281896.0
Nodelist,taurusi5610
AVG Runtime of function [s],1.45025
MAX Runtime of function [s],1.45025
MIN Runtime of function [s],1.45025
# COUNTERS - HDEEM: 
AVG Energy consumption [J] (Stats structure),452.725
MAX Energy consumption [J] (Stats structure),452.725
MIN Energy consumption [J] (Stats structure),452.725
SUM Energy consumption [J] (Stats structure),452.725
# CALLTREE;init_1;Main-PWSCF_0;run-PWSCF_0;run-PWSCF-electrons_function_1;electrons-electrons_scf_function_0;c_bands_function_2
# Job info - HDEEM
JOB ID,17281896.0
Nodelist,taurusi5610
AVG Runtime of function [s],1.50116
MAX Runtime of function [s],1.50116
MIN Runtime of function [s],1.50116
# COUNTERS - HDEEM: 
AVG Energy consumption [J] (Stats structure),465.388
MAX Energy consumption [J] (Stats structure),465.388
MIN Energy consumption [J] (Stats structure),465.388
SUM Energy consumption [J] (Stats structure),465.388
# CALLTREE;init_1;Main-PWSCF_0;run-PWSCF_0;run-PWSCF-electrons_function_1;electrons-electrons_scf_function_0;c_bands_function_2
# Job info - HDEEM
JOB ID,17281896.0
Nodelist,taurusi5610
AVG Runtime of function [s],1.46118
MAX Runtime of function [s],1.46118
MIN Runtime of function [s],1.46118
# COUNTERS - HDEEM: 
AVG Energy consumption [J] (Stats structure),455.959
MAX Energy consumption [J] (Stats structure),455.959
MIN Energy consumption [J] (Stats structure),455.959
SUM Energy consumption [J] (Stats structure),455.959
# CALLTREE;init_1;Main-PWSCF_0;run-PWSCF_0;run-PWSCF-electrons_function_1;electrons-electrons_scf_function_0;c_bands_function_2
# Job info - HDEEM
JOB ID,17281896.0
Nodelist,taurusi5610
AVG Runtime of function [s],1.45472
MAX Runtime of function [s],1.45472
MIN Runtime of function [s],1.45472
# COUNTERS - HDEEM: 
AVG Energy consumption [J] (Stats structure),455.694
MAX Energy consumption [J] (Stats structure),455.694
MIN Energy consumption [J] (Stats structure),455.694
SUM Energy consumption [J] (Stats structure),455.694
# CALLTREE;init_1;Main-PWSCF_0;run-PWSCF_0;run-PWSCF-electrons_function_1;electrons-electrons_scf_function_0;c_bands_function_2
# Job info - HDEEM
JOB ID,17281896.0
Nodelist,taurusi5610
AVG Runtime of function [s],1.45817
MAX Runtime of function [s],1.45817
MIN Runtime of function [s],1.45817
# COUNTERS - HDEEM: 
AVG Energy consumption [J] (Stats structure),456.337
MAX Energy consumption [J] (Stats structure),456.337
MIN Energy consumption [J] (Stats structure),456.337
SUM Energy consumption [J] (Stats structure),456.337
# CALLTREE;init_1;Main-PWSCF_0;run-PWSCF_0;run-PWSCF-electrons_function_1;electrons-electrons_scf_function_0;c_bands_function_3
# Job info - HDEEM
JOB ID,17281896.0
Nodelist,taurusi5610
AVG Runtime of function [s],3.352
MAX Runtime of function [s],3.352
MIN Runtime of function [s],3.352
# COUNTERS - HDEEM: 
AVG Energy consumption [J] (Stats structure),964.905
MAX Energy consumption [J] (Stats structure),964.905
MIN Energy consumption [J] (Stats structure),964.905
SUM Energy consumption [J] (Stats structure),964.905
# CALLTREE;init_1;Main-PWSCF_0;run-PWSCF_0;run-PWSCF-electrons_function_1;electrons-electrons_scf_function_0;c_bands_function_3
# Job info - HDEEM
JOB ID,17281896.0
Nodelist,taurusi5610
AVG Runtime of function [s],3.86497
MAX Runtime of function [s],3.86497
MIN Runtime of function [s],3.86497
# COUNTERS - HDEEM: 
AVG Energy consumption [J] (Stats structure),1118.98
MAX Energy consumption [J] (Stats structure),1118.98
MIN Energy consumption [J] (Stats structure),1118.98
SUM Energy consumption [J] (Stats structure),1118.98
# CALLTREE;init_1;Main-PWSCF_0;run-PWSCF_0;run-PWSCF-electrons_function_1;electrons-electrons_scf_function_0;c_bands_function_3
# Job info - HDEEM
JOB ID,17281896.0
Nodelist,taurusi5610
AVG Runtime of function [s],4.92503
MAX Runtime of function [s],4.92503
MIN Runtime of function [s],4.92503
# COUNTERS - HDEEM: 
AVG Energy consumption [J] (Stats structure),1378.49
MAX Energy consumption [J] (Stats structure),1378.49
MIN Energy consumption [J] (Stats structure),1378.49
SUM Energy consumption [J] (Stats structure),1378.49
# CALLTREE;init_1;Main-PWSCF_0;run-PWSCF_0;run-PWSCF-electrons_function_1;electrons-electrons_scf_function_0;c_bands_function_3
# Job info - HDEEM
JOB ID,17281896.0
Nodelist,taurusi5610
AVG Runtime of function [s],4.043
MAX Runtime of function [s],4.043
MIN Runtime of function [s],4.043
# COUNTERS - HDEEM: 
AVG Energy consumption [J] (Stats structure),1165.52
MAX Energy consumption [J] (Stats structure),1165.52
MIN Energy consumption [J] (Stats structure),1165.52
SUM Energy consumption [J] (Stats structure),1165.52
# CALLTREE;init_1;Main-PWSCF_0;run-PWSCF_0;run-PWSCF-electrons_function_1;electrons-electrons_scf_function_0;c_bands_function_4
# Job info - HDEEM
JOB ID,17281896.0
Nodelist,taurusi5610
AVG Runtime of function [s],3.86208
MAX Runtime of function [s],3.86208
MIN Runtime of function [s],3.86208
# COUNTERS - HDEEM: 
AVG Energy consumption [J] (Stats structure),1120.42
MAX Energy consumption [J] (Stats structure),1120.42
MIN Energy consumption [J] (Stats structure),1120.42
SUM Energy consumption [J] (Stats structure),1120.42
# CALLTREE;init_1;Main-PWSCF_0;run-PWSCF_0;run-PWSCF-electrons_function_1;electrons-electrons_scf_function_0;c_bands_function_4
# Job info - HDEEM
JOB ID,17281896.0
Nodelist,taurusi5610
AVG Runtime of function [s],4.08304
MAX Runtime of function [s],4.08304
MIN Runtime of function [s],4.08304
# COUNTERS - HDEEM: 
AVG Energy consumption [J] (Stats structure),1171.48
MAX Energy consumption [J] (Stats structure),1171.48
MIN Energy consumption [J] (Stats structure),1171.48
SUM Energy consumption [J] (Stats structure),1171.48
# CALLTREE;init_1;Main-PWSCF_0;run-PWSCF_0;run-PWSCF-electrons_function_1;electrons-electrons_scf_function_0;c_bands_function_4
# Job info - HDEEM
JOB ID,17281896.0
Nodelist,taurusi5610
AVG Runtime of function [s],3.98678
MAX Runtime of function [s],3.98678
MIN Runtime of function [s],3.98678
# COUNTERS - HDEEM: 
AVG Energy consumption [J] (Stats structure),1153.4
MAX Energy consumption [J] (Stats structure),1153.4
MIN Energy consumption [J] (Stats structure),1153.4
SUM Energy consumption [J] (Stats structure),1153.4
# CALLTREE;init_1;Main-PWSCF_0;run-PWSCF_0;run-PWSCF-electrons_function_1;electrons-electrons_scf_function_0;c_bands_function_4
# Job info - HDEEM
JOB ID,17281896.0
Nodelist,taurusi5610
AVG Runtime of function [s],2.79145
MAX Runtime of function [s],2.79145
MIN Runtime of function [s],2.79145
# COUNTERS - HDEEM: 
AVG Energy consumption [J] (Stats structure),844.453
MAX Energy consumption [J] (Stats structure),844.453
MIN Energy consumption [J] (Stats structure),844.453
SUM Energy consumption [J] (Stats structure),844.453
# CALLTREE;init_1;Main-PWSCF_0;run-PWSCF_0;run-PWSCF-electrons_function_1;electrons-electrons_scf_function_0;c_bands_function_5
# Job info - HDEEM
JOB ID,17281896.0
Nodelist,taurusi5610
AVG Runtime of function [s],2.19648
MAX Runtime of function [s],2.19648
MIN Runtime of function [s],2.19648
# COUNTERS - HDEEM: 
AVG Energy consumption [J] (Stats structure),669.302
MAX Energy consumption [J] (Stats structure),669.302
MIN Energy consumption [J] (Stats structure),669.302
SUM Energy consumption [J] (Stats structure),669.302
# CALLTREE;init_1;Main-PWSCF_0;run-PWSCF_0;run-PWSCF-electrons_function_1;electrons-electrons_scf_function_0;c_bands_function_5
# Job info - HDEEM
JOB ID,17281896.0
Nodelist,taurusi5610
AVG Runtime of function [s],3.55753
MAX Runtime of function [s],3.55753
MIN Runtime of function [s],3.55753
# COUNTERS - HDEEM: 
AVG Energy consumption [J] (Stats structure),1018.55
MAX Energy consumption [J] (Stats structure),1018.55
MIN Energy consumption [J] (Stats structure),1018.55
SUM Energy consumption [J] (Stats structure),1018.55
# CALLTREE;init_1;Main-PWSCF_0;run-PWSCF_0;run-PWSCF-electrons_function_1;electrons-electrons_scf_function_0;c_bands_function_5
# Job info - HDEEM
JOB ID,17281896.0
Nodelist,taurusi5610
AVG Runtime of function [s],3.46899
MAX Runtime of function [s],3.46899
MIN Runtime of function [s],3.46899
# COUNTERS - HDEEM: 
AVG Energy consumption [J] (Stats structure),994.536
MAX Energy consumption [J] (Stats structure),994.536
MIN Energy consumption [J] (Stats structure),994.536
SUM Energy consumption [J] (Stats structure),994.536
# CALLTREE;init_1;Main-PWSCF_0;run-PWSCF_0;run-PWSCF-electrons_function_1;electrons-electrons_scf_function_0;c_bands_function_5
# Job info - HDEEM
JOB ID,17281896.0
Nodelist,taurusi5610
AVG Runtime of function [s],2.40594
MAX Runtime of function [s],2.40594
MIN Runtime of function [s],2.40594
# COUNTERS - HDEEM: 
AVG Energy consumption [J] (Stats structure),727.242
MAX Energy consumption [J] (Stats structure),727.242
MIN Energy consumption [J] (Stats structure),727.242
SUM Energy consumption [J] (Stats structure),727.242
# CALLTREE;init_1;Main-PWSCF_0;run-PWSCF_0;run-PWSCF-electrons_function_1;electrons-electrons_scf_function_0;c_bands_function_6
# Job info - HDEEM
JOB ID,17281896.0
Nodelist,taurusi5610
AVG Runtime of function [s],2.14759
MAX Runtime of function [s],2.14759
MIN Runtime of function [s],2.14759
# COUNTERS - HDEEM: 
AVG Energy consumption [J] (Stats structure),653.289
MAX Energy consumption [J] (Stats structure),653.289
MIN Energy consumption [J] (Stats structure),653.289
SUM Energy consumption [J] (Stats structure),653.289
# CALLTREE;init_1;Main-PWSCF_0;run-PWSCF_0;run-PWSCF-electrons_function_1;electrons-electrons_scf_function_0;c_bands_function_6
# Job info - HDEEM
JOB ID,17281896.0
Nodelist,taurusi5610
AVG Runtime of function [s],2.14167
MAX Runtime of function [s],2.14167
MIN Runtime of function [s],2.14167
# COUNTERS - HDEEM: 
AVG Energy consumption [J] (Stats structure),655.117
MAX Energy consumption [J] (Stats structure),655.117
MIN Energy consumption [J] (Stats structure),655.117
SUM Energy consumption [J] (Stats structure),655.117
# CALLTREE;init_1;Main-PWSCF_0;run-PWSCF_0;run-PWSCF-electrons_function_1;electrons-electrons_scf_function_0;c_bands_function_6
# Job info - HDEEM
JOB ID,17281896.0
Nodelist,taurusi5610
AVG Runtime of function [s],2.16912
MAX Runtime of function [s],2.16912
MIN Runtime of function [s],2.16912
# COUNTERS - HDEEM: 
AVG Energy consumption [J] (Stats structure),663.217
MAX Energy consumption [J] (Stats structure),663.217
MIN Energy consumption [J] (Stats structure),663.217
SUM Energy consumption [J] (Stats structure),663.217
# CALLTREE;init_1;Main-PWSCF_0;run-PWSCF_0;run-PWSCF-electrons_function_1;electrons-electrons_scf_function_0;c_bands_function_6
# Job info - HDEEM
JOB ID,17281896.0
Nodelist,taurusi5610
AVG Runtime of function [s],2.01619
MAX Runtime of function [s],2.01619
MIN Runtime of function [s],2.01619
# COUNTERS - HDEEM: 
AVG Energy consumption [J] (Stats structure),624.664
MAX Energy consumption [J] (Stats structure),624.664
MIN Energy consumption [J] (Stats structure),624.664
SUM Energy consumption [J] (Stats structure),624.664
# CALLTREE;init_1;Main-PWSCF_0;run-PWSCF_0;run-PWSCF-electrons_function_1;electrons-electrons_scf_function_0;c_bands_function_7
# Job info - HDEEM
JOB ID,17281896.0
Nodelist,taurusi5610
AVG Runtime of function [s],2.30734
MAX Runtime of function [s],2.30734
MIN Runtime of function [s],2.30734
# COUNTERS - HDEEM: 
AVG Energy consumption [J] (Stats structure),707.734
MAX Energy consumption [J] (Stats structure),707.734
MIN Energy consumption [J] (Stats structure),707.734
SUM Energy consumption [J] (Stats structure),707.734
# CALLTREE;init_1;Main-PWSCF_0;run-PWSCF_0;run-PWSCF-electrons_function_1;electrons-electrons_scf_function_0;c_bands_function_7
# Job info - HDEEM
JOB ID,17281896.0
Nodelist,taurusi5610
AVG Runtime of function [s],2.27867
MAX Runtime of function [s],2.27867
MIN Runtime of function [s],2.27867
# COUNTERS - HDEEM: 
AVG Energy consumption [J] (Stats structure),699.072
MAX Energy consumption [J] (Stats structure),699.072
MIN Energy consumption [J] (Stats structure),699.072
SUM Energy consumption [J] (Stats structure),699.072
# CALLTREE;init_1;Main-PWSCF_0;run-PWSCF_0;run-PWSCF-electrons_function_1;electrons-electrons_scf_function_0;c_bands_function_7
# Job info - HDEEM
JOB ID,17281896.0
Nodelist,taurusi5610
AVG Runtime of function [s],2.29603
MAX Runtime of function [s],2.29603
MIN Runtime of function [s],2.29603
# COUNTERS - HDEEM: 
AVG Energy consumption [J] (Stats structure),706.513
MAX Energy consumption [J] (Stats structure),706.513
MIN Energy consumption [J] (Stats structure),706.513
SUM Energy consumption [J] (Stats structure),706.513
# CALLTREE;init_1;Main-PWSCF_0;run-PWSCF_0;run-PWSCF-electrons_function_1;electrons-electrons_scf_function_0;c_bands_function_7
# Job info - HDEEM
JOB ID,17281896.0
Nodelist,taurusi5610
AVG Runtime of function [s],2.40653
MAX Runtime of function [s],2.40653
MIN Runtime of function [s],2.40653
# COUNTERS - HDEEM: 
AVG Energy consumption [J] (Stats structure),743.36
MAX Energy consumption [J] (Stats structure),743.36
MIN Energy consumption [J] (Stats structure),743.36
SUM Energy consumption [J] (Stats structure),743.36
# CALLTREE;init_1;Main-PWSCF_0;run-PWSCF_0;run-PWSCF-electrons_function_1;electrons-electrons_scf_function_0;c_bands_function_8
# Job info - HDEEM
JOB ID,17281896.0
Nodelist,taurusi5610
AVG Runtime of function [s],2.30981
MAX Runtime of function [s],2.30981
MIN Runtime of function [s],2.30981
# COUNTERS - HDEEM: 
AVG Energy consumption [J] (Stats structure),710.597
MAX Energy consumption [J] (Stats structure),710.597
MIN Energy consumption [J] (Stats structure),710.597
SUM Energy consumption [J] (Stats structure),710.597
# CALLTREE;init_1;Main-PWSCF_0;run-PWSCF_0;run-PWSCF-electrons_function_1;electrons-electrons_scf_function_0;c_bands_function_8
# Job info - HDEEM
JOB ID,17281896.0
Nodelist,taurusi5610
AVG Runtime of function [s],2.34485
MAX Runtime of function [s],2.34485
MIN Runtime of function [s],2.34485
# COUNTERS - HDEEM: 
AVG Energy consumption [J] (Stats structure),722.903
MAX Energy consumption [J] (Stats structure),722.903
MIN Energy consumption [J] (Stats structure),722.903
SUM Energy consumption [J] (Stats structure),722.903
# CALLTREE;init_1;Main-PWSCF_0;run-PWSCF_0;run-PWSCF-electrons_function_1;electrons-electrons_scf_function_0;c_bands_function_8
# Job info - HDEEM
JOB ID,17281896.0
Nodelist,taurusi5610
AVG Runtime of function [s],2.34818
MAX Runtime of function [s],2.34818
MIN Runtime of function [s],2.34818
# COUNTERS - HDEEM: 
AVG Energy consumption [J] (Stats structure),723.917
MAX Energy consumption [J] (Stats structure),723.917
MIN Energy consumption [J] (Stats structure),723.917
SUM Energy consumption [J] (Stats structure),723.917
# CALLTREE;init_1;Main-PWSCF_0;run-PWSCF_0;run-PWSCF-electrons_function_1;electrons-electrons_scf_function_0;c_bands_function_8
# Job info - HDEEM
JOB ID,17281896.0
Nodelist,taurusi5610
AVG Runtime of function [s],2.22939
MAX Runtime of function [s],2.22939
MIN Runtime of function [s],2.22939
# COUNTERS - HDEEM: 
AVG Energy consumption [J] (Stats structure),687.62
MAX Energy consumption [J] (Stats structure),687.62
MIN Energy consumption [J] (Stats structure),687.62
SUM Energy consumption [J] (Stats structure),687.62
# CALLTREE;init_1;Main-PWSCF_0;run-PWSCF_0;run-PWSCF-electrons_function_1;electrons-electrons_scf_function_0;c_bands_function_9
# Job info - HDEEM
JOB ID,17281896.0
Nodelist,taurusi5610
AVG Runtime of function [s],2.26202
MAX Runtime of function [s],2.26202
MIN Runtime of function [s],2.26202
# COUNTERS - HDEEM: 
AVG Energy consumption [J] (Stats structure),694.416
MAX Energy consumption [J] (Stats structure),694.416
MIN Energy consumption [J] (Stats structure),694.416
SUM Energy consumption [J] (Stats structure),694.416
# CALLTREE;init_1;Main-PWSCF_0;run-PWSCF_0;run-PWSCF-electrons_function_1;electrons-electrons_scf_function_0;c_bands_function_9
# Job info - HDEEM
JOB ID,17281896.0
Nodelist,taurusi5610
AVG Runtime of function [s],2.23835
MAX Runtime of function [s],2.23835
MIN Runtime of function [s],2.23835
# COUNTERS - HDEEM: 
AVG Energy consumption [J] (Stats structure),688.23
MAX Energy consumption [J] (Stats structure),688.23
MIN Energy consumption [J] (Stats structure),688.23
SUM Energy consumption [J] (Stats structure),688.23
# CALLTREE;init_1;Main-PWSCF_0;run-PWSCF_0;run-PWSCF-electrons_function_1;electrons-electrons_scf_function_0;c_bands_function_9
# Job info - HDEEM
JOB ID,17281896.0
Nodelist,taurusi5610
AVG Runtime of function [s],2.24406
MAX Runtime of function [s],2.24406
MIN Runtime of function [s],2.24406
# COUNTERS - HDEEM: 
AVG Energy consumption [J] (Stats structure),689.074
MAX Energy consumption [J] (Stats structure),689.074
MIN Energy consumption [J] (Stats structure),689.074
SUM Energy consumption [J] (Stats structure),689.074
# CALLTREE;init_1;Main-PWSCF_0;run-PWSCF_0;run-PWSCF-electrons_function_1;electrons-electrons_scf_function_0;c_bands_function_9
# Job info - HDEEM
JOB ID,17281896.0
Nodelist,taurusi5610
AVG Runtime of function [s],2.23967
MAX Runtime of function [s],2.23967
MIN Runtime of function [s],2.23967
# COUNTERS - HDEEM: 
AVG Energy consumption [J] (Stats structure),688.027
MAX Energy consumption [J] (Stats structure),688.027
MIN Energy consumption [J] (Stats structure),688.027
SUM Energy consumption [J] (Stats structure),688.027
# CALLTREE;init_1;Main-PWSCF_0;run-PWSCF_0;run-PWSCF-electrons_function_1;electrons-electrons_scf_function_0;c_bands_function_10
# Job info - HDEEM
JOB ID,17281896.0
Nodelist,taurusi5610
AVG Runtime of function [s],2.24196
MAX Runtime of function [s],2.24196
MIN Runtime of function [s],2.24196
# COUNTERS - HDEEM: 
AVG Energy consumption [J] (Stats structure),689.853
MAX Energy consumption [J] (Stats structure),689.853
MIN Energy consumption [J] (Stats structure),689.853
SUM Energy consumption [J] (Stats structure),689.853
# CALLTREE;init_1;Main-PWSCF_0;run-PWSCF_0;run-PWSCF-electrons_function_1;electrons-electrons_scf_function_0;c_bands_function_10
# Job info - HDEEM
JOB ID,17281896.0
Nodelist,taurusi5610
AVG Runtime of function [s],2.18291
MAX Runtime of function [s],2.18291
MIN Runtime of function [s],2.18291
# COUNTERS - HDEEM: 
AVG Energy consumption [J] (Stats structure),668.483
MAX Energy consumption [J] (Stats structure),668.483
MIN Energy consumption [J] (Stats structure),668.483
SUM Energy consumption [J] (Stats structure),668.483
# CALLTREE;init_1;Main-PWSCF_0;run-PWSCF_0;run-PWSCF-electrons_function_1;electrons-electrons_scf_function_0;c_bands_function_10
# Job info - HDEEM
JOB ID,17281896.0
Nodelist,taurusi5610
AVG Runtime of function [s],2.28523
MAX Runtime of function [s],2.28523
MIN Runtime of function [s],2.28523
# COUNTERS - HDEEM: 
AVG Energy consumption [J] (Stats structure),703.905
MAX Energy consumption [J] (Stats structure),703.905
MIN Energy consumption [J] (Stats structure),703.905
SUM Energy consumption [J] (Stats structure),703.905
# CALLTREE;init_1;Main-PWSCF_0;run-PWSCF_0;run-PWSCF-electrons_function_1;electrons-electrons_scf_function_0;c_bands_function_10
# Job info - HDEEM
JOB ID,17281896.0
Nodelist,taurusi5610
AVG Runtime of function [s],2.1766
MAX Runtime of function [s],2.1766
MIN Runtime of function [s],2.1766
# COUNTERS - HDEEM: 
AVG Energy consumption [J] (Stats structure),669.697
MAX Energy consumption [J] (Stats structure),669.697
MIN Energy consumption [J] (Stats structure),669.697
SUM Energy consumption [J] (Stats structure),669.697
# CALLTREE;init_1;Main-PWSCF_0;run-PWSCF_0;run-PWSCF-electrons_function_1;electrons-electrons_scf_function_0;c_bands_function_11
# Job info - HDEEM
JOB ID,17281896.0
Nodelist,taurusi5610
AVG Runtime of function [s],1.96113
MAX Runtime of function [s],1.96113
MIN Runtime of function [s],1.96113
# COUNTERS - HDEEM: 
AVG Energy consumption [J] (Stats structure),598.527
MAX Energy consumption [J] (Stats structure),598.527
MIN Energy consumption [J] (Stats structure),598.527
SUM Energy consumption [J] (Stats structure),598.527
# CALLTREE;init_1;Main-PWSCF_0;run-PWSCF_0;run-PWSCF-electrons_function_1;electrons-electrons_scf_function_0;c_bands_function_11
# Job info - HDEEM
JOB ID,17281896.0
Nodelist,taurusi5610
AVG Runtime of function [s],1.83844
MAX Runtime of function [s],1.83844
MIN Runtime of function [s],1.83844
# COUNTERS - HDEEM: 
AVG Energy consumption [J] (Stats structure),571.002
MAX Energy consumption [J] (Stats structure),571.002
MIN Energy consumption [J] (Stats structure),571.002
SUM Energy consumption [J] (Stats structure),571.002
# CALLTREE;init_1;Main-PWSCF_0;run-PWSCF_0;run-PWSCF-electrons_function_1;electrons-electrons_scf_function_0;c_bands_function_11
# Job info - HDEEM
JOB ID,17281896.0
Nodelist,taurusi5610
AVG Runtime of function [s],1.81851
MAX Runtime of function [s],1.81851
MIN Runtime of function [s],1.81851
# COUNTERS - HDEEM: 
AVG Energy consumption [J] (Stats structure),564.953
MAX Energy consumption [J] (Stats structure),564.953
MIN Energy consumption [J] (Stats structure),564.953
SUM Energy consumption [J] (Stats structure),564.953
# CALLTREE;init_1;Main-PWSCF_0;run-PWSCF_0;run-PWSCF-electrons_function_1;electrons-electrons_scf_function_0;c_bands_function_11
# Job info - HDEEM
JOB ID,17281896.0
Nodelist,taurusi5610
AVG Runtime of function [s],1.90606
MAX Runtime of function [s],1.90606
MIN Runtime of function [s],1.90606
# COUNTERS - HDEEM: 
AVG Energy consumption [J] (Stats structure),584.567
MAX Energy consumption [J] (Stats structure),584.567
MIN Energy consumption [J] (Stats structure),584.567
SUM Energy consumption [J] (Stats structure),584.567
# CALLTREE;init_1;Main-PWSCF_0;run-PWSCF_0;run-PWSCF-electrons_function_1;electrons-electrons_scf_function_0;c_bands_function_12
# Job info - HDEEM
JOB ID,17281896.0
Nodelist,taurusi5610
AVG Runtime of function [s],2.43782
MAX Runtime of function [s],2.43782
MIN Runtime of function [s],2.43782
# COUNTERS - HDEEM: 
AVG Energy consumption [J] (Stats structure),752.964
MAX Energy consumption [J] (Stats structure),752.964
MIN Energy consumption [J] (Stats structure),752.964
SUM Energy consumption [J] (Stats structure),752.964
# CALLTREE;init_1;Main-PWSCF_0;run-PWSCF_0;run-PWSCF-electrons_function_1;electrons-electrons_scf_function_0;c_bands_function_12
# Job info - HDEEM
JOB ID,17281896.0
Nodelist,taurusi5610
AVG Runtime of function [s],2.33702
MAX Runtime of function [s],2.33702
MIN Runtime of function [s],2.33702
# COUNTERS - HDEEM: 
AVG Energy consumption [J] (Stats structure),720.869
MAX Energy consumption [J] (Stats structure),720.869
MIN Energy consumption [J] (Stats structure),720.869
SUM Energy consumption [J] (Stats structure),720.869
# CALLTREE;init_1;Main-PWSCF_0;run-PWSCF_0;run-PWSCF-electrons_function_1;electrons-electrons_scf_function_0;c_bands_function_12
# Job info - HDEEM
JOB ID,17281896.0
Nodelist,taurusi5610
AVG Runtime of function [s],2.31673
MAX Runtime of function [s],2.31673
MIN Runtime of function [s],2.31673
# COUNTERS - HDEEM: 
AVG Energy consumption [J] (Stats structure),714.957
MAX Energy consumption [J] (Stats structure),714.957
MIN Energy consumption [J] (Stats structure),714.957
SUM Energy consumption [J] (Stats structure),714.957
# CALLTREE;init_1;Main-PWSCF_0;run-PWSCF_0;run-PWSCF-electrons_function_1;electrons-electrons_scf_function_0;c_bands_function_12
# Job info - HDEEM
JOB ID,17281896.0
Nodelist,taurusi5610
AVG Runtime of function [s],2.38594
MAX Runtime of function [s],2.38594
MIN Runtime of function [s],2.38594
# COUNTERS - HDEEM: 
AVG Energy consumption [J] (Stats structure),739.746
MAX Energy consumption [J] (Stats structure),739.746
MIN Energy consumption [J] (Stats structure),739.746
SUM Energy consumption [J] (Stats structure),739.746
# CALLTREE;init_1;Main-PWSCF_0;run-PWSCF_0;run-PWSCF-electrons_function_1;electrons-electrons_scf_function_0;c_bands_function_13
# Job info - HDEEM
JOB ID,17281896.0
Nodelist,taurusi5610
AVG Runtime of function [s],2.04456
MAX Runtime of function [s],2.04456
MIN Runtime of function [s],2.04456
# COUNTERS - HDEEM: 
AVG Energy consumption [J] (Stats structure),638.86
MAX Energy consumption [J] (Stats structure),638.86
MIN Energy consumption [J] (Stats structure),638.86
SUM Energy consumption [J] (Stats structure),638.86
# CALLTREE;init_1;Main-PWSCF_0;run-PWSCF_0;run-PWSCF-electrons_function_1;electrons-electrons_scf_function_0;c_bands_function_13
# Job info - HDEEM
JOB ID,17281896.0
Nodelist,taurusi5610
AVG Runtime of function [s],2.31032
MAX Runtime of function [s],2.31032
MIN Runtime of function [s],2.31032
# COUNTERS - HDEEM: 
AVG Energy consumption [J] (Stats structure),711.159
MAX Energy consumption [J] (Stats structure),711.159
MIN Energy consumption [J] (Stats structure),711.159
SUM Energy consumption [J] (Stats structure),711.159
# CALLTREE;init_1;Main-PWSCF_0;run-PWSCF_0;run-PWSCF-electrons_function_1;electrons-electrons_scf_function_0;c_bands_function_13
# Job info - HDEEM
JOB ID,17281896.0
Nodelist,taurusi5610
AVG Runtime of function [s],2.30528
MAX Runtime of function [s],2.30528
MIN Runtime of function [s],2.30528
# COUNTERS - HDEEM: 
AVG Energy consumption [J] (Stats structure),711.283
MAX Energy consumption [J] (Stats structure),711.283
MIN Energy consumption [J] (Stats structure),711.283
SUM Energy consumption [J] (Stats structure),711.283
# CALLTREE;init_1;Main-PWSCF_0;run-PWSCF_0;run-PWSCF-electrons_function_1;electrons-electrons_scf_function_0;c_bands_function_13
# Job info - HDEEM
JOB ID,17281896.0
Nodelist,taurusi5610
AVG Runtime of function [s],2.24967
MAX Runtime of function [s],2.24967
MIN Runtime of function [s],2.24967
# COUNTERS - HDEEM: 
AVG Energy consumption [J] (Stats structure),695.304
MAX Energy consumption [J] (Stats structure),695.304
MIN Energy consumption [J] (Stats structure),695.304
SUM Energy consumption [J] (Stats structure),695.304
# CALLTREE;init_1;Main-PWSCF_0;run-PWSCF_0;run-PWSCF-electrons_function_1;electrons-electrons_scf_function_0;c_bands_function_14
# Job info - HDEEM
JOB ID,17281896.0
Nodelist,taurusi5610
AVG Runtime of function [s],1.49359
MAX Runtime of function [s],1.49359
MIN Runtime of function [s],1.49359
# COUNTERS - HDEEM: 
AVG Energy consumption [J] (Stats structure),466.363
MAX Energy consumption [J] (Stats structure),466.363
MIN Energy consumption [J] (Stats structure),466.363
SUM Energy consumption [J] (Stats structure),466.363
# CALLTREE;init_1;Main-PWSCF_0;run-PWSCF_0;run-PWSCF-electrons_function_1;electrons-electrons_scf_function_0;c_bands_function_14
# Job info - HDEEM
JOB ID,17281896.0
Nodelist,taurusi5610
AVG Runtime of function [s],1.46455
MAX Runtime of function [s],1.46455
MIN Runtime of function [s],1.46455
# COUNTERS - HDEEM: 
AVG Energy consumption [J] (Stats structure),459.79
MAX Energy consumption [J] (Stats structure),459.79
MIN Energy consumption [J] (Stats structure),459.79
SUM Energy consumption [J] (Stats structure),459.79
# CALLTREE;init_1;Main-PWSCF_0;run-PWSCF_0;run-PWSCF-electrons_function_1;electrons-electrons_scf_function_0;c_bands_function_14
# Job info - HDEEM
JOB ID,17281896.0
Nodelist,taurusi5610
AVG Runtime of function [s],1.46806
MAX Runtime of function [s],1.46806
MIN Runtime of function [s],1.46806
# COUNTERS - HDEEM: 
AVG Energy consumption [J] (Stats structure),461.396
MAX Energy consumption [J] (Stats structure),461.396
MIN Energy consumption [J] (Stats structure),461.396
SUM Energy consumption [J] (Stats structure),461.396
# CALLTREE;init_1;Main-PWSCF_0;run-PWSCF_0;run-PWSCF-electrons_function_1;electrons-electrons_scf_function_0;c_bands_function_14
# Job info - HDEEM
JOB ID,17281896.0
Nodelist,taurusi5610
AVG Runtime of function [s],1.61249
MAX Runtime of function [s],1.61249
MIN Runtime of function [s],1.61249
# COUNTERS - HDEEM: 
AVG Energy consumption [J] (Stats structure),499.297
MAX Energy consumption [J] (Stats structure),499.297
MIN Energy consumption [J] (Stats structure),499.297
SUM Energy consumption [J] (Stats structure),499.297
# CALLTREE;init_1;Main-PWSCF_0;run-PWSCF_0;run-PWSCF-electrons_function_1;electrons-electrons_scf_function_0;c_bands_function_15
# Job info - HDEEM
JOB ID,17281896.0
Nodelist,taurusi5610
AVG Runtime of function [s],1.49112
MAX Runtime of function [s],1.49112
MIN Runtime of function [s],1.49112
# COUNTERS - HDEEM: 
AVG Energy consumption [J] (Stats structure),466.435
MAX Energy consumption [J] (Stats structure),466.435
MIN Energy consumption [J] (Stats structure),466.435
SUM Energy consumption [J] (Stats structure),466.435
# CALLTREE;init_1;Main-PWSCF_0;run-PWSCF_0;run-PWSCF-electrons_function_1;electrons-electrons_scf_function_0;c_bands_function_15
# Job info - HDEEM
JOB ID,17281896.0
Nodelist,taurusi5610
AVG Runtime of function [s],1.45918
MAX Runtime of function [s],1.45918
MIN Runtime of function [s],1.45918
# COUNTERS - HDEEM: 
AVG Energy consumption [J] (Stats structure),459.612
MAX Energy consumption [J] (Stats structure),459.612
MIN Energy consumption [J] (Stats structure),459.612
SUM Energy consumption [J] (Stats structure),459.612
# CALLTREE;init_1;Main-PWSCF_0;run-PWSCF_0;run-PWSCF-electrons_function_1;electrons-electrons_scf_function_0;c_bands_function_15
# Job info - HDEEM
JOB ID,17281896.0
Nodelist,taurusi5610
AVG Runtime of function [s],1.45864
MAX Runtime of function [s],1.45864
MIN Runtime of function [s],1.45864
# COUNTERS - HDEEM: 
AVG Energy consumption [J] (Stats structure),459.337
MAX Energy consumption [J] (Stats structure),459.337
MIN Energy consumption [J] (Stats structure),459.337
SUM Energy consumption [J] (Stats structure),459.337
# CALLTREE;init_1;Main-PWSCF_0;run-PWSCF_0;run-PWSCF-electrons_function_1;electrons-electrons_scf_function_0;c_bands_function_15
# Job info - HDEEM
JOB ID,17281896.0
Nodelist,taurusi5610
AVG Runtime of function [s],1.48628
MAX Runtime of function [s],1.48628
MIN Runtime of function [s],1.48628
# COUNTERS - HDEEM: 
AVG Energy consumption [J] (Stats structure),466.126
MAX Energy consumption [J] (Stats structure),466.126
MIN Energy consumption [J] (Stats structure),466.126
SUM Energy consumption [J] (Stats structure),466.126
