# CALLTREE;init_0;Main-PWSCF_0;run-PWSCF_0;run-PWSCF-electrons_function_1;electrons-electrons_scf_function_0;c_bands_function_0;diag_bands_k_function_0
# Job info - HDEEM
JOB ID,17281896.10
Nodelist,taurusi5610
AVG Runtime of function [s],3.02661
MAX Runtime of function [s],3.02661
MIN Runtime of function [s],3.02661
# COUNTERS - HDEEM: 
AVG Energy consumption [J] (Stats structure),704.751
MAX Energy consumption [J] (Stats structure),704.751
MIN Energy consumption [J] (Stats structure),704.751
SUM Energy consumption [J] (Stats structure),704.751
# CALLTREE;init_0;Main-PWSCF_0;run-PWSCF_0;run-PWSCF-electrons_function_1;electrons-electrons_scf_function_0;c_bands_function_0;diag_bands_k_function_1
# Job info - HDEEM
JOB ID,17281896.10
Nodelist,taurusi5610
AVG Runtime of function [s],3.11919
MAX Runtime of function [s],3.11919
MIN Runtime of function [s],3.11919
# COUNTERS - HDEEM: 
AVG Energy consumption [J] (Stats structure),726.062
MAX Energy consumption [J] (Stats structure),726.062
MIN Energy consumption [J] (Stats structure),726.062
SUM Energy consumption [J] (Stats structure),726.062
# CALLTREE;init_0;Main-PWSCF_0;run-PWSCF_0;run-PWSCF-electrons_function_1;electrons-electrons_scf_function_0;c_bands_function_0;diag_bands_k_function_2
# Job info - HDEEM
JOB ID,17281896.10
Nodelist,taurusi5610
AVG Runtime of function [s],3.14075
MAX Runtime of function [s],3.14075
MIN Runtime of function [s],3.14075
# COUNTERS - HDEEM: 
AVG Energy consumption [J] (Stats structure),732.774
MAX Energy consumption [J] (Stats structure),732.774
MIN Energy consumption [J] (Stats structure),732.774
SUM Energy consumption [J] (Stats structure),732.774
# CALLTREE;init_0;Main-PWSCF_0;run-PWSCF_0;run-PWSCF-electrons_function_1;electrons-electrons_scf_function_0;c_bands_function_0;diag_bands_k_function_3
# Job info - HDEEM
JOB ID,17281896.10
Nodelist,taurusi5610
AVG Runtime of function [s],3.13081
MAX Runtime of function [s],3.13081
MIN Runtime of function [s],3.13081
# COUNTERS - HDEEM: 
AVG Energy consumption [J] (Stats structure),730.799
MAX Energy consumption [J] (Stats structure),730.799
MIN Energy consumption [J] (Stats structure),730.799
SUM Energy consumption [J] (Stats structure),730.799
# CALLTREE;init_0;Main-PWSCF_0;run-PWSCF_0;run-PWSCF-electrons_function_1;electrons-electrons_scf_function_0;c_bands_function_1;diag_bands_k_function_0
# Job info - HDEEM
JOB ID,17281896.10
Nodelist,taurusi5610
AVG Runtime of function [s],1.94767
MAX Runtime of function [s],1.94767
MIN Runtime of function [s],1.94767
# COUNTERS - HDEEM: 
AVG Energy consumption [J] (Stats structure),455.594
MAX Energy consumption [J] (Stats structure),455.594
MIN Energy consumption [J] (Stats structure),455.594
SUM Energy consumption [J] (Stats structure),455.594
# CALLTREE;init_0;Main-PWSCF_0;run-PWSCF_0;run-PWSCF-electrons_function_1;electrons-electrons_scf_function_0;c_bands_function_1;diag_bands_k_function_1
# Job info - HDEEM
JOB ID,17281896.10
Nodelist,taurusi5610
AVG Runtime of function [s],2.07465
MAX Runtime of function [s],2.07465
MIN Runtime of function [s],2.07465
# COUNTERS - HDEEM: 
AVG Energy consumption [J] (Stats structure),480.15
MAX Energy consumption [J] (Stats structure),480.15
MIN Energy consumption [J] (Stats structure),480.15
SUM Energy consumption [J] (Stats structure),480.15
# CALLTREE;init_0;Main-PWSCF_0;run-PWSCF_0;run-PWSCF-electrons_function_1;electrons-electrons_scf_function_0;c_bands_function_1;diag_bands_k_function_2
# Job info - HDEEM
JOB ID,17281896.10
Nodelist,taurusi5610
AVG Runtime of function [s],1.70818
MAX Runtime of function [s],1.70818
MIN Runtime of function [s],1.70818
# COUNTERS - HDEEM: 
AVG Energy consumption [J] (Stats structure),407.587
MAX Energy consumption [J] (Stats structure),407.587
MIN Energy consumption [J] (Stats structure),407.587
SUM Energy consumption [J] (Stats structure),407.587
# CALLTREE;init_0;Main-PWSCF_0;run-PWSCF_0;run-PWSCF-electrons_function_1;electrons-electrons_scf_function_0;c_bands_function_1;diag_bands_k_function_3
# Job info - HDEEM
JOB ID,17281896.10
Nodelist,taurusi5610
AVG Runtime of function [s],1.71432
MAX Runtime of function [s],1.71432
MIN Runtime of function [s],1.71432
# COUNTERS - HDEEM: 
AVG Energy consumption [J] (Stats structure),408.625
MAX Energy consumption [J] (Stats structure),408.625
MIN Energy consumption [J] (Stats structure),408.625
SUM Energy consumption [J] (Stats structure),408.625
# CALLTREE;init_0;Main-PWSCF_0;run-PWSCF_0;run-PWSCF-electrons_function_1;electrons-electrons_scf_function_0;c_bands_function_2;diag_bands_k_function_0
# Job info - HDEEM
JOB ID,17281896.10
Nodelist,taurusi5610
AVG Runtime of function [s],1.80057
MAX Runtime of function [s],1.80057
MIN Runtime of function [s],1.80057
# COUNTERS - HDEEM: 
AVG Energy consumption [J] (Stats structure),425.03
MAX Energy consumption [J] (Stats structure),425.03
MIN Energy consumption [J] (Stats structure),425.03
SUM Energy consumption [J] (Stats structure),425.03
# CALLTREE;init_0;Main-PWSCF_0;run-PWSCF_0;run-PWSCF-electrons_function_1;electrons-electrons_scf_function_0;c_bands_function_2;diag_bands_k_function_1
# Job info - HDEEM
JOB ID,17281896.10
Nodelist,taurusi5610
AVG Runtime of function [s],1.75035
MAX Runtime of function [s],1.75035
MIN Runtime of function [s],1.75035
# COUNTERS - HDEEM: 
AVG Energy consumption [J] (Stats structure),415.558
MAX Energy consumption [J] (Stats structure),415.558
MIN Energy consumption [J] (Stats structure),415.558
SUM Energy consumption [J] (Stats structure),415.558
# CALLTREE;init_0;Main-PWSCF_0;run-PWSCF_0;run-PWSCF-electrons_function_1;electrons-electrons_scf_function_0;c_bands_function_2;diag_bands_k_function_2
# Job info - HDEEM
JOB ID,17281896.10
Nodelist,taurusi5610
AVG Runtime of function [s],1.73206
MAX Runtime of function [s],1.73206
MIN Runtime of function [s],1.73206
# COUNTERS - HDEEM: 
AVG Energy consumption [J] (Stats structure),412.506
MAX Energy consumption [J] (Stats structure),412.506
MIN Energy consumption [J] (Stats structure),412.506
SUM Energy consumption [J] (Stats structure),412.506
# CALLTREE;init_0;Main-PWSCF_0;run-PWSCF_0;run-PWSCF-electrons_function_1;electrons-electrons_scf_function_0;c_bands_function_2;diag_bands_k_function_3
# Job info - HDEEM
JOB ID,17281896.10
Nodelist,taurusi5610
AVG Runtime of function [s],1.73345
MAX Runtime of function [s],1.73345
MIN Runtime of function [s],1.73345
# COUNTERS - HDEEM: 
AVG Energy consumption [J] (Stats structure),412.906
MAX Energy consumption [J] (Stats structure),412.906
MIN Energy consumption [J] (Stats structure),412.906
SUM Energy consumption [J] (Stats structure),412.906
# CALLTREE;init_0;Main-PWSCF_0;run-PWSCF_0;run-PWSCF-electrons_function_1;electrons-electrons_scf_function_0;c_bands_function_3;diag_bands_k_function_0
# Job info - HDEEM
JOB ID,17281896.10
Nodelist,taurusi5610
AVG Runtime of function [s],4.11989
MAX Runtime of function [s],4.11989
MIN Runtime of function [s],4.11989
# COUNTERS - HDEEM: 
AVG Energy consumption [J] (Stats structure),914.814
MAX Energy consumption [J] (Stats structure),914.814
MIN Energy consumption [J] (Stats structure),914.814
SUM Energy consumption [J] (Stats structure),914.814
# CALLTREE;init_0;Main-PWSCF_0;run-PWSCF_0;run-PWSCF-electrons_function_1;electrons-electrons_scf_function_0;c_bands_function_3;diag_bands_k_function_1
# Job info - HDEEM
JOB ID,17281896.10
Nodelist,taurusi5610
AVG Runtime of function [s],4.83521
MAX Runtime of function [s],4.83521
MIN Runtime of function [s],4.83521
# COUNTERS - HDEEM: 
AVG Energy consumption [J] (Stats structure),1071.43
MAX Energy consumption [J] (Stats structure),1071.43
MIN Energy consumption [J] (Stats structure),1071.43
SUM Energy consumption [J] (Stats structure),1071.43
# CALLTREE;init_0;Main-PWSCF_0;run-PWSCF_0;run-PWSCF-electrons_function_1;electrons-electrons_scf_function_0;c_bands_function_3;diag_bands_k_function_2
# Job info - HDEEM
JOB ID,17281896.10
Nodelist,taurusi5610
AVG Runtime of function [s],6.18403
MAX Runtime of function [s],6.18403
MIN Runtime of function [s],6.18403
# COUNTERS - HDEEM: 
AVG Energy consumption [J] (Stats structure),1333.55
MAX Energy consumption [J] (Stats structure),1333.55
MIN Energy consumption [J] (Stats structure),1333.55
SUM Energy consumption [J] (Stats structure),1333.55
# CALLTREE;init_0;Main-PWSCF_0;run-PWSCF_0;run-PWSCF-electrons_function_1;electrons-electrons_scf_function_0;c_bands_function_3;diag_bands_k_function_3
# Job info - HDEEM
JOB ID,17281896.10
Nodelist,taurusi5610
AVG Runtime of function [s],5.08858
MAX Runtime of function [s],5.08858
MIN Runtime of function [s],5.08858
# COUNTERS - HDEEM: 
AVG Energy consumption [J] (Stats structure),1122.25
MAX Energy consumption [J] (Stats structure),1122.25
MIN Energy consumption [J] (Stats structure),1122.25
SUM Energy consumption [J] (Stats structure),1122.25
# CALLTREE;init_0;Main-PWSCF_0;run-PWSCF_0;run-PWSCF-electrons_function_1;electrons-electrons_scf_function_0;c_bands_function_4;diag_bands_k_function_0
# Job info - HDEEM
JOB ID,17281896.10
Nodelist,taurusi5610
AVG Runtime of function [s],4.86434
MAX Runtime of function [s],4.86434
MIN Runtime of function [s],4.86434
# COUNTERS - HDEEM: 
AVG Energy consumption [J] (Stats structure),1076.4
MAX Energy consumption [J] (Stats structure),1076.4
MIN Energy consumption [J] (Stats structure),1076.4
SUM Energy consumption [J] (Stats structure),1076.4
# CALLTREE;init_0;Main-PWSCF_0;run-PWSCF_0;run-PWSCF-electrons_function_1;electrons-electrons_scf_function_0;c_bands_function_4;diag_bands_k_function_1
# Job info - HDEEM
JOB ID,17281896.10
Nodelist,taurusi5610
AVG Runtime of function [s],5.15913
MAX Runtime of function [s],5.15913
MIN Runtime of function [s],5.15913
# COUNTERS - HDEEM: 
AVG Energy consumption [J] (Stats structure),1132.94
MAX Energy consumption [J] (Stats structure),1132.94
MIN Energy consumption [J] (Stats structure),1132.94
SUM Energy consumption [J] (Stats structure),1132.94
# CALLTREE;init_0;Main-PWSCF_0;run-PWSCF_0;run-PWSCF-electrons_function_1;electrons-electrons_scf_function_0;c_bands_function_4;diag_bands_k_function_2
# Job info - HDEEM
JOB ID,17281896.10
Nodelist,taurusi5610
AVG Runtime of function [s],5.02869
MAX Runtime of function [s],5.02869
MIN Runtime of function [s],5.02869
# COUNTERS - HDEEM: 
AVG Energy consumption [J] (Stats structure),1112.04
MAX Energy consumption [J] (Stats structure),1112.04
MIN Energy consumption [J] (Stats structure),1112.04
SUM Energy consumption [J] (Stats structure),1112.04
# CALLTREE;init_0;Main-PWSCF_0;run-PWSCF_0;run-PWSCF-electrons_function_1;electrons-electrons_scf_function_0;c_bands_function_4;diag_bands_k_function_3
# Job info - HDEEM
JOB ID,17281896.10
Nodelist,taurusi5610
AVG Runtime of function [s],3.40557
MAX Runtime of function [s],3.40557
MIN Runtime of function [s],3.40557
# COUNTERS - HDEEM: 
AVG Energy consumption [J] (Stats structure),784.814
MAX Energy consumption [J] (Stats structure),784.814
MIN Energy consumption [J] (Stats structure),784.814
SUM Energy consumption [J] (Stats structure),784.814
# CALLTREE;init_0;Main-PWSCF_0;run-PWSCF_0;run-PWSCF-electrons_function_1;electrons-electrons_scf_function_0;c_bands_function_5;diag_bands_k_function_0
# Job info - HDEEM
JOB ID,17281896.10
Nodelist,taurusi5610
AVG Runtime of function [s],2.69069
MAX Runtime of function [s],2.69069
MIN Runtime of function [s],2.69069
# COUNTERS - HDEEM: 
AVG Energy consumption [J] (Stats structure),621.623
MAX Energy consumption [J] (Stats structure),621.623
MIN Energy consumption [J] (Stats structure),621.623
SUM Energy consumption [J] (Stats structure),621.623
# CALLTREE;init_0;Main-PWSCF_0;run-PWSCF_0;run-PWSCF-electrons_function_1;electrons-electrons_scf_function_0;c_bands_function_5;diag_bands_k_function_1
# Job info - HDEEM
JOB ID,17281896.10
Nodelist,taurusi5610
AVG Runtime of function [s],4.39197
MAX Runtime of function [s],4.39197
MIN Runtime of function [s],4.39197
# COUNTERS - HDEEM: 
AVG Energy consumption [J] (Stats structure),964.183
MAX Energy consumption [J] (Stats structure),964.183
MIN Energy consumption [J] (Stats structure),964.183
SUM Energy consumption [J] (Stats structure),964.183
# CALLTREE;init_0;Main-PWSCF_0;run-PWSCF_0;run-PWSCF-electrons_function_1;electrons-electrons_scf_function_0;c_bands_function_5;diag_bands_k_function_2
# Job info - HDEEM
JOB ID,17281896.10
Nodelist,taurusi5610
AVG Runtime of function [s],4.28602
MAX Runtime of function [s],4.28602
MIN Runtime of function [s],4.28602
# COUNTERS - HDEEM: 
AVG Energy consumption [J] (Stats structure),942.192
MAX Energy consumption [J] (Stats structure),942.192
MIN Energy consumption [J] (Stats structure),942.192
SUM Energy consumption [J] (Stats structure),942.192
# CALLTREE;init_0;Main-PWSCF_0;run-PWSCF_0;run-PWSCF-electrons_function_1;electrons-electrons_scf_function_0;c_bands_function_5;diag_bands_k_function_3
# Job info - HDEEM
JOB ID,17281896.10
Nodelist,taurusi5610
AVG Runtime of function [s],2.95746
MAX Runtime of function [s],2.95746
MIN Runtime of function [s],2.95746
# COUNTERS - HDEEM: 
AVG Energy consumption [J] (Stats structure),678.431
MAX Energy consumption [J] (Stats structure),678.431
MIN Energy consumption [J] (Stats structure),678.431
SUM Energy consumption [J] (Stats structure),678.431
# CALLTREE;init_0;Main-PWSCF_0;run-PWSCF_0;run-PWSCF-electrons_function_1;electrons-electrons_scf_function_0;c_bands_function_6;diag_bands_k_function_0
# Job info - HDEEM
JOB ID,17281896.10
Nodelist,taurusi5610
AVG Runtime of function [s],2.62014
MAX Runtime of function [s],2.62014
MIN Runtime of function [s],2.62014
# COUNTERS - HDEEM: 
AVG Energy consumption [J] (Stats structure),605.337
MAX Energy consumption [J] (Stats structure),605.337
MIN Energy consumption [J] (Stats structure),605.337
SUM Energy consumption [J] (Stats structure),605.337
# CALLTREE;init_0;Main-PWSCF_0;run-PWSCF_0;run-PWSCF-electrons_function_1;electrons-electrons_scf_function_0;c_bands_function_6;diag_bands_k_function_1
# Job info - HDEEM
JOB ID,17281896.10
Nodelist,taurusi5610
AVG Runtime of function [s],2.61674
MAX Runtime of function [s],2.61674
MIN Runtime of function [s],2.61674
# COUNTERS - HDEEM: 
AVG Energy consumption [J] (Stats structure),607.127
MAX Energy consumption [J] (Stats structure),607.127
MIN Energy consumption [J] (Stats structure),607.127
SUM Energy consumption [J] (Stats structure),607.127
# CALLTREE;init_0;Main-PWSCF_0;run-PWSCF_0;run-PWSCF-electrons_function_1;electrons-electrons_scf_function_0;c_bands_function_6;diag_bands_k_function_2
# Job info - HDEEM
JOB ID,17281896.10
Nodelist,taurusi5610
AVG Runtime of function [s],2.6549
MAX Runtime of function [s],2.6549
MIN Runtime of function [s],2.6549
# COUNTERS - HDEEM: 
AVG Energy consumption [J] (Stats structure),616.233
MAX Energy consumption [J] (Stats structure),616.233
MIN Energy consumption [J] (Stats structure),616.233
SUM Energy consumption [J] (Stats structure),616.233
# CALLTREE;init_0;Main-PWSCF_0;run-PWSCF_0;run-PWSCF-electrons_function_1;electrons-electrons_scf_function_0;c_bands_function_6;diag_bands_k_function_3
# Job info - HDEEM
JOB ID,17281896.10
Nodelist,taurusi5610
AVG Runtime of function [s],2.37358
MAX Runtime of function [s],2.37358
MIN Runtime of function [s],2.37358
# COUNTERS - HDEEM: 
AVG Energy consumption [J] (Stats structure),559.627
MAX Energy consumption [J] (Stats structure),559.627
MIN Energy consumption [J] (Stats structure),559.627
SUM Energy consumption [J] (Stats structure),559.627
# CALLTREE;init_0;Main-PWSCF_0;run-PWSCF_0;run-PWSCF-electrons_function_1;electrons-electrons_scf_function_0;c_bands_function_7;diag_bands_k_function_0
# Job info - HDEEM
JOB ID,17281896.10
Nodelist,taurusi5610
AVG Runtime of function [s],2.81687
MAX Runtime of function [s],2.81687
MIN Runtime of function [s],2.81687
# COUNTERS - HDEEM: 
AVG Energy consumption [J] (Stats structure),656.595
MAX Energy consumption [J] (Stats structure),656.595
MIN Energy consumption [J] (Stats structure),656.595
SUM Energy consumption [J] (Stats structure),656.595
# CALLTREE;init_0;Main-PWSCF_0;run-PWSCF_0;run-PWSCF-electrons_function_1;electrons-electrons_scf_function_0;c_bands_function_7;diag_bands_k_function_1
# Job info - HDEEM
JOB ID,17281896.10
Nodelist,taurusi5610
AVG Runtime of function [s],2.7802
MAX Runtime of function [s],2.7802
MIN Runtime of function [s],2.7802
# COUNTERS - HDEEM: 
AVG Energy consumption [J] (Stats structure),649.252
MAX Energy consumption [J] (Stats structure),649.252
MIN Energy consumption [J] (Stats structure),649.252
SUM Energy consumption [J] (Stats structure),649.252
# CALLTREE;init_0;Main-PWSCF_0;run-PWSCF_0;run-PWSCF-electrons_function_1;electrons-electrons_scf_function_0;c_bands_function_7;diag_bands_k_function_2
# Job info - HDEEM
JOB ID,17281896.10
Nodelist,taurusi5610
AVG Runtime of function [s],2.80727
MAX Runtime of function [s],2.80727
MIN Runtime of function [s],2.80727
# COUNTERS - HDEEM: 
AVG Energy consumption [J] (Stats structure),656.437
MAX Energy consumption [J] (Stats structure),656.437
MIN Energy consumption [J] (Stats structure),656.437
SUM Energy consumption [J] (Stats structure),656.437
# CALLTREE;init_0;Main-PWSCF_0;run-PWSCF_0;run-PWSCF-electrons_function_1;electrons-electrons_scf_function_0;c_bands_function_7;diag_bands_k_function_3
# Job info - HDEEM
JOB ID,17281896.10
Nodelist,taurusi5610
AVG Runtime of function [s],2.95514
MAX Runtime of function [s],2.95514
MIN Runtime of function [s],2.95514
# COUNTERS - HDEEM: 
AVG Energy consumption [J] (Stats structure),691.499
MAX Energy consumption [J] (Stats structure),691.499
MIN Energy consumption [J] (Stats structure),691.499
SUM Energy consumption [J] (Stats structure),691.499
# CALLTREE;init_0;Main-PWSCF_0;run-PWSCF_0;run-PWSCF-electrons_function_1;electrons-electrons_scf_function_0;c_bands_function_8;diag_bands_k_function_0
# Job info - HDEEM
JOB ID,17281896.10
Nodelist,taurusi5610
AVG Runtime of function [s],2.83653
MAX Runtime of function [s],2.83653
MIN Runtime of function [s],2.83653
# COUNTERS - HDEEM: 
AVG Energy consumption [J] (Stats structure),662.197
MAX Energy consumption [J] (Stats structure),662.197
MIN Energy consumption [J] (Stats structure),662.197
SUM Energy consumption [J] (Stats structure),662.197
# CALLTREE;init_0;Main-PWSCF_0;run-PWSCF_0;run-PWSCF-electrons_function_1;electrons-electrons_scf_function_0;c_bands_function_8;diag_bands_k_function_1
# Job info - HDEEM
JOB ID,17281896.10
Nodelist,taurusi5610
AVG Runtime of function [s],2.91026
MAX Runtime of function [s],2.91026
MIN Runtime of function [s],2.91026
# COUNTERS - HDEEM: 
AVG Energy consumption [J] (Stats structure),678.552
MAX Energy consumption [J] (Stats structure),678.552
MIN Energy consumption [J] (Stats structure),678.552
SUM Energy consumption [J] (Stats structure),678.552
# CALLTREE;init_0;Main-PWSCF_0;run-PWSCF_0;run-PWSCF-electrons_function_1;electrons-electrons_scf_function_0;c_bands_function_8;diag_bands_k_function_2
# Job info - HDEEM
JOB ID,17281896.10
Nodelist,taurusi5610
AVG Runtime of function [s],2.88389
MAX Runtime of function [s],2.88389
MIN Runtime of function [s],2.88389
# COUNTERS - HDEEM: 
AVG Energy consumption [J] (Stats structure),674.206
MAX Energy consumption [J] (Stats structure),674.206
MIN Energy consumption [J] (Stats structure),674.206
SUM Energy consumption [J] (Stats structure),674.206
# CALLTREE;init_0;Main-PWSCF_0;run-PWSCF_0;run-PWSCF-electrons_function_1;electrons-electrons_scf_function_0;c_bands_function_8;diag_bands_k_function_3
# Job info - HDEEM
JOB ID,17281896.10
Nodelist,taurusi5610
AVG Runtime of function [s],2.71543
MAX Runtime of function [s],2.71543
MIN Runtime of function [s],2.71543
# COUNTERS - HDEEM: 
AVG Energy consumption [J] (Stats structure),635.428
MAX Energy consumption [J] (Stats structure),635.428
MIN Energy consumption [J] (Stats structure),635.428
SUM Energy consumption [J] (Stats structure),635.428
# CALLTREE;init_0;Main-PWSCF_0;run-PWSCF_0;run-PWSCF-electrons_function_1;electrons-electrons_scf_function_0;c_bands_function_9;diag_bands_k_function_0
# Job info - HDEEM
JOB ID,17281896.10
Nodelist,taurusi5610
AVG Runtime of function [s],2.74828
MAX Runtime of function [s],2.74828
MIN Runtime of function [s],2.74828
# COUNTERS - HDEEM: 
AVG Energy consumption [J] (Stats structure),641.502
MAX Energy consumption [J] (Stats structure),641.502
MIN Energy consumption [J] (Stats structure),641.502
SUM Energy consumption [J] (Stats structure),641.502
# CALLTREE;init_0;Main-PWSCF_0;run-PWSCF_0;run-PWSCF-electrons_function_1;electrons-electrons_scf_function_0;c_bands_function_9;diag_bands_k_function_1
# Job info - HDEEM
JOB ID,17281896.10
Nodelist,taurusi5610
AVG Runtime of function [s],2.72678
MAX Runtime of function [s],2.72678
MIN Runtime of function [s],2.72678
# COUNTERS - HDEEM: 
AVG Energy consumption [J] (Stats structure),637.105
MAX Energy consumption [J] (Stats structure),637.105
MIN Energy consumption [J] (Stats structure),637.105
SUM Energy consumption [J] (Stats structure),637.105
# CALLTREE;init_0;Main-PWSCF_0;run-PWSCF_0;run-PWSCF-electrons_function_1;electrons-electrons_scf_function_0;c_bands_function_9;diag_bands_k_function_2
# Job info - HDEEM
JOB ID,17281896.10
Nodelist,taurusi5610
AVG Runtime of function [s],2.72328
MAX Runtime of function [s],2.72328
MIN Runtime of function [s],2.72328
# COUNTERS - HDEEM: 
AVG Energy consumption [J] (Stats structure),636.661
MAX Energy consumption [J] (Stats structure),636.661
MIN Energy consumption [J] (Stats structure),636.661
SUM Energy consumption [J] (Stats structure),636.661
# CALLTREE;init_0;Main-PWSCF_0;run-PWSCF_0;run-PWSCF-electrons_function_1;electrons-electrons_scf_function_0;c_bands_function_9;diag_bands_k_function_3
# Job info - HDEEM
JOB ID,17281896.10
Nodelist,taurusi5610
AVG Runtime of function [s],2.68236
MAX Runtime of function [s],2.68236
MIN Runtime of function [s],2.68236
# COUNTERS - HDEEM: 
AVG Energy consumption [J] (Stats structure),628.507
MAX Energy consumption [J] (Stats structure),628.507
MIN Energy consumption [J] (Stats structure),628.507
SUM Energy consumption [J] (Stats structure),628.507
# CALLTREE;init_0;Main-PWSCF_0;run-PWSCF_0;run-PWSCF-electrons_function_1;electrons-electrons_scf_function_0;c_bands_function_10;diag_bands_k_function_0
# Job info - HDEEM
JOB ID,17281896.10
Nodelist,taurusi5610
AVG Runtime of function [s],2.73804
MAX Runtime of function [s],2.73804
MIN Runtime of function [s],2.73804
# COUNTERS - HDEEM: 
AVG Energy consumption [J] (Stats structure),639.826
MAX Energy consumption [J] (Stats structure),639.826
MIN Energy consumption [J] (Stats structure),639.826
SUM Energy consumption [J] (Stats structure),639.826
# CALLTREE;init_0;Main-PWSCF_0;run-PWSCF_0;run-PWSCF-electrons_function_1;electrons-electrons_scf_function_0;c_bands_function_10;diag_bands_k_function_1
# Job info - HDEEM
JOB ID,17281896.10
Nodelist,taurusi5610
AVG Runtime of function [s],2.66582
MAX Runtime of function [s],2.66582
MIN Runtime of function [s],2.66582
# COUNTERS - HDEEM: 
AVG Energy consumption [J] (Stats structure),619.45
MAX Energy consumption [J] (Stats structure),619.45
MIN Energy consumption [J] (Stats structure),619.45
SUM Energy consumption [J] (Stats structure),619.45
# CALLTREE;init_0;Main-PWSCF_0;run-PWSCF_0;run-PWSCF-electrons_function_1;electrons-electrons_scf_function_0;c_bands_function_10;diag_bands_k_function_2
# Job info - HDEEM
JOB ID,17281896.10
Nodelist,taurusi5610
AVG Runtime of function [s],2.778
MAX Runtime of function [s],2.778
MIN Runtime of function [s],2.778
# COUNTERS - HDEEM: 
AVG Energy consumption [J] (Stats structure),650.115
MAX Energy consumption [J] (Stats structure),650.115
MIN Energy consumption [J] (Stats structure),650.115
SUM Energy consumption [J] (Stats structure),650.115
# CALLTREE;init_0;Main-PWSCF_0;run-PWSCF_0;run-PWSCF-electrons_function_1;electrons-electrons_scf_function_0;c_bands_function_10;diag_bands_k_function_3
# Job info - HDEEM
JOB ID,17281896.10
Nodelist,taurusi5610
AVG Runtime of function [s],2.65106
MAX Runtime of function [s],2.65106
MIN Runtime of function [s],2.65106
# COUNTERS - HDEEM: 
AVG Energy consumption [J] (Stats structure),617.687
MAX Energy consumption [J] (Stats structure),617.687
MIN Energy consumption [J] (Stats structure),617.687
SUM Energy consumption [J] (Stats structure),617.687
# CALLTREE;init_0;Main-PWSCF_0;run-PWSCF_0;run-PWSCF-electrons_function_1;electrons-electrons_scf_function_0;c_bands_function_11;diag_bands_k_function_0
# Job info - HDEEM
JOB ID,17281896.10
Nodelist,taurusi5610
AVG Runtime of function [s],2.3821
MAX Runtime of function [s],2.3821
MIN Runtime of function [s],2.3821
# COUNTERS - HDEEM: 
AVG Energy consumption [J] (Stats structure),550.074
MAX Energy consumption [J] (Stats structure),550.074
MIN Energy consumption [J] (Stats structure),550.074
SUM Energy consumption [J] (Stats structure),550.074
# CALLTREE;init_0;Main-PWSCF_0;run-PWSCF_0;run-PWSCF-electrons_function_1;electrons-electrons_scf_function_0;c_bands_function_11;diag_bands_k_function_1
# Job info - HDEEM
JOB ID,17281896.10
Nodelist,taurusi5610
AVG Runtime of function [s],2.22322
MAX Runtime of function [s],2.22322
MIN Runtime of function [s],2.22322
# COUNTERS - HDEEM: 
AVG Energy consumption [J] (Stats structure),521.616
MAX Energy consumption [J] (Stats structure),521.616
MIN Energy consumption [J] (Stats structure),521.616
SUM Energy consumption [J] (Stats structure),521.616
# CALLTREE;init_0;Main-PWSCF_0;run-PWSCF_0;run-PWSCF-electrons_function_1;electrons-electrons_scf_function_0;c_bands_function_11;diag_bands_k_function_2
# Job info - HDEEM
JOB ID,17281896.10
Nodelist,taurusi5610
AVG Runtime of function [s],2.18873
MAX Runtime of function [s],2.18873
MIN Runtime of function [s],2.18873
# COUNTERS - HDEEM: 
AVG Energy consumption [J] (Stats structure),513.989
MAX Energy consumption [J] (Stats structure),513.989
MIN Energy consumption [J] (Stats structure),513.989
SUM Energy consumption [J] (Stats structure),513.989
# CALLTREE;init_0;Main-PWSCF_0;run-PWSCF_0;run-PWSCF-electrons_function_1;electrons-electrons_scf_function_0;c_bands_function_11;diag_bands_k_function_3
# Job info - HDEEM
JOB ID,17281896.10
Nodelist,taurusi5610
AVG Runtime of function [s],2.30609
MAX Runtime of function [s],2.30609
MIN Runtime of function [s],2.30609
# COUNTERS - HDEEM: 
AVG Energy consumption [J] (Stats structure),534.8
MAX Energy consumption [J] (Stats structure),534.8
MIN Energy consumption [J] (Stats structure),534.8
SUM Energy consumption [J] (Stats structure),534.8
# CALLTREE;init_0;Main-PWSCF_0;run-PWSCF_0;run-PWSCF-electrons_function_1;electrons-electrons_scf_function_0;c_bands_function_12;diag_bands_k_function_0
# Job info - HDEEM
JOB ID,17281896.10
Nodelist,taurusi5610
AVG Runtime of function [s],3.0073
MAX Runtime of function [s],3.0073
MIN Runtime of function [s],3.0073
# COUNTERS - HDEEM: 
AVG Energy consumption [J] (Stats structure),702.074
MAX Energy consumption [J] (Stats structure),702.074
MIN Energy consumption [J] (Stats structure),702.074
SUM Energy consumption [J] (Stats structure),702.074
# CALLTREE;init_0;Main-PWSCF_0;run-PWSCF_0;run-PWSCF-electrons_function_1;electrons-electrons_scf_function_0;c_bands_function_12;diag_bands_k_function_1
# Job info - HDEEM
JOB ID,17281896.10
Nodelist,taurusi5610
AVG Runtime of function [s],2.86829
MAX Runtime of function [s],2.86829
MIN Runtime of function [s],2.86829
# COUNTERS - HDEEM: 
AVG Energy consumption [J] (Stats structure),670.323
MAX Energy consumption [J] (Stats structure),670.323
MIN Energy consumption [J] (Stats structure),670.323
SUM Energy consumption [J] (Stats structure),670.323
# CALLTREE;init_0;Main-PWSCF_0;run-PWSCF_0;run-PWSCF-electrons_function_1;electrons-electrons_scf_function_0;c_bands_function_12;diag_bands_k_function_2
# Job info - HDEEM
JOB ID,17281896.10
Nodelist,taurusi5610
AVG Runtime of function [s],2.83835
MAX Runtime of function [s],2.83835
MIN Runtime of function [s],2.83835
# COUNTERS - HDEEM: 
AVG Energy consumption [J] (Stats structure),663.776
MAX Energy consumption [J] (Stats structure),663.776
MIN Energy consumption [J] (Stats structure),663.776
SUM Energy consumption [J] (Stats structure),663.776
# CALLTREE;init_0;Main-PWSCF_0;run-PWSCF_0;run-PWSCF-electrons_function_1;electrons-electrons_scf_function_0;c_bands_function_12;diag_bands_k_function_3
# Job info - HDEEM
JOB ID,17281896.10
Nodelist,taurusi5610
AVG Runtime of function [s],2.9313
MAX Runtime of function [s],2.9313
MIN Runtime of function [s],2.9313
# COUNTERS - HDEEM: 
AVG Energy consumption [J] (Stats structure),687.051
MAX Energy consumption [J] (Stats structure),687.051
MIN Energy consumption [J] (Stats structure),687.051
SUM Energy consumption [J] (Stats structure),687.051
# CALLTREE;init_0;Main-PWSCF_0;run-PWSCF_0;run-PWSCF-electrons_function_1;electrons-electrons_scf_function_0;c_bands_function_13;diag_bands_k_function_0
# Job info - HDEEM
JOB ID,17281896.10
Nodelist,taurusi5610
AVG Runtime of function [s],2.49685
MAX Runtime of function [s],2.49685
MIN Runtime of function [s],2.49685
# COUNTERS - HDEEM: 
AVG Energy consumption [J] (Stats structure),590.793
MAX Energy consumption [J] (Stats structure),590.793
MIN Energy consumption [J] (Stats structure),590.793
SUM Energy consumption [J] (Stats structure),590.793
# CALLTREE;init_0;Main-PWSCF_0;run-PWSCF_0;run-PWSCF-electrons_function_1;electrons-electrons_scf_function_0;c_bands_function_13;diag_bands_k_function_1
# Job info - HDEEM
JOB ID,17281896.10
Nodelist,taurusi5610
AVG Runtime of function [s],2.81077
MAX Runtime of function [s],2.81077
MIN Runtime of function [s],2.81077
# COUNTERS - HDEEM: 
AVG Energy consumption [J] (Stats structure),657.33
MAX Energy consumption [J] (Stats structure),657.33
MIN Energy consumption [J] (Stats structure),657.33
SUM Energy consumption [J] (Stats structure),657.33
# CALLTREE;init_0;Main-PWSCF_0;run-PWSCF_0;run-PWSCF-electrons_function_1;electrons-electrons_scf_function_0;c_bands_function_13;diag_bands_k_function_2
# Job info - HDEEM
JOB ID,17281896.10
Nodelist,taurusi5610
AVG Runtime of function [s],2.8246
MAX Runtime of function [s],2.8246
MIN Runtime of function [s],2.8246
# COUNTERS - HDEEM: 
AVG Energy consumption [J] (Stats structure),661.167
MAX Energy consumption [J] (Stats structure),661.167
MIN Energy consumption [J] (Stats structure),661.167
SUM Energy consumption [J] (Stats structure),661.167
# CALLTREE;init_0;Main-PWSCF_0;run-PWSCF_0;run-PWSCF-electrons_function_1;electrons-electrons_scf_function_0;c_bands_function_13;diag_bands_k_function_3
# Job info - HDEEM
JOB ID,17281896.10
Nodelist,taurusi5610
AVG Runtime of function [s],2.74089
MAX Runtime of function [s],2.74089
MIN Runtime of function [s],2.74089
# COUNTERS - HDEEM: 
AVG Energy consumption [J] (Stats structure),643.151
MAX Energy consumption [J] (Stats structure),643.151
MIN Energy consumption [J] (Stats structure),643.151
SUM Energy consumption [J] (Stats structure),643.151
# CALLTREE;init_0;Main-PWSCF_0;run-PWSCF_0;run-PWSCF-electrons_function_1;electrons-electrons_scf_function_0;c_bands_function_14;diag_bands_k_function_0
# Job info - HDEEM
JOB ID,17281896.10
Nodelist,taurusi5610
AVG Runtime of function [s],1.77519
MAX Runtime of function [s],1.77519
MIN Runtime of function [s],1.77519
# COUNTERS - HDEEM: 
AVG Energy consumption [J] (Stats structure),420.543
MAX Energy consumption [J] (Stats structure),420.543
MIN Energy consumption [J] (Stats structure),420.543
SUM Energy consumption [J] (Stats structure),420.543
# CALLTREE;init_0;Main-PWSCF_0;run-PWSCF_0;run-PWSCF-electrons_function_1;electrons-electrons_scf_function_0;c_bands_function_14;diag_bands_k_function_1
# Job info - HDEEM
JOB ID,17281896.10
Nodelist,taurusi5610
AVG Runtime of function [s],1.72322
MAX Runtime of function [s],1.72322
MIN Runtime of function [s],1.72322
# COUNTERS - HDEEM: 
AVG Energy consumption [J] (Stats structure),410.619
MAX Energy consumption [J] (Stats structure),410.619
MIN Energy consumption [J] (Stats structure),410.619
SUM Energy consumption [J] (Stats structure),410.619
# CALLTREE;init_0;Main-PWSCF_0;run-PWSCF_0;run-PWSCF-electrons_function_1;electrons-electrons_scf_function_0;c_bands_function_14;diag_bands_k_function_2
# Job info - HDEEM
JOB ID,17281896.10
Nodelist,taurusi5610
AVG Runtime of function [s],1.7254
MAX Runtime of function [s],1.7254
MIN Runtime of function [s],1.7254
# COUNTERS - HDEEM: 
AVG Energy consumption [J] (Stats structure),411.771
MAX Energy consumption [J] (Stats structure),411.771
MIN Energy consumption [J] (Stats structure),411.771
SUM Energy consumption [J] (Stats structure),411.771
# CALLTREE;init_0;Main-PWSCF_0;run-PWSCF_0;run-PWSCF-electrons_function_1;electrons-electrons_scf_function_0;c_bands_function_14;diag_bands_k_function_3
# Job info - HDEEM
JOB ID,17281896.10
Nodelist,taurusi5610
AVG Runtime of function [s],2.13166
MAX Runtime of function [s],2.13166
MIN Runtime of function [s],2.13166
# COUNTERS - HDEEM: 
AVG Energy consumption [J] (Stats structure),491.201
MAX Energy consumption [J] (Stats structure),491.201
MIN Energy consumption [J] (Stats structure),491.201
SUM Energy consumption [J] (Stats structure),491.201
# CALLTREE;init_0;Main-PWSCF_0;run-PWSCF_0;run-PWSCF-electrons_function_1;electrons-electrons_scf_function_0;c_bands_function_15;diag_bands_k_function_0
# Job info - HDEEM
JOB ID,17281896.10
Nodelist,taurusi5610
AVG Runtime of function [s],1.7851
MAX Runtime of function [s],1.7851
MIN Runtime of function [s],1.7851
# COUNTERS - HDEEM: 
AVG Energy consumption [J] (Stats structure),422.188
MAX Energy consumption [J] (Stats structure),422.188
MIN Energy consumption [J] (Stats structure),422.188
SUM Energy consumption [J] (Stats structure),422.188
# CALLTREE;init_0;Main-PWSCF_0;run-PWSCF_0;run-PWSCF-electrons_function_1;electrons-electrons_scf_function_0;c_bands_function_15;diag_bands_k_function_1
# Job info - HDEEM
JOB ID,17281896.10
Nodelist,taurusi5610
AVG Runtime of function [s],1.7347
MAX Runtime of function [s],1.7347
MIN Runtime of function [s],1.7347
# COUNTERS - HDEEM: 
AVG Energy consumption [J] (Stats structure),412.712
MAX Energy consumption [J] (Stats structure),412.712
MIN Energy consumption [J] (Stats structure),412.712
SUM Energy consumption [J] (Stats structure),412.712
# CALLTREE;init_0;Main-PWSCF_0;run-PWSCF_0;run-PWSCF-electrons_function_1;electrons-electrons_scf_function_0;c_bands_function_15;diag_bands_k_function_2
# Job info - HDEEM
JOB ID,17281896.10
Nodelist,taurusi5610
AVG Runtime of function [s],1.73114
MAX Runtime of function [s],1.73114
MIN Runtime of function [s],1.73114
# COUNTERS - HDEEM: 
AVG Energy consumption [J] (Stats structure),412.728
MAX Energy consumption [J] (Stats structure),412.728
MIN Energy consumption [J] (Stats structure),412.728
SUM Energy consumption [J] (Stats structure),412.728
# CALLTREE;init_0;Main-PWSCF_0;run-PWSCF_0;run-PWSCF-electrons_function_1;electrons-electrons_scf_function_0;c_bands_function_15;diag_bands_k_function_3
# Job info - HDEEM
JOB ID,17281896.10
Nodelist,taurusi5610
AVG Runtime of function [s],1.71954
MAX Runtime of function [s],1.71954
MIN Runtime of function [s],1.71954
# COUNTERS - HDEEM: 
AVG Energy consumption [J] (Stats structure),410.758
MAX Energy consumption [J] (Stats structure),410.758
MIN Energy consumption [J] (Stats structure),410.758
SUM Energy consumption [J] (Stats structure),410.758
