# CALLTREE;init_0;Main-PWSCF_0;run-PWSCF_0;run-PWSCF-electrons_function_1;electrons-electrons_scf_function_0;c_bands_function_0;diag_bands_k_function_0
# Job info - HDEEM
JOB ID,17281896.14
Nodelist,taurusi5610
AVG Runtime of function [s],3.28235
MAX Runtime of function [s],3.28235
MIN Runtime of function [s],3.28235
# COUNTERS - HDEEM: 
AVG Energy consumption [J] (Stats structure),626.663
MAX Energy consumption [J] (Stats structure),626.663
MIN Energy consumption [J] (Stats structure),626.663
SUM Energy consumption [J] (Stats structure),626.663
# CALLTREE;init_0;Main-PWSCF_0;run-PWSCF_0;run-PWSCF-electrons_function_1;electrons-electrons_scf_function_0;c_bands_function_0;diag_bands_k_function_1
# Job info - HDEEM
JOB ID,17281896.14
Nodelist,taurusi5610
AVG Runtime of function [s],3.38254
MAX Runtime of function [s],3.38254
MIN Runtime of function [s],3.38254
# COUNTERS - HDEEM: 
AVG Energy consumption [J] (Stats structure),645.747
MAX Energy consumption [J] (Stats structure),645.747
MIN Energy consumption [J] (Stats structure),645.747
SUM Energy consumption [J] (Stats structure),645.747
# CALLTREE;init_0;Main-PWSCF_0;run-PWSCF_0;run-PWSCF-electrons_function_1;electrons-electrons_scf_function_0;c_bands_function_0;diag_bands_k_function_2
# Job info - HDEEM
JOB ID,17281896.14
Nodelist,taurusi5610
AVG Runtime of function [s],3.39804
MAX Runtime of function [s],3.39804
MIN Runtime of function [s],3.39804
# COUNTERS - HDEEM: 
AVG Energy consumption [J] (Stats structure),650.621
MAX Energy consumption [J] (Stats structure),650.621
MIN Energy consumption [J] (Stats structure),650.621
SUM Energy consumption [J] (Stats structure),650.621
# CALLTREE;init_0;Main-PWSCF_0;run-PWSCF_0;run-PWSCF-electrons_function_1;electrons-electrons_scf_function_0;c_bands_function_0;diag_bands_k_function_3
# Job info - HDEEM
JOB ID,17281896.14
Nodelist,taurusi5610
AVG Runtime of function [s],3.40109
MAX Runtime of function [s],3.40109
MIN Runtime of function [s],3.40109
# COUNTERS - HDEEM: 
AVG Energy consumption [J] (Stats structure),650.935
MAX Energy consumption [J] (Stats structure),650.935
MIN Energy consumption [J] (Stats structure),650.935
SUM Energy consumption [J] (Stats structure),650.935
# CALLTREE;init_0;Main-PWSCF_0;run-PWSCF_0;run-PWSCF-electrons_function_1;electrons-electrons_scf_function_0;c_bands_function_1;diag_bands_k_function_0
# Job info - HDEEM
JOB ID,17281896.14
Nodelist,taurusi5610
AVG Runtime of function [s],2.12142
MAX Runtime of function [s],2.12142
MIN Runtime of function [s],2.12142
# COUNTERS - HDEEM: 
AVG Energy consumption [J] (Stats structure),406.079
MAX Energy consumption [J] (Stats structure),406.079
MIN Energy consumption [J] (Stats structure),406.079
SUM Energy consumption [J] (Stats structure),406.079
# CALLTREE;init_0;Main-PWSCF_0;run-PWSCF_0;run-PWSCF-electrons_function_1;electrons-electrons_scf_function_0;c_bands_function_1;diag_bands_k_function_1
# Job info - HDEEM
JOB ID,17281896.14
Nodelist,taurusi5610
AVG Runtime of function [s],2.2547
MAX Runtime of function [s],2.2547
MIN Runtime of function [s],2.2547
# COUNTERS - HDEEM: 
AVG Energy consumption [J] (Stats structure),427.182
MAX Energy consumption [J] (Stats structure),427.182
MIN Energy consumption [J] (Stats structure),427.182
SUM Energy consumption [J] (Stats structure),427.182
# CALLTREE;init_0;Main-PWSCF_0;run-PWSCF_0;run-PWSCF-electrons_function_1;electrons-electrons_scf_function_0;c_bands_function_1;diag_bands_k_function_2
# Job info - HDEEM
JOB ID,17281896.14
Nodelist,taurusi5610
AVG Runtime of function [s],1.86068
MAX Runtime of function [s],1.86068
MIN Runtime of function [s],1.86068
# COUNTERS - HDEEM: 
AVG Energy consumption [J] (Stats structure),363.011
MAX Energy consumption [J] (Stats structure),363.011
MIN Energy consumption [J] (Stats structure),363.011
SUM Energy consumption [J] (Stats structure),363.011
# CALLTREE;init_0;Main-PWSCF_0;run-PWSCF_0;run-PWSCF-electrons_function_1;electrons-electrons_scf_function_0;c_bands_function_1;diag_bands_k_function_3
# Job info - HDEEM
JOB ID,17281896.14
Nodelist,taurusi5610
AVG Runtime of function [s],1.86127
MAX Runtime of function [s],1.86127
MIN Runtime of function [s],1.86127
# COUNTERS - HDEEM: 
AVG Energy consumption [J] (Stats structure),363.342
MAX Energy consumption [J] (Stats structure),363.342
MIN Energy consumption [J] (Stats structure),363.342
SUM Energy consumption [J] (Stats structure),363.342
# CALLTREE;init_0;Main-PWSCF_0;run-PWSCF_0;run-PWSCF-electrons_function_1;electrons-electrons_scf_function_0;c_bands_function_2;diag_bands_k_function_0
# Job info - HDEEM
JOB ID,17281896.14
Nodelist,taurusi5610
AVG Runtime of function [s],2.00935
MAX Runtime of function [s],2.00935
MIN Runtime of function [s],2.00935
# COUNTERS - HDEEM: 
AVG Energy consumption [J] (Stats structure),386.121
MAX Energy consumption [J] (Stats structure),386.121
MIN Energy consumption [J] (Stats structure),386.121
SUM Energy consumption [J] (Stats structure),386.121
# CALLTREE;init_0;Main-PWSCF_0;run-PWSCF_0;run-PWSCF-electrons_function_1;electrons-electrons_scf_function_0;c_bands_function_2;diag_bands_k_function_1
# Job info - HDEEM
JOB ID,17281896.14
Nodelist,taurusi5610
AVG Runtime of function [s],1.88771
MAX Runtime of function [s],1.88771
MIN Runtime of function [s],1.88771
# COUNTERS - HDEEM: 
AVG Energy consumption [J] (Stats structure),367.323
MAX Energy consumption [J] (Stats structure),367.323
MIN Energy consumption [J] (Stats structure),367.323
SUM Energy consumption [J] (Stats structure),367.323
# CALLTREE;init_0;Main-PWSCF_0;run-PWSCF_0;run-PWSCF-electrons_function_1;electrons-electrons_scf_function_0;c_bands_function_2;diag_bands_k_function_2
# Job info - HDEEM
JOB ID,17281896.14
Nodelist,taurusi5610
AVG Runtime of function [s],1.88064
MAX Runtime of function [s],1.88064
MIN Runtime of function [s],1.88064
# COUNTERS - HDEEM: 
AVG Energy consumption [J] (Stats structure),366.67
MAX Energy consumption [J] (Stats structure),366.67
MIN Energy consumption [J] (Stats structure),366.67
SUM Energy consumption [J] (Stats structure),366.67
# CALLTREE;init_0;Main-PWSCF_0;run-PWSCF_0;run-PWSCF-electrons_function_1;electrons-electrons_scf_function_0;c_bands_function_2;diag_bands_k_function_3
# Job info - HDEEM
JOB ID,17281896.14
Nodelist,taurusi5610
AVG Runtime of function [s],1.87915
MAX Runtime of function [s],1.87915
MIN Runtime of function [s],1.87915
# COUNTERS - HDEEM: 
AVG Energy consumption [J] (Stats structure),366.581
MAX Energy consumption [J] (Stats structure),366.581
MIN Energy consumption [J] (Stats structure),366.581
SUM Energy consumption [J] (Stats structure),366.581
# CALLTREE;init_0;Main-PWSCF_0;run-PWSCF_0;run-PWSCF-electrons_function_1;electrons-electrons_scf_function_0;c_bands_function_3;diag_bands_k_function_0
# Job info - HDEEM
JOB ID,17281896.14
Nodelist,taurusi5610
AVG Runtime of function [s],4.51047
MAX Runtime of function [s],4.51047
MIN Runtime of function [s],4.51047
# COUNTERS - HDEEM: 
AVG Energy consumption [J] (Stats structure),819.268
MAX Energy consumption [J] (Stats structure),819.268
MIN Energy consumption [J] (Stats structure),819.268
SUM Energy consumption [J] (Stats structure),819.268
# CALLTREE;init_0;Main-PWSCF_0;run-PWSCF_0;run-PWSCF-electrons_function_1;electrons-electrons_scf_function_0;c_bands_function_3;diag_bands_k_function_1
# Job info - HDEEM
JOB ID,17281896.14
Nodelist,taurusi5610
AVG Runtime of function [s],5.22962
MAX Runtime of function [s],5.22962
MIN Runtime of function [s],5.22962
# COUNTERS - HDEEM: 
AVG Energy consumption [J] (Stats structure),951.347
MAX Energy consumption [J] (Stats structure),951.347
MIN Energy consumption [J] (Stats structure),951.347
SUM Energy consumption [J] (Stats structure),951.347
# CALLTREE;init_0;Main-PWSCF_0;run-PWSCF_0;run-PWSCF-electrons_function_1;electrons-electrons_scf_function_0;c_bands_function_3;diag_bands_k_function_2
# Job info - HDEEM
JOB ID,17281896.14
Nodelist,taurusi5610
AVG Runtime of function [s],6.71247
MAX Runtime of function [s],6.71247
MIN Runtime of function [s],6.71247
# COUNTERS - HDEEM: 
AVG Energy consumption [J] (Stats structure),1188.31
MAX Energy consumption [J] (Stats structure),1188.31
MIN Energy consumption [J] (Stats structure),1188.31
SUM Energy consumption [J] (Stats structure),1188.31
# CALLTREE;init_0;Main-PWSCF_0;run-PWSCF_0;run-PWSCF-electrons_function_1;electrons-electrons_scf_function_0;c_bands_function_3;diag_bands_k_function_3
# Job info - HDEEM
JOB ID,17281896.14
Nodelist,taurusi5610
AVG Runtime of function [s],5.52174
MAX Runtime of function [s],5.52174
MIN Runtime of function [s],5.52174
# COUNTERS - HDEEM: 
AVG Energy consumption [J] (Stats structure),999.745
MAX Energy consumption [J] (Stats structure),999.745
MIN Energy consumption [J] (Stats structure),999.745
SUM Energy consumption [J] (Stats structure),999.745
# CALLTREE;init_0;Main-PWSCF_0;run-PWSCF_0;run-PWSCF-electrons_function_1;electrons-electrons_scf_function_0;c_bands_function_4;diag_bands_k_function_0
# Job info - HDEEM
JOB ID,17281896.14
Nodelist,taurusi5610
AVG Runtime of function [s],5.27911
MAX Runtime of function [s],5.27911
MIN Runtime of function [s],5.27911
# COUNTERS - HDEEM: 
AVG Energy consumption [J] (Stats structure),958.512
MAX Energy consumption [J] (Stats structure),958.512
MIN Energy consumption [J] (Stats structure),958.512
SUM Energy consumption [J] (Stats structure),958.512
# CALLTREE;init_0;Main-PWSCF_0;run-PWSCF_0;run-PWSCF-electrons_function_1;electrons-electrons_scf_function_0;c_bands_function_4;diag_bands_k_function_1
# Job info - HDEEM
JOB ID,17281896.14
Nodelist,taurusi5610
AVG Runtime of function [s],5.58619
MAX Runtime of function [s],5.58619
MIN Runtime of function [s],5.58619
# COUNTERS - HDEEM: 
AVG Energy consumption [J] (Stats structure),1007.19
MAX Energy consumption [J] (Stats structure),1007.19
MIN Energy consumption [J] (Stats structure),1007.19
SUM Energy consumption [J] (Stats structure),1007.19
# CALLTREE;init_0;Main-PWSCF_0;run-PWSCF_0;run-PWSCF-electrons_function_1;electrons-electrons_scf_function_0;c_bands_function_4;diag_bands_k_function_2
# Job info - HDEEM
JOB ID,17281896.14
Nodelist,taurusi5610
AVG Runtime of function [s],5.43041
MAX Runtime of function [s],5.43041
MIN Runtime of function [s],5.43041
# COUNTERS - HDEEM: 
AVG Energy consumption [J] (Stats structure),986.441
MAX Energy consumption [J] (Stats structure),986.441
MIN Energy consumption [J] (Stats structure),986.441
SUM Energy consumption [J] (Stats structure),986.441
# CALLTREE;init_0;Main-PWSCF_0;run-PWSCF_0;run-PWSCF-electrons_function_1;electrons-electrons_scf_function_0;c_bands_function_4;diag_bands_k_function_3
# Job info - HDEEM
JOB ID,17281896.14
Nodelist,taurusi5610
AVG Runtime of function [s],3.68956
MAX Runtime of function [s],3.68956
MIN Runtime of function [s],3.68956
# COUNTERS - HDEEM: 
AVG Energy consumption [J] (Stats structure),697.403
MAX Energy consumption [J] (Stats structure),697.403
MIN Energy consumption [J] (Stats structure),697.403
SUM Energy consumption [J] (Stats structure),697.403
# CALLTREE;init_0;Main-PWSCF_0;run-PWSCF_0;run-PWSCF-electrons_function_1;electrons-electrons_scf_function_0;c_bands_function_5;diag_bands_k_function_0
# Job info - HDEEM
JOB ID,17281896.14
Nodelist,taurusi5610
AVG Runtime of function [s],2.94448
MAX Runtime of function [s],2.94448
MIN Runtime of function [s],2.94448
# COUNTERS - HDEEM: 
AVG Energy consumption [J] (Stats structure),556.136
MAX Energy consumption [J] (Stats structure),556.136
MIN Energy consumption [J] (Stats structure),556.136
SUM Energy consumption [J] (Stats structure),556.136
# CALLTREE;init_0;Main-PWSCF_0;run-PWSCF_0;run-PWSCF-electrons_function_1;electrons-electrons_scf_function_0;c_bands_function_5;diag_bands_k_function_1
# Job info - HDEEM
JOB ID,17281896.14
Nodelist,taurusi5610
AVG Runtime of function [s],4.76614
MAX Runtime of function [s],4.76614
MIN Runtime of function [s],4.76614
# COUNTERS - HDEEM: 
AVG Energy consumption [J] (Stats structure),858.139
MAX Energy consumption [J] (Stats structure),858.139
MIN Energy consumption [J] (Stats structure),858.139
SUM Energy consumption [J] (Stats structure),858.139
# CALLTREE;init_0;Main-PWSCF_0;run-PWSCF_0;run-PWSCF-electrons_function_1;electrons-electrons_scf_function_0;c_bands_function_5;diag_bands_k_function_2
# Job info - HDEEM
JOB ID,17281896.14
Nodelist,taurusi5610
AVG Runtime of function [s],4.66604
MAX Runtime of function [s],4.66604
MIN Runtime of function [s],4.66604
# COUNTERS - HDEEM: 
AVG Energy consumption [J] (Stats structure),840.742
MAX Energy consumption [J] (Stats structure),840.742
MIN Energy consumption [J] (Stats structure),840.742
SUM Energy consumption [J] (Stats structure),840.742
# CALLTREE;init_0;Main-PWSCF_0;run-PWSCF_0;run-PWSCF-electrons_function_1;electrons-electrons_scf_function_0;c_bands_function_5;diag_bands_k_function_3
# Job info - HDEEM
JOB ID,17281896.14
Nodelist,taurusi5610
AVG Runtime of function [s],3.20383
MAX Runtime of function [s],3.20383
MIN Runtime of function [s],3.20383
# COUNTERS - HDEEM: 
AVG Energy consumption [J] (Stats structure),602.175
MAX Energy consumption [J] (Stats structure),602.175
MIN Energy consumption [J] (Stats structure),602.175
SUM Energy consumption [J] (Stats structure),602.175
# CALLTREE;init_0;Main-PWSCF_0;run-PWSCF_0;run-PWSCF-electrons_function_1;electrons-electrons_scf_function_0;c_bands_function_6;diag_bands_k_function_0
# Job info - HDEEM
JOB ID,17281896.14
Nodelist,taurusi5610
AVG Runtime of function [s],2.873
MAX Runtime of function [s],2.873
MIN Runtime of function [s],2.873
# COUNTERS - HDEEM: 
AVG Energy consumption [J] (Stats structure),542.153
MAX Energy consumption [J] (Stats structure),542.153
MIN Energy consumption [J] (Stats structure),542.153
SUM Energy consumption [J] (Stats structure),542.153
# CALLTREE;init_0;Main-PWSCF_0;run-PWSCF_0;run-PWSCF-electrons_function_1;electrons-electrons_scf_function_0;c_bands_function_6;diag_bands_k_function_1
# Job info - HDEEM
JOB ID,17281896.14
Nodelist,taurusi5610
AVG Runtime of function [s],2.83767
MAX Runtime of function [s],2.83767
MIN Runtime of function [s],2.83767
# COUNTERS - HDEEM: 
AVG Energy consumption [J] (Stats structure),538.839
MAX Energy consumption [J] (Stats structure),538.839
MIN Energy consumption [J] (Stats structure),538.839
SUM Energy consumption [J] (Stats structure),538.839
# CALLTREE;init_0;Main-PWSCF_0;run-PWSCF_0;run-PWSCF-electrons_function_1;electrons-electrons_scf_function_0;c_bands_function_6;diag_bands_k_function_2
# Job info - HDEEM
JOB ID,17281896.14
Nodelist,taurusi5610
AVG Runtime of function [s],2.86921
MAX Runtime of function [s],2.86921
MIN Runtime of function [s],2.86921
# COUNTERS - HDEEM: 
AVG Energy consumption [J] (Stats structure),545.558
MAX Energy consumption [J] (Stats structure),545.558
MIN Energy consumption [J] (Stats structure),545.558
SUM Energy consumption [J] (Stats structure),545.558
# CALLTREE;init_0;Main-PWSCF_0;run-PWSCF_0;run-PWSCF-electrons_function_1;electrons-electrons_scf_function_0;c_bands_function_6;diag_bands_k_function_3
# Job info - HDEEM
JOB ID,17281896.14
Nodelist,taurusi5610
AVG Runtime of function [s],2.58698
MAX Runtime of function [s],2.58698
MIN Runtime of function [s],2.58698
# COUNTERS - HDEEM: 
AVG Energy consumption [J] (Stats structure),498.83
MAX Energy consumption [J] (Stats structure),498.83
MIN Energy consumption [J] (Stats structure),498.83
SUM Energy consumption [J] (Stats structure),498.83
# CALLTREE;init_0;Main-PWSCF_0;run-PWSCF_0;run-PWSCF-electrons_function_1;electrons-electrons_scf_function_0;c_bands_function_7;diag_bands_k_function_0
# Job info - HDEEM
JOB ID,17281896.14
Nodelist,taurusi5610
AVG Runtime of function [s],3.07894
MAX Runtime of function [s],3.07894
MIN Runtime of function [s],3.07894
# COUNTERS - HDEEM: 
AVG Energy consumption [J] (Stats structure),586.345
MAX Energy consumption [J] (Stats structure),586.345
MIN Energy consumption [J] (Stats structure),586.345
SUM Energy consumption [J] (Stats structure),586.345
# CALLTREE;init_0;Main-PWSCF_0;run-PWSCF_0;run-PWSCF-electrons_function_1;electrons-electrons_scf_function_0;c_bands_function_7;diag_bands_k_function_1
# Job info - HDEEM
JOB ID,17281896.14
Nodelist,taurusi5610
AVG Runtime of function [s],3.03783
MAX Runtime of function [s],3.03783
MIN Runtime of function [s],3.03783
# COUNTERS - HDEEM: 
AVG Energy consumption [J] (Stats structure),579.909
MAX Energy consumption [J] (Stats structure),579.909
MIN Energy consumption [J] (Stats structure),579.909
SUM Energy consumption [J] (Stats structure),579.909
# CALLTREE;init_0;Main-PWSCF_0;run-PWSCF_0;run-PWSCF-electrons_function_1;electrons-electrons_scf_function_0;c_bands_function_7;diag_bands_k_function_2
# Job info - HDEEM
JOB ID,17281896.14
Nodelist,taurusi5610
AVG Runtime of function [s],3.04949
MAX Runtime of function [s],3.04949
MIN Runtime of function [s],3.04949
# COUNTERS - HDEEM: 
AVG Energy consumption [J] (Stats structure),583.392
MAX Energy consumption [J] (Stats structure),583.392
MIN Energy consumption [J] (Stats structure),583.392
SUM Energy consumption [J] (Stats structure),583.392
# CALLTREE;init_0;Main-PWSCF_0;run-PWSCF_0;run-PWSCF-electrons_function_1;electrons-electrons_scf_function_0;c_bands_function_7;diag_bands_k_function_3
# Job info - HDEEM
JOB ID,17281896.14
Nodelist,taurusi5610
AVG Runtime of function [s],3.21032
MAX Runtime of function [s],3.21032
MIN Runtime of function [s],3.21032
# COUNTERS - HDEEM: 
AVG Energy consumption [J] (Stats structure),614.974
MAX Energy consumption [J] (Stats structure),614.974
MIN Energy consumption [J] (Stats structure),614.974
SUM Energy consumption [J] (Stats structure),614.974
# CALLTREE;init_0;Main-PWSCF_0;run-PWSCF_0;run-PWSCF-electrons_function_1;electrons-electrons_scf_function_0;c_bands_function_8;diag_bands_k_function_0
# Job info - HDEEM
JOB ID,17281896.14
Nodelist,taurusi5610
AVG Runtime of function [s],3.08806
MAX Runtime of function [s],3.08806
MIN Runtime of function [s],3.08806
# COUNTERS - HDEEM: 
AVG Energy consumption [J] (Stats structure),589.154
MAX Energy consumption [J] (Stats structure),589.154
MIN Energy consumption [J] (Stats structure),589.154
SUM Energy consumption [J] (Stats structure),589.154
# CALLTREE;init_0;Main-PWSCF_0;run-PWSCF_0;run-PWSCF-electrons_function_1;electrons-electrons_scf_function_0;c_bands_function_8;diag_bands_k_function_1
# Job info - HDEEM
JOB ID,17281896.14
Nodelist,taurusi5610
AVG Runtime of function [s],3.12722
MAX Runtime of function [s],3.12722
MIN Runtime of function [s],3.12722
# COUNTERS - HDEEM: 
AVG Energy consumption [J] (Stats structure),598.054
MAX Energy consumption [J] (Stats structure),598.054
MIN Energy consumption [J] (Stats structure),598.054
SUM Energy consumption [J] (Stats structure),598.054
# CALLTREE;init_0;Main-PWSCF_0;run-PWSCF_0;run-PWSCF-electrons_function_1;electrons-electrons_scf_function_0;c_bands_function_8;diag_bands_k_function_2
# Job info - HDEEM
JOB ID,17281896.14
Nodelist,taurusi5610
AVG Runtime of function [s],3.19245
MAX Runtime of function [s],3.19245
MIN Runtime of function [s],3.19245
# COUNTERS - HDEEM: 
AVG Energy consumption [J] (Stats structure),608.545
MAX Energy consumption [J] (Stats structure),608.545
MIN Energy consumption [J] (Stats structure),608.545
SUM Energy consumption [J] (Stats structure),608.545
# CALLTREE;init_0;Main-PWSCF_0;run-PWSCF_0;run-PWSCF-electrons_function_1;electrons-electrons_scf_function_0;c_bands_function_8;diag_bands_k_function_3
# Job info - HDEEM
JOB ID,17281896.14
Nodelist,taurusi5610
AVG Runtime of function [s],2.95084
MAX Runtime of function [s],2.95084
MIN Runtime of function [s],2.95084
# COUNTERS - HDEEM: 
AVG Energy consumption [J] (Stats structure),564.783
MAX Energy consumption [J] (Stats structure),564.783
MIN Energy consumption [J] (Stats structure),564.783
SUM Energy consumption [J] (Stats structure),564.783
# CALLTREE;init_0;Main-PWSCF_0;run-PWSCF_0;run-PWSCF-electrons_function_1;electrons-electrons_scf_function_0;c_bands_function_9;diag_bands_k_function_0
# Job info - HDEEM
JOB ID,17281896.14
Nodelist,taurusi5610
AVG Runtime of function [s],3.01937
MAX Runtime of function [s],3.01937
MIN Runtime of function [s],3.01937
# COUNTERS - HDEEM: 
AVG Energy consumption [J] (Stats structure),574.896
MAX Energy consumption [J] (Stats structure),574.896
MIN Energy consumption [J] (Stats structure),574.896
SUM Energy consumption [J] (Stats structure),574.896
# CALLTREE;init_0;Main-PWSCF_0;run-PWSCF_0;run-PWSCF-electrons_function_1;electrons-electrons_scf_function_0;c_bands_function_9;diag_bands_k_function_1
# Job info - HDEEM
JOB ID,17281896.14
Nodelist,taurusi5610
AVG Runtime of function [s],2.96313
MAX Runtime of function [s],2.96313
MIN Runtime of function [s],2.96313
# COUNTERS - HDEEM: 
AVG Energy consumption [J] (Stats structure),566.298
MAX Energy consumption [J] (Stats structure),566.298
MIN Energy consumption [J] (Stats structure),566.298
SUM Energy consumption [J] (Stats structure),566.298
# CALLTREE;init_0;Main-PWSCF_0;run-PWSCF_0;run-PWSCF-electrons_function_1;electrons-electrons_scf_function_0;c_bands_function_9;diag_bands_k_function_2
# Job info - HDEEM
JOB ID,17281896.14
Nodelist,taurusi5610
AVG Runtime of function [s],2.96367
MAX Runtime of function [s],2.96367
MIN Runtime of function [s],2.96367
# COUNTERS - HDEEM: 
AVG Energy consumption [J] (Stats structure),566.719
MAX Energy consumption [J] (Stats structure),566.719
MIN Energy consumption [J] (Stats structure),566.719
SUM Energy consumption [J] (Stats structure),566.719
# CALLTREE;init_0;Main-PWSCF_0;run-PWSCF_0;run-PWSCF-electrons_function_1;electrons-electrons_scf_function_0;c_bands_function_9;diag_bands_k_function_3
# Job info - HDEEM
JOB ID,17281896.14
Nodelist,taurusi5610
AVG Runtime of function [s],2.92651
MAX Runtime of function [s],2.92651
MIN Runtime of function [s],2.92651
# COUNTERS - HDEEM: 
AVG Energy consumption [J] (Stats structure),560.132
MAX Energy consumption [J] (Stats structure),560.132
MIN Energy consumption [J] (Stats structure),560.132
SUM Energy consumption [J] (Stats structure),560.132
# CALLTREE;init_0;Main-PWSCF_0;run-PWSCF_0;run-PWSCF-electrons_function_1;electrons-electrons_scf_function_0;c_bands_function_10;diag_bands_k_function_0
# Job info - HDEEM
JOB ID,17281896.14
Nodelist,taurusi5610
AVG Runtime of function [s],3.0073
MAX Runtime of function [s],3.0073
MIN Runtime of function [s],3.0073
# COUNTERS - HDEEM: 
AVG Energy consumption [J] (Stats structure),572.993
MAX Energy consumption [J] (Stats structure),572.993
MIN Energy consumption [J] (Stats structure),572.993
SUM Energy consumption [J] (Stats structure),572.993
# CALLTREE;init_0;Main-PWSCF_0;run-PWSCF_0;run-PWSCF-electrons_function_1;electrons-electrons_scf_function_0;c_bands_function_10;diag_bands_k_function_1
# Job info - HDEEM
JOB ID,17281896.14
Nodelist,taurusi5610
AVG Runtime of function [s],2.88903
MAX Runtime of function [s],2.88903
MIN Runtime of function [s],2.88903
# COUNTERS - HDEEM: 
AVG Energy consumption [J] (Stats structure),549.35
MAX Energy consumption [J] (Stats structure),549.35
MIN Energy consumption [J] (Stats structure),549.35
SUM Energy consumption [J] (Stats structure),549.35
# CALLTREE;init_0;Main-PWSCF_0;run-PWSCF_0;run-PWSCF-electrons_function_1;electrons-electrons_scf_function_0;c_bands_function_10;diag_bands_k_function_2
# Job info - HDEEM
JOB ID,17281896.14
Nodelist,taurusi5610
AVG Runtime of function [s],3.03352
MAX Runtime of function [s],3.03352
MIN Runtime of function [s],3.03352
# COUNTERS - HDEEM: 
AVG Energy consumption [J] (Stats structure),579.951
MAX Energy consumption [J] (Stats structure),579.951
MIN Energy consumption [J] (Stats structure),579.951
SUM Energy consumption [J] (Stats structure),579.951
# CALLTREE;init_0;Main-PWSCF_0;run-PWSCF_0;run-PWSCF-electrons_function_1;electrons-electrons_scf_function_0;c_bands_function_10;diag_bands_k_function_3
# Job info - HDEEM
JOB ID,17281896.14
Nodelist,taurusi5610
AVG Runtime of function [s],2.87454
MAX Runtime of function [s],2.87454
MIN Runtime of function [s],2.87454
# COUNTERS - HDEEM: 
AVG Energy consumption [J] (Stats structure),547.738
MAX Energy consumption [J] (Stats structure),547.738
MIN Energy consumption [J] (Stats structure),547.738
SUM Energy consumption [J] (Stats structure),547.738
# CALLTREE;init_0;Main-PWSCF_0;run-PWSCF_0;run-PWSCF-electrons_function_1;electrons-electrons_scf_function_0;c_bands_function_11;diag_bands_k_function_0
# Job info - HDEEM
JOB ID,17281896.14
Nodelist,taurusi5610
AVG Runtime of function [s],2.60618
MAX Runtime of function [s],2.60618
MIN Runtime of function [s],2.60618
# COUNTERS - HDEEM: 
AVG Energy consumption [J] (Stats structure),491.78
MAX Energy consumption [J] (Stats structure),491.78
MIN Energy consumption [J] (Stats structure),491.78
SUM Energy consumption [J] (Stats structure),491.78
# CALLTREE;init_0;Main-PWSCF_0;run-PWSCF_0;run-PWSCF-electrons_function_1;electrons-electrons_scf_function_0;c_bands_function_11;diag_bands_k_function_1
# Job info - HDEEM
JOB ID,17281896.14
Nodelist,taurusi5610
AVG Runtime of function [s],2.40073
MAX Runtime of function [s],2.40073
MIN Runtime of function [s],2.40073
# COUNTERS - HDEEM: 
AVG Energy consumption [J] (Stats structure),461.578
MAX Energy consumption [J] (Stats structure),461.578
MIN Energy consumption [J] (Stats structure),461.578
SUM Energy consumption [J] (Stats structure),461.578
# CALLTREE;init_0;Main-PWSCF_0;run-PWSCF_0;run-PWSCF-electrons_function_1;electrons-electrons_scf_function_0;c_bands_function_11;diag_bands_k_function_2
# Job info - HDEEM
JOB ID,17281896.14
Nodelist,taurusi5610
AVG Runtime of function [s],2.37337
MAX Runtime of function [s],2.37337
MIN Runtime of function [s],2.37337
# COUNTERS - HDEEM: 
AVG Energy consumption [J] (Stats structure),456.509
MAX Energy consumption [J] (Stats structure),456.509
MIN Energy consumption [J] (Stats structure),456.509
SUM Energy consumption [J] (Stats structure),456.509
# CALLTREE;init_0;Main-PWSCF_0;run-PWSCF_0;run-PWSCF-electrons_function_1;electrons-electrons_scf_function_0;c_bands_function_11;diag_bands_k_function_3
# Job info - HDEEM
JOB ID,17281896.14
Nodelist,taurusi5610
AVG Runtime of function [s],2.48997
MAX Runtime of function [s],2.48997
MIN Runtime of function [s],2.48997
# COUNTERS - HDEEM: 
AVG Energy consumption [J] (Stats structure),474.413
MAX Energy consumption [J] (Stats structure),474.413
MIN Energy consumption [J] (Stats structure),474.413
SUM Energy consumption [J] (Stats structure),474.413
# CALLTREE;init_0;Main-PWSCF_0;run-PWSCF_0;run-PWSCF-electrons_function_1;electrons-electrons_scf_function_0;c_bands_function_12;diag_bands_k_function_0
# Job info - HDEEM
JOB ID,17281896.14
Nodelist,taurusi5610
AVG Runtime of function [s],3.27798
MAX Runtime of function [s],3.27798
MIN Runtime of function [s],3.27798
# COUNTERS - HDEEM: 
AVG Energy consumption [J] (Stats structure),625.911
MAX Energy consumption [J] (Stats structure),625.911
MIN Energy consumption [J] (Stats structure),625.911
SUM Energy consumption [J] (Stats structure),625.911
# CALLTREE;init_0;Main-PWSCF_0;run-PWSCF_0;run-PWSCF-electrons_function_1;electrons-electrons_scf_function_0;c_bands_function_12;diag_bands_k_function_1
# Job info - HDEEM
JOB ID,17281896.14
Nodelist,taurusi5610
AVG Runtime of function [s],3.12415
MAX Runtime of function [s],3.12415
MIN Runtime of function [s],3.12415
# COUNTERS - HDEEM: 
AVG Energy consumption [J] (Stats structure),597.262
MAX Energy consumption [J] (Stats structure),597.262
MIN Energy consumption [J] (Stats structure),597.262
SUM Energy consumption [J] (Stats structure),597.262
# CALLTREE;init_0;Main-PWSCF_0;run-PWSCF_0;run-PWSCF-electrons_function_1;electrons-electrons_scf_function_0;c_bands_function_12;diag_bands_k_function_2
# Job info - HDEEM
JOB ID,17281896.14
Nodelist,taurusi5610
AVG Runtime of function [s],3.07069
MAX Runtime of function [s],3.07069
MIN Runtime of function [s],3.07069
# COUNTERS - HDEEM: 
AVG Energy consumption [J] (Stats structure),587.973
MAX Energy consumption [J] (Stats structure),587.973
MIN Energy consumption [J] (Stats structure),587.973
SUM Energy consumption [J] (Stats structure),587.973
# CALLTREE;init_0;Main-PWSCF_0;run-PWSCF_0;run-PWSCF-electrons_function_1;electrons-electrons_scf_function_0;c_bands_function_12;diag_bands_k_function_3
# Job info - HDEEM
JOB ID,17281896.14
Nodelist,taurusi5610
AVG Runtime of function [s],3.18029
MAX Runtime of function [s],3.18029
MIN Runtime of function [s],3.18029
# COUNTERS - HDEEM: 
AVG Energy consumption [J] (Stats structure),610.165
MAX Energy consumption [J] (Stats structure),610.165
MIN Energy consumption [J] (Stats structure),610.165
SUM Energy consumption [J] (Stats structure),610.165
# CALLTREE;init_0;Main-PWSCF_0;run-PWSCF_0;run-PWSCF-electrons_function_1;electrons-electrons_scf_function_0;c_bands_function_13;diag_bands_k_function_0
# Job info - HDEEM
JOB ID,17281896.14
Nodelist,taurusi5610
AVG Runtime of function [s],2.72741
MAX Runtime of function [s],2.72741
MIN Runtime of function [s],2.72741
# COUNTERS - HDEEM: 
AVG Energy consumption [J] (Stats structure),526.597
MAX Energy consumption [J] (Stats structure),526.597
MIN Energy consumption [J] (Stats structure),526.597
SUM Energy consumption [J] (Stats structure),526.597
# CALLTREE;init_0;Main-PWSCF_0;run-PWSCF_0;run-PWSCF-electrons_function_1;electrons-electrons_scf_function_0;c_bands_function_13;diag_bands_k_function_1
# Job info - HDEEM
JOB ID,17281896.14
Nodelist,taurusi5610
AVG Runtime of function [s],3.06042
MAX Runtime of function [s],3.06042
MIN Runtime of function [s],3.06042
# COUNTERS - HDEEM: 
AVG Energy consumption [J] (Stats structure),585.009
MAX Energy consumption [J] (Stats structure),585.009
MIN Energy consumption [J] (Stats structure),585.009
SUM Energy consumption [J] (Stats structure),585.009
# CALLTREE;init_0;Main-PWSCF_0;run-PWSCF_0;run-PWSCF-electrons_function_1;electrons-electrons_scf_function_0;c_bands_function_13;diag_bands_k_function_2
# Job info - HDEEM
JOB ID,17281896.14
Nodelist,taurusi5610
AVG Runtime of function [s],3.07329
MAX Runtime of function [s],3.07329
MIN Runtime of function [s],3.07329
# COUNTERS - HDEEM: 
AVG Energy consumption [J] (Stats structure),588.09
MAX Energy consumption [J] (Stats structure),588.09
MIN Energy consumption [J] (Stats structure),588.09
SUM Energy consumption [J] (Stats structure),588.09
# CALLTREE;init_0;Main-PWSCF_0;run-PWSCF_0;run-PWSCF-electrons_function_1;electrons-electrons_scf_function_0;c_bands_function_13;diag_bands_k_function_3
# Job info - HDEEM
JOB ID,17281896.14
Nodelist,taurusi5610
AVG Runtime of function [s],2.98839
MAX Runtime of function [s],2.98839
MIN Runtime of function [s],2.98839
# COUNTERS - HDEEM: 
AVG Energy consumption [J] (Stats structure),572.659
MAX Energy consumption [J] (Stats structure),572.659
MIN Energy consumption [J] (Stats structure),572.659
SUM Energy consumption [J] (Stats structure),572.659
# CALLTREE;init_0;Main-PWSCF_0;run-PWSCF_0;run-PWSCF-electrons_function_1;electrons-electrons_scf_function_0;c_bands_function_14;diag_bands_k_function_0
# Job info - HDEEM
JOB ID,17281896.14
Nodelist,taurusi5610
AVG Runtime of function [s],1.94272
MAX Runtime of function [s],1.94272
MIN Runtime of function [s],1.94272
# COUNTERS - HDEEM: 
AVG Energy consumption [J] (Stats structure),375.575
MAX Energy consumption [J] (Stats structure),375.575
MIN Energy consumption [J] (Stats structure),375.575
SUM Energy consumption [J] (Stats structure),375.575
# CALLTREE;init_0;Main-PWSCF_0;run-PWSCF_0;run-PWSCF-electrons_function_1;electrons-electrons_scf_function_0;c_bands_function_14;diag_bands_k_function_1
# Job info - HDEEM
JOB ID,17281896.14
Nodelist,taurusi5610
AVG Runtime of function [s],1.88042
MAX Runtime of function [s],1.88042
MIN Runtime of function [s],1.88042
# COUNTERS - HDEEM: 
AVG Energy consumption [J] (Stats structure),366.172
MAX Energy consumption [J] (Stats structure),366.172
MIN Energy consumption [J] (Stats structure),366.172
SUM Energy consumption [J] (Stats structure),366.172
# CALLTREE;init_0;Main-PWSCF_0;run-PWSCF_0;run-PWSCF-electrons_function_1;electrons-electrons_scf_function_0;c_bands_function_14;diag_bands_k_function_2
# Job info - HDEEM
JOB ID,17281896.14
Nodelist,taurusi5610
AVG Runtime of function [s],1.88263
MAX Runtime of function [s],1.88263
MIN Runtime of function [s],1.88263
# COUNTERS - HDEEM: 
AVG Energy consumption [J] (Stats structure),366.842
MAX Energy consumption [J] (Stats structure),366.842
MIN Energy consumption [J] (Stats structure),366.842
SUM Energy consumption [J] (Stats structure),366.842
# CALLTREE;init_0;Main-PWSCF_0;run-PWSCF_0;run-PWSCF-electrons_function_1;electrons-electrons_scf_function_0;c_bands_function_14;diag_bands_k_function_3
# Job info - HDEEM
JOB ID,17281896.14
Nodelist,taurusi5610
AVG Runtime of function [s],2.08226
MAX Runtime of function [s],2.08226
MIN Runtime of function [s],2.08226
# COUNTERS - HDEEM: 
AVG Energy consumption [J] (Stats structure),400.019
MAX Energy consumption [J] (Stats structure),400.019
MIN Energy consumption [J] (Stats structure),400.019
SUM Energy consumption [J] (Stats structure),400.019
# CALLTREE;init_0;Main-PWSCF_0;run-PWSCF_0;run-PWSCF-electrons_function_1;electrons-electrons_scf_function_0;c_bands_function_15;diag_bands_k_function_0
# Job info - HDEEM
JOB ID,17281896.14
Nodelist,taurusi5610
AVG Runtime of function [s],1.94715
MAX Runtime of function [s],1.94715
MIN Runtime of function [s],1.94715
# COUNTERS - HDEEM: 
AVG Energy consumption [J] (Stats structure),376.185
MAX Energy consumption [J] (Stats structure),376.185
MIN Energy consumption [J] (Stats structure),376.185
SUM Energy consumption [J] (Stats structure),376.185
# CALLTREE;init_0;Main-PWSCF_0;run-PWSCF_0;run-PWSCF-electrons_function_1;electrons-electrons_scf_function_0;c_bands_function_15;diag_bands_k_function_1
# Job info - HDEEM
JOB ID,17281896.14
Nodelist,taurusi5610
AVG Runtime of function [s],1.89323
MAX Runtime of function [s],1.89323
MIN Runtime of function [s],1.89323
# COUNTERS - HDEEM: 
AVG Energy consumption [J] (Stats structure),367.98
MAX Energy consumption [J] (Stats structure),367.98
MIN Energy consumption [J] (Stats structure),367.98
SUM Energy consumption [J] (Stats structure),367.98
# CALLTREE;init_0;Main-PWSCF_0;run-PWSCF_0;run-PWSCF-electrons_function_1;electrons-electrons_scf_function_0;c_bands_function_15;diag_bands_k_function_2
# Job info - HDEEM
JOB ID,17281896.14
Nodelist,taurusi5610
AVG Runtime of function [s],1.87642
MAX Runtime of function [s],1.87642
MIN Runtime of function [s],1.87642
# COUNTERS - HDEEM: 
AVG Energy consumption [J] (Stats structure),365.919
MAX Energy consumption [J] (Stats structure),365.919
MIN Energy consumption [J] (Stats structure),365.919
SUM Energy consumption [J] (Stats structure),365.919
# CALLTREE;init_0;Main-PWSCF_0;run-PWSCF_0;run-PWSCF-electrons_function_1;electrons-electrons_scf_function_0;c_bands_function_15;diag_bands_k_function_3
# Job info - HDEEM
JOB ID,17281896.14
Nodelist,taurusi5610
AVG Runtime of function [s],1.86978
MAX Runtime of function [s],1.86978
MIN Runtime of function [s],1.86978
# COUNTERS - HDEEM: 
AVG Energy consumption [J] (Stats structure),364.876
MAX Energy consumption [J] (Stats structure),364.876
MIN Energy consumption [J] (Stats structure),364.876
SUM Energy consumption [J] (Stats structure),364.876
